Module3/data/exp3/2_Module2square_20kHz_OP97F.csv

#Digilent WaveForms Oscilloscope Acquisition
#Device Name: Discovery2
#Serial Number: SN:210321AC1D4D
#Date Time: 2020-11-19 16:30:03.423
#Sample rate: 1.42857e+07Hz
#Samples: 8192
#Trigger: Source: Channel 1 Type: Edge Condition: Rising Level: 0 V Hyst.: Auto HoldOff: 0 s
#Channel 1: Range: 500 mV/div Offset: 0 V Attenuation: 1 X
#Channel 2: Range: 500 mV/div Offset: 0 V Attenuation: 1 X
#Wavegen Channel 1: Running
#Mode: Simple
#Type: Square
#Frequency: 20 kHz
#Period: 50 us
#Amplitude: 1 V
#Offset: 0 V
#Symmetry: 50 %
#Phase: 0 ¡Æ
#Power Supplies: ON
#Positive Supply: ON
#Voltage: 5 V
#Negative Supply: ON
#Voltage: -5 V

Time (s),Channel 1 (V),Channel 2 (V)
-0.0001940684185937865,0.9880227425454916,0.1660697965571427
-0.0001939984185937865,0.9873350365985833,0.1764370259923277
-0.0001939284185937865,0.9883665955189453,0.1868042554275171
-0.0001938584185937865,0.9873350365985833,0.1964803362336853
-0.0001937884185937865,0.9883665955189458,0.2058108427253518
-0.0001937184185937865,0.9887104484923995,0.2158324978460348
-0.0001936484185937865,0.9880227425454916,0.225163004337697
-0.0001935784185937865,0.9883665955189458,0.2351846594583759
-0.0001935084185937865,0.9887104484923999,0.244860740264553
-0.0001934384185937865,0.9887104484923999,0.2548823953852273
-0.0001933684185937865,0.9893981544393081,0.2645584761913999
-0.0001932984185937865,0.9900858603862162,0.2738889826830705
-0.0001932284185937865,0.9893981544393081,0.2828739148602267
-0.0001931584185937865,0.9900858603862165,0.2935867186099178
-0.0001930884185937865,0.9900858603862166,0.3025716507870828
-0.0001930184185937865,0.9904297133596706,0.3129388802222631
-0.0001929484185937865,0.9900858603862165,0.3222693867139295
-0.0001928784185937865,0.9918051252534871,0.3319454675201067
-0.0001928084185937865,0.9914612722800331,0.3419671226407764
-0.0001927384185937865,0.9921489782269413,0.3506064805034351
-0.0001926684185937865,0.9914612722800337,0.3620104328821428
-0.0001925984185937865,0.992836684173849,0.3713409393738008
-0.0001925284185937865,0.9931805371473037,0.3803258715509654
-0.0001924584185937865,0.991461272280033,0.3893108037281313
-0.0001923884185937865,0.991461272280033,0.401751479050342
-0.0001923184185937865,0.9935243901207579,0.4103908369130018
-0.0001922484185937865,0.9935243901207572,0.4204124920336853
-0.0001921784185937865,0.9921489782269419,0.4307797214688608
-0.0001921084185937865,0.9931805371473037,0.4411469509040505
-0.0001920384185937865,0.9938682430942117,0.4518597546537462
-0.0001919684185937865,0.993180537147304,0.4618814097744159
-0.0001918984185937865,0.9942120960676661,0.4732853621531239
-0.0001918284185937865,0.9931805371473034,0.4822702943302893
-0.0001917584185937865,0.9924928312003958,0.4936742467089825
-0.0001916884185937865,0.9928366841738496,0.5040414761441726
-0.0001916184185937865,0.993180537147304,0.5133719826358444
-0.0001915484185937865,0.9938682430942117,0.5251215093290433
-0.0001914784185937865,0.9935243901207579,0.5351431644497275
-0.0001914084185937865,0.99283668417385,0.5465471168284356
-0.0001913384185937865,0.9935243901207576,0.5569143462636112
-0.0001912684185937865,0.9935243901207579,0.5686638729568255
-0.0001911984185937865,0.9938682430942127,0.5797222510210283
-0.0001911284185937865,0.9952436549880279,0.5914717777142272
-0.0001910584185937865,0.9942120960676661,0.5997655612623805
-0.0001909884185937865,0.9942120960676665,0.6080593448105318
-0.0001909184185937865,0.9948998020145742,0.6153164054151546
-0.0001908484185937865,0.9931805371473037,0.6208455944472566
-0.0001907784185937865,0.9948998020145741,0.6260292091648508
-0.0001907084185937865,0.9938682430942125,0.6298305266244151
-0.0001906384185937865,0.9942120960676661,0.63224954682596
-0.0001905684185937865,0.9952436549880285,0.6339774183984913
-0.0001904984185937865,0.9948998020145746,0.635014141342009
-0.0001904284185937865,0.9948998020145745,0.636396438600034
-0.0001903584185937865,0.9955875079614828,0.63950660743059
-0.0001902884185937865,0.9955875079614828,0.6405433303741076
-0.0001902184185937865,0.9948998020145745,0.6436534992046635
-0.0001901484185937865,0.994899802014575,0.6478003909787398
-0.0001900784185937865,0.9959313609349364,0.6526384313818215
-0.0001900084185937865,0.9952436549880286,0.6578220460994163
-0.0001899384185937865,0.9952436549880286,0.6636968094460211
-0.0001898684185937865,0.9955875079614827,0.6688804241636113
-0.0001897984185937865,0.9955875079614828,0.6751007618247246
-0.0001897284185937865,0.9959313609349368,0.6806299508568232
-0.0001896584185937865,0.9966190668818449,0.6871958628324374
-0.0001895884185937865,0.9966190668818452,0.6937617748080575
-0.0001895184185937865,0.9959313609349368,0.69894538952565
-0.0001894484185937865,0.9959313609349368,0.7051657271867582
-0.0001893784185937865,0.996275213908391,0.7117316391623781
-0.0001893084185937865,0.996275213908391,0.7186431254525014
-0.0001892384185937865,0.9955875079614831,0.7248634631136096
-0.0001891684185937865,0.9955875079614828,0.7314293750892296
-0.0001890984185937865,0.9938682430942121,0.7379952870648467
-0.0001890284185937865,0.9959313609349359,0.7449067733549669
-0.0001889584185937865,0.996275213908391,0.7507815367015748
-0.0001888884185937865,0.9959313609349368,0.7570018743626858
-0.0001888184185937865,0.9955875079614829,0.7642589349673119
-0.0001887484185937865,0.9955875079614828,0.7690969753704016
-0.0001886784185937865,0.9952436549880286,0.776008461660525
-0.0001886084185937865,0.9955875079614827,0.7829199479506451
-0.0001885384185937865,0.9959313609349368,0.7894858599262654
-0.0001884684185937865,0.9959313609349368,0.7957061975873764
-0.0001883984185937865,0.994899802014575,0.8033088325065085
-0.0001883284185937865,0.9952436549880286,0.8095291701676229
-0.0001882584185937865,0.9952436549880286,0.8157495078287339
-0.0001881884185937865,0.9962752139083906,0.8219698454898422
-0.0001881184185937865,0.996275213908391,0.8288813317799683
-0.0001880484185937865,0.996275213908391,0.8364839666991039
-0.0001879784185937865,0.996275213908391,0.841322007102188
-0.0001879084185937865,0.9966190668818452,0.8482334933923135
-0.0001878384185937865,0.996275213908391,0.8547994053679306
-0.0001877684185937865,0.9966190668818451,0.8617108916580508
-0.0001876984185937865,0.9959313609349368,0.8686223779481773
-0.0001876284185937865,0.9969629198552993,0.8751882899237944
-0.0001875584185937865,0.9973067728287534,0.8814086275849026
-0.0001874884185937865,0.9955875079614828,0.8890112625040411
-0.0001874184185937865,0.9966190668818452,0.895231600165152
-0.0001873484185937865,0.9955875079614832,0.9021430864552722
-0.0001872784185937865,0.996275213908391,0.9094001470599048
-0.0001872084185937865,0.996275213908391,0.9142381874629911
-0.0001871384185937865,0.9969629198552989,0.9211496737531113
-0.0001870684185937865,0.9969629198552993,0.9270244370997193
-0.0001869984185937865,0.9983383317491159,0.9335903490753364
-0.0001869284185937865,0.9973067728287539,0.9401562610509505
-0.0001868584185937865,0.9973067728287535,0.947413321655583
-0.0001867884185937865,0.99868218472257,0.953633659316694
-0.0001867184185937865,0.9979944787756621,0.9608907199213201
-0.0001866484185937865,0.9976506258022076,0.9674566318969406
-0.0001865784185937865,0.9979944787756617,0.9740225438725577
-0.0001865084185937865,0.9983383317491158,0.9812796044771839
-0.0001864384185937865,0.9976506258022076,0.9864632191947798
-0.0001863684185937865,0.9966190668818452,0.9940658541139153
-0.0001862984185937865,0.9976506258022072,0.9995950431460114
-0.0001862284185937865,0.9983383317491159,1.006506529436137
-0.0001861584185937865,0.9973067728287535,1.012726867097248
-0.0001860884185937865,0.9976506258022075,1.019983927701875
-0.0001860184185937865,0.99868218472257,1.025858691048483
-0.0001859484185937865,0.9983383317491159,1.032770177338606
-0.0001858784185937865,0.9979944787756618,1.038299366370702
-0.0001858084185937865,0.9966190668818452,1.045210852660828
-0.0001857384185937865,0.9983383317491159,1.052813487579964
-0.0001856684185937865,0.996619066881846,1.057997102297554
-0.0001855984185937865,0.9969629198552993,1.064563014273173
-0.0001855284185937865,0.9966190668818452,1.070092203305272
-0.0001854584185937865,0.997306772828753,1.077349263909903
-0.0001853884185937865,0.996275213908391,1.082187304312987
-0.0001853184185937865,0.9959313609349368,1.088753216288605
-0.0001852484185937865,0.9948998020145752,1.093591256691693
-0.0001851784185937865,0.996275213908391,1.098083722780271
-0.0001851084185937865,0.996275213908391,1.101885040239839
-0.0001850384185937865,0.9966190668818456,1.106031932013914
-0.0001849684185937865,0.9976506258022076,1.109142100844468
-0.0001848984185937865,0.9966190668818452,1.112252269675024
-0.0001848284185937865,0.9976506258022076,1.115016864191075
-0.0001847584185937865,0.9976506258022076,1.118127033021629
-0.0001846884185937865,0.9969629198552993,1.11259784398953
-0.0001846184185937865,0.9976506258022078,1.077694838224392
-0.0001845484185937865,0.9979944787756617,1.042791832459285
-0.0001844784185937865,0.9983383317491159,1.025513116733976
-0.0001844084185937865,0.9990260376960242,1.013418015726259
-0.0001843384185937865,0.9990260376960242,1.009616698266693
-0.0001842684185937865,0.9990260376960242,1.012381292782742
-0.0001841984185937865,0.9973067728287542,1.019983927701882
-0.0001841284185937865,0.9990260376960242,1.028277711250026
-0.0001840584185937865,0.9983383317491159,1.036225920483667
-0.0001839884185937865,0.9976506258022078,1.043828555402807
-0.0001839184185937865,0.9979944787756617,1.051776764636445
-0.0001838484185937865,0.9983383317491159,1.058342676612062
-0.0001837784185937865,0.9997137436429328,1.063526291329656
-0.0001837084185937865,1.000401449589841,1.066982034474716
-0.0001836384185937865,1.000057596616387,1.069746628990766
-0.0001835684185937865,1.000745302563294,1.069746628990765
-0.0001834984185937865,0.9983383317491159,1.068709906047247
-0.0001834284185937865,0.9993698906694783,1.067673183103729
-0.0001833584185937865,1.001433008510203,1.066636460160209
-0.0001832884185937865,1.001776861483658,1.063180717015148
-0.0001832184185937865,1.001776861483658,1.061452845442618
-0.0001831484185937865,1.001433008510203,1.059724973870087
-0.0001830784185937865,1.000401449589841,1.059724973870087
-0.0001830084185937865,1.001776861483658,1.059724973870087
-0.0001829384185937865,1.001433008510203,1.060070548184593
-0.0001828684185937865,1.000401449589841,1.060070548184593
-0.0001827984185937865,1.000401449589841,1.061452845442618
-0.0001827284185937865,1.000401449589841,1.06214399407163
-0.0001826584185937865,1.000745302563295,1.062835142700642
-0.0001825884185937865,1.000401449589841,1.063526291329655
-0.0001825184185937865,1.000401449589841,1.063526291329654
-0.0001824484185937865,1.000745302563295,1.063180717015148
-0.0001823784185937865,1.000057596616387,1.062835142700642
-0.0001823084185937865,1.001089155536749,1.06387186564416
-0.0001822384185937865,1.001089155536749,1.062835142700642
-0.0001821684185937865,1.002120714457112,1.062835142700642
-0.0001820984185937865,1.002464567430565,1.062489568386136
-0.0001820284185937865,1.001433008510203,1.06214399407163
-0.0001819584185937865,1.002120714457112,1.062489568386136
-0.0001818884185937865,1.00280842040402,1.063180717015149
-0.0001818184185937865,1.003152273377474,1.064217439958667
-0.0001817484185937865,1.001776861483658,1.063180717015148
-0.0001816784185937865,1.002464567430566,1.063180717015149
-0.0001816084185937865,1.003496126350928,1.063871865644161
-0.0001815384185937865,1.00280842040402,1.063180717015148
-0.0001814684185937865,1.004183832297836,1.063871865644161
-0.0001813984185937865,1.003496126350928,1.063526291329655
-0.0001813284185937865,1.004183832297836,1.064563014273173
-0.0001812584185937865,1.00452768527129,1.064908588587679
-0.0001811884185937865,1.003839979324382,1.064908588587679
-0.0001811184185937865,1.004183832297836,1.065599737216692
-0.0001810484185937865,1.003839979324382,1.065945311531197
-0.0001809784185937865,1.004183832297836,1.064563014273174
-0.0001809084185937865,1.003839979324382,1.065599737216692
-0.0001808384185937865,1.003839979324382,1.064217439958667
-0.0001807684185937865,1.003496126350928,1.065254162902185
-0.0001806984185937865,1.004183832297836,1.065599737216692
-0.0001806284185937865,1.004183832297836,1.065254162902185
-0.0001805584185937865,1.003496126350928,1.064563014273173
-0.0001804884185937865,1.002120714457112,1.065599737216692
-0.0001804184185937865,1.003152273377474,1.065945311531198
-0.0001803484185937865,1.004183832297836,1.065599737216692
-0.0001802784185937865,1.004871538244745,1.065599737216692
-0.0001802084185937865,1.005215391218198,1.063526291329655
-0.0001801384185937865,1.003839979324383,1.064217439958667
-0.0001800684185937865,1.003496126350928,1.063180717015148
-0.0001799984185937865,1.004183832297838,1.063871865644161
-0.0001799284185937865,1.006590803112014,1.064908588587679
-0.0001798584185937865,1.005559244191653,1.064563014273173
-0.0001797884185937865,1.003496126350929,1.063871865644161
-0.0001797184185937865,1.005903097165106,1.065254162902185
-0.0001796484185937865,1.005903097165107,1.065254162902185
-0.0001795784185937865,1.006590803112015,1.065254162902186
-0.0001795084185937865,1.005903097165107,1.065945311531198
-0.0001794384185937865,1.005559244191653,1.064908588587679
-0.0001793684185937865,1.006246950138562,1.065254162902185
-0.0001792984185937865,1.006590803112015,1.065254162902185
-0.0001792284185937865,1.007622362032378,1.065599737216692
-0.0001791584185937865,1.006590803112016,1.064563014273173
-0.0001790884185937865,1.007278509058924,1.064908588587679
-0.0001790184185937865,1.006246950138561,1.064908588587679
-0.0001789484185937865,1.006246950138561,1.064908588587679
-0.0001788784185937865,1.006246950138561,1.064908588587679
-0.0001788084185937865,1.006590803112015,1.065599737216692
-0.0001787384185937865,1.006246950138562,1.064908588587679
-0.0001786684185937865,1.006590803112015,1.063526291329655
-0.0001785984185937865,1.005903097165107,1.064563014273173
-0.0001785284185937865,1.004871538244745,1.063871865644161
-0.0001784584185937865,1.005559244191653,1.064217439958667
-0.0001783884185937865,1.006590803112015,1.064217439958667
-0.0001783184185937865,1.006246950138561,1.064217439958667
-0.0001782484185937865,1.006246950138561,1.063180717015149
-0.0001781784185937865,1.006246950138561,1.064217439958667
-0.0001781084185937865,1.005559244191653,1.064217439958667
-0.0001780384185937865,1.006590803112015,1.064217439958667
-0.0001779684185937865,1.006590803112015,1.064908588587679
-0.0001778984185937865,1.00693465608547,1.063871865644161
-0.0001778284185937865,1.00693465608547,1.063526291329655
-0.0001777584185937865,1.007966215005832,1.063526291329655
-0.0001776884185937865,1.006246950138561,1.063180717015148
-0.0001776184185937865,1.008310067979285,1.063180717015148
-0.0001775484185937865,1.007622362032378,1.063180717015148
-0.0001774784185937865,1.007622362032378,1.062835142700642
-0.0001774084185937865,1.007278509058924,1.063526291329654
-0.0001773384185937865,1.007966215005832,1.064563014273173
-0.0001772684185937865,1.008310067979286,1.063526291329655
-0.0001771984185937865,1.00865392095274,1.064563014273173
-0.0001771284185937865,1.00865392095274,1.062835142700642
-0.0001770584185937865,1.008310067979286,1.063180717015148
-0.0001769884185937865,1.007622362032378,1.063526291329654
-0.0001769184185937865,1.008310067979286,1.063871865644161
-0.0001768484185937865,1.007966215005832,1.064217439958667
-0.0001767784185937865,1.007966215005832,1.064217439958667
-0.0001767084185937865,1.008997773926194,1.064217439958667
-0.0001766384185937865,1.008997773926194,1.064563014273173
-0.0001765684185937865,1.009341626899648,1.063871865644161
-0.0001764984185937865,1.008997773926194,1.064217439958667
-0.0001764284185937865,1.010373185820011,1.064908588587679
-0.0001763584185937865,1.008997773926195,1.063871865644161
-0.0001762884185937865,1.008997773926194,1.064217439958667
-0.0001762184185937865,1.009341626899649,1.064217439958667
-0.0001761484185937865,1.008997773926195,1.063871865644161
-0.0001760784185937865,1.00865392095274,1.063180717015148
-0.0001760084185937865,1.009341626899649,1.064563014273173
-0.0001759384185937865,1.008310067979287,1.064217439958667
-0.0001758684185937865,1.00865392095274,1.064563014273173
-0.0001757984185937865,1.009341626899649,1.064217439958667
-0.0001757284185937865,1.008997773926195,1.064908588587679
-0.0001756584185937865,1.008310067979286,1.065254162902185
-0.0001755884185937865,1.009341626899649,1.064563014273173
-0.0001755184185937865,1.010029332846557,1.063871865644161
-0.0001754484185937865,1.009685479873103,1.064563014273173
-0.0001753784185937865,1.009341626899649,1.064217439958667
-0.0001753084185937865,1.010029332846557,1.064908588587679
-0.0001752384185937865,1.009341626899649,1.065254162902185
-0.0001751684185937865,1.00865392095274,1.064563014273173
-0.0001750984185937865,1.009341626899648,1.064908588587679
-0.0001750284185937865,0.5953426468608601,1.054886933467001
-0.0001749584185937865,-0.8770357854697806,0.9819707531061995
-0.0001748884185937865,-0.9774408537183448,0.9671110575824412
-0.0001748184185937865,-0.9822547953467484,0.9214952480676206
-0.0001747484185937865,-0.9853494721078356,0.8914302827055842
-0.0001746784185937865,-0.9874125899485596,0.8662033577466456
-0.0001746084185937865,-0.9905072667096478,0.8378662639571285
-0.0001745384185937865,-0.9918826786034644,0.8095291701676229
-0.0001744684185937865,-0.9932580904972803,0.7832655222651663
-0.0001743984185937865,-0.9939457964441892,0.7583841716207105
-0.0001743284185937865,-0.9966966202318224,0.7348851182342913
-0.0001742584185937865,-0.9970404732052764,0.7134595107349188
-0.0001741884185937865,-0.9984158850990931,0.6923794775500328
-0.0001741184185937865,-0.9987597380725473,0.6744096131957122
-0.0001740484185937865,-0.9997912969929093,0.6567853231559058
-0.0001739784185937865,-0.9997912969929097,0.6398521817450957
-0.0001739084185937865,-1.000479002939818,0.6229190403342936
-0.0001738384185937865,-1.000479002939818,0.6077137704960291
-0.0001737684185937865,-1.000479002939818,0.5931996492867633
-0.0001736984185937865,-1.000479002939818,0.5779943794484921
-0.0001736284185937865,-1.00151056186018,0.563480258239227
-0.0001735584185937865,-1.000135149966364,0.5500028599734926
-0.0001734884185937865,-0.9997912969929097,0.5358343130787399
-0.0001734184185937865,-1.000135149966364,0.5220113404984872
-0.0001733484185937865,-1.000479002939818,0.5088795165472589
-0.0001732784185937865,-1.000135149966364,0.4957476925960246
-0.0001732084185937865,-1.00151056186018,0.4819247200157717
-0.0001731384185937865,-1.001166708886726,0.4681017474355314
-0.0001730684185937865,-1.00151056186018,0.4556610721133094
-0.0001729984185937865,-1.00151056186018,0.4421836738475631
-0.0001729284185937865,-1.000822855913272,0.4293974242108409
-0.0001728584185937865,-1.001166708886726,0.4162656002596066
-0.0001727884185937865,-1.001166708886726,0.4034793506228726
-0.0001727184185937865,-0.9997912969929097,0.3906931009861503
-0.0001726484185937865,-1.000822855913272,0.3768701284059037
-0.0001725784185937865,-0.9987597380725469,0.3640838787691698
-0.0001725084185937865,-0.998072032125639,0.3512976291324474
-0.0001724384185937865,-0.9994474440194555,0.3388569538102255
-0.0001723684185937865,-0.9987597380725474,0.3257251298589854
-0.0001722984185937865,-0.9991035910460013,0.3129388802222631
-0.0001722284185937865,-0.9984158850990931,0.2994614819565226
-0.0001721584185937865,-0.9973843261787305,0.2866752323197886
-0.0001720884185937865,-0.9970404732052766,0.2738889826830664
-0.0001720184185937865,-0.9966966202318224,0.2614483073608444
-0.0001719484185937865,-0.9966966202318224,0.2479709090950981
-0.0001718784185937865,-0.9966966202318224,0.2351846594583759
-0.0001718084185937865,-0.9960089142849141,0.22308955845066
-0.0001717384185937865,-0.9963527672583677,0.2103033088139263
-0.0001716684185937865,-0.9953212083380059,0.19786263349171
-0.0001715984185937865,-0.9939457964441892,0.1840396609114633
