Module3/data/exp3/3_Module2sine_1kHz_1kOhm_OP97F.csv

#Digilent WaveForms Oscilloscope Acquisition
#Device Name: Discovery2
#Serial Number: SN:210321AC1D4D
#Date Time: 2020-11-19 16:40:04.426
#Sample rate: 7.69231e+06Hz
#Samples: 8192
#Trigger: Source: Channel 1 Type: Edge Condition: Rising Level: 0 V Hyst.: Auto HoldOff: 0 s
#Channel 1: Range: 500 mV/div Offset: 0 V Attenuation: 1 X
#Channel 2: Range: 500 mV/div Offset: 0 V Attenuation: 1 X
#Wavegen Channel 1: Running
#Mode: Simple
#Type: Sine
#Frequency: 1 kHz
#Period: 1 ms
#Amplitude: 2 V
#Offset: 0 V
#Symmetry: 50 %
#Phase: 0 ¡Æ
#Power Supplies: ON
#Positive Supply: ON
#Voltage: 5 V
#Negative Supply: ON
#Voltage: -5 V

Time (s),Channel 1 (V),Channel 2 (V)
-0.0005959633333333333,0.5472032305772802,0.5358343130787399
-0.0005958333333333333,0.5454839657100095,0.5344520158207152
-0.0005957033333333333,0.5451401127365553,0.5344520158207152
-0.0005955733333333333,0.5447962597631011,0.5334152928771967
-0.0005954433333333333,0.5441085538161932,0.5327241442481847
-0.0005953133333333334,0.5434208478692849,0.5316874213046663
-0.0005951833333333333,0.542389288948922,0.5306506983611471
-0.0005950533333333333,0.5420454359754678,0.5299595497321347
-0.0005949233333333333,0.5417015830020139,0.5292684011031227
-0.0005947933333333333,0.5410138770551056,0.5285772524741104
-0.0005946633333333333,0.5399823181347432,0.5282316781596043
-0.0005945333333333333,0.5389507592143807,0.5271949552160857
-0.0005944033333333333,0.5382630532674724,0.5261582322725672
-0.0005942733333333334,0.5382630532674724,0.5254670836435552
-0.0005941433333333334,0.5375753473205644,0.5244303607000368
-0.0005940133333333333,0.5368876413736555,0.5244303607000367
-0.0005938833333333333,0.5361999354267476,0.5251215093290487
-0.0005937533333333333,0.5358560824532934,0.5233936377565179
-0.0005936233333333333,0.534824523532931,0.5227024891275056
-0.0005934933333333333,0.5334491116391145,0.5223569148129994
-0.0005933633333333333,0.5327614056922061,0.5216657661839871
-0.0005932333333333334,0.5327614056922061,0.520629043240469
-0.0005931033333333334,0.5320736997452982,0.5202834689259626
-0.0005929733333333333,0.5306982878514813,0.5192467459824432
-0.0005928433333333333,0.5306982878514812,0.5178644487244188
-0.0005927133333333333,0.5303544348780271,0.5168277257809007
-0.0005925833333333333,0.5289790229842105,0.5161365771518884
-0.0005924533333333333,0.5282913170373023,0.5161365771518884
-0.0005923233333333333,0.527603611090394,0.5161365771518884
-0.0005921933333333333,0.526572052170032,0.5147542798938645
-0.0005920633333333334,0.5255404932496696,0.5140631312648517
-0.0005919333333333333,0.5248527873027604,0.5137175569503449
-0.0005918033333333333,0.5238212283823983,0.5130264083213325
-0.0005916733333333333,0.5234773754089442,0.5119896853778144
-0.0005915433333333333,0.5231335224354902,0.5106073881197898
-0.0005914133333333333,0.5210704045947653,0.5102618138052836
-0.0005912833333333333,0.5196949927009487,0.5102618138052836
-0.0005911533333333333,0.5193511397274946,0.5092250908617652
-0.0005910233333333334,0.5183195808071326,0.5085339422327531
-0.0005908933333333333,0.5169441689133152,0.5078427936037405
-0.0005907633333333333,0.5162564629664071,0.5081883679182457
-0.0005906333333333333,0.5159126099929531,0.5061149220312096
-0.0005905033333333333,0.5145371980991366,0.5050781990876911
-0.0005903733333333333,0.5138494921522283,0.5043870504586788
-0.0005902433333333333,0.5135056391787741,0.5036959018296665
-0.0005901133333333333,0.5135056391787741,0.5030047532006541
-0.0005899833333333334,0.5124740802584121,0.5030047532006541
-0.0005898533333333334,0.5121302272849576,0.5019680302571361
-0.0005897233333333333,0.5117863743115034,0.5023136045716414
-0.0005895933333333333,0.5117863743115033,0.5016224559426291
-0.0005894633333333333,0.5114425213380492,0.5009313073136171
-0.0005893333333333333,0.510754815391141,0.5002401586846048
-0.0005892033333333333,0.510754815391141,0.4998945843700986
-0.0005890733333333333,0.5097232564707785,0.4988578614265801
-0.0005889433333333333,0.5086916975504165,0.4974755641685561
-0.0005888133333333334,0.508347844576962,0.4974755641685555
-0.0005886833333333333,0.507660138630053,0.4967844155395427
-0.0005885533333333333,0.506284726736237,0.4957476925960243
-0.0005884233333333333,0.505940873762783,0.4950565439670123
-0.0005882933333333333,0.5055970207893288,0.4936742467089876
-0.0005881633333333333,0.5049093148424205,0.4933286723944815
-0.0005880333333333333,0.5045654618689664,0.4929830980799753
-0.0005879033333333333,0.5031900499751505,0.4922919494509633
-0.0005877733333333334,0.5025023440282419,0.491600800821951
-0.0005876433333333333,0.5018146380813329,0.490909652192938
-0.0005875133333333333,0.5011269321344245,0.4902185035639255
-0.0005873833333333333,0.5000953732140625,0.4891817806204075
-0.0005872533333333333,0.4994076672671542,0.4891817806204075
-0.0005871233333333333,0.498719961320246,0.4877994833623828
-0.0005869933333333333,0.4976884023998835,0.486071611789852
-0.0005868633333333333,0.4973445494264294,0.4864171861043582
-0.0005867333333333334,0.4963129905060674,0.4846893145318281
-0.0005866033333333334,0.495625284559159,0.4839981659028154
-0.0005864733333333333,0.4949375786122502,0.4826158686447903
-0.0005863433333333333,0.4945937256387962,0.4826158686447903
-0.0005862133333333333,0.4952814315857045,0.4812335713867657
-0.0005860833333333333,0.4942498726653421,0.4815791457012719
-0.0005859533333333333,0.493906019691888,0.4812335713867657
-0.0005858233333333333,0.4935621667184338,0.4808879970722595
-0.0005856933333333334,0.4932183137449798,0.4798512741287415
-0.0005855633333333334,0.4918429018511637,0.479160125499729
-0.0005854333333333333,0.4911551959042542,0.4781234025562099
-0.0005853033333333333,0.4897797840104378,0.4774322539271972
-0.0005851733333333333,0.4887482250900758,0.4760499566691732
-0.0005850433333333333,0.4884043721166217,0.4757043823546671
-0.0005849133333333333,0.4880605191431675,0.4750132337256547
-0.0005847833333333333,0.4880605191431675,0.4743220850966424
-0.0005846533333333333,0.4873728131962596,0.4732853621531243
-0.0005845233333333334,0.4866851072493513,0.4725942135241119
-0.0005843933333333333,0.4859974013024421,0.4715574905805927
-0.0005842633333333333,0.4846219894086258,0.4708663419515807
-0.0005841333333333333,0.4839342834617178,0.4708663419515807
-0.0005840033333333333,0.4829027245413554,0.4701751933225684
-0.0005838733333333333,0.481871165620993,0.4694840446935561
-0.0005837433333333333,0.481871165620993,0.4691384703790499
-0.0005836133333333333,0.481527312647539,0.4670650244920139
-0.0005834833333333334,0.4804957537271768,0.4667194501775069
-0.0005833533333333333,0.4794641948068136,0.4656827272339881
-0.0005832233333333333,0.4787764888599052,0.4653371529194817
-0.0005830933333333333,0.4777449299395433,0.4646460042904698
-0.0005829633333333333,0.4767133710191808,0.4646460042904698
-0.0005828333333333333,0.4760256650722725,0.4629181327179389
-0.0005827033333333333,0.4749941061519101,0.4625725584034328
-0.0005825733333333333,0.4743064002050018,0.4622269840889266
-0.0005824433333333334,0.4743064002050018,0.4615358354599146
-0.0005823133333333334,0.4732748412846398,0.4601535382018902
-0.0005821833333333333,0.4729309883111848,0.4587712409438648
-0.0005820533333333333,0.4718994293908228,0.4584256666293587
-0.0005819233333333333,0.4708678704704604,0.4580800923148526
-0.0005817933333333333,0.4701801645235521,0.4577345180003464
-0.0005816633333333333,0.4691486056031897,0.4570433693713341
-0.0005815333333333333,0.4684608996562813,0.4566977950568279
-0.0005814033333333334,0.4677731937093734,0.456006646427816
-0.0005812733333333334,0.4663977818155571,0.4553154977988036
-0.0005811433333333333,0.4657100758686482,0.4539332005407783
-0.0005810133333333333,0.4657100758686476,0.453242051911766
-0.0005808833333333333,0.4643346639748316,0.4525509032827539
-0.0005807533333333333,0.4639908110013775,0.4522053289682478
-0.0005806233333333333,0.4636469580279234,0.4511686060247293
-0.0005804933333333333,0.4626153991075609,0.4508230317102231
-0.0005803633333333333,0.461927693160653,0.4497863087667051
-0.0005802333333333334,0.4608961342402907,0.4487495858231866
-0.0005801033333333333,0.4598645753199278,0.4480584371941737
-0.0005799733333333333,0.4598645753199275,0.4477128628796667
-0.0005798433333333333,0.4591768693730195,0.4456394169926307
-0.0005797133333333333,0.4581453104526571,0.4452938426781245
-0.0005795833333333333,0.4571137515322947,0.4449482683636183
-0.0005794533333333333,0.4560821926119322,0.4449482683636183
-0.0005793233333333333,0.4557383396384781,0.4435659711055936
-0.0005791933333333334,0.4550506336915701,0.4435659711055936
-0.0005790633333333333,0.454019074771207,0.4414925252185563
-0.0005789333333333333,0.4533313688242985,0.4408013765895443
-0.0005788033333333333,0.4519559569304825,0.4408013765895443
-0.0005786733333333333,0.4512682509835742,0.440110227960532
-0.0005785433333333333,0.4509243980101201,0.4390735050170135
-0.0005784133333333333,0.4502366920632118,0.4383823563880012
-0.0005782833333333333,0.4498928390897576,0.4373456334444827
-0.0005781533333333334,0.4495489861163037,0.4366544848154706
-0.0005780233333333334,0.4495489861163035,0.4356177618719523
-0.0005778933333333333,0.448861280169395,0.4356177618719517
-0.0005777633333333333,0.4485174271959406,0.4352721875574455
-0.0005776333333333333,0.4474858682755786,0.4349266132429395
-0.0005775033333333333,0.4471420153021245,0.4335443159849148
-0.0005773733333333333,0.4457666034083079,0.4325075930413964
-0.0005772433333333333,0.4454227504348538,0.4325075930413964
-0.0005771133333333333,0.4454227504348538,0.4307797214688663
-0.0005769833333333334,0.4447350444879458,0.4300885728398535
-0.0005768533333333333,0.444391191514491,0.4297429985253463
-0.0005767233333333333,0.4437034855675824,0.4280151269528158
-0.0005765933333333333,0.4423280736737665,0.4273239783238039
-0.0005764633333333333,0.4412965147534041,0.4273239783238039
-0.0005763333333333333,0.4406088088064958,0.4269784040092977
-0.0005762033333333333,0.4395772498861333,0.4259416810657792
-0.0005760733333333333,0.4388895439392254,0.4255961067512732
-0.0005759433333333334,0.4382018379923171,0.424213809493249
-0.0005758133333333333,0.4375141320454083,0.4238682351787416
-0.0005756833333333333,0.437170279071954,0.4224859379207174
-0.0005755533333333333,0.4364825731250461,0.4221403636062114
-0.0005754233333333333,0.4364825731250461,0.4207580663481867
-0.0005752933333333333,0.4354510142046836,0.4211036406626929
-0.0005751633333333333,0.4347633082577754,0.4193757690901621
-0.0005750333333333333,0.4340756023108671,0.4190301947756559
-0.0005749033333333334,0.4337317493374131,0.4186846204611499
-0.0005747733333333333,0.4320124844701417,0.4179934718321368
-0.0005746433333333333,0.4309809255497793,0.4166111745741126
-0.0005745133333333333,0.4299493666294174,0.4162656002596066
-0.0005743833333333333,0.4289178077090549,0.4148833030015819
-0.0005742533333333333,0.4289178077090549,0.4141921543725696
-0.0005741233333333333,0.4278862487886925,0.4138465800580634
-0.0005739933333333333,0.4275423958152383,0.4138465800580634
-0.0005738633333333334,0.4265108368948763,0.4131554314290514
-0.0005737333333333334,0.425823130947968,0.4124642828000391
-0.0005736033333333333,0.4258231309479672,0.4117731341710261
-0.0005734733333333333,0.4247915720276048,0.4110819855420138
-0.0005733433333333333,0.4237600131072428,0.4103908369130018
-0.0005732133333333333,0.4227284541868803,0.4100452625984956
-0.0005730833333333333,0.4220407482399721,0.4090085396549771
-0.0005729533333333333,0.4213530422930638,0.4086629653404709
-0.0005728233333333333,0.4203214833727018,0.4072806680824469
-0.0005726933333333334,0.4199776303992473,0.4062439451389282
-0.0005725633333333333,0.4196337774257929,0.4052072221954089
-0.0005724333333333333,0.4192899244523386,0.4045160735663968
-0.0005723033333333333,0.4186022185054306,0.4041704992518908
-0.0005721733333333333,0.4165391006647058,0.4041704992518908
-0.0005720433333333333,0.4155075417443433,0.40244262767936
-0.0005719133333333333,0.4151636887708892,0.4017514790503476
-0.0005717833333333333,0.4148198357974352,0.4010603304213356
-0.0005716533333333334,0.4144759828239811,0.4003691817923233
-0.0005715233333333333,0.4131005709301645,0.3993324588488043
-0.0005713933333333333,0.413444423903618,0.3989868845342977
-0.0005712633333333333,0.412412864983256,0.3976045872762736
-0.0005711333333333333,0.4117251590363478,0.3965678643327551
-0.0005710033333333333,0.4113813060628936,0.3958767157037428
-0.0005708733333333333,0.4106936001159853,0.3948399927602243
-0.0005707433333333333,0.4100058941690771,0.3944944184457181
-0.0005706133333333334,0.4089743352487151,0.3938032698167062
-0.0005704833333333334,0.4079427763283526,0.3927665468731877
-0.0005703533333333333,0.4072550703814437,0.3920753982441748
-0.0005702233333333333,0.4069112174079897,0.3917298239296688
-0.0005700933333333333,0.4065673644345356,0.3917298239296688
-0.0005699633333333333,0.4055358055141732,0.3910386753006565
-0.0005698333333333333,0.4041603936203566,0.390001952357138
-0.0005697033333333333,0.4031288346999942,0.3893108037281257
-0.0005695733333333334,0.4031288346999942,0.3886196550991137
-0.0005694433333333334,0.4020972757796322,0.3882740807846073
-0.0005693133333333333,0.4007218638858148,0.3879285064701006
-0.0005691833333333333,0.4000341579389065,0.3868917835265819
-0.0005690533333333333,0.3990025990185445,0.3855094862685579
-0.0005689233333333333,0.3990025990185445,0.3844727633250393
-0.0005687933333333333,0.3969394811778196,0.3834360403815208
-0.0005686633333333333,0.3965956282043654,0.3827448917525085
-0.0005685333333333333,0.3955640692840035,0.3827448917525085
-0.0005684033333333334,0.3935009514432791,0.3817081688089904
-0.0005682733333333333,0.3928132454963694,0.3813625944944831
-0.0005681433333333333,0.3917816865760071,0.3796347229219526
-0.0005680133333333333,0.3910939806290992,0.3785979999784345
-0.0005678833333333333,0.3904062746821909,0.3779068513494222
-0.0005677533333333333,0.3900624217087367,0.3772157027204099
-0.0005676233333333333,0.3890308627883743,0.3768701284059037
-0.0005674933333333333,0.3886870098149202,0.375487831147879
-0.0005673633333333334,0.3879993038680122,0.374451108204361
-0.0005672333333333333,0.3869677449476491,0.374105533889854
-0.0005671033333333333,0.3862800390007408,0.3734143852608419
-0.0005669733333333333,0.3855923330538329,0.3730688109463359
-0.0005668433333333333,0.3842169211600163,0.3730688109463359
-0.0005667133333333333,0.3838730681865622,0.3716865136883112
-0.0005665833333333333,0.3831853622396539,0.3703042164302865
-0.0005664533333333333,0.383529215213108,0.3696130678012742
-0.0005663233333333334,0.383185362239654,0.3692674934867682
-0.0005661933333333334,0.3824976562927459,0.3692674934867681
-0.0005660633333333333,0.3818099503458367,0.3682307705432494
-0.0005659333333333333,0.3804345384520207,0.3678851962287429
-0.0005658033333333333,0.3804345384520207,0.3668484732852249
-0.0005656733333333333,0.3794029795316583,0.3658117503417064
-0.0005655433333333333,0.37871527358475,0.3658117503417064
-0.0005654133333333333,0.3780275676378417,0.3640838787691756
-0.0005652833333333333,0.3773398616909338,0.3647750273981876
-0.0005651533333333334,0.3763083027705715,0.3627015815111518
-0.0005650233333333333,0.3763083027705706,0.3623560071966443
-0.0005648933333333333,0.3752767438502086,0.3613192842531259
-0.0005647633333333333,0.3752767438502086,0.3606281356241139
-0.0005646333333333333,0.3745890379033003,0.3599369869951016
-0.0005645033333333333,0.3745890379033003,0.3592458383660893
-0.0005643733333333333,0.3742451849298462,0.3582091154225708
-0.0005642433333333333,0.3732136260094842,0.3575179667935587
-0.0005641133333333334,0.3721820670891218,0.3568268181645464
-0.0005639833333333333,0.3708066551953043,0.3561356695355334
-0.0005638533333333333,0.369775096274942,0.3554445209065211
-0.0005637233333333333,0.369087390328034,0.3547533722775091
-0.0005635933333333333,0.3687435373545799,0.3530255007049783
-0.0005634633333333333,0.3673681254607633,0.3516432034469536
-0.0005633333333333333,0.3673681254607633,0.3506064805034351
-0.0005632033333333333,0.366680419513855,0.3499153318744228
-0.0005630733333333334,0.365305007620039,0.3495697575599168
-0.0005629433333333333,0.3639295957262211,0.3492241832454101
-0.0005628133333333333,0.362210330858951,0.3485330346163975
-0.0005626833333333333,0.361866477885497,0.3471507373583735
-0.0005625533333333333,0.3608349189651346,0.3464595887293611
-0.0005624233333333333,0.3601472130182263,0.3464595887293611
-0.0005622933333333333,0.3598033600447721,0.3457684401003488
-0.0005621633333333333,0.3598033600447721,0.3447317171568303
-0.0005620333333333334,0.3594595070713182,0.3440405685278183
-0.0005619033333333334,0.358427948150956,0.343694994213312
-0.0005617733333333333,0.3573963892305924,0.3433494198988053
-0.0005616433333333333,0.3556771243633221,0.342658271269793
-0.0005615133333333333,0.3549894184164141,0.341967122640781
-0.0005613833333333333,0.35464556544296,0.3416215483262748
-0.0005612533333333333,0.3532701535491434,0.3402392510682501
-0.0005611233333333333,0.3525824476022352,0.3385113794957193
-0.0005609933333333333,0.3515508886818732,0.3378202308667073
-0.0005608633333333334,0.3515508886818727,0.337129082237695
-0.0005607333333333333,0.3501754767880552,0.3371290822376945
-0.0005606033333333333,0.3481123589473308,0.3367835079231877
-0.0005604733333333333,0.3470808000269688,0.3350556363506577
-0.0005603433333333333,0.3467369470535147,0.3340189134071392
-0.0005602133333333333,0.3463930940800606,0.3333277647781269
-0.0005600833333333333,0.345017682186244,0.3326366161491145
-0.0005599533333333333,0.344329976239336,0.3319454675201025
-0.0005598233333333334,0.3439861232658817,0.3315998932055962
-0.0005596933333333333,0.3426107113720646,0.3295264473185588
-0.0005595633333333333,0.3415791524517021,0.3291808730040525
-0.0005594333333333333,0.3405475935313401,0.3284897243750405
-0.0005593033333333333,0.3398598875844319,0.3277985757460282
-0.0005591733333333333,0.3388283286640694,0.3271074271170158
-0.0005590433333333333,0.3391721816375236,0.3267618528025097
-0.0005589133333333333,0.3388283286640694,0.3257251298589912
-0.0005587833333333334,0.3377967697437074,0.3243428326009671
-0.0005586533333333334,0.3371090637967991,0.3236516839719545
-0.0005585233333333333,0.3367652108233444,0.3233061096574477
-0.0005583933333333333,0.3364213578498904,0.3226149610284357
-0.0005582633333333333,0.3360775048764363,0.3222693867139295
-0.0005581333333333333,0.335389798929528,0.321232663770411
-0.0005580033333333333,0.3340143870357114,0.3215782380849172
-0.0005578733333333333,0.3340143870357114,0.3201959408268926
-0.0005577433333333334,0.3336705340622574,0.3195047921978805
-0.0005576133333333334,0.3322951221684413,0.3188136435688682
-0.0005574833333333333,0.3316074162215318,0.3181224949398551
-0.0005573533333333333,0.3302320043277154,0.3170857719963365
-0.0005572233333333333,0.3292004454073534,0.3157034747383124
-0.0005570933333333333,0.3274811805400827,0.3160490490528186
-0.0005569633333333333,0.3274811805400827,0.3146667517947939
-0.0005568333333333333,0.325761915672812,0.3146667517947939
-0.0005567033333333333,0.325074209725904,0.3136300288512758
-0.0005565733333333334,0.3247303567524497,0.3119021572787454
-0.0005564433333333333,0.3240426508055411,0.3108654343352256
-0.0005563133333333333,0.3236987978320868,0.3098287113917071
-0.0005561833333333333,0.3230110918851788,0.3087919884481891
-0.0005560533333333333,0.3226672389117247,0.3084464141336829
-0.0005559233333333333,0.3216356799913623,0.3081008398191767
-0.0005557933333333333,0.3216356799913623,0.3074096911901644
-0.0005556633333333333,0.3195725621506383,0.3060273939321403
-0.0005555333333333334,0.3192287091771834,0.3056818196176337
-0.0005554033333333333,0.3181971502568205,0.3046450966741147
-0.0005552733333333333,0.3175094443099122,0.3036083737305962
-0.0005551433333333333,0.3168217383630043,0.3025716507870781
-0.0005550133333333333,0.3157901794426418,0.3015349278435596
-0.0005548833333333333,0.3147586205222794,0.3004982049000411
-0.0005547533333333333,0.313727061601917,0.3004982049000411
