Module3/data/exp3/3_Module2sine_1kHz_10kOhm_OP97F.csv

#Digilent WaveForms Oscilloscope Acquisition
#Device Name: Discovery2
#Serial Number: SN:210321AC1D4D
#Date Time: 2020-11-19 16:36:39.634
#Sample rate: 7.69231e+06Hz
#Samples: 8192
#Trigger: Source: Channel 1 Type: Edge Condition: Rising Level: 0 V Hyst.: Auto HoldOff: 0 s
#Channel 1: Range: 500 mV/div Offset: 0 V Attenuation: 1 X
#Channel 2: Range: 500 mV/div Offset: 0 V Attenuation: 1 X
#Wavegen Channel 1: Running
#Mode: Simple
#Type: Sine
#Frequency: 1 kHz
#Period: 1 ms
#Amplitude: 2 V
#Offset: 0 V
#Symmetry: 50 %
#Phase: 0 ¡Æ
#Power Supplies: ON
#Positive Supply: ON
#Voltage: 5 V
#Negative Supply: ON
#Voltage: -5 V

Time (s),Channel 1 (V),Channel 2 (V)
-0.0005312666666666667,0.1940662268398752,0.168834391073192
-0.0005311366666666667,0.193722373866421,0.1684888167586859
-0.0005310066666666667,0.1933785208929669,0.1677976681296736
-0.0005308766666666668,0.1933785208929669,0.1671065195006612
-0.0005307466666666668,0.1923469619726049,0.1660697965571432
-0.0005306166666666668,0.1913154030522425,0.1643419249846127
-0.0005304866666666667,0.1906276971053333,0.1646874992991178
-0.0005303566666666667,0.1895961381849708,0.1639963506701055
-0.0005302266666666667,0.1885645792646089,0.1633052020410934
-0.0005300966666666667,0.1875330203442465,0.1619229047830688
-0.0005299666666666667,0.1868453143973382,0.1612317561540564
-0.0005298366666666667,0.1861576084504299,0.1601950332105379
-0.0005297066666666668,0.1854699025035216,0.1598494588960317
-0.0005295766666666668,0.1847821965566136,0.1588127359525137
-0.0005294466666666668,0.1837506376362514,0.1581215873235012
-0.0005293166666666667,0.183406784662796,0.1577760130089944
-0.0005291866666666667,0.181687519795526,0.1570848643799824
-0.0005290566666666667,0.1809998138486177,0.1557025671219578
-0.0005289266666666667,0.1799682549282553,0.1550114184929454
-0.0005287966666666667,0.179280548981347,0.1550114184929454
-0.0005286666666666668,0.1785928430344387,0.1543202698639331
-0.0005285366666666668,0.1779051370875308,0.1536291212349211
-0.0005284066666666668,0.1768735781671685,0.1522468239768967
-0.0005282766666666667,0.1758420192468053,0.150864526718871
-0.0005281466666666667,0.1751543132998968,0.1498278037753529
-0.0005280166666666667,0.1741227543795349,0.1498278037753529
-0.0005278866666666667,0.1730911954591725,0.1491366551463406
-0.0005277566666666667,0.17205963653881,0.1484455065173283
-0.0005276266666666668,0.1710280776184476,0.1463720606302913
-0.0005274966666666668,0.1706842246449936,0.1449897633722673
-0.0005273666666666668,0.1696526657246315,0.1442986147432546
-0.0005272366666666667,0.1682772538308144,0.1439530404287478
-0.0005271066666666667,0.1682772538308141,0.1432618917997353
-0.0005269766666666667,0.1675895478839061,0.1422251688562173
-0.0005268466666666667,0.1665579889635437,0.1411884459126988
-0.0005267166666666667,0.1655264300431813,0.1404972972836865
-0.0005265866666666668,0.1658702830166355,0.1401517229691803
-0.0005264566666666668,0.164838724096273,0.1398061486546742
-0.0005263266666666668,0.164494871122819,0.1384238513966501
-0.0005261966666666667,0.163463312202456,0.1384238513966488
-0.0005260666666666667,0.162431753282094,0.1370415541386242
-0.0005259366666666667,0.162431753282094,0.1356592568806002
-0.0005258066666666667,0.1614001943617316,0.1346225339370817
-0.0005256766666666667,0.160024782467915,0.1342769596225755
-0.0005255466666666667,0.1596809294944609,0.1339313853080694
-0.0005254166666666668,0.1586493705740984,0.1335858109935631
-0.0005252866666666668,0.1579616646271905,0.1322035137355392
-0.0005251566666666668,0.1576178116537362,0.1311667907920205
-0.0005250266666666667,0.1562423997599191,0.1301300678485012
-0.0005248966666666667,0.155554693813011,0.1294389192194889
-0.0005247666666666667,0.155210840839557,0.1287477705904769
-0.0005246366666666667,0.1534915759722863,0.1284021962759707
-0.0005245066666666667,0.1524600170519239,0.127019899017946
-0.0005243766666666668,0.1514284581315614,0.1256376017599213
-0.0005242466666666668,0.1517723111050154,0.1249464531309094
-0.0005241166666666668,0.1510846051581076,0.125292027445415
-0.0005239866666666667,0.1493653402908361,0.1242553045018965
-0.0005238566666666667,0.1483337813704737,0.1239097301873896
-0.0005237266666666667,0.1473022224501117,0.1218362843003535
-0.0005235966666666667,0.1466145165032034,0.1214907099858474
-0.0005234666666666667,0.1459268105562951,0.1201084127278227
-0.0005233366666666668,0.145582957582841,0.1190716897843042
-0.0005232066666666668,0.1442075456890251,0.1183805411552922
-0.0005230766666666668,0.1438636927155705,0.1183805411552919
-0.0005229466666666667,0.143519839742116,0.1169982438972671
-0.0005228166666666667,0.1431759867686617,0.1166526695827606
-0.0005226866666666667,0.1424882808217537,0.1156159466392426
-0.0005225566666666667,0.1414567219013913,0.1152703723247364
-0.0005224266666666667,0.140769015954483,0.1156159466392426
-0.0005222966666666668,0.1397374570341206,0.1149247980102302
-0.0005221666666666668,0.1390497510872123,0.1125057778086871
-0.0005220366666666668,0.1376743391933963,0.1118146291796751
-0.0005219066666666668,0.1369866332464877,0.1111234805506627
-0.0005217766666666667,0.1366427802730328,0.1097411832926379
-0.0005216466666666667,0.1356112213526708,0.1100867576071439
-0.0005215166666666667,0.1345796624323084,0.1093956089781316
-0.0005213866666666667,0.1332042505384919,0.1083588860346131
-0.0005212566666666667,0.1332042505384919,0.1069765887765884
-0.0005211266666666668,0.1328603975650377,0.1062854401475761
-0.0005209966666666668,0.1314849856712218,0.1059398658330701
-0.0005208666666666668,0.1304534267508592,0.1055942915185639
-0.0005207366666666667,0.1297657208039501,0.1049031428895508
-0.0005206066666666667,0.1290780148570417,0.103520845631526
-0.0005204766666666667,0.1280464559366797,0.1017929740589959
-0.0005203466666666667,0.1277026029632256,0.1011018254299836
-0.0005202166666666667,0.126327191069409,0.1004106768009713
-0.0005200866666666668,0.1256394851225007,0.1000651024864651
-0.0005199566666666668,0.1239202202552308,0.09902837954294709
-0.0005198266666666668,0.123232514308322,0.09730050797041657
-0.0005196966666666667,0.1222009553879589,0.09695493365590883
-0.0005195666666666667,0.1215132494410507,0.09522706208337879
-0.0005194366666666667,0.1208255434941427,0.09522706208337879
-0.0005193066666666667,0.1197939845737803,0.0941903391398603
-0.0005191766666666667,0.1197939845737803,0.09349919051084797
-0.0005190466666666668,0.1194501316003261,0.09211689325282331
-0.0005189166666666668,0.1194501316003261,0.09177131893831729
-0.0005187866666666668,0.1187624256534182,0.09142574462381113
-0.0005186566666666667,0.1180747197065092,0.09142574462381083
-0.0005185266666666667,0.1173870137596009,0.09108017030930449
-0.0005183966666666667,0.116699307812693,0.09038902168029248
-0.0005182666666666667,0.1156677488923305,0.08900672442226781
-0.0005181366666666667,0.1146361899719681,0.08797000147874931
-0.0005180066666666667,0.1146361899719681,0.08727885284973698
-0.0005178766666666668,0.1146361899719681,0.08658770422072465
-0.0005177466666666668,0.1139484840250602,0.08658770422072465
-0.0005176166666666668,0.1129169251046979,0.08555098127720663
-0.0005174866666666667,0.1118853661843345,0.08451425833368686
-0.0005173566666666667,0.1108538072639726,0.08278638676115684
-0.0005172266666666667,0.109478395370156,0.08244081244665066
-0.0005170966666666667,0.1091345423967018,0.08174966381763833
-0.0005169666666666667,0.1084468364497935,0.08071294087411984
-0.0005168366666666668,0.1077591305028853,0.08002179224510751
-0.0005167066666666668,0.1067275715825233,0.07863949498708347
-0.0005165766666666668,0.1053521596887069,0.07760277204356482
-0.0005164466666666667,0.1050083067152516,0.07725719772905772
-0.0005163166666666667,0.1039767477948892,0.07622047478553906
-0.0005161866666666667,0.1029451888745272,0.07483817752751502
-0.0005160566666666667,0.1015697769807107,0.0751837518420212
-0.0005159266666666667,0.1005382180603483,0.0731103059549842
-0.0005157966666666668,0.09985051211343997,0.0720735830114657
-0.0005156666666666668,0.09950665913998598,0.07138243438245369
-0.0005155366666666668,0.09813124724616988,0.07069128575344136
-0.0005154066666666667,0.09744354129926065,0.06965456280992223
-0.0005152766666666667,0.09675583535235252,0.06896341418090959
-0.0005151466666666667,0.09641198237889853,0.06758111692288556
-0.0005150166666666667,0.09606812940544439,0.06688996829387323
-0.0005148866666666667,0.09469271751162782,0.06723554260837938
-0.0005147566666666668,0.09469271751162782,0.06654439397936705
-0.0005146266666666668,0.09400501156471953,0.06654439397936705
-0.0005144966666666668,0.09297345264435758,0.06619881966486105
-0.0005143666666666667,0.09194189372399406,0.0648165224068359
-0.0005142366666666667,0.0905664818301781,0.06412537377782326
-0.0005141066666666667,0.0905664818301781,0.06274307651979923
-0.0005139766666666667,0.08987877588326981,0.06170635357628074
-0.0005138466666666667,0.08850336398945324,0.06101520494726841
-0.0005137166666666667,0.08678409912218253,0.06136077926177457
-0.0005135866666666668,0.0857525402018201,0.05963290768924374
-0.0005134566666666668,0.0857525402018201,0.05859618474572572
-0.0005133266666666668,0.08368942236109618,0.05755946180220722
-0.0005131966666666667,0.08334556938764077,0.05652273885868794
-0.0005130666666666667,0.08265786344073218,0.05583159022967592
-0.0005129366666666667,0.08128245154691624,0.05583159022967592
-0.0005128066666666667,0.07990703965309967,0.05410371865714509
-0.0005126766666666667,0.08025089262655381,0.05272142139912043
-0.0005125466666666668,0.07921933370619139,0.05272142139912043
-0.0005124166666666668,0.07818777478582942,0.05099354982659039
-0.0005122866666666668,0.07750006883892098,0.0509935498265896
-0.0005121566666666667,0.07646850991855776,0.04961125256856447
-0.0005120266666666667,0.07543695099819518,0.04857452962504628
-0.0005118966666666667,0.07406153910437924,0.04822895531054028
-0.0005117666666666667,0.07371768613092509,0.04788338099603411
-0.0005116366666666667,0.07268612721056267,0.04615550942350329
-0.0005115066666666668,0.07234227423710853,0.04580993510899712
-0.0005113766666666668,0.07096686234329257,0.04546436079449111
-0.0005112466666666668,0.07062300936983795,0.04373648922196091
-0.0005111166666666667,0.07062300936983733,0.04235419196393531
-0.0005109866666666667,0.06959145044947522,0.04200861764942899
-0.0005108566666666667,0.06924759747602123,0.04131746902041697
-0.0005107266666666667,0.06924759747602123,0.04166304333492313
-0.0005105966666666667,0.06752833260875052,0.03993517176239231
-0.0005104666666666668,0.06718447963529638,0.03889844881887381
-0.0005103366666666668,0.06615292071493395,0.03889844881887381
-0.0005102066666666668,0.06580906774147995,0.03786172587535579
-0.0005100766666666667,0.06512136179457136,0.03682500293183651
-0.0005099466666666667,0.06477750882111689,0.03613385430282402
-0.0005098166666666667,0.06374594990075494,0.03509713135930599
-0.0005096866666666667,0.06305824395384665,0.03371483410128133
-0.0005095566666666667,0.06237053800693837,0.033023685472269
-0.0005094266666666667,0.06133897908657594,0.033023685472269
-0.0005092966666666668,0.06065127313966766,0.03267811115776283
-0.0005091666666666668,0.0596197142193057,0.0316413882142448
-0.0005090366666666668,0.05927586124585125,0.0302590909562203
-0.0005089066666666667,0.05858815529894202,0.02887679369819485
-0.0005087766666666667,0.05686889043167192,0.02853121938368853
-0.0005086466666666667,0.05652503745821794,0.02784007075467651
-0.0005085166666666667,0.05583733151130965,0.02714892212566418
-0.0005083866666666667,0.05514962556440137,0.02714892212566418
-0.0005082566666666668,0.0537742136705848,0.02542105055313335
-0.0005081266666666668,0.05308650772367682,0.02438432760961533
-0.0005079966666666668,0.05274265475022253,0.02403875329510885
-0.0005078666666666667,0.05205494880331361,0.02334760466609604
-0.0005077366666666667,0.05102338988295117,0.02265645603708371
-0.0005076066666666667,0.04999183096258922,0.0219653074080717
-0.0005074766666666667,0.04964797798913508,0.02023743583554087
-0.0005073466666666667,0.04827256609531851,0.01885513857751621
-0.0005072166666666668,0.04758486014841022,0.01816398994850388
-0.0005070866666666668,0.04827256609531819,0.01781841563399787
-0.0005069566666666668,0.04758486014841053,0.01678169269047969
-0.0005068266666666667,0.04689715420150194,0.01712726700498491
-0.0005066966666666667,0.04689715420150115,0.01609054406146673
-0.0005065666666666667,0.04517788933423121,0.01574496974696072
-0.0005064366666666667,0.04414633041386878,0.01505382111794839
-0.0005063066666666667,0.04380247744041464,0.01470824680344222
-0.0005061766666666667,0.04242706554659807,0.01401709817442989
-0.0005060466666666668,0.04139550662623565,0.01332594954541756
-0.0005059166666666668,0.04070780067932767,0.01125250365838151
-0.0005057866666666668,0.04002009473241939,0.01021578071486254
-0.0005056566666666667,0.03898853581205616,0.00987020640035559
-0.0005055266666666667,0.03795697689169421,0.009179057771343573
-0.0005053966666666667,0.03692541797133178,0.008487909142331242
-0.0005052666666666667,0.03589385905096935,0.00779676051331891
-0.0005051366666666667,0.03520615310406107,0.005723314626281917
-0.0005050066666666668,0.03348688823679036,0.005032165997269586
-0.0005048766666666668,0.03348688823679036,0.004341017368257569
-0.0005047466666666668,0.03279918228988237,0.003649868739245238
-0.0005046166666666667,0.03107991742261119,0.003304294424738601
-0.0005044866666666667,0.03073606444915643,0.002958720110231336
-0.0005043566666666667,0.02901679958188649,0.0001941255941832685
-0.0005042266666666667,0.02832909363497821,0.0001941255941832685
-0.0005040966666666667,0.02764138768806992,-0.0008425973493352281
-0.0005039666666666668,0.02660982876770749,-0.001879320292853725
-0.0005038366666666668,0.02523441687389154,-0.002570468921865742
-0.0005037066666666668,0.02489056390043693,-0.003607191865384081
-0.0005035766666666667,0.02385900498007372,-0.005335063437915223
-0.0005034466666666667,0.02248359308625746,-0.004989489123409687
-0.0005033166666666667,0.02179588713934949,-0.006026212066927711
-0.0005031866666666667,0.02145203416589534,-0.007062935010446207
-0.0005030566666666667,0.02179588713934949,-0.008445232268470871
-0.0005029266666666668,0.02007662227207877,-0.008099657953964704
-0.0005027966666666668,0.01938891632517048,-0.009136380897483202
-0.0005026666666666668,0.01938891632517048,-0.009136380897483202
-0.0005025366666666667,0.01835735740480743,-0.009481955211989681
-0.0005024066666666667,0.01698194551099117,-0.01017310384100233
-0.0005022766666666667,0.0162942395640832,-0.01155540109902636
-0.0005021466666666667,0.01526268064372077,-0.01224654972803869
-0.0005020166666666667,0.0138872687499042,-0.01362884698606335
-0.0005018866666666667,0.01319956280299591,-0.01466556992958185
-0.0005017566666666668,0.01251185685608762,-0.01604786718760651
-0.0005016266666666668,0.01285570982954161,-0.01639344150211252
-0.0005014966666666668,0.01251185685608778,-0.01673901581661869
-0.0005013666666666667,0.01113644496227058,-0.01777573876013781
-0.0005012366666666667,0.01010488604190799,-0.01881246170365599
-0.0005011066666666667,0.008729474148092048,-0.019158036018162
-0.0005009766666666667,0.008385621174637906,-0.0201947589616805
-0.0005008466666666667,0.007354062254275476,-0.0201947589616805
-0.0005007166666666668,0.007010209280821333,-0.021231481905199
-0.0005005866666666668,0.005978650360459374,-0.02192263053421101
-0.0005004566666666668,0.004947091440096944,-0.02365050210674137
-0.0005003266666666667,0.004947091440095693,-0.02434165073575496
-0.0005001966666666667,0.003227826572825603,-0.0253783736792733
-0.0005000666666666667,0.002883973599371616,-0.02606952230828531
-0.0004999366666666667,0.00219626765246333,-0.02710624525180381
-0.0004998066666666667,0.0004770027851926145,-0.02745181956630997
-0.0004996766666666668,-0.0002107031617156717,-0.0291796911388408
-0.0004995466666666668,-0.0008984091086236452,-0.02987083976785282
-0.0004994166666666668,-0.001242262082077945,-0.03090756271137116
-0.0004992866666666667,-0.001242262082078414,-0.03159871134038427
-0.0004991566666666667,-0.001929968028986544,-0.03228985996939692
-0.0004990266666666667,-0.00227382100244053,-0.03367215722742096
-0.0004988966666666667,-0.00330537992280296,-0.03367215722742096
-0.0004987666666666667,-0.004336938843165388,-0.03367215722742096
-0.0004986366666666668,-0.005368497763527818,-0.03401773154192712
-0.0004985066666666668,-0.005712350736981961,-0.03505445448544562
-0.0004983766666666668,-0.006400056683889935,-0.03574560311445764
-0.0004982466666666667,-0.007775468577706976,-0.0360911774289649
-0.0004981166666666667,-0.008119321551161275,-0.03781904900149542
-0.0004979866666666667,-0.008807027498069249,-0.03885577194501344
-0.0004978566666666667,-0.009494733444977536,-0.03920134625951961
-0.0004977266666666667,-0.009838586418431678,-0.03989249488853194
-0.0004975966666666667,-0.01087014533879411,-0.04058364351754427
-0.0004974666666666668,-0.01190170425915654,-0.04162036646106276
-0.0004973366666666668,-0.01190170425915654,-0.04369381234809881
-0.0004972066666666668,-0.01327711615297248,-0.04438496097711177
-0.0004970766666666667,-0.01327711615297374,-0.04473053529161904
-0.0004969466666666667,-0.01465252804678984,-0.04645840686414939
-0.0004968166666666667,-0.01499638102024383,-0.04714955549316141
-0.0004966866666666667,-0.01602793994060625,-0.04714955549316141
-0.0004965566666666667,-0.01843491075478526,-0.04887742706569224
-0.0004964266666666668,-0.01843491075478526,-0.04991415000921073
-0.0004962966666666668,-0.01946646967514722,-0.05025972432371674
-0.0004961666666666668,-0.02015417562205566,-0.05129644726723492
-0.0004960366666666667,-0.0204980285955109,-0.0523331702107542
-0.0004959066666666667,-0.0222172934627813,-0.05302431883976669
-0.0004957766666666667,-0.02324885238314326,-0.05406104178328472
-0.0004956466666666667,-0.02496811725041398,-0.05440661609779088
-0.0004955166666666667,-0.02565582319732226,-0.05509776472680322
-0.0004953866666666668,-0.02668738211768469,-0.05578891335581555
-0.0004952566666666668,-0.02771894103804665,-0.05648006198482757
-0.0004951266666666668,-0.02771894103804712,-0.05682563629933389
-0.0004949966666666667,-0.02909435293186369,-0.05889908218637151
-0.0004948666666666667,-0.029094352931864,-0.05993580512988954
-0.0004947366666666667,-0.02978205887877198,-0.05993580512988954
-0.0004946066666666667,-0.03115747077258855,-0.05993580512988954
-0.0004944766666666667,-0.03184517671949684,-0.06097252807340803
-0.0004943466666666667,-0.03322058861331341,-0.06166367670242037
-0.0004942166666666668,-0.03459600050712998,-0.06304597396044502
-0.0004940866666666668,-0.03493985348058396,-0.06304597396044502
-0.0004939566666666668,-0.03631526537440007,-0.06408269690396305
-0.0004938266666666667,-0.03700297132130946,-0.06442827121847015
-0.0004936966666666667,-0.03803453024167142,-0.06546499416198819
-0.0004935666666666667,-0.04078535402930455,-0.06615614279100052
-0.0004934366666666667,-0.04044150105585041,-0.06788401436353135
-0.0004933066666666667,-0.0411292070027587,-0.06892073730704984
-0.0004931766666666668,-0.04216076592312112,-0.06892073730704984
-0.0004930466666666668,-0.04353617781693708,-0.06995746025056787
-0.0004929166666666668,-0.04422388376384568,-0.07030303456507435
-0.0004927866666666667,-0.04491158971075475,-0.0713397575085938
-0.0004926566666666667,-0.04594314863111733,-0.07306762908112414
-0.0004925266666666667,-0.04731856052493327,-0.07375877771013616
-0.0004923966666666667,-0.04800626647184156,-0.07410435202464233
-0.0004922666666666667,-0.04869397241874984,-0.07617779791167932
-0.0004921366666666668,-0.04972553133911228,-0.07652337222618548
-0.0004920066666666668,-0.05075709025947424,-0.0768689465406915
-0.0004918766666666668,-0.05144479620638268,-0.07825124379871569
-0.0004917466666666667,-0.05213250215329175,-0.0792879667422348
-0.0004916166666666667,-0.05316406107365402,-0.07928796674223527
-0.0004914866666666667,-0.05385176702056199,-0.08032468968575331
