Module3/data/exp3/4_Module2sine_1kHz_OP97F_1V_4.7kOhm.csv

#Digilent WaveForms Oscilloscope Acquisition
#Device Name: Discovery2
#Serial Number: SN:210321AC1D4D
#Date Time: 2020-11-19 16:51:07.354
#Sample rate: 1.5873e+06Hz
#Samples: 8192
#Trigger: Source: Channel 1 Type: Edge Condition: Rising Level: 0 V Hyst.: Auto HoldOff: 0 s
#Channel 1: Range: 1 V/div Offset: 0 V Attenuation: 1 X
#Channel 2: Range: 1 V/div Offset: 0 V Attenuation: 1 X
#Wavegen Channel 1: Running
#Mode: Simple
#Type: Sine
#Frequency: 1 kHz
#Period: 1 ms
#Amplitude: 1 V
#Offset: 0 V
#Symmetry: 50 %
#Phase: 0 ¡Æ
#Wavegen Channel 2: Running
#Mode: Simple
#Type: DC
#Offset: 1 V
#Power Supplies: ON
#Positive Supply: ON
#Voltage: 5 V
#Negative Supply: ON
#Voltage: -5 V

Time (s),Channel 1 (V),Channel 2 (V)
-0.002699235,1.019836740966708,-4.233968870235469
-0.002698605,1.016051403080235,-4.230168067731913
-0.002697975,1.016051403080233,-4.233968870235469
-0.002697345,1.008480727307285,-4.233968870235471
-0.002696715,1.008480727307285,-4.237769672739028
-0.002696085,1.008480727307285,-4.233968870235469
-0.002695455,1.012266065193757,-4.230168067731913
-0.002694825,1.00469538942081,-4.230168067731912
-0.002694195,1.00469538942081,-4.230168067731912
-0.002693565,1.00469538942081,-4.230168067731912
-0.002692935,1.00469538942081,-4.233968870235469
-0.002692305,0.9971247136478649,-4.23776967273903
-0.002691675,1.00469538942081,-4.241570475242586
-0.002691045,1.000910051534336,-4.241570475242586
-0.002690415,0.9933393757613854,-4.237769672739026
-0.002689785,0.9895540378749128,-4.233968870235469
-0.002689155,0.9857686999884384,-4.230168067731912
-0.002688525,0.989554037874911,-4.230168067731912
-0.002687895,0.9857686999884384,-4.237769672739028
-0.002687265,0.9819833621019624,-4.233968870235469
-0.002686635,0.9781980242154897,-4.233968870235469
-0.002686005,0.9781980242154897,-4.237769672739028
-0.002685375,0.978198024215488,-4.233968870235469
-0.002684745,0.9744126863290153,-4.233968870235469
-0.002684115,0.9744126863290153,-4.241570475242586
-0.002683485,0.978198024215488,-4.241570475242586
-0.002682855,0.9744126863290153,-4.241570475242586
-0.002682225,0.9706273484425411,-4.237769672739028
-0.002681595,0.9706273484425411,-4.237769672739028
-0.002680965,0.9668420105560667,-4.237769672739028
-0.002680335,0.9630566726695905,-4.23776967273903
-0.002679705,0.959271334783118,-4.241570475242586
-0.002679075,0.9554859968966436,-4.245371277746145
-0.002678445,0.951700659010171,-4.245371277746145
-0.002677815,0.9554859968966436,-4.241570475242586
-0.002677185,0.9554859968966436,-4.237769672739028
-0.002676555,0.959271334783118,-4.241570475242586
-0.002675925,0.9517006590101692,-4.241570475242586
-0.002675295,0.9479153211236984,-4.241570475242584
-0.002674665,0.9554859968966436,-4.237769672739028
-0.002674035,0.9517006590101692,-4.237769672739028
-0.002673405,0.9517006590101692,-4.237769672739028
-0.002672775,0.9479153211236949,-4.237769672739028
-0.002672145,0.9441299832372205,-4.245371277746145
-0.002671515,0.9403446453507461,-4.241570475242586
-0.002670885,0.9365593074642719,-4.245371277746145
-0.002670255,0.9365593074642719,-4.249172080249701
-0.002669625,0.9365593074642719,-4.245371277746145
-0.002668995,0.9365593074642719,-4.245371277746145
-0.002668365,0.9289886316913265,-4.241570475242588
-0.002667735,0.9289886316913231,-4.237769672739028
-0.002667105,0.9214179559183744,-4.241570475242586
-0.002666475,0.9214179559183744,-4.241570475242586
-0.002665845,0.9214179559183744,-4.245371277746145
-0.002665215,0.925203293804847,-4.249172080249701
-0.002664585,0.9214179559183744,-4.245371277746145
-0.002663955,0.9214179559183744,-4.241570475242586
-0.002663325,0.9176326180319018,-4.245371277746143
-0.002662695,0.9138472801454257,-4.249172080249703
-0.002662065,0.9138472801454257,-4.249172080249703
-0.002661435,0.9100619422589531,-4.249172080249703
-0.002660805,0.9062766043724769,-4.245371277746145
-0.002660175,0.9024912664860009,-4.245371277746148
-0.002659545,0.8987059285995282,-4.252972882753261
-0.002658915,0.8987059285995282,-4.249172080249703
-0.002658285,0.8949205907130556,-4.249172080249703
-0.002657655,0.8987059285995282,-4.252972882753261
-0.002657025,0.8987059285995282,-4.256773685256819
-0.002656395,0.8949205907130556,-4.260574487760375
-0.002655765,0.8873499149401052,-4.260574487760377
-0.002655135,0.8797792391671565,-4.256773685256816
-0.002654505,0.8797792391671565,-4.249172080249703
-0.002653875,0.8759939012806821,-4.252972882753261
-0.002653245,0.8797792391671547,-4.25297288275326
-0.002652615,0.8759939012806821,-4.249172080249703
-0.002651985,0.8797792391671565,-4.245371277746145
-0.002651355,0.8759939012806839,-4.252972882753258
-0.002650725,0.8684232255077334,-4.252972882753261
-0.002650095,0.8646378876212573,-4.256773685256821
-0.002649465,0.8608525497347846,-4.260574487760377
-0.002648835,0.8570672118483104,-4.260574487760377
-0.002648205,0.8570672118483086,-4.256773685256817
-0.002647575,0.853281873961836,-4.252972882753261
-0.002646945,0.853281873961836,-4.256773685256819
-0.002646315,0.8457111981888906,-4.264375290263932
-0.002645685,0.8457111981888872,-4.268176092767494
-0.002645055,0.8457111981888872,-4.268176092767494
-0.002644425,0.8457111981888872,-4.268176092767494
-0.002643795,0.8494965360753616,-4.264375290263936
-0.002643165,0.8419258603024095,-4.268176092767495
-0.002642535,0.8343551845294641,-4.271976895271052
-0.002641905,0.8343551845294641,-4.264375290263936
-0.002641275,0.8305698466429916,-4.252972882753267
-0.002640645,0.8305698466429898,-4.226367265228354
-0.002640015,0.822999170870041,-4.207363252710562
-0.002639385,0.8192138329835668,-4.180757635185655
-0.002638755,0.811643157210618,-4.150351215157189
-0.002638125,0.811643157210618,-4.108542387618033
-0.002637495,0.811643157210618,-4.074335165086024
-0.002636865,0.8078578193241437,-4.040127942554
-0.002636235,0.8078578193241437,-4.013522325029105
-0.002635605,0.8078578193241437,-3.986916707504185
-0.002634975,0.8078578193241437,-3.964111892482835
-0.002634345,0.8040724814376711,-3.937506274957939
-0.002633715,0.8002871435511949,-3.922303064943695
-0.002633085,0.7927164677782428,-3.899498249922337
-0.002632455,0.7851457920052975,-3.880494237404554
-0.002631825,0.7851457920052975,-3.865291027390321
-0.002631195,0.7889311298917701,-3.846287014872539
-0.002630565,0.7851457920052975,-3.831083804858298
-0.002629935,0.7737897783458745,-3.815880594844065
-0.002629305,0.7700044404594019,-3.804478187333395
-0.002628675,0.7662191025729257,-3.785474174815598
-0.002628045,0.7700044404593983,-3.766470162297802
-0.002627415,0.7662191025729257,-3.755067754787133
-0.002626785,0.7700044404594001,-3.7398645447729
-0.002626155,0.7662191025729275,-3.724661334758674
-0.002625525,0.758648426799977,-3.713258927247992
-0.002624895,0.758648426799977,-3.69805571723376
-0.002624265,0.758648426799977,-3.682852507219533
-0.002623635,0.7548630889135026,-3.663848494701735
-0.002623005,0.7510777510270249,-3.644844482183941
-0.002622375,0.7435070752540796,-3.637242877176828
-0.002621745,0.7359363994811309,-3.618238864659037
-0.002621115,0.7397217373676018,-3.606836457148357
-0.002620485,0.7321510615946565,-3.595434049637687
-0.002619855,0.7283657237081822,-3.580230839623455
-0.002619225,0.7245803858217096,-3.553625222098559
-0.002618595,0.7207950479352334,-3.542222814587872
-0.002617965,0.7207950479352334,-3.530820407077194
-0.002617335,0.7207950479352334,-3.523218802070081
-0.002616705,0.7170097100487591,-3.500413987048732
-0.002616075,0.7094390342758086,-3.489011579538049
-0.002615445,0.7056536963893361,-3.470007567020265
-0.002614815,0.6980830206163873,-3.451003554502474
-0.002614185,0.6980830206163873,-3.439601146991805
-0.002613555,0.6980830206163873,-3.428198739481125
-0.002612925,0.6980830206163855,-3.416796331970444
-0.002612295,0.694297682729913,-3.401593121956218
-0.002611665,0.6905123448434386,-3.382589109438427
-0.002611035,0.6791563311840138,-3.367385899424188
-0.002610405,0.6753709932975411,-3.355983491913519
-0.002609775,0.6829416690704899,-3.340780281899286
-0.002609145,0.6791563311840173,-3.317975466877947
-0.002608515,0.6715856554110669,-3.302772256863704
-0.002607885,0.6715856554110669,-3.283768244345913
-0.002607255,0.6678003175245925,-3.268565034331679
-0.002606625,0.6640149796381181,-3.257162626821005
-0.002605995,0.652658965978695,-3.24576021931032
-0.002605365,0.652658965978695,-3.222955404288981
-0.002604735,0.652658965978695,-3.207752194274748
-0.002604105,0.6488736280922225,-3.192548984260522
-0.002603475,0.6488736280922207,-3.177345774246282
-0.002602845,0.6450882902057463,-3.158341761728491
-0.002602215,0.6413029523192719,-3.135536946707141
-0.002601585,0.6375176144327976,-3.124134539196467
-0.002600955,0.6337322765463215,-3.108931329182226
-0.002600325,0.6299469386598489,-3.093728119168001
-0.002599695,0.6223762628869002,-3.07472410665021
-0.002599065,0.6261616007733728,-3.055720094132428
-0.002598435,0.6261616007733746,-3.044317686621744
-0.002597805,0.6185909250004258,-3.032915279111069
-0.002597175,0.6185909250004258,-3.013911266593287
-0.002596545,0.6148055871139515,-2.998708056579045
-0.002595915,0.6110202492274737,-2.979704044061247
-0.002595285,0.6034495734545284,-2.964500834047021
-0.002594655,0.599664235568054,-2.94549682152923
-0.002594025,0.5958788976815814,-2.934094414018561
-0.002593395,0.5920935597951053,-2.918891204004322
-0.002592765,0.5807375461356822,-2.899887191486531
-0.002592135,0.5769522082492097,-2.880883178968749
-0.002591505,0.5807375461356822,-2.861879166450949
-0.002590875,0.5769522082492045,-2.842875153933153
-0.002590245,0.5693815324762591,-2.831472746422484
-0.002589615,0.5693815324762591,-2.81626953640825
-0.002588985,0.5693815324762591,-2.797265523890468
-0.002588355,0.5618108567033104,-2.778261511372668
-0.002587725,0.558025518816836,-2.759257498854877
-0.002587095,0.5618108567033087,-2.747855091344207
-0.002586465,0.558025518816836,-2.725050276322853
-0.002585835,0.55424018093036,-2.71364786881217
-0.002585205,0.5504548430438874,-2.694643856294388
-0.002584575,0.546669505157413,-2.679440646280154
-0.002583945,0.5390988293844609,-2.660436633762355
-0.002583315,0.5315281536115156,-2.641432621244572
-0.002582685,0.5277428157250412,-2.618627806223222
-0.002582055,0.520172139952096,-2.607225398712553
-0.002581425,0.5201721399520925,-2.588221386194757
-0.002580795,0.5201721399520908,-2.569217373676957
-0.002580165,0.5163868020656182,-2.550213361159175
-0.002579535,0.5126014641791438,-2.5388109536485
-0.002578905,0.5088161262926677,-2.5198069411307
-0.002578275,0.5050307884061951,-2.500802928612917
-0.002577645,0.5050307884061951,-2.477998113591568
-0.002577015,0.4974601126332498,-2.466595706080899
-0.002576385,0.4898894368602977,-2.443790891059544
-0.002575755,0.4861040989738233,-2.424786878541753
-0.002575125,0.4861040989738233,-2.405782866023961
-0.002574495,0.4785334232008746,-2.390579656009729
-0.002573865,0.4747480853144002,-2.371575643491933
-0.002573235,0.4747480853144002,-2.360173235981263
-0.002572605,0.4709627474279259,-2.341169223463472
-0.002571975,0.4633920716549806,-2.314563605938576
-0.002571345,0.4633920716549771,-2.303161198427889
-0.002570715,0.4596067337685028,-2.284157185910098
-0.002570085,0.4558213958820285,-2.268953975895865
-0.002569455,0.4520360579955541,-2.246149160874516
-0.002568825,0.4482507201090797,-2.219543543349602
-0.002568195,0.4482507201090797,-2.204340333335375
-0.002567565,0.440680044336131,-2.189137123321142
-0.002566935,0.4368947064496584,-2.173933913306917
-0.002566305,0.4293240306767079,-2.15112909828556
-0.002565675,0.4255386927902336,-2.132125085767769
-0.002565045,0.4179680170172883,-2.113121073249987
-0.002564415,0.4217533549037592,-2.094117060732187
-0.002563785,0.4179680170172814,-2.082714653221504
-0.002563155,0.4103973412443361,-2.063710640703722
-0.002562525,0.4066120033578618,-2.04470662818593
-0.002561895,0.4066120033578618,-2.021901813164591
-0.002561265,0.4028266654713875,-2.00289780064679
-0.002560635,0.3990413275849131,-1.987694590632557
-0.002560005,0.3914706518119678,-1.968690578114774
-0.002559375,0.3838999760390157,-1.945885763093416
-0.002558745,0.3763293002660669,-1.926881750575616
-0.002558115,0.3763293002660669,-1.907877738057834
-0.002557485,0.3763293002660669,-1.888873725540043
-0.002556855,0.3725439623795943,-1.873670515525817
-0.002556225,0.3649732866066439,-1.85086570050446
-0.002555595,0.3649732866066439,-1.831861687986669
-0.002554965,0.3649732866066439,-1.812857675468887
-0.002554335,0.3611879487201695,-1.793853662951087
-0.002553705,0.3574026108336917,-1.774849650433289
-0.002553075,0.3498319350607464,-1.759646440419063
-0.002552445,0.3460465971742721,-1.736841625397713
-0.002551815,0.3384759214013234,-1.714036810376359
-0.002551185,0.3384759214013234,-1.702634402865689
-0.002550555,0.3384759214013234,-1.67982958784434
-0.002549925,0.3309052456283781,-1.660825575326558
-0.002549295,0.323334569855426,-1.638020760305199
-0.002548665,0.3271199077418969,-1.615215945283843
-0.002548035,0.3195492319689516,-1.600012735269617
-0.002547405,0.3157638940824772,-1.581008722751826
-0.002546775,0.3119785561960012,-1.562004710234025
-0.002546145,0.3081932183095285,-1.539199895212686
-0.002545515,0.3044078804230542,-1.527797487702011
-0.002544885,0.3044078804230542,-1.508793475184228
-0.002544255,0.3006225425365798,-1.48598866016287
-0.002543625,0.2968372046501037,-1.466984647645071
-0.002542995,0.2930518667636311,-1.447980635127288
-0.002542365,0.2892665288771567,-1.428976622609497
-0.002541735,0.2854811909906806,-1.406171807588141
-0.002541105,0.281695853104208,-1.390968597573915
-0.002540475,0.2741251773312593,-1.368163782552565
-0.002539845,0.266554501558314,-1.352960572538339
-0.002539215,0.2665545015583106,-1.333956560020541
-0.002538585,0.2589838257853619,-1.307350942495634
-0.002537955,0.2514131500124132,-1.288346929977843
-0.002537325,0.2514131500124132,-1.27314371996361
-0.002536695,0.2476278121259388,-1.25033890494225
-0.002536065,0.2476278121259388,-1.227534089920911
-0.002535435,0.2438424742394645,-1.212330879906678
-0.002534805,0.2362717984665192,-1.197127669892452
-0.002534175,0.2324864605800414,-1.174322854871096
-0.002533545,0.228701122693567,-1.155318842353305
-0.002532915,0.2211304469206183,-1.132514027331955
-0.002532285,0.2135597711476696,-1.117310817317722
-0.002531655,0.2135597711476696,-1.094506002296362
-0.002531025,0.2135597711476696,-1.071701187275024
-0.002530395,0.2135597711476696,-1.052697174757232
-0.002529765,0.2059890953747243,-1.03369316223945
-0.002529135,0.1984184196017721,-1.01468914972165
-0.002528505,0.1908477438288234,-0.9994859397074173
-0.002527875,0.1908477438288234,-0.9728803221825217
-0.002527245,0.1832770680558747,-0.9500755071611603
-0.002526615,0.1794917301693986,-0.9310714946433588
-0.002525985,0.175706392282926,-0.9082666796220198
-0.002525355,0.1681357165099773,-0.8930634696077868
-0.002524725,0.160565040737032,-0.8702586545864478
-0.002524095,0.1605650407370286,-0.8512546420686463
-0.002523465,0.1643503786235029,-0.8360514320544135
-0.002522835,0.1567797028505577,-0.817047419536631
-0.002522205,0.1529943649640799,-0.7904418020117147
-0.002521575,0.1492090270776038,-0.7676369869903567
-0.002520945,0.1454236891911312,-0.7486329744725742
-0.002520315,0.1378530134181824,-0.729628961954783
-0.002519685,0.1378530134181824,-0.706824146933444
-0.002519055,0.1340676755317081,-0.6878201344156425
-0.002518425,0.1264969997587594,-0.6650153193942931
-0.002517795,0.1227116618722867,-0.6498121093800671
-0.002517165,0.1113556482128619,-0.6308080968622691
-0.002516535,0.1113556482128619,-0.6118040843444693
-0.002515905,0.1113556482128619,-0.5928000718266868
-0.002515275,0.09999963455343887,-0.5737960593088957
-0.002514645,0.09999963455343715,-0.5509912442875342
-0.002514015,0.09621429666696452,-0.5243856267626387
-0.002513385,0.09621429666696452,-0.5167840217555222
-0.002512755,0.09621429666696452,-0.4901784042306268
-0.002512125,0.09242895878049015,-0.4635727867057071
-0.002511495,0.084858283007538,-0.4483695766914638
-0.002510865,0.07728760723459273,-0.4255647616701247
-0.002510235,0.07728760723459273,-0.4027599466487754
-0.002509605,0.07350226934811666,-0.3837559341309773
-0.002508975,0.06971693146164401,-0.3685527241167513
-0.002508345,0.06214625568869529,-0.3495487115989602
-0.002507715,0.05079024202927739,-0.3267438965776212
-0.002507085,0.05079024202927222,-0.3039390815562614
-0.002506455,0.0507902420292705,-0.2849350690384617
-0.002505825,0.04700490414279787,-0.2659310565206792
-0.002505195,0.04321956625632351,-0.2431262414993298
-0.002504565,0.03564889048337136,-0.2203214264779718
-0.002503935,0.02807821471042608,-0.2013174139601893
-0.002503305,0.02050753893747737,-0.1861142039459564
-0.002502675,0.01672220105100473,-0.1671101914281738
-0.002502045,0.01293686316452865,-0.1519069814139323
-0.002501415,0.01293686316452865,-0.1329029688961412
-0.002500785,0.00536618739157994,-0.1062973513712336
-0.002500155,0.001580849505105583,-0.0834925363498842
-0.002499525,-0.002204488381372217,-0.06448852383208441
-0.002498895,-0.009775164154317489,-0.04548451131430192
-0.002498265,-0.01356050204079185,-0.02267969629295255
-0.002497635,-0.01356050204079185,0.0001251187283864523
-0.002497005,-0.02113117781374056,0.01532832874262974
-0.002496375,-0.02113117781374056,0.03433234126042087
-0.002495745,-0.02870185358668583,0.05713715628175987
-0.002495115,-0.03248719147316363,0.07994197130311961
-0.002494485,-0.03248719147316535,0.09894598382092112
-0.002493855,-0.03627252935963799,0.1217507988422601
-0.002493225,-0.04005786724611235,0.1445556138636095
-0.002492595,-0.04762854301905762,0.163559626381392
-0.002491965,-0.05519921879200977,0.18636444140275
-0.002491335,-0.06276989456495849,0.2091692564240994
-0.002490705,-0.06276989456495849,0.2281732689418819
-0.002490075,-0.06655523245143284,0.2433764789561234
-0.002489445,-0.07034057033790893,0.2623804914739232
-0.002488815,-0.07412590822438156,0.2813845039917057
-0.002488185,-0.08548192188380463,0.3041893190130551
-0.002487555,-0.08926725977027727,0.3269941340343941
-0.002486925,-0.08926725977027899,0.3459981465521956
-0.002486295,-0.0968379355432277,0.3650021590699867
-0.002485665,-0.0968379355432277,0.3802053690842127
-0.002485035,-0.1006232734297021,0.403010184105569
-0.002484405,-0.1006232734297055,0.4220141966233688
-0.002483775,-0.1081939492026508,0.4410182091411513
-0.002483145,-0.1119792870891251,0.4600222216589425
-0.002482515,-0.1195499628620739,0.4828270366803022
-0.002481885,-0.1195499628620739,0.5056318517016412
-0.002481255,-0.1195499628620739,0.5208350617158741
-0.002480625,-0.1233353007485465,0.5474406792407696
-0.002479995,-0.1309059765214969,0.5702454942621311
-0.002479365,-0.1346913144079747,0.5892495067799309
-0.002478735,-0.14226199018092,0.6082535192977133
-0.002478105,-0.1460473280673943,0.6310583343190628
-0.002477475,-0.1498326659538704,0.6500623468368641
-0.002476845,-0.1536180038403431,0.6728671618582033
-0.002476215,-0.1574033417268174,0.6918711743759944
-0.002475585,-0.1611886796132901,0.7108751868937768
-0.002474955,-0.1611886796132918,0.7260783969080185
-0.002474325,-0.1649740174997696,0.7488832119293781
-0.002473695,-0.1725446932727148,0.7716880269507171
-0.002473065,-0.1801153690456636,0.7906920394685083
-0.002472435,-0.1801153690456618,0.8134968544898663
-0.002471805,-0.1763300311591892,0.8325008670076488
-0.002471175,-0.1801153690456636,0.8553056820289981
-0.002470545,-0.1876860448186088,0.8705088920432242
-0.002469915,-0.1990420584780354,0.885712102057464
-0.002469285,-0.2066127342509841,0.9047161145752551
-0.002468655,-0.2103980721374584,0.9237201270930463
-0.002468025,-0.2141834100239328,0.9503257446179539
-0.002467395,-0.2217540857968832,0.9769313621428701
-0.002466765,-0.2255394236833559,0.9959353746606526
-0.002466135,-0.2217540857968815,1.014939387178444
-0.002465505,-0.2293247615698268,1.033943399696226
-0.002464875,-0.2331100994563046,1.056748214717584
-0.002464245,-0.2331100994563046,1.071951424731817
-0.002463615,-0.2444661131157276,1.090955437249608
-0.002462985,-0.248251451002202,1.113760252270958
