Module3/data/exp3/5_Module2sine_1kHz_OP97F_1V_10kOhm.csv

#Digilent WaveForms Oscilloscope Acquisition
#Device Name: Discovery2
#Serial Number: SN:210321AC1D4D
#Date Time: 2020-11-19 16:52:04.602
#Sample rate: 1.5873e+06Hz
#Samples: 8192
#Trigger: Source: Channel 1 Type: Edge Condition: Rising Level: 0 V Hyst.: Auto HoldOff: 0 s
#Channel 1: Range: 1 V/div Offset: 0 V Attenuation: 1 X
#Channel 2: Range: 1 V/div Offset: 0 V Attenuation: 1 X
#Wavegen Channel 1: Running
#Mode: Simple
#Type: Sine
#Frequency: 1 kHz
#Period: 1 ms
#Amplitude: 1 V
#Offset: 0 V
#Symmetry: 50 %
#Phase: 0 ¡Æ
#Wavegen Channel 2: Running
#Mode: Simple
#Type: DC
#Offset: 1 V
#Power Supplies: ON
#Positive Supply: ON
#Voltage: 5 V
#Negative Supply: ON
#Voltage: -5 V

Time (s),Channel 1 (V),Channel 2 (V)
-0.00269892,0.9971247136478615,-4.29858251279596
-0.00269829,0.9971247136478615,-4.29858251279596
-0.00269766,0.9933393757613872,-4.29858251279596
-0.00269703,0.9971247136478615,-4.298582512795956
-0.0026964,0.9971247136478615,-4.290980907788843
-0.00269577,1.000910051534336,-4.29858251279596
-0.00269514,0.9971247136478633,-4.29858251279596
-0.00269451,0.9971247136478615,-4.302383315299518
-0.00269388,0.9971247136478615,-4.302383315299518
-0.00269325,0.9971247136478615,-4.302383315299518
-0.00269262,0.9971247136478615,-4.29858251279596
-0.00269199,0.9933393757613854,-4.298582512795962
-0.00269136,0.9895540378749128,-4.302383315299518
-0.00269073,0.9819833621019641,-4.302383315299518
-0.0026901,0.9819833621019641,-4.302383315299514
-0.00268947,0.9819833621019641,-4.294781710292401
-0.00268884,0.9781980242154897,-4.294781710292401
-0.00268821,0.9819833621019624,-4.287180105285288
-0.00268758,0.9781980242154897,-4.290980907788843
-0.00268695,0.9781980242154863,-4.294781710292401
-0.00268632,0.9706273484425411,-4.294781710292401
-0.00268569,0.9706273484425411,-4.294781710292401
-0.00268506,0.9668420105560667,-4.294781710292403
-0.00268443,0.9668420105560667,-4.29858251279596
-0.0026838,0.9630566726695923,-4.306184117803076
-0.00268317,0.9630566726695923,-4.30238331529952
-0.00268254,0.9630566726695923,-4.29858251279596
-0.00268191,0.9630566726695888,-4.29858251279596
-0.00268128,0.9554859968966436,-4.29858251279596
-0.00268065,0.9517006590101692,-4.29858251279596
-0.00268002,0.9554859968966402,-4.298582512795962
-0.00267939,0.9479153211236949,-4.302383315299518
-0.00267876,0.9479153211236949,-4.29858251279596
-0.00267813,0.9479153211236949,-4.294781710292403
-0.0026775,0.9479153211236949,-4.29858251279596
-0.00267687,0.9441299832372205,-4.302383315299518
-0.00267624,0.9479153211236949,-4.306184117803076
-0.00267561,0.9403446453507461,-4.29858251279596
-0.00267498,0.9327739695777992,-4.29858251279596
-0.00267435,0.9365593074642719,-4.29858251279596
-0.00267372,0.9403446453507461,-4.294781710292401
-0.00267309,0.9365593074642736,-4.298582512795958
-0.00267246,0.9365593074642719,-4.29858251279596
-0.00267183,0.9327739695777975,-4.302383315299518
-0.0026712,0.9327739695777975,-4.29858251279596
-0.00267057,0.9252032938048488,-4.29858251279596
-0.00266994,0.9214179559183744,-4.302383315299518
-0.00266931,0.9214179559183744,-4.302383315299518
-0.00266868,0.9214179559183744,-4.29858251279596
-0.00266805,0.9138472801454292,-4.294781710292403
-0.00266742,0.9138472801454257,-4.294781710292401
-0.00266679,0.9138472801454257,-4.29858251279596
-0.00266616,0.9100619422589531,-4.294781710292403
-0.00266553,0.9062766043724769,-4.29858251279596
-0.0026649,0.9100619422589495,-4.302383315299516
-0.00266427,0.9062766043724769,-4.29858251279596
-0.00266364,0.9024912664860026,-4.294781710292401
-0.00266301,0.89870592859953,-4.298582512795958
-0.00266238,0.8911352528265796,-4.29858251279596
-0.00266175,0.8987059285995282,-4.294781710292401
-0.00266112,0.8987059285995282,-4.290980907788845
-0.00266049,0.8949205907130539,-4.290980907788843
-0.00265986,0.8949205907130539,-4.29858251279596
-0.00265923,0.8949205907130539,-4.29858251279596
-0.0026586,0.8911352528265796,-4.29858251279596
-0.00265797,0.887349914940107,-4.29858251279596
-0.00265734,0.8797792391671565,-4.294781710292401
-0.00265671,0.8797792391671565,-4.294781710292401
-0.00265608,0.8797792391671565,-4.294781710292401
-0.00265545,0.8759939012806821,-4.29858251279596
-0.00265482,0.8759939012806803,-4.294781710292403
-0.00265419,0.8722085633942077,-4.29858251279596
-0.00265356,0.864637887621259,-4.29858251279596
-0.00265293,0.8608525497347829,-4.302383315299516
-0.0026523,0.8570672118483104,-4.29858251279596
-0.00265167,0.853281873961836,-4.29858251279596
-0.00265104,0.8570672118483086,-4.29858251279596
-0.00265041,0.853281873961836,-4.29858251279596
-0.00264978,0.853281873961836,-4.29858251279596
-0.00264915,0.853281873961836,-4.29858251279596
-0.00264852,0.853281873961836,-4.302383315299518
-0.00264789,0.8494965360753616,-4.29858251279596
-0.00264726,0.8494965360753616,-4.29858251279596
-0.00264663,0.8494965360753616,-4.294781710292401
-0.002646,0.845711198188889,-4.298582512795958
-0.00264537,0.8419258603024129,-4.290980907788843
-0.00264474,0.8381405224159385,-4.302383315299518
-0.00264411,0.8343551845294641,-4.302383315299518
-0.00264348,0.8267845087565154,-4.29858251279596
-0.00264285,0.8305698466429898,-4.302383315299518
-0.00264222,0.8305698466429898,-4.302383315299518
-0.00264159,0.8267845087565154,-4.29858251279596
-0.00264096,0.8192138329835702,-4.29858251279596
-0.00264033,0.8154284950970924,-4.306184117803076
-0.0026397,0.8154284950970924,-4.306184117803076
-0.00263907,0.811643157210618,-4.306184117803076
-0.00263844,0.8040724814376693,-4.29858251279596
-0.00263781,0.8002871435511967,-4.298582512795962
-0.00263718,0.8040724814376693,-4.302383315299518
-0.00263655,0.8002871435511949,-4.302383315299518
-0.00263592,0.8040724814376675,-4.298582512795962
-0.00263529,0.8040724814376693,-4.29858251279596
-0.00263466,0.7965018056647206,-4.29858251279596
-0.00263403,0.792716467778248,-4.294781710292403
-0.0026334,0.7927164677782462,-4.294781710292401
-0.00263277,0.7889311298917718,-4.2947817102924
-0.00263214,0.7889311298917718,-4.290980907788843
-0.00263151,0.7813604541188232,-4.294781710292401
-0.00263088,0.7700044404594053,-4.294781710292401
-0.00263025,0.7662191025729257,-4.29858251279596
-0.00262962,0.7662191025729257,-4.294781710292401
-0.00262899,0.7662191025729257,-4.290980907788845
-0.00262836,0.7662191025729257,-4.294781710292401
-0.00262773,0.758648426799977,-4.294781710292403
-0.0026271,0.758648426799977,-4.29858251279596
-0.00262647,0.758648426799977,-4.294781710292401
-0.00262584,0.7510777510270318,-4.294781710292401
-0.00262521,0.7510777510270283,-4.29858251279596
-0.00262458,0.7472924131405539,-4.29858251279596
-0.00262395,0.7435070752540813,-4.29858251279596
-0.00262332,0.7397217373676053,-4.302383315299518
-0.00262269,0.7397217373676053,-4.29858251279596
-0.00262206,0.7397217373676053,-4.29858251279596
-0.00262143,0.7321510615946565,-4.29858251279596
-0.0026208,0.732151061594653,-4.306184117803076
-0.00262017,0.7245803858217078,-4.306184117803076
-0.00261954,0.7245803858217078,-4.29858251279596
-0.00261891,0.7207950479352352,-4.29858251279596
-0.00261828,0.7170097100487591,-4.294781710292401
-0.00261765,0.7132243721622813,-4.29858251279596
-0.00261702,0.7056536963893361,-4.29858251279596
-0.00261639,0.7056536963893361,-4.294781710292401
-0.00261576,0.7018683585028617,-4.294781710292405
-0.00261513,0.7018683585028617,-4.302383315299518
-0.0026145,0.6980830206163873,-4.306184117803076
-0.00261387,0.6942976827299148,-4.30238331529952
-0.00261324,0.6867270069569642,-4.302383315299518
-0.00261261,0.6867270069569642,-4.29858251279596
-0.00261198,0.6867270069569642,-4.29858251279596
-0.00261135,0.6829416690704899,-4.294781710292401
-0.00261072,0.6829416690704865,-4.298582512795964
-0.00261009,0.6753709932975411,-4.306184117803076
-0.00260946,0.6753709932975411,-4.302383315299518
-0.00260883,0.6753709932975411,-4.298582512795962
-0.0026082,0.6678003175245925,-4.294781710292401
-0.00260757,0.6640149796381181,-4.29858251279596
-0.00260694,0.6640149796381181,-4.306184117803076
-0.00260631,0.6602296417516438,-4.302383315299518
-0.00260568,0.6526589659786968,-4.29858251279596
-0.00260505,0.6564443038651694,-4.29858251279596
-0.00260442,0.6488736280922207,-4.302383315299518
-0.00260379,0.6488736280922207,-4.294781710292405
-0.00260316,0.6450882902057463,-4.294781710292401
-0.00260253,0.6450882902057463,-4.29858251279596
-0.0026019,0.6450882902057463,-4.29858251279596
-0.00260127,0.6337322765463232,-4.294781710292401
-0.00260064,0.6299469386598454,-4.298582512795958
-0.00260001,0.6223762628869002,-4.294781710292401
-0.00259938,0.6223762628869002,-4.29858251279596
-0.00259875,0.6185909250004276,-4.302383315299516
-0.00259812,0.6185909250004258,-4.29858251279596
-0.00259749,0.6148055871139515,-4.29858251279596
-0.00259686,0.6110202492274789,-4.294781710292403
-0.00259623,0.6072349113410027,-4.29858251279596
-0.0025956,0.599664235568054,-4.306184117803076
-0.00259497,0.599664235568054,-4.306184117803076
-0.00259434,0.5958788976815796,-4.306184117803076
-0.00259371,0.592093559795107,-4.294781710292407
-0.00259308,0.588308221908631,-4.29858251279596
-0.00259245,0.5845228840221566,-4.29858251279596
-0.00259182,0.5845228840221566,-4.302383315299516
-0.00259119,0.5807375461356822,-4.29858251279596
-0.00259056,0.5731668703627317,-4.302383315299518
-0.00258993,0.5693815324762591,-4.302383315299518
-0.0025893,0.5693815324762591,-4.29858251279596
-0.00258867,0.5693815324762591,-4.302383315299516
-0.00258804,0.5655961945897848,-4.306184117803076
-0.00258741,0.558025518816836,-4.306184117803076
-0.00258678,0.5504548430438908,-4.306184117803076
-0.00258615,0.546669505157413,-4.302383315299518
-0.00258552,0.5428841672709352,-4.302383315299518
-0.00258489,0.5353134914979899,-4.302383315299518
-0.00258426,0.5390988293844643,-4.302383315299518
-0.00258363,0.5353134914979899,-4.298582512795962
-0.002583,0.5353134914979899,-4.302383315299518
-0.00258237,0.5277428157250412,-4.302383315299518
-0.00258174,0.520172139952096,-4.298582512795962
-0.00258111,0.5163868020656182,-4.302383315299518
-0.00258048,0.5126014641791438,-4.309984920306633
-0.00257985,0.5126014641791438,-4.306184117803076
-0.00257922,0.5088161262926695,-4.309984920306634
-0.00257859,0.5050307884061933,-4.306184117803074
-0.00257796,0.5012454505197207,-4.302383315299518
-0.00257733,0.4974601126332464,-4.302383315299518
-0.0025767,0.5012454505197189,-4.298582512795962
-0.00257607,0.493674774746772,-4.302383315299518
-0.00257544,0.4861040989738233,-4.309984920306634
-0.00257481,0.4861040989738233,-4.302383315299518
-0.00257418,0.4823187610873489,-4.306184117803076
-0.00257355,0.4747480853144002,-4.302383315299523
-0.00257292,0.4747480853144002,-4.313785722810192
-0.00257229,0.4709627474279259,-4.313785722810192
-0.00257166,0.4633920716549806,-4.317586525313749
-0.00257103,0.4596067337685028,-4.313785722810192
-0.0025704,0.4596067337685028,-4.313785722810192
-0.00256977,0.4558213958820285,-4.317586525313751
-0.00256914,0.4520360579955541,-4.321387327817309
-0.00256851,0.4444653822226037,-4.317586525313751
-0.00256788,0.440680044336131,-4.317586525313751
-0.00256725,0.4368947064496567,-4.317586525313751
-0.00256662,0.4255386927902388,-4.317586525313751
-0.00256599,0.4255386927902336,-4.321387327817309
-0.00256536,0.4255386927902336,-4.321387327817309
-0.00256473,0.4255386927902336,-4.321387327817309
-0.0025641,0.4179680170172849,-4.325188130320868
-0.00256347,0.4103973412443361,-4.321387327817309
-0.00256284,0.4103973412443361,-4.321387327817309
-0.00256221,0.4028266654713875,-4.325188130320868
-0.00256158,0.3990413275849148,-4.328988932824424
-0.00256095,0.3990413275849131,-4.332789735327983
-0.00256032,0.3990413275849131,-4.336590537831542
-0.00255969,0.3952559896984404,-4.336590537831542
-0.00255906,0.38768531392549,-4.336590537831542
-0.00255843,0.3801146381525396,-4.3403913403351
-0.0025578,0.3763293002660669,-4.3403913403351
-0.00255717,0.3725439623795926,-4.347992945342217
-0.00255654,0.36875862449312,-4.344192142838661
-0.00255591,0.3687586244931182,-4.3403913403351
-0.00255528,0.3649732866066439,-4.332789735327983
-0.00255465,0.3574026108336986,-4.309984920306645
-0.00255402,0.3574026108336952,-4.27577769777461
-0.00255339,0.3460465971742738,-4.237769672739008
-0.00255276,0.3498319350607464,-4.192160042696329
-0.00255213,0.3460465971742721,-4.142749610150072
-0.0025515,0.3384759214013217,-4.081936770093115
-0.00255087,0.334690583514849,-4.024924732539767
-0.00255024,0.3309052456283746,-3.964111892482835
-0.00254961,0.3309052456283746,-3.899498249922375
-0.00254898,0.323334569855426,-3.838685409865414
-0.00254835,0.3157638940824755,-3.781673372312015
-0.00254772,0.3119785561960029,-3.724661334758667
-0.00254709,0.3081932183095285,-3.663848494701735
-0.00254646,0.3044078804230524,-3.606836457148338
-0.00254583,0.3006225425365798,-3.553625222098547
-0.0025452,0.3006225425365798,-3.504214789552289
-0.00254457,0.2930518667636345,-3.458605159509612
-0.00254394,0.2854811909906824,-3.405393924459776
-0.00254331,0.2779105152177336,-3.355983491913493
-0.00254268,0.2779105152177336,-3.298971454360146
-0.00254205,0.2741251773312593,-3.245760219310331
-0.00254142,0.2665545015583088,-3.196349786764049
-0.00254079,0.2627691636718362,-3.143138551714258
-0.00254016,0.2627691636718362,-3.101329724175118
-0.00253953,0.2589838257853636,-3.051919291628883
-0.0025389,0.2551984878988875,-3.002508859082604
-0.00253827,0.2514131500124132,-2.953098426536346
-0.00253764,0.2438424742394645,-2.911289598997207
-0.00253701,0.2400571363529901,-2.858078363947391
-0.00253638,0.2324864605800362,-2.812468733904673
-0.00253575,0.2211304469206183,-2.770659906365552
-0.00253512,0.2211304469206183,-2.725050276322853
-0.00253449,0.2173451090341457,-2.675639843776618
-0.00253386,0.2135597711476696,-2.633831016237456
-0.00253323,0.2097744332611952,-2.588221386194757
-0.0025326,0.2059890953747209,-2.5388109536485
-0.00253197,0.2022037574882465,-2.49700212610936
-0.00253134,0.1984184196017687,-2.451392496066642
-0.00253071,0.1908477438288234,-2.40958366852752
-0.00253008,0.1832770680558747,-2.367774840988379
-0.00252945,0.1794917301694021,-2.314563605938588
-0.00252882,0.1719210543964517,-2.272754778399424
-0.00252819,0.1681357165099773,-2.230945950860283
-0.00252756,0.1643503786235047,-2.185336320817605
-0.00252693,0.1643503786235029,-2.139726690774886
-0.0025263,0.1643503786235029,-2.097917863235724
-0.00252567,0.1643503786235029,-2.052308233193046
-0.00252504,0.1567797028505542,-2.010499405653906
-0.00252441,0.149209027077609,-1.972491380618341
-0.00252378,0.1454236891911312,-1.923080948072067
-0.00252315,0.1378530134181824,-1.885072923036484
-0.00252252,0.1378530134181824,-1.839463292993806
-0.00252189,0.1378530134181824,-1.801455267958203
-0.00252126,0.1340676755317046,-1.763447242922597
-0.00252063,0.1264969997587594,-1.710236007872806
-0.00252,0.122711661872285,-1.668427180333665
-0.00251937,0.1189263239858124,-1.626618352794544
-0.00251874,0.1151409860993363,-1.588610327758943
-0.00251811,0.1037849724399132,-1.55060230272336
-0.00251748,0.09999963455344059,-1.501191870177126
-0.00251685,0.09621429666696452,-1.459383042637963
-0.00251622,0.0886436208940158,-1.413773412595245
-0.00251559,0.0886436208940158,-1.371964585056124
-0.00251496,0.08107294512106708,-1.330155757516983
-0.00251433,0.08107294512106708,-1.284546127474265
-0.0025137,0.08107294512106708,-1.242737299935144
-0.00251307,0.07728760723459273,-1.200928472396003
-0.00251244,0.06971693146164745,-1.162920447360438
-0.00251181,0.06214625568869529,-1.124912422324839
-0.00251118,0.0507902420292705,-1.079302792282121
-0.00251055,0.04700490414279787,-1.037493964742999
-0.00250992,0.04700490414279787,-0.995685137203859
-0.00250929,0.04321956625632179,-0.946274704657583
-0.00250866,0.03943422836984915,-0.9044658771184615
-0.00250803,0.03943422836984915,-0.862657049579321
-0.0025074,0.03186355259690388,-0.8246490245437561
-0.00250677,0.02807821471042608,-0.77903939450104
-0.00250614,0.02429287682394656,-0.7372305669618822
-0.00250551,0.01293686316452865,-0.6992225419263172
-0.00250488,0.01293686316452865,-0.6536129118836185
-0.00250425,0.00536618739157994,-0.6156048868480172
-0.00250362,0.00536618739157994,-0.5737960593088957
-0.00250299,0.001580849505105583,-0.5319872317697552
-0.00250236,-0.005989826267839689,-0.4901784042306336
-0.00250173,-0.009775164154317489,-0.4407679716843577
-0.0025011,-0.01356050204079185,-0.3989591441452172
-0.00250047,-0.0173458399272662,-0.3609511191096349
-0.00249984,-0.02491651570021492,-0.3115406865633779
-0.00249921,-0.03248719147316535,-0.2697318590242184
-0.00249858,-0.03627252935963799,-0.2279230314850969
-0.00249795,-0.04005786724611235,-0.1861142039459564
-0.00249732,-0.03248719147316707,-0.1519069814139479
-0.00249669,-0.03627252935963799,-0.1062973513712336
-0.00249606,-0.0438432051325867,-0.06448852383209305
-0.00249543,-0.05141388090553198,-0.02267969629297156
-0.0024948,-0.05519921879200977,0.02673073625330442
-0.00249417,-0.05898455667848757,0.0685395637924622
-0.00249354,-0.06655523245143284,0.1065475888280272
-0.00249291,-0.07412590822438156,0.1445556138636095
-0.00249228,-0.07412590822438156,0.1901652439062875
-0.00249165,-0.07791124611085593,0.235774873949007
-0.00249102,-0.08548192188380463,0.2813845039917057
-0.00249039,-0.08548192188380463,0.3193925290272707
-0.00248976,-0.09305259765675335,0.3574005540628703
-0.00248913,-0.09683793554322598,0.3992093816020333
-0.0024885,-0.09305259765675335,0.4486198141482678
-0.00248787,-0.1006232734297021,0.4866278391838501
-0.00248724,-0.1044086113161747,0.5284366667229716
-0.00248661,-0.1157646249755995,0.5740462967656893
-0.00248598,-0.1195499628620739,0.6120543218012716
-0.00248535,-0.1195499628620739,0.6538631493403931
-0.00248472,-0.1271206386350225,0.7032735818866691
-0.00248409,-0.1309059765214986,0.7450824094258269
-0.00248346,-0.1346913144079713,0.7830904344613918
-0.00248283,-0.1384766522944456,0.8287000645040906
-0.0024822,-0.1422619901809217,0.8705088920432501
-0.00248157,-0.1460473280673943,0.9123177195823716
-0.00248094,-0.1536180038403431,0.9541265471215121
-0.00248031,-0.1574033417268157,0.9997361771641902
-0.00247968,-0.1574033417268174,1.04534580720691
-0.00247905,-0.1649740174997679,1.087154634746067
-0.00247842,-0.1687593553862405,1.125162659781632
-0.00247779,-0.1687593553862405,1.166971487320773
-0.00247716,-0.1763300311591909,1.204979512356372
-0.00247653,-0.1801153690456636,1.242987537391937
-0.0024759,-0.1876860448186123,1.288597167434636
-0.00247527,-0.1876860448186123,1.338007599980871
-0.00247464,-0.1914713827050866,1.376015625016475
-0.00247401,-0.1990420584780354,1.414023650052078
-0.00247338,-0.1990420584780354,1.459633280094756
-0.00247275,-0.2066127342509841,1.505242910137455
-0.00247212,-0.2141834100239345,1.547051737676615
-0.00247149,-0.2179687479104071,1.588860565215736
-0.00247086,-0.2255394236833559,1.626868590251318
-0.00247023,-0.2255394236833559,1.672478220293997
-0.0024696,-0.2255394236833559,1.714287047833158
-0.00246897,-0.2368954373427789,1.75229507286874
-0.00246834,-0.2406807752292533,1.794103900407881
-0.00246771,-0.2444661131157276,1.835912727947021
-0.00246708,-0.2444661131157276,1.88152235798974
-0.00246645,-0.2444661131157276,1.927131988032419
-0.00246582,-0.2520367888886763,1.965140013068001
-0.00246519,-0.2520367888886763,2.010749643110679
-0.00246456,-0.259607464661625,2.048757668146282
-0.00246393,-0.2633928025480994,2.090566495685422
-0.0024633,-0.2671781404345738,2.136176125728121
-0.00246267,-0.2709634783210481,2.177984953267262
-0.00246204,-0.2747488162075242,2.219793780806419
-0.00246141,-0.2785341540939968,2.257801805841985
-0.00246078,-0.2861048298669456,2.299610633381125
-0.00246015,-0.2936755056398908,2.341419460920247
-0.00245952,-0.2936755056398943,2.383228288459406
-0.00245889,-0.2936755056398943,2.428837918502105
-0.00245826,-0.2936755056398943,2.463045141034113
-0.00245763,-0.301246181412843,2.504853968573269
-0.002457,-0.3050315192993225,2.546662796112431
-0.00245637,-0.3163875329587404,2.592272426155109
