Module3/data/exp3/6_Module2sine_1kHz_OP97F_sine_0.5V_DC400mV.csv

#Digilent WaveForms Oscilloscope Acquisition
#Device Name: Discovery2
#Serial Number: SN:210321AC1D4D
#Date Time: 2020-11-19 17:06:41.852
#Sample rate: 1.5873e+06Hz
#Samples: 8192
#Trigger: Source: Channel 1 Type: Edge Condition: Rising Level: 0 V Hyst.: Auto HoldOff: 0 s
#Channel 1: Range: 1 V/div Offset: 0 V Attenuation: 1 X
#Channel 2: Range: 1 V/div Offset: 0 V Attenuation: 1 X
#Wavegen Channel 1: Running
#Mode: Simple
#Type: Sine
#Frequency: 1 kHz
#Period: 1 ms
#Amplitude: 500 mV
#Offset: 0 V
#Symmetry: 50 %
#Phase: 0 ¡Æ
#Wavegen Channel 2: Running
#Mode: Simple
#Type: DC
#Offset: 400 mV
#Power Supplies: ON
#Positive Supply: ON
#Voltage: 5 V
#Negative Supply: ON
#Voltage: -5 V

Time (s),Channel 1 (V),Channel 2 (V)
-0.0026964,0.4974601126332464,-2.782062313876226
-0.00269577,0.5012454505197189,-2.774460708869113
-0.00269514,0.4974601126332464,-2.77446070886911
-0.00269451,0.4898894368602977,-2.77446070886911
-0.00269388,0.4898894368602977,-2.77446070886911
-0.00269325,0.493674774746772,-2.770659906365552
-0.00269262,0.493674774746772,-2.766859103861996
-0.00269199,0.493674774746772,-2.763058301358435
-0.00269136,0.493674774746772,-2.759257498854877
-0.00269073,0.4898894368602994,-2.75545669635132
-0.0026901,0.4861040989738233,-2.751655893847761
-0.00268947,0.4861040989738233,-2.751655893847759
-0.00268884,0.4861040989738233,-2.747855091344202
-0.00268821,0.4861040989738233,-2.744054288840644
-0.00268758,0.4861040989738233,-2.740253486337083
-0.00268695,0.4861040989738233,-2.73265188132997
-0.00268632,0.4861040989738233,-2.728851078826411
-0.00268569,0.4861040989738233,-2.725050276322855
-0.00268506,0.4823187610873489,-2.721249473819294
-0.00268443,0.4785334232008763,-2.717448671315733
-0.0026838,0.4823187610873489,-2.70984706630862
-0.00268317,0.4785334232008746,-2.706046263805062
-0.00268254,0.489889436860296,-2.702245461301501
-0.00268191,0.4861040989738233,-2.698444658797945
-0.00268128,0.4823187610873489,-2.694643856294388
-0.00268065,0.4785334232008763,-2.690843053790831
-0.00268002,0.4823187610873489,-2.687042251287271
-0.00267939,0.4785334232008746,-2.679440646280154
-0.00267876,0.4785334232008746,-2.679440646280154
-0.00267813,0.4785334232008746,-2.66803823876948
-0.0026775,0.4747480853144002,-2.671839041273034
-0.00267687,0.4747480853144002,-2.664237436265921
-0.00267624,0.4709627474279259,-2.660436633762363
-0.00267561,0.4747480853143985,-2.656635831258806
-0.00267498,0.4709627474279259,-2.656635831258805
-0.00267435,0.4671774095414515,-2.649034226251688
-0.00267372,0.4633920716549771,-2.64523342374813
-0.00267309,0.4671774095414515,-2.641432621244572
-0.00267246,0.4633920716549754,-2.637631818741013
-0.00267183,0.4596067337685028,-2.637631818741013
-0.0026712,0.4558213958820285,-2.633831016237456
-0.00267057,0.4558213958820285,-2.630030213733899
-0.00266994,0.4596067337685028,-2.622428608726781
-0.00266931,0.4633920716549771,-2.618627806223222
-0.00266868,0.4596067337685028,-2.614827003719665
-0.00266805,0.4558213958820285,-2.611026201216106
-0.00266742,0.4596067337684994,-2.599623793705431
-0.00266679,0.4520360579955541,-2.599623793705431
-0.00266616,0.4520360579955541,-2.595822991201874
-0.00266553,0.4482507201090815,-2.592022188698317
-0.0026649,0.4482507201090797,-2.58061978118764
-0.00266427,0.4482507201090797,-2.576818978684082
-0.00266364,0.4482507201090797,-2.576818978684082
-0.00266301,0.4444653822226054,-2.569217373676966
-0.00266238,0.4444653822226071,-2.565416571173404
-0.00266175,0.4482507201090797,-2.557814966166291
-0.00266112,0.4482507201090797,-2.554014163662733
-0.00266049,0.4444653822226071,-2.54641255865562
-0.00265986,0.4444653822226054,-2.542611756152058
-0.00265923,0.4482507201090797,-2.5388109536485
-0.0026586,0.4444653822226071,-2.5388109536485
-0.00265797,0.440680044336131,-2.527408546137825
-0.00265734,0.4368947064496567,-2.523607743634264
-0.00265671,0.4368947064496567,-2.516006138627151
-0.00265608,0.4331093685631823,-2.504603731116475
-0.00265545,0.4293240306767097,-2.504603731116475
-0.00265482,0.4331093685631823,-2.500802928612917
-0.00265419,0.4331093685631823,-2.493201323605801
-0.00265356,0.4331093685631823,-2.489400521102245
-0.00265293,0.4293240306767079,-2.485599718598684
-0.0026523,0.4255386927902353,-2.481798916095123
-0.00265167,0.4293240306767079,-2.47419731108801
-0.00265104,0.4293240306767079,-2.466595706080893
-0.00265041,0.4255386927902319,-2.458994101073777
-0.00264978,0.4217533549037592,-2.458994101073777
-0.00264915,0.4217533549037592,-2.451392496066661
-0.00264852,0.4179680170172866,-2.443790891059548
-0.00264789,0.4179680170172849,-2.436189286052428
-0.00264726,0.4141826791308105,-2.428587681045309
-0.00264663,0.4141826791308105,-2.424786878541753
-0.002646,0.4141826791308105,-2.413384471031078
-0.00264537,0.4141826791308105,-2.40578286602396
-0.00264474,0.4141826791308105,-2.401982063520403
-0.00264411,0.4179680170172849,-2.401982063520403
-0.00264348,0.4217533549037575,-2.390579656009734
-0.00264285,0.4103973412443361,-2.390579656009729
-0.00264222,0.4103973412443361,-2.38677885350617
-0.00264159,0.4028266654713875,-2.382978051002612
-0.00264096,0.4028266654713875,-2.371575643491938
-0.00264033,0.4028266654713875,-2.367774840988376
-0.0026397,0.4028266654713875,-2.360173235981263
-0.00263907,0.4028266654713875,-2.352571630974147
-0.00263844,0.3952559896984422,-2.344970025967034
-0.00263781,0.3952559896984387,-2.337368420959914
-0.00263718,0.3952559896984387,-2.333567618456355
-0.00263655,0.3952559896984387,-2.325966013449239
-0.00263592,0.3952559896984387,-2.322165210945681
-0.00263529,0.3914706518119627,-2.322165210945677
-0.00263466,0.38768531392549,-2.314563605938564
-0.00263403,0.3838999760390157,-2.306962000931448
-0.0026334,0.3876853139254883,-2.295559593420778
-0.00263277,0.38768531392549,-2.287957988413656
-0.00263214,0.38768531392549,-2.280356383406541
-0.00263151,0.38768531392549,-2.268953975895871
-0.00263088,0.3838999760390157,-2.261352370888749
-0.00263025,0.3838999760390157,-2.257551568385193
-0.00262962,0.3838999760390157,-2.261352370888749
-0.00262899,0.3801146381525413,-2.249949963378074
-0.00262836,0.3801146381525413,-2.242348358370961
-0.00262773,0.3725439623795926,-2.234746753363842
-0.0026271,0.3725439623795926,-2.227145148356725
-0.00262647,0.3725439623795926,-2.219543543349612
-0.00262584,0.3687586244931182,-2.211941938342492
-0.00262521,0.3649732866066439,-2.200539530831818
-0.00262458,0.3649732866066439,-2.200539530831818
-0.00262395,0.3611879487201695,-2.189137123321142
-0.00262332,0.3611879487201695,-2.177734715810473
-0.00262269,0.3611879487201695,-2.17393391330691
-0.00262206,0.3649732866066439,-2.166332308299793
-0.00262143,0.3574026108336986,-2.15873070329268
-0.0026208,0.3536172729472208,-2.158730703292677
-0.00262017,0.3460465971742738,-2.147328295781997
-0.00261954,0.3498319350607464,-2.135925888271328
-0.00261891,0.3536172729472208,-2.132125085767769
-0.00261828,0.3536172729472191,-2.124523480760649
-0.00261765,0.3498319350607464,-2.116921875753536
-0.00261702,0.3460465971742721,-2.10932027074642
-0.00261639,0.3460465971742721,-2.10932027074642
-0.00261576,0.3460465971742721,-2.105519468242862
-0.00261513,0.3422612592877994,-2.09791786323574
-0.0026145,0.3460465971742721,-2.08651545572507
-0.00261387,0.3460465971742721,-2.078913850717954
-0.00261324,0.3384759214013251,-2.075113048214391
-0.00261261,0.3422612592877977,-2.063710640703722
-0.00261198,0.3422612592877977,-2.056109035696605
-0.00261135,0.3384759214013251,-2.044706628185935
-0.00261072,0.334690583514849,-2.037105023178814
-0.00261009,0.3309052456283746,-2.029503418171694
-0.00260946,0.3309052456283746,-2.021901813164581
-0.00260883,0.3271199077419003,-2.018101010661023
-0.0026082,0.3271199077418986,-2.010499405653901
-0.00260757,0.323334569855426,-1.999096998143231
-0.00260694,0.323334569855426,-1.995296195639673
-0.00260631,0.3195492319689533,-1.991495393136117
-0.00260568,0.3195492319689516,-1.983893788128998
-0.00260505,0.3195492319689516,-1.968690578114765
-0.00260442,0.3157638940824772,-1.964889775611207
-0.00260379,0.3157638940824772,-1.957288170604091
-0.00260316,0.3119785561960046,-1.949686565596969
-0.00260253,0.3157638940824772,-1.9382841580863
-0.0026019,0.3157638940824772,-1.934483355582741
-0.00260127,0.3081932183095319,-1.926881750575629
-0.00260064,0.3081932183095285,-1.91547934306495
-0.00260001,0.3044078804230542,-1.907877738057834
-0.00259938,0.3006225425365798,-1.900276133050717
-0.00259875,0.3006225425365798,-1.888873725540043
-0.00259812,0.3006225425365815,-1.877471318029365
-0.00259749,0.3044078804230542,-1.869869713022251
-0.00259686,0.3006225425365798,-1.862268108015135
-0.00259623,0.3044078804230524,-1.854666503008022
-0.0025956,0.3044078804230542,-1.854666503008019
-0.00259497,0.2968372046501054,-1.847064898000902
-0.00259434,0.2968372046501054,-1.835662490490233
-0.00259371,0.2968372046501054,-1.824260082979553
-0.00259308,0.2968372046501037,-1.812857675468873
-0.00259245,0.2930518667636311,-1.801455267958203
-0.00259182,0.2892665288771567,-1.797654465454645
-0.00259119,0.2930518667636294,-1.797654465454645
-0.00259056,0.2892665288771567,-1.790052860447529
-0.00258993,0.2892665288771567,-1.778650452936854
-0.0025893,0.2816958531042115,-1.771048847929741
-0.00258867,0.281695853104208,-1.759646440419063
-0.00258804,0.2779105152177319,-1.748244032908385
-0.00258741,0.2741251773312593,-1.740642427901272
-0.00258678,0.2779105152177336,-1.729240020390597
-0.00258615,0.274125177331261,-1.725439217887041
-0.00258552,0.2741251773312593,-1.717837612879922
-0.00258489,0.2741251773312593,-1.702634402865689
-0.00258426,0.2703398394447867,-1.695032797858577
-0.00258363,0.270339839444785,-1.698833600362131
-0.002583,0.2703398394447815,-1.687431192851451
-0.00258237,0.2627691636718362,-1.676028785340782
-0.00258174,0.2551984878988875,-1.668427180333665
-0.00258111,0.2551984878988858,-1.660825575326544
-0.00258048,0.2514131500124132,-1.649423167815874
-0.00257985,0.2514131500124132,-1.641821562808758
-0.00257922,0.2476278121259405,-1.634219957801645
-0.00257859,0.2476278121259388,-1.619016747787408
-0.00257796,0.2438424742394627,-1.615215945283845
-0.00257733,0.2400571363529901,-1.603813537773175
-0.0025767,0.2362717984665157,-1.596211932766059
-0.00257607,0.2362717984665157,-1.592411130262497
-0.00257544,0.2362717984665157,-1.584809525255384
-0.00257481,0.2362717984665157,-1.577207920248268
-0.00257418,0.2324864605800431,-1.565805512737598
-0.00257355,0.2324864605800414,-1.558203907730477
-0.00257292,0.2324864605800414,-1.543000697716244
-0.00257229,0.2324864605800414,-1.535399092709127
-0.00257166,0.2211304469206183,-1.523996685198453
-0.00257103,0.2211304469206166,-1.520195882694891
-0.0025704,0.2173451090341439,-1.512594277687778
-0.00256977,0.2173451090341439,-1.497391067673545
-0.00256914,0.2173451090341439,-1.489789462666432
-0.00256851,0.2135597711476696,-1.482187857659312
-0.00256788,0.2135597711476696,-1.474586252652196
-0.00256725,0.2135597711476696,-1.463183845141521
-0.00256662,0.2059890953747209,-1.455582240134405
-0.00256599,0.2022037574882482,-1.444179832623728
-0.00256536,0.2059890953747209,-1.440379030120172
-0.00256473,0.2059890953747209,-1.428976622609497
-0.0025641,0.2022037574882482,-1.417574215098828
-0.00256347,0.2022037574882465,-1.413773412595264
-0.00256284,0.1984184196017721,-1.402371005084589
-0.00256221,0.1984184196017721,-1.39096859757392
-0.00256158,0.1984184196017721,-1.37956619006324
-0.00256095,0.1870624059423474,-1.371964585056118
-0.00256032,0.1832770680558747,-1.360562177545449
-0.00255969,0.1832770680558747,-1.349159770034774
-0.00255906,0.1870624059423474,-1.341558165027661
-0.00255843,0.1870624059423491,-1.337757362524099
-0.0025578,0.1832770680558747,-1.326354955013425
-0.00255717,0.1832770680558747,-1.314952547502755
-0.00255654,0.1794917301694004,-1.307350942495634
-0.00255591,0.1757063922829277,-1.299749337488514
-0.00255528,0.1794917301694004,-1.292147732481401
-0.00255465,0.175706392282926,-1.284546127474284
-0.00255402,0.1681357165099807,-1.273143719963615
-0.00255339,0.1643503786235029,-1.265542114956493
-0.00255276,0.1643503786235029,-1.257940509949377
-0.00255213,0.1643503786235029,-1.242737299935151
-0.0025515,0.1643503786235029,-1.231334892424469
-0.00255087,0.1643503786234995,-1.223733287417349
-0.00255024,0.1567797028505542,-1.216131682410236
-0.00254961,0.1567797028505542,-1.20853007740312
-0.00254898,0.1605650407370252,-1.193326867388883
-0.00254835,0.1529943649640799,-1.18572526238177
-0.00254772,0.1567797028505542,-1.181924459878212
-0.00254709,0.1567797028505542,-1.166721249863986
-0.00254646,0.1567797028505542,-1.159119644856863
-0.00254583,0.1529943649640781,-1.147717237346185
-0.0025452,0.1492090270776055,-1.140115632339072
-0.00254457,0.1454236891911312,-1.136314829835513
-0.00254394,0.1454236891911277,-1.12871322482839
-0.00254331,0.1378530134181824,-1.113510014814164
-0.00254268,0.1416383513046568,-1.094506002296373
-0.00254205,0.1416383513046568,-1.090705199792817
-0.00254142,0.1340676755317081,-1.083103594785698
-0.00254079,0.1340676755317098,-1.071701187275018
-0.00254016,0.1378530134181824,-1.060298779764349
-0.00253953,0.1378530134181824,-1.048896372253674
-0.0025389,0.1340676755317064,-1.045095569750114
-0.00253827,0.1302823376452337,-1.041294767246558
-0.00253764,0.1264969997587594,-1.037493964742999
-0.00253701,0.1340676755317046,-1.022290754728773
-0.00253638,0.1302823376452337,-1.007087544714534
-0.00253575,0.1264969997587594,-0.995685137203859
-0.00253512,0.122711661872285,-0.9880835321967425
-0.00253449,0.1189263239858107,-0.9766811246860678
-0.00253386,0.1113556482128585,-0.9690795196789462
-0.00253323,0.1037849724399132,-0.9576771121682768
-0.0025326,0.1037849724399132,-0.9538763096647185
-0.00253197,0.09621429666696796,-0.942473902154049
-0.00253134,0.09621429666696452,-0.9234698896362526
-0.00253071,0.09999963455343887,-0.9158682846291362
-0.00253008,0.1037849724399132,-0.9082666796220198
-0.00252945,0.1037849724399132,-0.9006650746149033
-0.00252882,0.09621429666696624,-0.8892626671042252
-0.00252819,0.09999963455343887,-0.8816610620971121
-0.00252756,0.09242895878049015,-0.8664578520828793
-0.00252693,0.09242895878049015,-0.8588562470757662
-0.0025263,0.0886436208940158,-0.8512546420686463
-0.00252567,0.08485828300754145,-0.8398522345579716
-0.00252504,0.08485828300754145,-0.8208482220401891
-0.00252441,0.08107294512106708,-0.8170474195366223
-0.00252378,0.07350226934811666,-0.8132466170330588
-0.00252315,0.06971693146164401,-0.8018442095223893
-0.00252252,0.06971693146164401,-0.7904418020117147
-0.00252189,0.07350226934811666,-0.7866409995081582
-0.00252126,0.06971693146164401,-0.7714377894939235
-0.00252063,0.06971693146164401,-0.7562345794796906
-0.00252,0.06593159357517138,-0.7486329744725776
-0.00251937,0.06214625568869529,-0.7410313694654577
-0.00251874,0.06593159357516794,-0.725828159451223
-0.00251811,0.06214625568869529,-0.7220273569476666
-0.00251748,0.05836091780222094,-0.7144257519405501
-0.00251685,0.06214625568869357,-0.7106249494369936
-0.00251622,0.05457557991574658,-0.6992225419263172
-0.00251559,0.04321956625632351,-0.6878201344156425
-0.00251496,0.03564889048337824,-0.6802185294085294
-0.00251433,0.03943422836984915,-0.6650153193942931
-0.0025137,0.0356488904833748,-0.6574137143871732
-0.00251307,0.0356488904833748,-0.6498121093800602
-0.00251244,0.0356488904833748,-0.6384097018693855
-0.00251181,0.02807821471042608,-0.6270072943587074
-0.00251118,0.02807821471042608,-0.6194056893515943
-0.00251055,0.02429287682395172,-0.6080032818409197
-0.00250992,0.02429287682395172,-0.5928000718266937
-0.00250929,0.02429287682395172,-0.5851984668195703
-0.00250866,0.02050753893747393,-0.5775968618124504
-0.00250803,0.01293686316452865,-0.5699952568053375
-0.0025074,0.01293686316452865,-0.562393651798221
-0.00250677,0.01672220105100301,-0.5509912442875411
-0.00250614,0.01672220105100301,-0.5395888367768716
-0.00250551,0.009151525278054297,-0.5319872317697552
-0.00250488,0.01293686316452693,-0.5205848242590857
-0.00250425,0.00536618739157994,-0.5053816142448475
-0.00250362,0.001580849505103862,-0.4901784042306095
-0.00250299,-0.002204488381368774,-0.47877599671994
-0.00250236,-0.002204488381368774,-0.4749751942163817
-0.00250173,0.001580849505103862,-0.4673735892092601
-0.0025011,-0.002204488381368774,-0.4559711816985906
-0.00250047,-0.002204488381368774,-0.4445687741879159
-0.00249984,-0.005989826267841411,-0.4331663666772464
-0.00249921,-0.009775164154317489,-0.4255647616701247
-0.00249858,-0.01356050204079185,-0.4141623541594501
-0.00249795,-0.009775164154317489,-0.4027599466487754
-0.00249732,-0.009775164154317489,-0.3913575391381007
-0.00249669,-0.01356050204079185,-0.3837559341309808
-0.00249606,-0.01356050204079185,-0.3761543291238678
-0.00249543,-0.0173458399272662,-0.3685527241167513
-0.0024948,-0.0173458399272662,-0.3609511191096383
-0.00249417,-0.0173458399272662,-0.3533495141025184
-0.00249354,-0.02491651570021492,-0.3419471065918437
-0.00249291,-0.02870185358668755,-0.3305446990811742
-0.00249228,-0.02491651570021492,-0.3153414890669362
-0.00249165,-0.02870185358669099,-0.303939081556258
-0.00249102,-0.03248719147316363,-0.296337476549145
-0.00249039,-0.02870185358668927,-0.2849350690384703
-0.00248976,-0.02870185358668927,-0.2773334640313573
-0.00248913,-0.03248719147316363,-0.2659310565206792
-0.0024885,-0.04005786724611235,-0.2583294515135627
-0.00248787,-0.04384320513258498,-0.2507278465064497
-0.00248724,-0.03627252935963799,-0.2393254389957716
-0.00248661,-0.03627252935963971,-0.22792303148509
-0.00248598,-0.04005786724611235,-0.212719821470864
-0.00248535,-0.0438432051325867,-0.2051182164637475
-0.00248472,-0.04762854301905934,-0.193715808953078
-0.00248409,-0.05141388090553542,-0.1823134014423981
-0.00248346,-0.05141388090553542,-0.1709109939317235
-0.00248283,-0.05898455667848069,-0.1671101914281669
-0.0024822,-0.05898455667848413,-0.1595085864210488
-0.00248157,-0.05519921879201149,-0.1519069814139254
-0.00248094,-0.05898455667848413,-0.1367037713996994
-0.00248031,-0.05519921879200977,-0.1291021663925829
-0.00247968,-0.06276989456496021,-0.1215005613854613
-0.00247905,-0.06655523245143284,-0.1100981538747918
-0.00247842,-0.07034057033790721,-0.1024965488676753
-0.00247779,-0.07412590822437984,-0.09109414135700585
-0.00247716,-0.08169658399733028,-0.07969173384632597
-0.00247653,-0.081696583997332,-0.06828932633564609
-0.0024759,-0.08548192188380463,-0.0568869188249766
-0.00247527,-0.08926725977027899,-0.05308611632141837
-0.00247464,-0.08548192188380635,-0.03788290630718028
-0.00247401,-0.08926725977027899,-0.02648049879651078
-0.00247338,-0.09305259765675335,-0.01887889378939432
-0.00247275,-0.09683793554322598,-0.01127728878228132
-0.00247212,-0.1006232734297021,0.0001251187283968225
-0.00247149,-0.1044086113161764,0.007726723735516736
-0.00247086,-0.1044086113161764,0.01532832874262974
-0.00247023,-0.1081939492026508,0.02673073625330442
-0.0024696,-0.1119792870891234,0.03813314376398429
-0.00246897,-0.1081939492026508,0.04953555127465379
-0.00246834,-0.1157646249755995,0.0647387612888867
-0.00246771,-0.1195499628620721,0.07614116879955619
-0.00246708,-0.1195499628620739,0.08754357631023607
-0.00246645,-0.1195499628620739,0.0913443788137943
-0.00246582,-0.1233353007485482,0.09894598382091076
-0.00246519,-0.1233353007485482,0.1103483913315854
-0.00246456,-0.1309059765214986,0.1179499963387054
-0.00246393,-0.1346913144079713,0.1255516013458184
-0.0024633,-0.1309059765214969,0.1331532063529348
-0.00246267,-0.1346913144079696,0.1483564163671608
-0.00246204,-0.1346913144079713,0.1559580213742842
-0.00246141,-0.1309059765214969,0.1635596263814006
-0.00246078,-0.1309059765214969,0.1749620338920753
-0.00246015,-0.1384766522944456,0.1825636388991918
-0.00245952,-0.1460473280673943,0.1977668489134282
-0.00245889,-0.1460473280673943,0.2053684539205411
-0.00245826,-0.1498326659538687,0.2129700589276576
-0.00245763,-0.1536180038403414,0.2243724664383271
-0.002457,-0.1536180038403431,0.235774873949007
