Module3/data/exp3/6_Module2sine_1kHz_OP97F_sineoffset-0.2V.csv

#Digilent WaveForms Oscilloscope Acquisition
#Device Name: Discovery2
#Serial Number: SN:210321AC1D4D
#Date Time: 2020-11-19 17:00:34.520
#Sample rate: 1.5873e+06Hz
#Samples: 8192
#Trigger: Source: Channel 1 Type: Edge Condition: Rising Level: 0 V Hyst.: Auto HoldOff: 0 s
#Channel 1: Range: 1 V/div Offset: 0 V Attenuation: 1 X
#Channel 2: Range: 1 V/div Offset: 0 V Attenuation: 1 X
#Wavegen Channel 1: Running
#Mode: Simple
#Type: Sine
#Frequency: 1 kHz
#Period: 1 ms
#Amplitude: 500 mV
#Offset: -200 mV
#Symmetry: 50 %
#Phase: 0 ¡Æ
#Wavegen Channel 2: Running
#Mode: Simple
#Type: DC
#Offset: 1 V
#Power Supplies: ON
#Positive Supply: ON
#Voltage: 5 V
#Negative Supply: ON
#Voltage: -5 V

Time (s),Channel 1 (V),Channel 2 (V)
-0.002696715,0.1946330817152978,-1.972491380618324
-0.002696085,0.1984184196017704,-1.961088973107654
-0.002695455,0.1946330817152978,-1.957288170604091
-0.002694825,0.1946330817152978,-1.945885763093413
-0.002694195,0.1946330817152978,-1.9382841580863
-0.002693565,0.1870624059423491,-1.934483355582741
-0.002692935,0.1908477438288217,-1.930682553079185
-0.002692305,0.1908477438288234,-1.926881750575625
-0.002691675,0.1832770680558747,-1.911678540561392
-0.002691045,0.1794917301694021,-1.907877738057836
-0.002690415,0.1794917301694004,-1.900276133050717
-0.002689785,0.175706392282926,-1.896475330547156
-0.002689155,0.175706392282926,-1.888873725540043
-0.002688525,0.1719210543964517,-1.885072923036484
-0.002687895,0.1757063922829243,-1.869869713022248
-0.002687265,0.1719210543964517,-1.862268108015135
-0.002686635,0.1719210543964517,-1.862268108015135
-0.002686005,0.1719210543964517,-1.858467305511579
-0.002685375,0.1719210543964517,-1.85086570050446
-0.002684745,0.1681357165099773,-1.84326409549734
-0.002684115,0.1681357165099773,-1.835662490490227
-0.002683485,0.1605650407370286,-1.824260082979553
-0.002682855,0.1643503786235029,-1.816658477972433
-0.002682225,0.1643503786235029,-1.80905687296532
-0.002681595,0.1567797028505542,-1.801455267958203
-0.002680965,0.1567797028505542,-1.797654465454647
-0.002680335,0.1567797028505542,-1.793853662951087
-0.002679705,0.1567797028505542,-1.786252057943969
-0.002679075,0.1567797028505542,-1.782451255440412
-0.002678445,0.1492090270776055,-1.767248045426179
-0.002677815,0.1454236891911329,-1.755845637915505
-0.002677185,0.1492090270776055,-1.755845637915505
-0.002676555,0.1454236891911312,-1.748244032908388
-0.002675925,0.1416383513046585,-1.740642427901275
-0.002675295,0.1416383513046568,-1.733040822894155
-0.002674665,0.1416383513046568,-1.721638415383481
-0.002674035,0.1378530134181824,-1.714036810376364
-0.002673405,0.1416383513046568,-1.706435205369248
-0.002672775,0.1378530134181842,-1.702634402865686
-0.002672145,0.1416383513046568,-1.695032797858573
-0.002671515,0.1340676755317081,-1.687431192851456
-0.002670885,0.1302823376452354,-1.679829587844344
-0.002670255,0.1302823376452337,-1.668427180333665
-0.002669625,0.1302823376452337,-1.664626377830107
-0.002668995,0.1264969997587594,-1.653223970319432
-0.002668365,0.1264969997587594,-1.641821562808758
-0.002667735,0.1264969997587559,-1.63421995780164
-0.002667105,0.1189263239858107,-1.630419155298083
-0.002666475,0.1151409860993363,-1.622817550290967
-0.002665845,0.1189263239858089,-1.615215945283854
-0.002665215,0.1113556482128619,-1.607614340276734
-0.002664585,0.1113556482128619,-1.603813537773175
-0.002663955,0.1113556482128619,-1.596211932766063
-0.002663325,0.1113556482128619,-1.584809525255384
-0.002662695,0.1075703103263859,-1.57340711774471
-0.002662065,0.1037849724399132,-1.57340711774471
-0.002661435,0.1037849724399132,-1.565805512737593
-0.002660805,0.1075703103263859,-1.55820390773048
-0.002660175,0.1037849724399132,-1.55060230272336
-0.002659545,0.1037849724399132,-1.535399092709127
-0.002658915,0.1037849724399132,-1.527797487702015
-0.002658285,0.09999963455343887,-1.520195882694894
-0.002657655,0.09999963455343887,-1.516395080191335
-0.002657025,0.09999963455343887,-1.512594277687778
-0.002656395,0.09242895878049015,-1.504992672680662
-0.002655765,0.09242895878049015,-1.489789462666436
-0.002655135,0.0886436208940158,-1.482187857659312
-0.002654505,0.09242895878049015,-1.474586252652196
-0.002653875,0.09242895878049015,-1.463183845141526
-0.002653245,0.0886436208940158,-1.459383042637963
-0.002652615,0.08864362089401236,-1.451781437630843
-0.002651985,0.08107294512106708,-1.44417983262373
-0.002651355,0.08107294512106708,-1.428976622609497
-0.002650725,0.07728760723459273,-1.425175820105935
-0.002650095,0.07728760723459273,-1.417574215098822
-0.002649465,0.06971693146164401,-1.406171807588148
-0.002648835,0.07350226934811666,-1.402371005084591
-0.002648205,0.07350226934811838,-1.394769400077473
-0.002647575,0.06971693146164229,-1.387167795070351
-0.002646945,0.06593159357516966,-1.375765387559682
-0.002646315,0.06971693146164401,-1.364362980049007
-0.002645685,0.06593159357516794,-1.352960572538331
-0.002645055,0.06214625568869529,-1.349159770034774
-0.002644425,0.06214625568869529,-1.341558165027658
-0.002643795,0.05836091780222266,-1.330155757516988
-0.002643165,0.05457557991574658,-1.322554152509867
-0.002642535,0.05079024202927222,-1.322554152509867
-0.002641905,0.04700490414279787,-1.31495254750275
-0.002641275,0.04700490414279787,-1.299749337488517
-0.002640645,0.04700490414279787,-1.288346929977839
-0.002640015,0.04700490414279787,-1.280745324970726
-0.002639385,0.04321956625632351,-1.269342917460051
-0.002638755,0.03943422836985087,-1.257940509949382
-0.002638125,0.04321956625632351,-1.25033890494226
-0.002637495,0.04321956625632351,-1.242737299935144
-0.002636865,0.04321956625632351,-1.238936497431586
-0.002636235,0.03943422836984915,-1.227534089920911
-0.002635605,0.03943422836984571,-1.216131682410233
-0.002634975,0.03186355259690044,-1.20853007740312
-0.002634345,0.0356488904833748,-1.200928472396003
-0.002633715,0.03186355259690216,-1.189526064885334
-0.002633085,0.02807821471042608,-1.18572526238177
-0.002632455,0.02429287682395172,-1.178123657374654
-0.002631825,0.02050753893747909,-1.166721249863984
-0.002631195,0.02429287682395172,-1.159119644856863
-0.002630565,0.02050753893747737,-1.151518039849741
-0.002629935,0.02050753893747737,-1.140115632339072
-0.002629305,0.01672220105100301,-1.132514027331955
-0.002628675,0.01672220105100301,-1.121111619821286
-0.002628045,0.01672220105100301,-1.12111161982128
-0.002627415,0.01293686316452865,-1.109709212310606
-0.002626785,0.009151525278056018,-1.09450600229638
-0.002626155,0.00536618739157994,-1.090705199792815
-0.002625525,0.001580849505103862,-1.075501989778578
-0.002624895,-0.002204488381368774,-1.067900384771465
-0.002624265,0.001580849505105583,-1.056497977260791
-0.002623635,-0.005989826267839689,-1.052697174757234
-0.002623005,-0.005989826267843132,-1.041294767246558
-0.002622375,-0.002204488381368774,-1.029892359735883
-0.002621745,-0.01356050204078668,-1.02229075472877
-0.002621115,-0.01356050204079185,-1.01468914972165
-0.002620485,-0.009775164154317489,-1.00328674221097
-0.002619855,-0.009775164154317489,-0.9918843347003008
-0.002619225,-0.01356050204079185,-0.9804819271896261
-0.002618595,-0.02113117781374056,-0.9728803221825062
-0.002617965,-0.02113117781374056,-0.9652787171753932
-0.002617335,-0.02491651570021492,-0.9576771121682768
-0.002616705,-0.02491651570021492,-0.9500755071611637
-0.002616075,-0.02491651570021492,-0.9386730996504856
-0.002615445,-0.03248719147316191,-0.9234698896362509
-0.002614815,-0.02870185358668927,-0.9196690871326945
-0.002614185,-0.02870185358668927,-0.9044658771184615
-0.002613555,-0.03248719147316535,-0.8930634696077834
-0.002612925,-0.03627252935963799,-0.8854618646006703
-0.002612295,-0.04005786724611235,-0.8816610620971121
-0.002611665,-0.04005786724611235,-0.8702586545864427
-0.002611035,-0.0438432051325867,-0.8588562470757628
-0.002610405,-0.04762854301905934,-0.8512546420686411
-0.002609775,-0.0438432051325867,-0.8398522345579716
-0.002609145,-0.04762854301906106,-0.8322506295508552
-0.002608515,-0.0514138809055337,-0.8284498270472935
-0.002607885,-0.04762854301906106,-0.8208482220401805
-0.002607255,-0.04762854301906106,-0.813246617033064
-0.002606625,-0.04762854301906106,-0.7942426045152816
-0.002605995,-0.05898455667848413,-0.7828401970045982
-0.002605365,-0.05898455667848413,-0.7828401970045982
-0.002604735,-0.06276989456495849,-0.7676369869903653
-0.002604105,-0.06276989456495849,-0.7600353819832488
-0.002603475,-0.06655523245143112,-0.7486329744725673
-0.002602845,-0.06276989456495849,-0.7334297644583413
-0.002602215,-0.06655523245143284,-0.7258281594512248
-0.002601585,-0.07034057033790549,-0.7182265544441118
-0.002600955,-0.07412590822438156,-0.7106249494369918
-0.002600325,-0.08169658399733028,-0.7030233444298755
-0.002599695,-0.08169658399733028,-0.695421739422759
-0.002599065,-0.07791124611085593,-0.6878201344156425
-0.002598435,-0.08548192188380291,-0.6726169244014062
-0.002597805,-0.08169658399733028,-0.6650153193942931
-0.002597175,-0.08548192188380463,-0.6536129118836185
-0.002596545,-0.09305259765674991,-0.642210504372949
-0.002595915,-0.1006232734297021,-0.6384097018693855
-0.002595285,-0.1006232734297021,-0.6270072943587108
-0.002594655,-0.1006232734297021,-0.6118040843444849
-0.002594025,-0.1006232734297021,-0.6042024793373615
-0.002593395,-0.1044086113161764,-0.5889992693231252
-0.002592765,-0.1044086113161764,-0.5813976643160121
-0.002592135,-0.1006232734297021,-0.5737960593088957
-0.002591505,-0.1044086113161747,-0.5661944543017826
-0.002590875,-0.1044086113161764,-0.5585928492946628
-0.002590245,-0.1119792870891251,-0.5547920467911045
-0.002589615,-0.1157646249755978,-0.5395888367768785
-0.002588985,-0.1157646249755995,-0.5243856267626387
-0.002588355,-0.1195499628620739,-0.5129832192519588
-0.002587725,-0.1195499628620739,-0.5015808117412893
-0.002587095,-0.1233353007485482,-0.4977800092377311
-0.002586465,-0.1195499628620756,-0.4825767992235051
-0.002585835,-0.1195499628620739,-0.47877599671994
-0.002585205,-0.1233353007485482,-0.4673735892092652
-0.002584575,-0.1233353007485482,-0.4559711816985957
-0.002583945,-0.1233353007485482,-0.4445687741879159
-0.002583315,-0.1271206386350243,-0.4331663666772361
-0.002582685,-0.1309059765214969,-0.4217639591665665
-0.002582055,-0.1346913144079713,-0.4141623541594501
-0.002581425,-0.1346913144079713,-0.4027599466487702
-0.002580795,-0.1346913144079713,-0.3913575391381007
-0.002580165,-0.1384766522944456,-0.3837559341309842
-0.002579535,-0.1422619901809183,-0.3723535266203147
-0.002578905,-0.1460473280673943,-0.3647519216131931
-0.002578275,-0.1498326659538687,-0.3571503166060732
-0.002577645,-0.1498326659538687,-0.3495487115989602
-0.002577015,-0.1536180038403431,-0.3381463040882855
-0.002576385,-0.1536180038403448,-0.3267438965776057
-0.002575755,-0.1574033417268174,-0.3153414890669362
-0.002575125,-0.1649740174997661,-0.3039390815562614
-0.002574495,-0.1649740174997661,-0.300138279052705
-0.002573865,-0.1611886796132918,-0.2849350690384703
-0.002573235,-0.1649740174997661,-0.2773334640313538
-0.002572605,-0.1649740174997661,-0.2659310565206792
-0.002571975,-0.1687593553862405,-0.2583294515135627
-0.002571345,-0.1687593553862405,-0.2431262414993263
-0.002570715,-0.1687593553862405,-0.2355246364922133
-0.002570085,-0.1763300311591892,-0.2241222289815387
-0.002569455,-0.1763300311591892,-0.2165206239744257
-0.002568825,-0.1725446932727148,-0.2089190189673057
-0.002568195,-0.1839007069321379,-0.2013174139601893
-0.002567565,-0.1876860448186123,-0.1861142039459564
-0.002566935,-0.1839007069321379,-0.1785125989388399
-0.002566305,-0.1876860448186123,-0.1709109939317183
-0.002565675,-0.1876860448186123,-0.1595085864210488
-0.002565045,-0.195256720591561,-0.1519069814139323
-0.002564415,-0.2028273963645063,-0.1443053764068193
-0.002563785,-0.2066127342509841,-0.1329029688961412
-0.002563155,-0.2066127342509841,-0.1253013638890247
-0.002562525,-0.2028273963645114,-0.1100981538747987
-0.002561895,-0.1990420584780354,-0.1024965488676753
-0.002561265,-0.2028273963645131,-0.09489494386055197
-0.002560635,-0.2103980721374584,-0.07969173384632597
-0.002560005,-0.2066127342509841,-0.06828932633565128
-0.002559375,-0.2103980721374567,-0.05688691882498179
-0.002558745,-0.2141834100239328,-0.04548451131430192
-0.002558115,-0.2179687479104071,-0.03788290630718546
-0.002557485,-0.2217540857968798,-0.03028130130007246
-0.002556855,-0.2217540857968815,-0.02267969629295255
-0.002556225,-0.2255394236833559,-0.007476486278714449
-0.002555595,-0.2255394236833559,0.003925921231955051
-0.002554965,-0.2293247615698302,0.01152752623907151
-0.002554335,-0.2293247615698302,0.01532832874262801
-0.002553705,-0.2331100994563046,0.03053153875686265
-0.002553075,-0.2368954373427789,0.04193394626753733
-0.002552445,-0.2406807752292515,0.04953555127465033
-0.002551815,-0.2406807752292533,0.0647387612888867
-0.002551185,-0.2406807752292533,0.07234036629600661
-0.002550555,-0.2406807752292533,0.07994197130311961
-0.002549925,-0.2406807752292533,0.0913443788137943
-0.002549295,-0.2444661131157294,0.09894598382091595
-0.002548665,-0.248251451002202,0.1103483913315854
-0.002548035,-0.2520367888886763,0.1179499963387019
-0.002547405,-0.2520367888886763,0.1217507988422584
-0.002546775,-0.2558221267751507,0.1331532063529348
-0.002546145,-0.2596074646616285,0.144555613863613
-0.002545515,-0.2671781404345738,0.1521572188707259
-0.002544885,-0.2671781404345738,0.1711612313885171
-0.002544255,-0.2709634783210464,0.1825636388991952
-0.002543625,-0.2671781404345738,0.1901652439063082
-0.002542995,-0.2633928025480994,0.1977668489134247
-0.002542365,-0.2709634783210447,0.2129700589276507
-0.002541735,-0.2709634783210481,0.2205716639347741
-0.002541105,-0.2709634783210498,0.2281732689418957
-0.002540475,-0.2747488162075225,0.2395756764525652
-0.002539845,-0.2785341540939968,0.2471772814596817
-0.002539215,-0.2785341540939986,0.258579688970358
-0.002538585,-0.2823194919804712,0.2623804914739146
-0.002537955,-0.2861048298669456,0.2775837014881475
-0.002537325,-0.2898901677534182,0.2851853064952605
-0.002536695,-0.2898901677534199,0.2965877140059386
-0.002536065,-0.2936755056398943,0.3041893190130551
-0.002535435,-0.2974608435263686,0.3155917265237298
-0.002534805,-0.301246181412843,0.3231933315308462
-0.002534175,-0.3012461814128413,0.3307949365379697
-0.002533545,-0.2974608435263686,0.3459981465521956
-0.002532915,-0.301246181412843,0.3535997515593121
-0.002532285,-0.2974608435263704,0.3650021590699816
-0.002531655,-0.301246181412843,0.3726037640771032
-0.002531025,-0.301246181412843,0.3840061715877779
-0.002530395,-0.3050315192993174,0.3916077765948943
-0.002529765,-0.3050315192993174,0.3992093816020108
-0.002529135,-0.3126021950722661,0.4144125916162472
-0.002528505,-0.3126021950722661,0.4220141966233601
-0.002527875,-0.3201728708452148,0.4296158016304766
-0.002527245,-0.3239582087316874,0.4448190116447026
-0.002526615,-0.3201728708452148,0.4562214191553842
-0.002525985,-0.3239582087316891,0.4638230241625007
-0.002525355,-0.3277435466181618,0.4752254316731702
-0.002524725,-0.3277435466181635,0.4866278391838501
-0.002524095,-0.3239582087316926,0.4904286416874135
-0.002523465,-0.3315288845046379,0.501831049198083
-0.002522835,-0.3315288845046379,0.5094326542051995
-0.002522205,-0.3390995602775831,0.5208350617158689
-0.002521575,-0.3390995602775866,0.5284366667229906
-0.002520945,-0.3353142223911122,0.5398390742336653
-0.002520315,-0.3353142223911122,0.5474406792407782
-0.002519685,-0.3428848981640609,0.5550422842478981
-0.002519055,-0.3428848981640626,0.5626438892550198
-0.002518425,-0.3466702360505353,0.5740462967656893
-0.002517795,-0.3504555739370097,0.5816479017728058
-0.002517165,-0.3580262497099549,0.5968511117870318
-0.002516535,-0.3618115875964327,0.6082535192977133
-0.002515905,-0.3618115875964327,0.6158551243048298
-0.002515275,-0.3580262497099601,0.6310583343190559
-0.002514645,-0.3618115875964327,0.6386599393261791
-0.002514015,-0.3618115875964362,0.6424607418297427
-0.002513385,-0.3693822633693814,0.6538631493404121
-0.002512755,-0.3731676012558558,0.6652655568510868
-0.002512125,-0.376952939142325,0.6690663593546519
-0.002511495,-0.3655969254829071,0.684269569368878
-0.002510865,-0.3693822633693814,0.6918711743759944
-0.002510235,-0.3769529391423267,0.7032735818866639
-0.002509605,-0.3807382770288045,0.7070743843902273
-0.002508975,-0.3769529391423319,0.7184767919009054
-0.002508345,-0.3807382770288045,0.7260783969080185
-0.002507715,-0.3807382770288045,0.7374808044186931
-0.002507085,-0.3845236149152789,0.7488832119293696
-0.002506455,-0.3845236149152789,0.752684014432926
-0.002505825,-0.3883089528017532,0.7602856194400425
-0.002505195,-0.3920942906882258,0.7716880269507119
-0.002504565,-0.3920942906882275,0.7830904344613918
-0.002503935,-0.3920942906882293,0.7906920394685135
-0.002503305,-0.3958796285747019,0.802094446979183
-0.002502675,-0.3958796285747019,0.8134968544898576
-0.002502045,-0.3958796285747019,0.8248992620005376
-0.002501415,-0.3958796285747019,0.8363016695112071
-0.002500785,-0.3996649664611763,0.8439032745183235
-0.002500155,-0.3996649664611763,0.8515048795254365
-0.002499525,-0.4034503043476506,0.8591064845325564
-0.002498895,-0.4110209801205993,0.8667080895396729
-0.002498265,-0.4148063180070737,0.8819112995539058
-0.002497635,-0.4148063180070737,0.885712102057464
-0.002497005,-0.4185916558935464,0.8971145095681422
-0.002496375,-0.4148063180070737,0.9047161145752551
-0.002495745,-0.4148063180070737,0.9123177195823716
-0.002495115,-0.4185916558935464,0.9237201270930411
-0.002494485,-0.4185916558935481,0.9313217321001628
-0.002493855,-0.4185916558935481,0.9465249421143956
-0.002493225,-0.4261623316664933,0.9541265471215087
-0.002492595,-0.4223769937800224,0.9617281521286286
-0.002491965,-0.4299476695529746,0.9769313621428649
-0.002491335,-0.4375183453259199,0.984532967149978
-0.002490705,-0.4337330074394455,0.9883337696535361
-0.002490075,-0.4337330074394455,0.9997361771642057
-0.002489445,-0.4413036832123942,1.007337782171327
-0.002488815,-0.4413036832123942,1.02254099218556
-0.002488185,-0.4450890210988668,1.030142597192673
-0.002487555,-0.4450890210988686,1.033943399696235
-0.002486925,-0.4488743589853429,1.045345807206912
-0.002486295,-0.4488743589853429,1.049146609710468
-0.002485665,-0.4488743589853429,1.056748214717584
-0.002485035,-0.4488743589853429,1.064349819724697
-0.002484405,-0.4526596968718173,1.075752227235375
-0.002483775,-0.4564450347582916,1.083353832242492
-0.002483145,-0.4564450347582916,1.090955437249605
-0.002482515,-0.4564450347582916,1.106158647263841
-0.002481885,-0.4602303726447677,1.113760252270965
-0.002481255,-0.4640157105312404,1.128963462285191
-0.002480625,-0.4640157105312404,1.128963462285191
-0.002479995,-0.4715863863041874,1.140365869795869
-0.002479365,-0.4678010484177147,1.147967474802982
-0.002478735,-0.4678010484177147,1.163170684817215
-0.002478105,-0.4678010484177147,1.174573092327884
-0.002477475,-0.4678010484177147,1.178373894831448
-0.002476845,-0.4715863863041891,1.182174697335011
-0.002476215,-0.4715863863041891,1.19357710484568
-0.002475585,-0.4753717241906634,1.201178709852797
-0.002474955,-0.4753717241906651,1.204979512356359
-0.002474325,-0.4791570620771378,1.212581117363472
-0.002473695,-0.4829423999636122,1.223983524874146
-0.002473065,-0.4829423999636122,1.235385932384816
-0.002472435,-0.4867277378500865,1.242987537391937
-0.002471805,-0.4905130757365608,1.250589142399059
-0.002471175,-0.4905130757365608,1.261991549909729
-0.002470545,-0.4942984136230352,1.273393957420403
-0.002469915,-0.4942984136230352,1.288597167434638
-0.002469285,-0.4942984136230352,1.292397969938194
-0.002468655,-0.4942984136230352,1.296198772441753
-0.002468025,-0.4980837515095078,1.303800377448866
-0.002467395,-0.4980837515095096,1.307601179952427
-0.002466765,-0.5056544272824582,1.319003587463102
-0.002466135,-0.5056544272824582,1.330405994973777
-0.002465505,-0.5056544272824582,1.341808402484451
-0.002464875,-0.5094397651689344,1.34560920498801
-0.002464245,-0.513225103055407,1.34560920498801
