Module3/data/exp3/6_Module2sine_1kHz_OP97F_sine_0.5V_DC100mV.csv

#Digilent WaveForms Oscilloscope Acquisition
#Device Name: Discovery2
#Serial Number: SN:210321AC1D4D
#Date Time: 2020-11-19 17:04:37.143
#Sample rate: 1.5873e+06Hz
#Samples: 8192
#Trigger: Source: Channel 1 Type: Edge Condition: Rising Level: 0 V Hyst.: Auto HoldOff: 0 s
#Channel 1: Range: 1 V/div Offset: 0 V Attenuation: 1 X
#Channel 2: Range: 1 V/div Offset: 0 V Attenuation: 1 X
#Wavegen Channel 1: Running
#Mode: Simple
#Type: Sine
#Frequency: 1 kHz
#Period: 1 ms
#Amplitude: 500 mV
#Offset: 0 V
#Symmetry: 50 %
#Phase: 0 ¡Æ
#Wavegen Channel 2: Running
#Mode: Simple
#Type: DC
#Offset: 100 mV
#Power Supplies: ON
#Positive Supply: ON
#Voltage: 5 V
#Negative Supply: ON
#Voltage: -5 V

Time (s),Channel 1 (V),Channel 2 (V)
-0.0026964,0.4823187610873489,-2.477998113591568
-0.00269577,0.4785334232008763,-2.474197311088012
-0.00269514,0.4785334232008746,-2.466595706080893
-0.00269451,0.4747480853144002,-2.462794903577335
-0.00269388,0.4747480853144002,-2.462794903577335
-0.00269325,0.4785334232008746,-2.458994101073777
-0.00269262,0.4709627474279293,-2.451392496066664
-0.00269199,0.4785334232008746,-2.447591693563102
-0.00269136,0.4823187610873489,-2.447591693563102
-0.00269073,0.4823187610873489,-2.439990088555989
-0.0026901,0.4785334232008746,-2.436189286052428
-0.00268947,0.4747480853143985,-2.436189286052428
-0.00268884,0.4709627474279259,-2.436189286052428
-0.00268821,0.4709627474279259,-2.432388483548869
-0.00268758,0.4747480853144002,-2.428587681045309
-0.00268695,0.4747480853144002,-2.424786878541753
-0.00268632,0.4671774095414515,-2.413384471031078
-0.00268569,0.4747480853143968,-2.413384471031078
-0.00268506,0.4671774095414515,-2.40958366852752
-0.00268443,0.4671774095414533,-2.40578286602396
-0.0026838,0.4709627474279259,-2.401982063520403
-0.00268317,0.4709627474279259,-2.394380458513287
-0.00268254,0.4709627474279242,-2.390579656009727
-0.00268191,0.4671774095414515,-2.38677885350617
-0.00268128,0.4633920716549771,-2.382978051002612
-0.00268065,0.4633920716549771,-2.382978051002612
-0.00268002,0.4633920716549771,-2.375376445995496
-0.00267939,0.4671774095414515,-2.367774840988377
-0.00267876,0.4671774095414515,-2.363974038484821
-0.00267813,0.4633920716549771,-2.363974038484821
-0.0026775,0.4596067337685011,-2.360173235981259
-0.00267687,0.4558213958820285,-2.352571630974147
-0.00267624,0.4558213958820285,-2.348770828470588
-0.00267561,0.4558213958820285,-2.337368420959919
-0.00267498,0.4596067337685028,-2.337368420959914
-0.00267435,0.4558213958820285,-2.337368420959914
-0.00267372,0.4558213958820285,-2.333567618456355
-0.00267309,0.4558213958820285,-2.329766815952797
-0.00267246,0.4558213958820285,-2.325966013449236
-0.00267183,0.4558213958820285,-2.318364408442123
-0.0026712,0.4520360579955541,-2.310762803435006
-0.00267057,0.4482507201090815,-2.30696200093145
-0.00266994,0.4444653822226054,-2.303161198427889
-0.00266931,0.440680044336131,-2.295559593420773
-0.00266868,0.440680044336131,-2.291758790917215
-0.00266805,0.4444653822226054,-2.287957988413656
-0.00266742,0.4444653822226054,-2.284157185910097
-0.00266679,0.4444653822226054,-2.280356383406541
-0.00266616,0.440680044336131,-2.280356383406541
-0.00266553,0.440680044336131,-2.272754778399428
-0.0026649,0.4368947064496567,-2.265153173392307
-0.00266427,0.4331093685631823,-2.257551568385191
-0.00266364,0.4293240306767097,-2.246149160874522
-0.00266301,0.4293240306767079,-2.2385475558674
-0.00266238,0.4331093685631806,-2.246149160874516
-0.00266175,0.4293240306767079,-2.246149160874516
-0.00266112,0.4331093685631823,-2.230945950860283
-0.00266049,0.4293240306767097,-2.22334434585317
-0.00265986,0.4293240306767079,-2.223344345853167
-0.00265923,0.4331093685631823,-2.21574274084605
-0.0026586,0.4293240306767097,-2.211941938342494
-0.00265797,0.4293240306767079,-2.204340333335375
-0.00265734,0.4293240306767079,-2.196738728328257
-0.00265671,0.4293240306767079,-2.192937925824701
-0.00265608,0.4255386927902336,-2.189137123321142
-0.00265545,0.4217533549037609,-2.185336320817586
-0.00265482,0.4179680170172849,-2.177734715810468
-0.00265419,0.4179680170172849,-2.170133110803351
-0.00265356,0.4141826791308122,-2.170133110803351
-0.00265293,0.4179680170172849,-2.158730703292677
-0.0026523,0.4179680170172849,-2.154929900789117
-0.00265167,0.4179680170172849,-2.15112909828556
-0.00265104,0.4179680170172849,-2.143527493278444
-0.00265041,0.4179680170172814,-2.139726690774882
-0.00264978,0.4103973412443361,-2.132125085767769
-0.00264915,0.4066120033578618,-2.124523480760653
-0.00264852,0.4103973412443344,-2.120722678257096
-0.00264789,0.4066120033578618,-2.113121073249978
-0.00264726,0.4066120033578584,-2.113121073249976
-0.00264663,0.3990413275849131,-2.10932027074642
-0.002646,0.3952559896984387,-2.097917863235745
-0.00264537,0.4028266654713857,-2.086515455725069
-0.00264474,0.3990413275849131,-2.082714653221513
-0.00264411,0.3990413275849131,-2.078913850717954
-0.00264348,0.3952559896984404,-2.067511443207285
-0.00264285,0.3952559896984387,-2.067511443207279
-0.00264222,0.3990413275849131,-2.059909838200163
-0.00264159,0.3914706518119644,-2.052308233193046
-0.00264096,0.38768531392549,-2.04470662818593
-0.00264033,0.3876853139254883,-2.037105023178814
-0.0026397,0.3838999760390157,-2.037105023178814
-0.00263907,0.38768531392549,-2.029503418171697
-0.00263844,0.38768531392549,-2.021901813164584
-0.00263781,0.3838999760390157,-2.014300208157464
-0.00263718,0.3838999760390157,-2.006698603150348
-0.00263655,0.3801146381525413,-1.995296195639673
-0.00263592,0.3801146381525413,-1.999096998143231
-0.00263529,0.3801146381525413,-1.999096998143225
-0.00263466,0.3801146381525413,-1.983893788128998
-0.00263403,0.3763293002660669,-1.972491380618324
-0.0026334,0.3725439623795943,-1.964889775611211
-0.00263277,0.3763293002660669,-1.964889775611207
-0.00263214,0.3763293002660669,-1.961088973107649
-0.00263151,0.3763293002660669,-1.953487368100536
-0.00263088,0.3725439623795926,-1.945885763093416
-0.00263025,0.3725439623795909,-1.938284158086296
-0.00262962,0.3687586244931182,-1.930682553079183
-0.00262899,0.3649732866066439,-1.926881750575625
-0.00262836,0.3649732866066439,-1.919280145568512
-0.00262773,0.3687586244931182,-1.911678540561392
-0.0026271,0.3611879487201695,-1.900276133050717
-0.00262647,0.3574026108336969,-1.896475330547161
-0.00262584,0.3611879487201695,-1.885072923036484
-0.00262521,0.3649732866066421,-1.885072923036481
-0.00262458,0.3611879487201695,-1.877471318029368
-0.00262395,0.3536172729472208,-1.869869713022251
-0.00262332,0.3536172729472208,-1.858467305511582
-0.00262269,0.3536172729472208,-1.85086570050446
-0.00262206,0.3498319350607464,-1.847064898000902
-0.00262143,0.3498319350607464,-1.839463292993789
-0.0026208,0.3498319350607464,-1.828060885483111
-0.00262017,0.3460465971742704,-1.820459280475989
-0.00261954,0.3422612592877977,-1.80905687296532
-0.00261891,0.3384759214013234,-1.805256070461762
-0.00261828,0.3422612592877943,-1.8014552679582
-0.00261765,0.334690583514849,-1.793853662951087
-0.00261702,0.3309052456283746,-1.78625205794397
-0.00261639,0.3309052456283746,-1.782451255440414
-0.00261576,0.3309052456283746,-1.774849650433296
-0.00261513,0.3309052456283746,-1.767248045426174
-0.0026145,0.3309052456283746,-1.755845637915505
-0.00261387,0.3309052456283746,-1.748244032908388
-0.00261324,0.3309052456283746,-1.736841625397712
-0.00261261,0.3309052456283746,-1.733040822894155
-0.00261198,0.3271199077419003,-1.725439217887039
-0.00261135,0.3233345698554277,-1.717837612879926
-0.00261072,0.323334569855426,-1.710236007872806
-0.00261009,0.3271199077418986,-1.698833600362128
-0.00260946,0.323334569855426,-1.691231995355015
-0.00260883,0.3195492319689516,-1.683630390347898
-0.0026082,0.315763894082479,-1.679829587844337
-0.00260757,0.3195492319689516,-1.672227982837224
-0.00260694,0.3157638940824772,-1.664626377830107
-0.00260631,0.3195492319689499,-1.653223970319438
-0.00260568,0.3081932183095285,-1.649423167815874
-0.00260505,0.3044078804230542,-1.638020760305199
-0.00260442,0.3081932183095285,-1.634219957801641
-0.00260379,0.3081932183095285,-1.626618352794525
-0.00260316,0.3044078804230542,-1.62281755029096
-0.00260253,0.3044078804230542,-1.607614340276734
-0.0026019,0.2968372046501054,-1.596211932766059
-0.00260127,0.2930518667636328,-1.592411130262503
-0.00260064,0.3006225425365798,-1.581008722751826
-0.00260001,0.2968372046501054,-1.577207920248268
-0.00259938,0.2930518667636311,-1.569606315241151
-0.00259875,0.2930518667636311,-1.565805512737593
-0.00259812,0.2930518667636311,-1.558203907730475
-0.00259749,0.2930518667636311,-1.554403105226918
-0.00259686,0.2854811909906824,-1.546801500219802
-0.00259623,0.2854811909906824,-1.539199895212689
-0.0025956,0.2892665288771567,-1.523996685198453
-0.00259497,0.2892665288771567,-1.516395080191336
-0.00259434,0.2816958531042115,-1.508793475184223
-0.00259371,0.2741251773312593,-1.501191870177103
-0.00259308,0.2741251773312593,-1.493590265169982
-0.00259245,0.2741251773312593,-1.482187857659312
-0.00259182,0.270339839444785,-1.474586252652196
-0.00259119,0.2665545015583123,-1.470785450148639
-0.00259056,0.2627691636718362,-1.459383042637963
-0.00258993,0.2627691636718362,-1.447980635127288
-0.0025893,0.2665545015583088,-1.436578227616619
-0.00258867,0.2627691636718362,-1.428976622609497
-0.00258804,0.2589838257853619,-1.425175820105935
-0.00258741,0.2589838257853619,-1.417574215098822
-0.00258678,0.2589838257853619,-1.409972610091706
-0.00258615,0.2627691636718345,-1.398570202581036
-0.00258552,0.2551984878988875,-1.387167795070356
-0.00258489,0.2551984878988875,-1.375765387559682
-0.00258426,0.2551984878988875,-1.364362980049012
-0.00258363,0.2514131500124132,-1.360562177545449
-0.002583,0.2514131500124097,-1.352960572538331
-0.00258237,0.2438424742394645,-1.349159770034774
-0.00258174,0.2400571363529901,-1.341558165027658
-0.00258111,0.2400571363529866,-1.333956560020538
-0.00258048,0.2324864605800414,-1.326354955013425
-0.00257985,0.2324864605800414,-1.311151744999192
-0.00257922,0.2287011226935687,-1.303550139992079
-0.00257859,0.2324864605800414,-1.299749337488517
-0.00257796,0.2324864605800414,-1.292147732481397
-0.00257733,0.2324864605800414,-1.284546127474284
-0.0025767,0.2324864605800414,-1.265542114956493
-0.00257607,0.2324864605800397,-1.257940509949373
-0.00257544,0.228701122693567,-1.25033890494226
-0.00257481,0.2249157848070927,-1.242737299935144
-0.00257418,0.22113044692062,-1.238936497431587
-0.00257355,0.2173451090341439,-1.227534089920911
-0.00257292,0.2173451090341439,-1.219932484913794
-0.00257229,0.2097744332611952,-1.20853007740312
-0.00257166,0.2135597711476696,-1.200928472396003
-0.00257103,0.2097744332611952,-1.189526064885327
-0.0025704,0.2097744332611952,-1.18572526238177
-0.00256977,0.2097744332611952,-1.170522052367537
-0.00256914,0.2059890953747226,-1.159119644856868
-0.00256851,0.2097744332611952,-1.155318842353305
-0.00256788,0.2097744332611952,-1.147717237346188
-0.00256725,0.2022037574882465,-1.136314829835513
-0.00256662,0.2022037574882465,-1.132514027331955
-0.00256599,0.1984184196017721,-1.124912422324832
-0.00256536,0.1984184196017721,-1.109709212310606
-0.00256473,0.1946330817152978,-1.102107607303489
-0.0025641,0.1870624059423525,-1.09070519979282
-0.00256347,0.1832770680558747,-1.083103594785698
-0.00256284,0.1832770680558747,-1.075501989778582
-0.00256221,0.1794917301694021,-1.064099582267912
-0.00256158,0.1794917301694004,-1.056497977260791
-0.00256095,0.1757063922829294,-1.048896372253667
-0.00256032,0.1832770680558747,-1.033693162239441
-0.00255969,0.1794917301694004,-1.022290754728767
-0.00255906,0.1794917301694004,-1.014689149721654
-0.00255843,0.1794917301694004,-1.007087544714534
-0.0025578,0.1681357165099773,-0.9994859397074173
-0.00255717,0.1681357165099773,-0.9880835321967477
-0.00255654,0.1719210543964517,-0.9766811246860678
-0.00255591,0.1719210543964517,-0.9690795196789462
-0.00255528,0.1719210543964517,-0.9576771121682768
-0.00255465,0.1643503786235029,-0.9500755071611603
-0.00255402,0.1567797028505577,-0.9424739021540472
-0.00255339,0.1529943649640799,-0.9272706921398109
-0.00255276,0.1529943649640799,-0.9158682846291362
-0.00255213,0.1492090270776072,-0.9120674821255798
-0.0025515,0.1492090270776055,-0.9006650746149033
-0.00255087,0.1492090270776055,-0.8892626671042252
-0.00255024,0.1492090270776055,-0.8816610620971121
-0.00254961,0.1492090270776055,-0.877860259593554
-0.00254898,0.1454236891911294,-0.8664578520828741
-0.00254835,0.1416383513046568,-0.8550554445722045
-0.00254772,0.1416383513046568,-0.8474538395650881
-0.00254709,0.1378530134181842,-0.8398522345579751
-0.00254646,0.1378530134181824,-0.828449827047297
-0.00254583,0.1340676755317081,-0.8170474195366205
-0.0025452,0.1340676755317081,-0.813246617033064
-0.00254457,0.1264969997587594,-0.7980434070188311
-0.00254394,0.122711661872285,-0.7904418020117112
-0.00254331,0.122711661872285,-0.7828401970045982
-0.00254268,0.1151409860993363,-0.7714377894939235
-0.00254205,0.1189263239858089,-0.760035381983254
-0.00254142,0.1189263239858107,-0.7562345794796906
-0.00254079,0.1151409860993346,-0.7448321719690107
-0.00254016,0.1113556482128619,-0.7334297644583413
-0.00253953,0.1113556482128619,-0.7258281594512248
-0.0025389,0.1075703103263859,-0.7144257519405449
-0.00253827,0.1037849724399132,-0.7030233444298755
-0.00253764,0.09999963455343887,-0.695421739422759
-0.00253701,0.1037849724399115,-0.6802185294085329
-0.00253638,0.09999963455343887,-0.6726169244014096
-0.00253575,0.09621429666696452,-0.6650153193942931
-0.00253512,0.09621429666696452,-0.6574137143871767
-0.00253449,0.09621429666696452,-0.646011306876502
-0.00253386,0.09242895878049015,-0.6346088993658255
-0.00253323,0.09242895878049015,-0.6308080968622691
-0.0025326,0.0886436208940158,-0.6232064918551526
-0.00253197,0.09242895878048843,-0.6156048868480396
-0.00253134,0.0886436208940158,-0.6004016768338033
-0.00253071,0.08485828300754145,-0.5851984668195703
-0.00253008,0.08107294512106708,-0.5775968618124538
-0.00252945,0.08107294512106708,-0.5661944543017792
-0.00252882,0.08107294512106536,-0.5623936517982175
-0.00252819,0.07728760723459273,-0.5547920467911045
-0.00252756,0.07728760723459273,-0.5395888367768716
-0.00252693,0.0735022693481201,-0.5319872317697586
-0.0025263,0.06593159357516966,-0.5205848242590805
-0.00252567,0.06214625568869529,-0.5091824167484058
-0.00252504,0.06214625568869529,-0.5015808117412928
-0.00252441,0.06214625568869529,-0.4863776017270564
-0.00252378,0.05836091780222094,-0.4787759967199365
-0.00252315,0.05836091780222094,-0.4711743917128235
-0.00252252,0.05457557991574658,-0.4559711816985906
-0.00252189,0.05079024202927394,-0.4445687741879211
-0.00252126,0.05457557991574658,-0.4369671691807994
-0.00252063,0.05457557991574658,-0.429365564173683
-0.00252,0.05079024202927394,-0.4179631566630135
-0.00251937,0.04700490414279787,-0.4103615516558918
-0.00251874,0.03943422836984743,-0.402759946648772
-0.00251811,0.0356488904833748,-0.3951583416416589
-0.00251748,0.0356488904833748,-0.3837559341309842
-0.00251685,0.03186355259690216,-0.3723535266203147
-0.00251622,0.03186355259690044,-0.3609511191096349
-0.00251559,0.0356488904833748,-0.3533495141025184
-0.00251496,0.03186355259690216,-0.3419471065918489
-0.00251433,0.03186355259690044,-0.3267438965776108
-0.0025137,0.02429287682395,-0.3191422915704874
-0.00251307,0.02050753893747737,-0.3039390815562614
-0.00251244,0.02050753893747737,-0.3001382790527032
-0.00251181,0.02050753893747737,-0.2887358715420251
-0.00251118,0.02050753893747737,-0.2811342665349121
-0.00251055,0.02050753893747737,-0.2659310565206792
-0.00250992,0.01672220105100473,-0.2545286490100097
-0.00250929,0.009151525278054297,-0.2431262414993298
-0.00250866,0.009151525278054297,-0.2355246364922081
-0.00250803,0.009151525278054297,-0.2241222289815387
-0.0025074,0.00536618739157994,-0.2279230314850969
-0.00250677,0.001580849505105583,-0.2203214264779735
-0.00250614,0.001580849505105583,-0.2051182164637475
-0.00250551,-0.002204488381368774,-0.1899150064495146
-0.00250488,-0.002204488381368774,-0.1861142039459581
-0.00250425,-0.002204488381368774,-0.1785125989388399
-0.00250362,-0.005989826267846574,-0.1633093889246018
-0.00250299,-0.01356050204079185,-0.1519069814139323
-0.00250236,-0.0173458399272662,-0.1443053764068158
-0.00250173,-0.00977516415431921,-0.1367037713996942
-0.0025011,-0.01356050204079185,-0.1253013638890247
-0.00250047,-0.0173458399272662,-0.1100981538747918
-0.00249984,-0.00977516415432093,-0.1062973513712353
-0.00249921,-0.0173458399272662,-0.09489494386055888
-0.00249858,-0.02491651570021492,-0.08729333885344243
-0.00249795,-0.02113117781374056,-0.07209012883920951
-0.00249732,-0.02491651570021492,-0.06068772132853483
-0.00249669,-0.02491651570022008,-0.05308611632141319
-0.00249606,-0.03627252935963799,-0.04168370881074369
-0.00249543,-0.0438432051325867,-0.030281301300069
-0.0024948,-0.0438432051325867,-0.0264804987965125
-0.00249417,-0.0438432051325867,-0.01887889378939432
-0.00249354,-0.04005786724611235,-0.003675683775161406
-0.00249291,-0.04005786724611235,0.007726723735508093
-0.00249228,-0.0438432051325867,0.01532832874262974
-0.00249165,-0.04762854301906106,0.02673073625330788
-0.00249102,-0.04762854301906106,0.03433234126042087
-0.00249039,-0.05141388090553542,0.04573474877109556
-0.00248976,-0.05519921879200805,0.05713715628176506
-0.00248913,-0.05898455667848413,0.0647387612888867
-0.0024885,-0.06276989456495849,0.07614116879956138
-0.00248787,-0.07034057033790377,0.08374277380667439
-0.00248724,-0.07034057033790721,0.09514518131735253
-0.00248661,-0.07412590822438156,0.1027467863244759
-0.00248598,-0.07412590822438156,0.1179499963387019
-0.00248535,-0.07034057033790721,0.1293524038493766
-0.00248472,-0.07412590822437984,0.1407548113600461
-0.00248409,-0.07034057033790721,0.136954008856493
-0.00248346,-0.07034057033790721,0.1483564163671677
-0.00248283,-0.07791124611085248,0.1559580213742807
-0.0024822,-0.08169658399733028,0.1711612313885171
-0.00248157,-0.081696583997332,0.1863644414027552
-0.00248094,-0.08548192188380463,0.1977668489134247
-0.00248031,-0.08926725977027899,0.2015676514169829
-0.00247968,-0.09305259765675163,0.2129700589276628
-0.00247905,-0.08926725977027899,0.2243724664383323
-0.00247842,-0.0968379355432277,0.2395756764525652
-0.00247779,-0.1006232734297003,0.2471772814596782
-0.00247716,-0.1044086113161764,0.2509780839632399
-0.00247653,-0.1006232734297021,0.2661812939774797
-0.0024759,-0.1006232734297021,0.2813845039917057
-0.00247527,-0.1006232734297021,0.2889861089988222
-0.00247464,-0.1044086113161764,0.3003885165094986
-0.00247401,-0.1044086113161764,0.3041893190130551
-0.00247338,-0.1081939492026508,0.3155917265237298
-0.00247275,-0.1081939492026508,0.3231933315308428
-0.00247212,-0.1119792870891251,0.3307949365379627
-0.00247149,-0.1195499628620756,0.3383965415450861
-0.00247086,-0.1233353007485482,0.3535997515593121
-0.00247023,-0.1233353007485482,0.3650021590699867
-0.0024696,-0.1233353007485499,0.3726037640771084
-0.00246897,-0.1271206386350225,0.3840061715877779
-0.00246834,-0.1271206386350225,0.3916077765948943
-0.00246771,-0.1271206386350225,0.3954085790984508
-0.00246708,-0.1309059765214969,0.403010184105569
-0.00246645,-0.1309059765214969,0.4144125916162437
-0.00246582,-0.1346913144079713,0.4296158016304766
-0.00246519,-0.1346913144079713,0.4372174066375931
-0.00246456,-0.1346913144079713,0.4486198141482747
-0.00246393,-0.1346913144079713,0.4638230241625007
-0.0024633,-0.1384766522944456,0.4714246291696171
-0.00246267,-0.1422619901809183,0.4790262341767302
-0.00246204,-0.1460473280673943,0.4866278391838501
-0.00246141,-0.1460473280673943,0.4942294441909665
-0.00246078,-0.1498326659538687,0.5094326542051995
-0.00246015,-0.1498326659538687,0.5132334567087576
-0.00245952,-0.1498326659538704,0.5208350617158776
-0.00245889,-0.1536180038403431,0.5284366667229906
-0.00245826,-0.1574033417268174,0.5436398767372235
-0.00245763,-0.1611886796132901,0.5550422842478929
-0.002457,-0.1574033417268174,0.5702454942621311
