Module3/data/exp3/6_Module2sine_1kHz_OP97F_sineoffset-0.4csv.csv

#Digilent WaveForms Oscilloscope Acquisition
#Device Name: Discovery2
#Serial Number: SN:210321AC1D4D
#Date Time: 2020-11-19 17:02:10.001
#Sample rate: 1.5873e+06Hz
#Samples: 8192
#Trigger: Source: Channel 1 Type: Edge Condition: Rising Level: 0 V Hyst.: Auto HoldOff: 0 s
#Channel 1: Range: 1 V/div Offset: 0 V Attenuation: 1 X
#Channel 2: Range: 1 V/div Offset: 0 V Attenuation: 1 X
#Wavegen Channel 1: Running
#Mode: Simple
#Type: Sine
#Frequency: 1 kHz
#Period: 1 ms
#Amplitude: 500 mV
#Offset: -400 mV
#Symmetry: 50 %
#Phase: 0 ¡Æ
#Wavegen Channel 2: Running
#Mode: Simple
#Type: DC
#Offset: 1 V
#Power Supplies: ON
#Positive Supply: ON
#Voltage: 5 V
#Negative Supply: ON
#Voltage: -5 V

Time (s),Channel 1 (V),Channel 2 (V)
-0.002696715,-0.2066127342509841,-0.07969173384632597
-0.002696085,-0.2103980721374567,-0.06448852383209996
-0.002695455,-0.2103980721374584,-0.0568869188249766
-0.002694825,-0.2103980721374601,-0.05308611632141492
-0.002694195,-0.2141834100239328,-0.04548451131430192
-0.002693565,-0.2141834100239328,-0.03788290630718546
-0.002692935,-0.2179687479104054,-0.02267969629295946
-0.002692305,-0.2217540857968815,-0.02267969629295255
-0.002691675,-0.2217540857968815,-0.01127728878227786
-0.002691045,-0.2293247615698268,0.0001251187283916374
-0.002690415,-0.2293247615698302,0.01532832874262974
-0.002689785,-0.2293247615698302,0.02673073625331134
-0.002689155,-0.2293247615698302,0.04193394626753733
-0.002688525,-0.2368954373427789,0.04193394626753733
-0.002687895,-0.2368954373427789,0.04573474877110074
-0.002687265,-0.2368954373427789,0.05713715628177025
-0.002686635,-0.2368954373427789,0.06853956379244493
-0.002686005,-0.2444661131157242,0.07994197130311442
-0.002685375,-0.248251451002202,0.08754357631023607
-0.002684745,-0.2482514510022054,0.1027467863244724
-0.002684115,-0.2558221267751507,0.1103483913315854
-0.002683485,-0.2558221267751507,0.1255516013458184
-0.002682855,-0.2596074646616233,0.12935240384938
-0.002682225,-0.2558221267751507,0.136954008856493
-0.002681595,-0.259607464661625,0.1483564163671677
-0.002680965,-0.259607464661625,0.1597588238778372
-0.002680335,-0.259607464661625,0.1635596263814006
-0.002679705,-0.2633928025480994,0.1749620338920788
-0.002679075,-0.2633928025480994,0.1825636388991918
-0.002678445,-0.2633928025480994,0.1977668489134247
-0.002677815,-0.2633928025481012,0.2053684539205463
-0.002677185,-0.2671781404345738,0.2167708614312158
-0.002676555,-0.2709634783210481,0.2243724664383323
-0.002675925,-0.2747488162075208,0.2395756764525583
-0.002675295,-0.2747488162075225,0.2395756764525652
-0.002674665,-0.2747488162075225,0.2547788864667981
-0.002674035,-0.2823194919804712,0.2623804914739146
-0.002673405,-0.2823194919804712,0.2699820964810311
-0.002672775,-0.2823194919804712,0.2813845039917092
-0.002672145,-0.2823194919804712,0.2889861089988222
-0.002671515,-0.2823194919804712,0.2965877140059386
-0.002670885,-0.2861048298669439,0.3041893190130516
-0.002670255,-0.2861048298669456,0.319392529027288
-0.002669625,-0.2898901677534199,0.3269941340344045
-0.002668995,-0.2974608435263686,0.3421973440486374
-0.002668365,-0.2936755056398943,0.3421973440486374
-0.002667735,-0.293675505639896,0.353599751559319
-0.002667105,-0.2974608435263686,0.368802961573545
-0.002666475,-0.3050315192993174,0.3840061715877779
-0.002665845,-0.3126021950722626,0.3878069740913344
-0.002665215,-0.3088168571857917,0.3954085790984526
-0.002664585,-0.3126021950722661,0.3992093816020108
-0.002663955,-0.3088168571857934,0.4144125916162368
-0.002663325,-0.3126021950722661,0.4220141966233601
-0.002662695,-0.3163875329587422,0.4296158016304836
-0.002662065,-0.3201728708452148,0.4448190116447095
-0.002661435,-0.3239582087316891,0.452420616651826
-0.002660805,-0.3201728708452165,0.460022221658939
-0.002660175,-0.3239582087316891,0.4676238266660589
-0.002659545,-0.3277435466181635,0.4828270366802918
-0.002658915,-0.3277435466181635,0.4904286416874049
-0.002658285,-0.3315288845046379,0.5094326542051995
-0.002657655,-0.3353142223911139,0.517034259212321
-0.002657025,-0.3390995602775866,0.5284366667229906
-0.002656395,-0.3353142223911122,0.536038271730107
-0.002655765,-0.3390995602775849,0.5398390742336635
-0.002655135,-0.3390995602775866,0.55124148174434
-0.002654505,-0.3428848981640609,0.5664446917585728
-0.002653875,-0.3466702360505335,0.5740462967656859
-0.002653245,-0.3504555739370097,0.585448704276364
-0.002652615,-0.3504555739370114,0.5930503092834839
-0.002651985,-0.354240911823484,0.6006519142905969
-0.002651355,-0.3580262497099583,0.6082535192977133
-0.002650725,-0.3580262497099583,0.6196559268083932
-0.002650095,-0.3580262497099583,0.6310583343190628
-0.002649465,-0.3580262497099583,0.6500623468368538
-0.002648835,-0.3580262497099583,0.6538631493404103
-0.002648205,-0.3580262497099583,0.6614647543475286
-0.002647575,-0.3655969254829071,0.6652655568510937
-0.002646945,-0.3655969254829071,0.6804687668653197
-0.002646315,-0.3693822633693814,0.6880703718724361
-0.002645685,-0.3769529391423284,0.699472779383116
-0.002645055,-0.3731676012558558,0.7108751868937855
-0.002644425,-0.3769529391423301,0.718476791900902
-0.002643795,-0.3731676012558575,0.726078396908015
-0.002643165,-0.3769529391423301,0.7336800019151349
-0.002642535,-0.3769529391423301,0.7488832119293678
-0.002641905,-0.3807382770288045,0.7602856194400425
-0.002641275,-0.3845236149152789,0.767887224447159
-0.002640645,-0.3883089528017532,0.7716880269507224
-0.002640015,-0.3883089528017532,0.7830904344613918
-0.002639385,-0.3920942906882275,0.7944928419720666
-0.002638755,-0.3958796285747002,0.8058952494827361
-0.002638125,-0.3996649664611763,0.8172976569934159
-0.002637495,-0.3996649664611763,0.8287000645040906
-0.002636865,-0.3996649664611763,0.8401024720147653
-0.002636235,-0.4034503043476506,0.8439032745183235
-0.002635605,-0.407235642234125,0.8591064845325599
-0.002634975,-0.407235642234125,0.8667080895396729
-0.002634345,-0.4110209801205993,0.8743096945467893
-0.002633715,-0.4110209801205993,0.8857121020574588
-0.002633085,-0.4148063180070737,0.9009153120716969
-0.002632455,-0.4148063180070737,0.9085169170788134
-0.002631825,-0.4148063180070737,0.9161185220859264
-0.002631195,-0.4148063180070737,0.9275209295966046
-0.002630565,-0.4185916558935498,0.9389233371072845
-0.002629935,-0.4223769937800224,0.9503257446179539
-0.002629305,-0.4299476695529711,0.9541265471215121
-0.002628675,-0.4261623316664985,0.9655289546321816
-0.002628045,-0.4261623316664968,0.9769313621428615
-0.002627415,-0.4337330074394455,0.9883337696535361
-0.002626785,-0.4337330074394455,0.9959353746606492
-0.002626155,-0.4413036832123942,1.003536979667769
-0.002625525,-0.4413036832123925,1.018740189682006
-0.002624895,-0.4375183453259199,1.026341794689118
-0.002624265,-0.4375183453259199,1.041545004703351
-0.002623635,-0.4413036832123925,1.049146609710464
-0.002623005,-0.4450890210988686,1.052947412214026
-0.002622375,-0.4450890210988686,1.064349819724701
-0.002621745,-0.4450890210988686,1.07575222723537
-0.002621115,-0.4488743589853429,1.090955437249608
-0.002620485,-0.452659696871819,1.098557042256728
-0.002619855,-0.4564450347582916,1.106158647263841
-0.002619225,-0.4640157105312404,1.113760252270958
-0.002618595,-0.4640157105312421,1.125162659781639
-0.002617965,-0.4678010484177147,1.140365869795865
-0.002617335,-0.4678010484177147,1.147967474802982
-0.002616705,-0.4715863863041874,1.159369882313651
-0.002616075,-0.4753717241906634,1.163170684817215
-0.002615445,-0.4715863863041908,1.170772289824336
-0.002614815,-0.4753717241906634,1.182174697335006
-0.002614185,-0.4791570620771378,1.189776302342122
-0.002613555,-0.4791570620771412,1.201178709852802
-0.002612925,-0.4867277378500865,1.212581117363472
-0.002612295,-0.4867277378500865,1.21638191986703
-0.002611665,-0.4905130757365591,1.227784327377699
-0.002611035,-0.4905130757365608,1.239186734888379
-0.002610405,-0.4942984136230335,1.246788339895501
-0.002609775,-0.4905130757365608,1.25819074740617
-0.002609145,-0.4942984136230352,1.265792352413287
-0.002608515,-0.4942984136230369,1.273393957420412
-0.002607885,-0.4980837515095096,1.292397969938194
-0.002607255,-0.4980837515095096,1.303800377448869
-0.002606625,-0.5018690893959821,1.307601179952426
-0.002605995,-0.5018690893959838,1.32280438996666
-0.002605365,-0.5094397651689326,1.330405994973777
-0.002604735,-0.513225103055407,1.34560920498801
-0.002604105,-0.513225103055407,1.349410007491568
-0.002603475,-0.5132251030554088,1.364613217505804
-0.002602845,-0.5170104409418813,1.372214822512917
-0.002602215,-0.5245811167148301,1.372214822512917
-0.002601585,-0.5207957788283575,1.383617230023587
-0.002600955,-0.5207957788283557,1.398820440037825
-0.002600325,-0.5245811167148301,1.410222847548499
-0.002599695,-0.5245811167148301,1.417824452555616
-0.002599065,-0.5283664546013044,1.429226860066291
-0.002598435,-0.5359371303742514,1.440629267576971
-0.002597805,-0.5321517924877788,1.45203167508764
-0.002597175,-0.5283664546013044,1.459633280094756
-0.002596545,-0.5359371303742497,1.46723488510187
-0.002595915,-0.5397224682607275,1.478637292612548
-0.002595285,-0.5435078061472018,1.490039700123222
-0.002594655,-0.5435078061472018,1.497641305130335
-0.002594025,-0.5435078061472018,1.509043712641013
-0.002593395,-0.5472931440336762,1.520446120151692
-0.002592765,-0.5472931440336762,1.528047725158805
-0.002592135,-0.5510784819201505,1.535649330165921
-0.002591505,-0.5548638198066231,1.543250935173034
-0.002590875,-0.5548638198066249,1.554653342683712
-0.002590245,-0.5624344955795736,1.566055750194387
-0.002589615,-0.5662198334660462,1.5736573552015
-0.002588985,-0.566219833466048,1.585059762712178
-0.002588355,-0.566219833466048,1.596462170222858
-0.002587725,-0.566219833466048,1.607864577733527
-0.002587095,-0.5700051713525224,1.619266985244202
-0.002586465,-0.5662198334660498,1.626868590251315
-0.002585835,-0.5700051713525224,1.634470195258435
-0.002585205,-0.5700051713525224,1.642071800265551
-0.002584575,-0.5775758471254676,1.649673405272664
-0.002583945,-0.5775758471254711,1.661075812783343
-0.002583315,-0.5813611850119472,1.668677417790466
-0.002582685,-0.5851465228984197,1.683880627804692
-0.002582055,-0.5851465228984197,1.691482232811808
-0.002581425,-0.5889318607848941,1.702884640322488
-0.002580795,-0.5889318607848941,1.714287047833158
-0.002580165,-0.5889318607848941,1.721888652840274
-0.002579535,-0.5889318607848941,1.725689455343831
-0.002578905,-0.5889318607848941,1.729490257847391
-0.002578275,-0.5927171986713651,1.740892665358071
-0.002577645,-0.5851465228984197,1.75229507286874
-0.002577015,-0.5927171986713685,1.759896677875856
-0.002576385,-0.600287874444319,1.771299085386536
-0.002575755,-0.6040732123307916,1.782701492897206
-0.002575125,-0.6002878744443172,1.786502295400764
-0.002574495,-0.6040732123307898,1.794103900407877
-0.002573865,-0.6040732123307916,1.805506307918555
-0.002573235,-0.6040732123307916,1.813107912925672
-0.002572605,-0.607858550217266,1.820709517932788
-0.002571975,-0.6116438881037403,1.832111925443463
-0.002571345,-0.6154292259902164,1.843514332954143
-0.002570715,-0.6192145638766891,1.854916740464812
-0.002570085,-0.6192145638766891,1.866319147975487
-0.002569455,-0.6154292259902164,1.870119950479043
-0.002568825,-0.6192145638766891,1.88152235798972
-0.002568195,-0.6192145638766891,1.892924765500394
-0.002567565,-0.6267852396496377,1.900526370507511
-0.002566935,-0.6267852396496377,1.915729580521744
-0.002566305,-0.6305705775361121,1.923331185528862
-0.002565675,-0.6305705775361121,1.927131988032419
-0.002565045,-0.6343559154225864,1.938534395543093
-0.002564415,-0.638141253309059,1.949936803053763
-0.002563785,-0.6343559154225864,1.953737605557326
-0.002563155,-0.6343559154225864,1.965140013068001
-0.002562525,-0.6419265911955317,1.972741618075114
-0.002561895,-0.6457119290820095,1.98794482808935
-0.002561265,-0.6457119290820095,1.99554643309647
-0.002560635,-0.6457119290820095,2.003148038103583
-0.002560005,-0.6494972669684839,2.006948840607142
-0.002559375,-0.6457119290820112,2.018351248117811
-0.002558745,-0.6494972669684839,2.025952853124933
-0.002558115,-0.6532826048549583,2.037355260635607
-0.002557485,-0.6570679427414308,2.041156063139164
-0.002556855,-0.6532826048549583,2.05255847064984
-0.002556225,-0.6532826048549583,2.067761680664074
-0.002555595,-0.6532826048549583,2.071562483167631
-0.002554965,-0.6608532806279069,2.071562483167631
-0.002554335,-0.6646386185143796,2.086765693181857
-0.002553705,-0.6608532806279069,2.098168100692539
-0.002553075,-0.6684239564008556,2.105769705699656
-0.002552445,-0.6722092942873282,2.113371310706769
-0.002551815,-0.6684239564008556,2.120972915713888
-0.002551185,-0.6759946321738044,2.12857452072101
-0.002550555,-0.6759946321738044,2.139976928231679
-0.002549925,-0.6797799700602787,2.143777730735238
-0.002549295,-0.6835653079467531,2.158980940749476
-0.002548665,-0.6835653079467531,2.170383348260145
-0.002548035,-0.6835653079467531,2.177984953267262
-0.002547405,-0.6911359837196983,2.185586558274375
-0.002546775,-0.6873506458332275,2.189387360777936
-0.002546145,-0.6873506458332275,2.200789768288616
-0.002545515,-0.6873506458332275,2.212192175799285
-0.002544885,-0.6873506458332275,2.219793780806402
-0.002544255,-0.6949213216061761,2.227395385813524
-0.002543625,-0.6949213216061761,2.238797793324193
-0.002542995,-0.6987066594926505,2.24639939833131
-0.002542365,-0.6987066594926505,2.254001003338423
-0.002541735,-0.7024919973791248,2.261602608345543
-0.002541105,-0.7024919973791248,2.273005015856219
-0.002540475,-0.7024919973791248,2.276805818359776
-0.002539845,-0.7062773352655992,2.28820822587045
-0.002539215,-0.706277335265601,2.292009028374012
-0.002538585,-0.7100626731520736,2.299610633381125
-0.002537955,-0.7062773352655992,2.307212238388241
-0.002537325,-0.7138480110385444,2.311013040891797
-0.002536695,-0.7176333489250223,2.318614645898916
-0.002536065,-0.7214186868114967,2.326216250906032
-0.002535435,-0.725204024697971,2.341419460920266
-0.002534805,-0.725204024697971,2.349021065927382
-0.002534175,-0.7214186868114985,2.360423473438058
-0.002533545,-0.725204024697971,2.364224275941615
-0.002532915,-0.7289893625844454,2.368025078445173
-0.002532285,-0.732774700470918,2.371825880948729
-0.002531655,-0.7327747004709197,2.383228288459406
-0.002531025,-0.7327747004709197,2.390829893466522
-0.002530395,-0.7327747004709197,2.402232300977198
-0.002529765,-0.7327747004709197,2.409833905984313
-0.002529135,-0.7327747004709215,2.417435510991435
-0.002528505,-0.736560038357394,2.428837918502105
-0.002527875,-0.736560038357394,2.436439523509221
-0.002527245,-0.7403453762438666,2.440240326012778
-0.002526615,-0.7403453762438684,2.447841931019896
-0.002525985,-0.7403453762438684,2.459244338530571
-0.002525355,-0.7479160520168137,2.47064674604124
-0.002524725,-0.7479160520168171,2.478248351048362
-0.002524095,-0.7441307141303463,2.482049153551923
-0.002523465,-0.7517013899032915,2.489650758559036
-0.002522835,-0.7517013899032915,2.501053166069712
-0.002522205,-0.7592720656762367,2.504853968573268
-0.002521575,-0.7554867277897659,2.512455573580386
-0.002520945,-0.7592720656762402,2.516256376083944
-0.002520315,-0.7630574035627128,2.527658783594613
-0.002519685,-0.7630574035627146,2.535260388601735
-0.002519055,-0.7630574035627146,2.550463598615972
-0.002518425,-0.7630574035627146,2.558065203623085
-0.002517795,-0.766842741449189,2.561866006126643
-0.002517165,-0.7630574035627163,2.569467611133756
-0.002516535,-0.766842741449189,2.573268413637318
-0.002515905,-0.7706280793356632,2.573268413637318
-0.002515275,-0.7706280793356632,2.584670821147987
-0.002514645,-0.7744134172221376,2.592272426155109
-0.002514015,-0.7781987551086138,2.59987403116223
-0.002513385,-0.7819840929950863,2.6112764386729
-0.002512755,-0.7819840929950863,2.618878043680017
-0.002512125,-0.7819840929950863,2.626479648687139
-0.002511495,-0.7819840929950863,2.641682858701365
-0.002510865,-0.7819840929950863,2.649284463708482
-0.002510235,-0.7819840929950863,2.653085266212038
-0.002509605,-0.7857694308815607,2.656886068715599
-0.002508975,-0.7895547687680351,2.660686871219156
-0.002508345,-0.7895547687680351,2.660686871219156
-0.002507715,-0.7895547687680351,2.672089278729831
-0.002507085,-0.797125444540982,2.675890081233391
-0.002506455,-0.7933401066545094,2.679690883736948
-0.002505825,-0.7895547687680351,2.691093291247623
-0.002505195,-0.7933401066545076,2.698694896254735
-0.002504565,-0.7971254445409838,2.710097303765414
-0.002503935,-0.7971254445409856,2.717698908772531
-0.002503305,-0.8009107824274582,2.717698908772531
-0.002502675,-0.8046961203139325,2.729101316283205
-0.002502045,-0.8046961203139325,2.736702921290323
-0.002501415,-0.8046961203139325,2.740503723793879
-0.002500785,-0.8046961203139325,2.744304526297437
-0.002500155,-0.8046961203139325,2.755706933808107
-0.002499525,-0.8122667960868812,2.75950773631167
-0.002498895,-0.8084814582004068,2.767109341318787
-0.002498265,-0.8046961203139325,2.774710946325904
-0.002497635,-0.8009107824274582,2.778511748829462
-0.002497005,-0.8046961203139342,2.786113353836582
-0.002496375,-0.8084814582004068,2.793714958843695
-0.002495745,-0.8160521339733555,2.797515761347253
-0.002495115,-0.8236228097463009,2.805117366354366
-0.002494485,-0.8198374718598299,2.808918168857928
-0.002493855,-0.8198374718598299,2.820320576368602
-0.002493225,-0.8236228097463025,2.827922181375715
-0.002492595,-0.8236228097463043,2.831722983879277
-0.002491965,-0.8274081476327768,2.835523786382841
-0.002491335,-0.8236228097463043,2.84692619389351
-0.002490705,-0.831193485519253,2.850726996397068
-0.002490075,-0.8236228097463077,2.850726996397068
-0.002489445,-0.8274081476327786,2.862129403907743
-0.002488815,-0.8274081476327786,2.873531811418418
-0.002488185,-0.8311934855192512,2.873531811418418
-0.002487555,-0.8349788234057274,2.881133416425534
-0.002486925,-0.8349788234057274,2.888735021432656
-0.002486295,-0.8349788234057274,2.900137428943325
-0.002485665,-0.8425494991786761,2.903938231446883
-0.002485035,-0.8387641612922034,2.903938231446883
-0.002484405,-0.8425494991786761,2.911539836454
-0.002483775,-0.8387641612922017,2.915340638957558
-0.002483145,-0.8425494991786743,2.919141441461115
-0.002482515,-0.8425494991786761,2.922942243964674
-0.002481885,-0.8463348370651504,2.934344651475353
-0.002481255,-0.8463348370651504,2.941946256482465
-0.002480625,-0.8463348370651504,2.953348663993141
-0.002479995,-0.8463348370651522,2.953348663993144
-0.002479365,-0.8501201749516247,2.960950269000257
-0.002478735,-0.8501201749516247,2.968551874007373
-0.002478105,-0.8501201749516247,2.976153479014486
-0.002477475,-0.8539055128380991,2.983755084021606
-0.002476845,-0.8576908507245735,2.983755084021606
-0.002476215,-0.8576908507245735,2.983755084021606
-0.002475585,-0.8539055128380991,2.995157491532281
-0.002474955,-0.8539055128380991,2.998958294035841
-0.002474325,-0.8539055128380991,3.002759096539397
-0.002473695,-0.8576908507245735,3.010360701546514
-0.002473065,-0.8614761886110461,3.01416150405007
-0.002472435,-0.8576908507245735,3.014161504050072
-0.002471805,-0.8614761886110479,3.017962306553634
-0.002471175,-0.8614761886110479,3.025563911560747
-0.002470545,-0.8652615264975222,3.033165516567863
-0.002469915,-0.8690468643839966,3.040767121574985
-0.002469285,-0.8690468643839966,3.052169529085655
-0.002468655,-0.8690468643839966,3.052169529085655
-0.002468025,-0.865261526497524,3.055970331589211
-0.002467395,-0.8652615264975222,3.05977113409277
-0.002466765,-0.8652615264975222,3.067372739099887
-0.002466135,-0.8690468643839966,3.071173541603446
-0.002465505,-0.872832202270471,3.078775146610562
-0.002464875,-0.869046864384,3.086376751617678
-0.002464245,-0.8766175401569453,3.086376751617678
-0.002463615,-0.8766175401569453,3.093978356624794
-0.002462985,-0.8766175401569453,3.093978356624794
-0.002462355,-0.8804028780434197,3.097779159128353
-0.002461725,-0.8804028780434197,3.109181566639028
-0.002461095,-0.8804028780434197,3.109181566639028
-0.002460465,-0.8766175401569453,3.112982369142586
