Module3/data/exp3/6_Module2sine_1kHz_OP97F_sine_0.5V_DC900mV.csv

#Digilent WaveForms Oscilloscope Acquisition
#Device Name: Discovery2
#Serial Number: SN:210321AC1D4D
#Date Time: 2020-11-19 17:08:45.260
#Sample rate: 1.5873e+06Hz
#Samples: 8192
#Trigger: Source: Channel 1 Type: Edge Condition: Rising Level: 0 V Hyst.: Auto HoldOff: 0 s
#Channel 1: Range: 1 V/div Offset: 0 V Attenuation: 1 X
#Channel 2: Range: 1 V/div Offset: 0 V Attenuation: 1 X
#Wavegen Channel 1: Running
#Mode: Simple
#Type: Sine
#Frequency: 1 kHz
#Period: 1 ms
#Amplitude: 500 mV
#Offset: 0 V
#Symmetry: 50 %
#Phase: 0 ¡Æ
#Wavegen Channel 2: Running
#Mode: Simple
#Type: DC
#Offset: 900 mV
#Power Supplies: ON
#Positive Supply: ON
#Voltage: 5 V
#Negative Supply: ON
#Voltage: -5 V

Time (s),Channel 1 (V),Channel 2 (V)
-0.0026964,0.493674774746772,-3.272365836835238
-0.00269577,0.4898894368602994,-3.264764231828125
-0.00269514,0.4974601126332464,-3.257162626821005
-0.00269451,0.4974601126332446,-3.253361824317444
-0.00269388,0.493674774746772,-3.249561021813888
-0.00269325,0.4898894368602977,-3.249561021813888
-0.00269262,0.4898894368602977,-3.245760219310332
-0.00269199,0.493674774746772,-3.241959416806772
-0.00269136,0.4861040989738233,-3.245760219310331
-0.00269073,0.4823187610873507,-3.238158614303217
-0.0026901,0.4861040989738233,-3.238158614303214
-0.00268947,0.4785334232008746,-3.23815861430321
-0.00268884,0.4785334232008746,-3.230557009296097
-0.00268821,0.4861040989738233,-3.222955404288981
-0.00268758,0.4823187610873472,-3.219154601785423
-0.00268695,0.4785334232008746,-3.219154601785423
-0.00268632,0.4785334232008746,-3.219154601785423
-0.00268569,0.4785334232008746,-3.21155299677831
-0.00268506,0.4785334232008746,-3.20395139177119
-0.00268443,0.4785334232008746,-3.200150589267632
-0.0026838,0.4785334232008746,-3.200150589267632
-0.00268317,0.4823187610873489,-3.192548984260515
-0.00268254,0.4785334232008712,-3.188748181756958
-0.00268191,0.4709627474279259,-3.192548984260515
-0.00268128,0.4709627474279259,-3.18114657674984
-0.00268065,0.4709627474279259,-3.173544971742728
-0.00268002,0.4671774095414515,-3.169744169239165
-0.00267939,0.4709627474279276,-3.165943366735604
-0.00267876,0.4747480853144002,-3.158341761728491
-0.00267813,0.4709627474279259,-3.150740156721374
-0.0026775,0.4747480853143951,-3.150740156721373
-0.00267687,0.4633920716549771,-3.146939354217817
-0.00267624,0.4671774095414515,-3.143138551714258
-0.00267561,0.4633920716549789,-3.143138551714258
-0.00267498,0.4671774095414515,-3.135536946707141
-0.00267435,0.4633920716549771,-3.127935341700026
-0.00267372,0.4596067337685028,-3.127935341700026
-0.00267309,0.4596067337685028,-3.120333736692909
-0.00267246,0.4633920716549754,-3.112732131685791
-0.00267183,0.4596067337685028,-3.108931329182234
-0.0026712,0.4558213958820285,-3.105130526678676
-0.00267057,0.4520360579955558,-3.105130526678676
-0.00266994,0.4596067337685028,-3.101329724175118
-0.00266931,0.4520360579955541,-3.093728119168001
-0.00266868,0.4520360579955541,-3.089927316664443
-0.00266805,0.4520360579955541,-3.086126514160885
-0.00266742,0.455821395882025,-3.082325711657322
-0.00266679,0.4482507201090797,-3.07472410665021
-0.00266616,0.4482507201090797,-3.067122501643094
-0.00266553,0.4482507201090797,-3.063321699139537
-0.0026649,0.4482507201090797,-3.055720094132419
-0.00266427,0.4482507201090797,-3.05191929162886
-0.00266364,0.4482507201090797,-3.05191929162886
-0.00266301,0.4482507201090797,-3.044317686621744
-0.00266238,0.4368947064496567,-3.036716081614625
-0.00266175,0.4368947064496567,-3.032915279111069
-0.00266112,0.4444653822226054,-3.025313674103953
-0.00266049,0.4444653822226054,-3.021512871600397
-0.00265986,0.4368947064496567,-3.017712069096836
-0.00265923,0.4368947064496567,-3.017712069096836
-0.0026586,0.4368947064496567,-3.010110464089723
-0.00265797,0.4368947064496567,-2.998708056579045
-0.00265734,0.4368947064496567,-2.998708056579042
-0.00265671,0.4368947064496567,-2.991106451571929
-0.00265608,0.4331093685631823,-2.987305649068371
-0.00265545,0.4293240306767097,-2.979704044061258
-0.00265482,0.4293240306767079,-2.96830163655058
-0.00265419,0.4293240306767079,-2.96830163655058
-0.00265356,0.4293240306767079,-2.964500834047023
-0.00265293,0.4255386927902336,-2.960700031543463
-0.0026523,0.4255386927902319,-2.956899229039902
-0.00265167,0.4217533549037592,-2.949297624032789
-0.00265104,0.4217533549037592,-2.937895216522113
-0.00265041,0.4217533549037592,-2.930293611514998
-0.00264978,0.4217533549037592,-2.930293611514998
-0.00264915,0.4217533549037592,-2.926492809011439
-0.00264852,0.414182679130814,-2.918891204004326
-0.00264789,0.4103973412443361,-2.911289598997207
-0.00264726,0.4066120033578652,-2.907488796493642
-0.00264663,0.4141826791308105,-2.896086388982973
-0.002646,0.4103973412443361,-2.888484783975857
-0.00264537,0.4103973412443344,-2.884683981472297
-0.00264474,0.4066120033578618,-2.88088317896874
-0.00264411,0.4028266654713875,-2.873281573961624
-0.00264348,0.4066120033578601,-2.861879166450954
-0.00264285,0.4028266654713875,-2.854277561443832
-0.00264222,0.3990413275849131,-2.846675956436716
-0.00264159,0.3952559896984387,-2.846675956436716
-0.00264096,0.3990413275849131,-2.8390743514296
-0.00264033,0.3990413275849131,-2.839074351429597
-0.0026397,0.3990413275849131,-2.831472746422484
-0.00263907,0.3914706518119644,-2.823871141415367
-0.00263844,0.3914706518119644,-2.812468733904698
-0.00263781,0.3990413275849131,-2.804867128897576
-0.00263718,0.3914706518119644,-2.801066326394017
-0.00263655,0.38768531392549,-2.793464721386901
-0.00263592,0.38768531392549,-2.785863116379785
-0.00263529,0.38768531392549,-2.782062313876223
-0.00263466,0.38768531392549,-2.77446070886911
-0.00263403,0.3838999760390157,-2.770659906365552
-0.0026334,0.3838999760390157,-2.763058301358439
-0.00263277,0.3763293002660669,-2.759257498854877
-0.00263214,0.3763293002660669,-2.751655893847761
-0.00263151,0.3763293002660669,-2.740253486337092
-0.00263088,0.3801146381525413,-2.728851078826411
-0.00263025,0.3763293002660652,-2.728851078826407
-0.00262962,0.3725439623795926,-2.721249473819294
-0.00262899,0.3725439623795926,-2.713647868812179
-0.00262836,0.3725439623795926,-2.706046263805066
-0.00262773,0.3687586244931182,-2.698444658797945
-0.0026271,0.3687586244931182,-2.694643856294388
-0.00262647,0.3649732866066456,-2.687042251287274
-0.00262584,0.3649732866066439,-2.679440646280154
-0.00262521,0.3649732866066404,-2.67563984377659
-0.00262458,0.3574026108336952,-2.664237436265921
-0.00262395,0.3611879487201695,-2.656635831258805
-0.00262332,0.3611879487201695,-2.652835028755248
-0.00262269,0.3574026108336952,-2.64523342374813
-0.00262206,0.3574026108336952,-2.637631818741013
-0.00262143,0.3574026108336952,-2.6300302137339
-0.0026208,0.3498319350607464,-2.622428608726781
-0.00262017,0.3460465971742738,-2.618627806223219
-0.00261954,0.3498319350607464,-2.611026201216106
-0.00261891,0.3460465971742721,-2.603424596208989
-0.00261828,0.3460465971742704,-2.599623793705428
-0.00261765,0.3422612592877977,-2.592022188698315
-0.00261702,0.334690583514849,-2.58061978118764
-0.00261639,0.3384759214013217,-2.573018176180527
-0.00261576,0.334690583514849,-2.565416571173407
-0.00261513,0.3384759214013251,-2.550213361159171
-0.0026145,0.3422612592877977,-2.542611756152058
-0.00261387,0.3384759214013234,-2.5388109536485
-0.00261324,0.3346905835148473,-2.527408546137823
-0.00261261,0.3309052456283746,-2.523607743634267
-0.00261198,0.3309052456283746,-2.516006138627151
-0.00261135,0.3309052456283746,-2.508404533620038
-0.00261072,0.3271199077419003,-2.500802928612917
-0.00261009,0.3233345698554277,-2.489400521102243
-0.00260946,0.3271199077419003,-2.489400521102243
-0.00260883,0.323334569855426,-2.477998113591568
-0.0026082,0.323334569855426,-2.474197311088004
-0.00260757,0.323334569855426,-2.462794903577335
-0.00260694,0.323334569855426,-2.455193298570219
-0.00260631,0.3195492319689533,-2.44379089105955
-0.00260568,0.3195492319689516,-2.436189286052428
-0.00260505,0.3157638940824772,-2.428587681045311
-0.00260442,0.3081932183095285,-2.420986076038194
-0.00260379,0.3119785561960029,-2.417185273534637
-0.00260316,0.3119785561960012,-2.409583668527516
-0.00260253,0.3081932183095285,-2.401982063520403
-0.0026019,0.3044078804230542,-2.390579656009729
-0.00260127,0.3081932183095268,-2.382978051002616
-0.00260064,0.3044078804230542,-2.379177248499055
-0.00260001,0.3044078804230542,-2.371575643491938
-0.00259938,0.3006225425365798,-2.363974038484821
-0.00259875,0.2968372046501054,-2.352571630974147
-0.00259812,0.2968372046501037,-2.348770828470583
-0.00259749,0.2930518667636311,-2.337368420959914
-0.00259686,0.2892665288771567,-2.325966013449239
-0.00259623,0.2892665288771567,-2.318364408442126
-0.0025956,0.2854811909906824,-2.314563605938564
-0.00259497,0.2854811909906824,-2.299360395924332
-0.00259434,0.289266528877155,-2.291758790917219
-0.00259371,0.2854811909906824,-2.287957988413656
-0.00259308,0.2816958531042115,-2.27655558090298
-0.00259245,0.2892665288771567,-2.272754778399424
-0.00259182,0.2854811909906824,-2.265153173392307
-0.00259119,0.2816958531042097,-2.249949963378081
-0.00259056,0.2779105152177336,-2.246149160874516
-0.00258993,0.2741251773312593,-2.242348358370958
-0.0025893,0.2703398394447867,-2.227145148356732
-0.00258867,0.270339839444785,-2.219543543349609
-0.00258804,0.2703398394447832,-2.208141135838929
-0.00258741,0.2665545015583106,-2.196738728328259
-0.00258678,0.2627691636718362,-2.189137123321142
-0.00258615,0.2589838257853636,-2.18153551831403
-0.00258552,0.2627691636718362,-2.177734715810468
-0.00258489,0.2665545015583106,-2.170133110803351
-0.00258426,0.2589838257853653,-2.151129098285569
-0.00258363,0.2551984878988875,-2.143527493278444
-0.002583,0.2589838257853602,-2.135925888271323
-0.00258237,0.2551984878988875,-2.124523480760653
-0.00258174,0.2514131500124132,-2.120722678257095
-0.00258111,0.2514131500124114,-2.113121073249975
-0.00258048,0.2476278121259388,-2.105519468242862
-0.00257985,0.2476278121259388,-2.097917863235745
-0.00257922,0.2438424742394662,-2.094117060732189
-0.00257859,0.2400571363529901,-2.082714653221513
-0.00257796,0.2400571363529866,-2.075113048214391
-0.00257733,0.2324864605800414,-2.063710640703722
-0.0025767,0.228701122693567,-2.059909838200163
-0.00257607,0.2324864605800397,-2.048507430689481
-0.00257544,0.228701122693567,-2.033304220675255
-0.00257481,0.228701122693567,-2.025702615668139
-0.00257418,0.2324864605800397,-2.018101010661026
-0.00257355,0.2324864605800414,-2.006698603150348
-0.00257292,0.2249157848070927,-1.999096998143231
-0.00257229,0.2249157848070927,-1.991495393136115
-0.00257166,0.2249157848070927,-1.983893788128998
-0.00257103,0.2173451090341422,-1.976292183121878
-0.0025704,0.2135597711476696,-1.968690578114765
-0.00256977,0.2097744332611952,-1.957288170604091
-0.00256914,0.2059890953747226,-1.945885763093421
-0.00256851,0.2059890953747209,-1.9382841580863
-0.00256788,0.2022037574882465,-1.926881750575625
-0.00256725,0.2022037574882465,-1.923080948072067
-0.00256662,0.2059890953747209,-1.919280145568508
-0.00256599,0.2059890953747209,-1.900276133050714
-0.00256536,0.2059890953747209,-1.892674528043601
-0.00256473,0.1984184196017721,-1.885072923036484
-0.0025641,0.1946330817152995,-1.873670515525815
-0.00256347,0.1946330817152978,-1.862268108015135
-0.00256284,0.1984184196017721,-1.854666503008019
-0.00256221,0.1908477438288269,-1.850865700504462
-0.00256158,0.1832770680558747,-1.839463292993786
-0.00256095,0.1832770680558765,-1.831861687986664
-0.00256032,0.1870624059423491,-1.820459280475994
-0.00255969,0.1870624059423491,-1.80905687296532
-0.00255906,0.1832770680558765,-1.801455267958207
-0.00255843,0.175706392282926,-1.797654465454645
-0.0025578,0.1794917301694004,-1.78625205794397
-0.00255717,0.1757063922829277,-1.774849650433301
-0.00255654,0.175706392282926,-1.763447242922621
-0.00255591,0.1719210543964499,-1.752044835411943
-0.00255528,0.1681357165099773,-1.74444323040483
-0.00255465,0.1643503786235029,-1.733040822894155
-0.00255402,0.1643503786235029,-1.725439217887042
-0.00255339,0.1567797028505542,-1.717837612879922
-0.00255276,0.1529943649640799,-1.706435205369248
-0.00255213,0.1492090270776072,-1.695032797858578
-0.0025515,0.1529943649640799,-1.691231995355015
-0.00255087,0.1492090270776055,-1.683630390347893
-0.00255024,0.1492090270776055,-1.672227982837224
-0.00254961,0.1416383513046568,-1.660825575326549
-0.00254898,0.1454236891911329,-1.653223970319427
-0.00254835,0.1492090270776055,-1.641821562808758
-0.00254772,0.1378530134181824,-1.626618352794525
-0.00254709,0.1378530134181824,-1.611415142780299
-0.00254646,0.1340676755317081,-1.611415142780292
-0.00254583,0.1340676755317081,-1.600012735269616
-0.0025452,0.1340676755317081,-1.596211932766059
-0.00254457,0.1340676755317081,-1.584809525255384
-0.00254394,0.1264969997587576,-1.577207920248263
-0.00254331,0.122711661872285,-1.565805512737593
-0.00254268,0.122711661872285,-1.558203907730477
-0.00254205,0.1264969997587576,-1.550602302723364
-0.00254142,0.1264969997587594,-1.539199895212686
-0.00254079,0.1151409860993329,-1.527797487702006
-0.00254016,0.1075703103263876,-1.516395080191336
-0.00253953,0.1075703103263876,-1.504992672680662
-0.0025389,0.1113556482128619,-1.504992672680655
-0.00253827,0.1113556482128619,-1.489789462666429
-0.00253764,0.1075703103263876,-1.478387055155754
-0.00253701,0.1075703103263876,-1.466984647645085
-0.00253638,0.1075703103263876,-1.459383042637963
-0.00253575,0.1075703103263876,-1.447980635127288
-0.00253512,0.1075703103263876,-1.44417983262373
-0.00253449,0.1037849724399132,-1.432777425113055
-0.00253386,0.09999963455343887,-1.421375017602375
-0.00253323,0.09999963455343887,-1.409972610091706
-0.0025326,0.09621429666696452,-1.398570202581031
-0.00253197,0.09621429666696452,-1.394769400077475
-0.00253134,0.09242895878049015,-1.383366992566798
-0.00253071,0.09242895878049015,-1.37956619006324
-0.00253008,0.08485828300754145,-1.368163782552565
-0.00252945,0.07728760723459273,-1.352960572538332
-0.00252882,0.07728760723459445,-1.337757362524096
-0.00252819,0.08107294512106708,-1.330155757516983
-0.00252756,0.08485828300754145,-1.322554152509867
-0.00252693,0.0810729451210688,-1.314952547502754
-0.0025263,0.06971693146164401,-1.303550139992075
-0.00252567,0.06593159357516966,-1.292147732481401
-0.00252504,0.06593159357516966,-1.288346929977844
-0.00252441,0.06593159357516966,-1.276944522467168
-0.00252378,0.05836091780221922,-1.257940509949372
-0.00252315,0.05457557991574658,-1.246538102438702
-0.00252252,0.05079024202927222,-1.238936497431586
-0.00252189,0.05457557991574486,-1.231334892424473
-0.00252126,0.05836091780222094,-1.223733287417353
-0.00252063,0.05836091780222094,-1.212330879906678
-0.00252,0.05079024202927566,-1.200928472396009
-0.00251937,0.04700490414279787,-1.193326867388887
-0.00251874,0.04700490414279615,-1.178123657374652
-0.00251811,0.04321956625632351,-1.174322854871096
-0.00251748,0.03943422836984915,-1.162920447360421
-0.00251685,0.04321956625632179,-1.159119644856865
-0.00251622,0.03943422836984915,-1.147717237346188
-0.00251559,0.03943422836984915,-1.140115632339072
-0.00251496,0.03943422836984915,-1.128713224828402
-0.00251433,0.03186355259690044,-1.124912422324839
-0.0025137,0.03186355259689872,-1.102107607303486
-0.00251307,0.02807821471042608,-1.094506002296373
-0.00251244,0.02807821471042608,-1.086904397289256
-0.00251181,0.02807821471042436,-1.083103594785691
-0.00251118,0.02429287682395172,-1.067900384771465
-0.00251055,0.02050753893747737,-1.056497977260791
-0.00250992,0.01672220105100473,-1.048896372253678
-0.00250929,0.01672220105100301,-1.045095569750116
-0.00250866,0.01672220105100129,-1.033693162239438
-0.00250803,0.01293686316452865,-1.026091557232325
-0.0025074,0.01293686316452865,-1.010888347218092
-0.00250677,0.01293686316452693,-1.00328674221097
-0.00250614,0.009151525278054297,-0.9918843347003008
-0.00250551,0.001580849505105583,-0.9804819271896261
-0.00250488,0.005366187391578219,-0.9690795196789567
-0.00250425,0.00536618739157994,-0.961477914671835
-0.00250362,-0.002204488381370496,-0.9462747046575968
-0.00250299,-0.005989826267843132,-0.9348722971469273
-0.00250236,-0.005989826267843132,-0.9310714946433691
-0.00250173,-0.005989826267846574,-0.919669087132691
-0.0025011,-0.01356050204079185,-0.912067482125578
-0.00250047,-0.0173458399272662,-0.8892626671042286
-0.00249984,-0.0173458399272662,-0.8816610620971156
-0.00249921,-0.0173458399272662,-0.8740594570899957
-0.00249858,-0.02113117781374056,-0.862657049579321
-0.00249795,-0.0173458399272662,-0.8550554445722045
-0.00249732,-0.02491651570021492,-0.8474538395650881
-0.00249669,-0.03248719147316363,-0.8360514320544117
-0.00249606,-0.03248719147316363,-0.8322506295508552
-0.00249543,-0.03248719147316363,-0.8170474195366223
-0.0024948,-0.03248719147316363,-0.8056450120259528
-0.00249417,-0.02870185358668927,-0.7904418020117147
-0.00249354,-0.03248719147316363,-0.7866409995081565
-0.00249291,-0.03627252935963627,-0.775238591997487
-0.00249228,-0.04005786724611235,-0.7638361844868071
-0.00249165,-0.04384320513258842,-0.7562345794796872
-0.00249102,-0.04762854301906106,-0.7486329744725742
-0.00249039,-0.04762854301906106,-0.7410313694654577
-0.00248976,-0.04762854301906106,-0.7296289619547882
-0.00248913,-0.05519921879200977,-0.7220273569476666
-0.0024885,-0.05519921879200977,-0.7106249494369918
-0.00248787,-0.05519921879200977,-0.6992225419263224
-0.00248724,-0.05519921879200977,-0.6916209369192008
-0.00248661,-0.05519921879201321,-0.6840193319120791
-0.00248598,-0.06276989456495849,-0.6726169244014096
-0.00248535,-0.06655523245143284,-0.661214516890735
-0.00248472,-0.06655523245143284,-0.6498121093800654
-0.00248409,-0.07034057033790721,-0.6422105043729438
-0.00248346,-0.07034057033790721,-0.6346088993658273
-0.00248283,-0.07412590822437984,-0.6270072943587143
-0.0024822,-0.07791124611085593,-0.611804084344478
-0.00248157,-0.08169658399733028,-0.6004016768337981
-0.00248094,-0.08169658399733028,-0.5889992693231286
-0.00248031,-0.08169658399733028,-0.5851984668195703
-0.00247968,-0.08548192188380635,-0.5737960593088904
-0.00247905,-0.08926725977027899,-0.562393651798221
-0.00247842,-0.08926725977027899,-0.5547920467911045
-0.00247779,-0.09305259765675163,-0.5395888367768785
-0.00247716,-0.09305259765675335,-0.5319872317697552
-0.00247653,-0.0968379355432277,-0.5243856267626318
-0.0024759,-0.0968379355432277,-0.5091824167484058
-0.00247527,-0.1006232734297021,-0.5015808117412893
-0.00247464,-0.1044086113161781,-0.4901784042306095
-0.00247401,-0.1081939492026508,-0.47877599671994
-0.00247338,-0.1044086113161764,-0.4711743917128235
-0.00247275,-0.1044086113161764,-0.459771984202154
-0.00247212,-0.1044086113161764,-0.4483695766914741
-0.00247149,-0.1081939492026508,-0.4369671691807977
-0.00247086,-0.1081939492026508,-0.4331663666772412
-0.00247023,-0.1157646249755995,-0.4255647616701247
-0.0024696,-0.1157646249756012,-0.4103615516558867
-0.00246897,-0.1195499628620739,-0.3989591441452172
-0.00246834,-0.1119792870891251,-0.3951583416416589
-0.00246771,-0.1157646249755978,-0.3837559341309894
-0.00246708,-0.1195499628620739,-0.3685527241167513
-0.00246645,-0.1233353007485482,-0.3647519216131931
-0.00246582,-0.1309059765214969,-0.3571503166060767
-0.00246519,-0.1309059765214969,-0.3419471065918437
-0.00246456,-0.1346913144079678,-0.3305446990811639
-0.00246393,-0.1271206386350225,-0.3191422915704943
-0.0024633,-0.1271206386350225,-0.3115406865633779
-0.00246267,-0.1346913144079678,-0.3039390815562649
-0.00246204,-0.1460473280673943,-0.2925366740455868
-0.00246141,-0.1460473280673943,-0.2887358715420285
-0.00246078,-0.1460473280673943,-0.2735326615277956
-0.00246015,-0.1498326659538687,-0.2659310565206792
-0.00245952,-0.1536180038403431,-0.2583294515135575
-0.00245889,-0.1536180038403431,-0.246927044002888
-0.00245826,-0.1536180038403431,-0.2355246364922133
-0.00245763,-0.1611886796132883,-0.2279230314851003
-0.002457,-0.1649740174997661,-0.2165206239744222
-0.00245637,-0.1649740174997661,-0.212719821470864
