Module3/data/exp3/6_Module2sine_1kHz_OP97F_sine_0.5V_DC800mV.csv

#Digilent WaveForms Oscilloscope Acquisition
#Device Name: Discovery2
#Serial Number: SN:210321AC1D4D
#Date Time: 2020-11-19 17:08:30.183
#Sample rate: 1.5873e+06Hz
#Samples: 8192
#Trigger: Source: Channel 1 Type: Edge Condition: Rising Level: 0 V Hyst.: Auto HoldOff: 0 s
#Channel 1: Range: 1 V/div Offset: 0 V Attenuation: 1 X
#Channel 2: Range: 1 V/div Offset: 0 V Attenuation: 1 X
#Wavegen Channel 1: Running
#Mode: Simple
#Type: Sine
#Frequency: 1 kHz
#Period: 1 ms
#Amplitude: 500 mV
#Offset: 0 V
#Symmetry: 50 %
#Phase: 0 ¡Æ
#Wavegen Channel 2: Running
#Mode: Simple
#Type: DC
#Offset: 800 mV
#Power Supplies: ON
#Positive Supply: ON
#Voltage: 5 V
#Negative Supply: ON
#Voltage: -5 V

Time (s),Channel 1 (V),Channel 2 (V)
-0.0026964,0.4861040989738233,-3.154540959224933
-0.00269577,0.4861040989738233,-3.150740156721376
-0.00269514,0.4861040989738233,-3.154540959224933
-0.00269451,0.4823187610873472,-3.150740156721371
-0.00269388,0.4785334232008746,-3.143138551714258
-0.00269325,0.4785334232008746,-3.1393377492107
-0.00269262,0.4785334232008746,-3.1393377492107
-0.00269199,0.4747480853144002,-3.131736144203583
-0.00269136,0.4785334232008746,-3.131736144203583
-0.00269073,0.4709627474279293,-3.127935341700027
-0.0026901,0.4747480853144002,-3.127935341700026
-0.00268947,0.4709627474279259,-3.124134539196465
-0.00268884,0.4709627474279259,-3.120333736692909
-0.00268821,0.4709627474279259,-3.11653293418935
-0.00268758,0.4709627474279276,-3.108931329182232
-0.00268695,0.4747480853144002,-3.105130526678676
-0.00268632,0.4747480853144002,-3.101329724175118
-0.00268569,0.4709627474279276,-3.097528921671561
-0.00268506,0.4709627474279259,-3.101329724175118
-0.00268443,0.4747480853143985,-3.093728119168
-0.0026838,0.4709627474279259,-3.089927316664443
-0.00268317,0.4671774095414515,-3.082325711657326
-0.00268254,0.4671774095414498,-3.078524909153766
-0.00268191,0.4633920716549771,-3.07472410665021
-0.00268128,0.4671774095414515,-3.07472410665021
-0.00268065,0.4709627474279242,-3.067122501643097
-0.00268002,0.4633920716549771,-3.063321699139535
-0.00267939,0.4633920716549771,-3.063321699139531
-0.00267876,0.4633920716549771,-3.055720094132419
-0.00267813,0.4596067337685028,-3.048118489125303
-0.0026775,0.4596067337685011,-3.04431768662174
-0.00267687,0.4558213958820285,-3.036716081614627
-0.00267624,0.4558213958820285,-3.036716081614627
-0.00267561,0.4558213958820285,-3.032915279111071
-0.00267498,0.4558213958820285,-3.021512871600395
-0.00267435,0.4596067337685028,-3.017712069096836
-0.00267372,0.4558213958820285,-3.013911266593278
-0.00267309,0.4482507201090797,-3.01011046408972
-0.00267246,0.4482507201090815,-3.0025088590826
-0.00267183,0.4520360579955541,-2.994907254075487
-0.0026712,0.4520360579955541,-2.994907254075487
-0.00267057,0.4444653822226088,-2.987305649068374
-0.00266994,0.440680044336131,-2.979704044061254
-0.00266931,0.440680044336131,-2.975903241557696
-0.00266868,0.4368947064496567,-2.975903241557696
-0.00266805,0.440680044336131,-2.972102439054138
-0.00266742,0.440680044336131,-2.968301636550578
-0.00266679,0.440680044336131,-2.964500834047021
-0.00266616,0.440680044336131,-2.956899229039905
-0.00266553,0.440680044336131,-2.953098426536348
-0.0026649,0.4331093685631823,-2.949297624032789
-0.00266427,0.4331093685631823,-2.941696019025672
-0.00266364,0.4368947064496549,-2.941696019025672
-0.00266301,0.4368947064496567,-2.930293611514998
-0.00266238,0.4293240306767062,-2.922692006507879
-0.00266175,0.4255386927902336,-2.918891204004322
-0.00266112,0.4293240306767079,-2.918891204004322
-0.00266049,0.4293240306767079,-2.915090401500766
-0.00265986,0.4293240306767079,-2.907488796493648
-0.00265923,0.4255386927902336,-2.90368799399009
-0.0026586,0.4217533549037609,-2.89228558647942
-0.00265797,0.4217533549037592,-2.888484783975857
-0.00265734,0.4255386927902319,-2.884683981472294
-0.00265671,0.4217533549037592,-2.873281573961624
-0.00265608,0.4179680170172849,-2.869480771458066
-0.00265545,0.4141826791308122,-2.858078363947397
-0.00265482,0.4066120033578618,-2.854277561443832
-0.00265419,0.4066120033578618,-2.846675956436716
-0.00265356,0.4066120033578618,-2.839074351429604
-0.00265293,0.4103973412443361,-2.835273548926041
-0.0026523,0.4103973412443361,-2.831472746422482
-0.00265167,0.4103973412443361,-2.827671943918925
-0.00265104,0.4103973412443361,-2.820070338911808
-0.00265041,0.4103973412443327,-2.816269536408247
-0.00264978,0.4028266654713875,-2.808667931401134
-0.00264915,0.4028266654713875,-2.801066326394017
-0.00264852,0.4066120033578601,-2.793464721386904
-0.00264789,0.4028266654713875,-2.789663918883343
-0.00264726,0.3990413275849148,-2.789663918883339
-0.00264663,0.4028266654713875,-2.782062313876226
-0.002646,0.3990413275849131,-2.770659906365552
-0.00264537,0.3990413275849148,-2.763058301358435
-0.00264474,0.4028266654713875,-2.763058301358435
-0.00264411,0.4028266654713875,-2.755456696351319
-0.00264348,0.3990413275849148,-2.755456696351319
-0.00264285,0.38768531392549,-2.747855091344202
-0.00264222,0.38768531392549,-2.736452683833527
-0.00264159,0.3952559896984387,-2.73265188132997
-0.00264096,0.3914706518119644,-2.728851078826411
-0.00264033,0.38768531392549,-2.725050276322849
-0.0026397,0.38768531392549,-2.717448671315736
-0.00263907,0.38768531392549,-2.706046263805062
-0.00263844,0.3801146381525448,-2.698444658797949
-0.00263781,0.3763293002660669,-2.694643856294388
-0.00263718,0.3763293002660669,-2.683241448783712
-0.00263655,0.3801146381525413,-2.675639843776596
-0.00263592,0.3763293002660669,-2.66803823876948
-0.00263529,0.3801146381525396,-2.664237436265919
-0.00263466,0.3763293002660669,-2.660436633762363
-0.00263403,0.3763293002660669,-2.652835028755247
-0.0026334,0.3725439623795943,-2.641432621244578
-0.00263277,0.3725439623795926,-2.641432621244572
-0.00263214,0.3725439623795926,-2.633831016237456
-0.00263151,0.36875862449312,-2.633831016237456
-0.00263088,0.3687586244931182,-2.626229411230339
-0.00263025,0.3649732866066421,-2.618627806223219
-0.00262962,0.3611879487201695,-2.611026201216106
-0.00262899,0.3574026108336952,-2.603424596208989
-0.00262836,0.3611879487201678,-2.595822991201877
-0.00262773,0.3498319350607464,-2.588221386194757
-0.0026271,0.3536172729472208,-2.58061978118764
-0.00262647,0.3536172729472208,-2.569217373676971
-0.00262584,0.3611879487201695,-2.561615768669849
-0.00262521,0.3536172729472208,-2.557814966166287
-0.00262458,0.3536172729472208,-2.550213361159175
-0.00262395,0.3498319350607464,-2.546412558655616
-0.00262332,0.3498319350607464,-2.538810953648503
-0.00262269,0.3460465971742721,-2.527408546137825
-0.00262206,0.3384759214013234,-2.516006138627151
-0.00262143,0.3346905835148508,-2.512205336123594
-0.0026208,0.334690583514849,-2.504603731116475
-0.00262017,0.3384759214013234,-2.497002126109356
-0.00261954,0.3384759214013234,-2.489400521102243
-0.00261891,0.334690583514849,-2.485599718598684
-0.00261828,0.3346905835148473,-2.477998113591566
-0.00261765,0.3309052456283746,-2.47419731108801
-0.00261702,0.3309052456283746,-2.470396508584452
-0.00261639,0.3346905835148473,-2.458994101073782
-0.00261576,0.334690583514849,-2.443790891059544
-0.00261513,0.3271199077418986,-2.439990088555984
-0.0026145,0.323334569855426,-2.436189286052428
-0.00261387,0.323334569855426,-2.428587681045311
-0.00261324,0.3233345698554242,-2.417185273534635
-0.00261261,0.3195492319689516,-2.413384471031078
-0.00261198,0.3157638940824772,-2.401982063520403
-0.00261135,0.3119785561960046,-2.39438045851329
-0.00261072,0.3157638940824772,-2.390579656009729
-0.00261009,0.3157638940824755,-2.379177248499049
-0.00260946,0.3119785561960029,-2.367774840988379
-0.00260883,0.3157638940824772,-2.363974038484821
-0.0026082,0.3119785561960012,-2.352571630974143
-0.00260757,0.3081932183095285,-2.34497002596703
-0.00260694,0.3081932183095285,-2.329766815952797
-0.00260631,0.3044078804230559,-2.329766815952797
-0.00260568,0.3081932183095285,-2.322165210945681
-0.00260505,0.3081932183095285,-2.318364408442123
-0.00260442,0.3006225425365798,-2.310762803435006
-0.00260379,0.3006225425365798,-2.303161198427889
-0.00260316,0.2968372046501072,-2.295559593420768
-0.00260253,0.3006225425365798,-2.284157185910098
-0.0026019,0.2968372046501054,-2.276555580902982
-0.00260127,0.2892665288771601,-2.268953975895869
-0.00260064,0.2892665288771567,-2.261352370888749
-0.00260001,0.2892665288771567,-2.253750765881633
-0.00259938,0.2930518667636311,-2.246149160874516
-0.00259875,0.2892665288771567,-2.234746753363842
-0.00259812,0.2854811909906806,-2.227145148356722
-0.00259749,0.281695853104208,-2.219543543349609
-0.00259686,0.2779105152177336,-2.211941938342492
-0.00259623,0.274125177331261,-2.204340333335379
-0.0025956,0.2779105152177336,-2.196738728328259
-0.00259497,0.2779105152177336,-2.185336320817584
-0.00259434,0.2779105152177336,-2.181535518314028
-0.00259371,0.2741251773312593,-2.170133110803351
-0.00259308,0.2741251773312593,-2.154929900789119
-0.00259245,0.2741251773312593,-2.154929900789119
-0.00259182,0.2741251773312593,-2.147328295782002
-0.00259119,0.266554501558314,-2.135925888271333
-0.00259056,0.2627691636718362,-2.128324283264211
-0.00258993,0.2589838257853619,-2.120722678257095
-0.0025893,0.2589838257853619,-2.109320270746426
-0.00258867,0.2627691636718362,-2.097917863235745
-0.00258804,0.2589838257853584,-2.094117060732185
-0.00258741,0.2514131500124132,-2.090316258228629
-0.00258678,0.2514131500124132,-2.078913850717954
-0.00258615,0.2551984878988858,-2.071312245710841
-0.00258552,0.2551984878988875,-2.059909838200163
-0.00258489,0.2476278121259388,-2.052308233193046
-0.00258426,0.2438424742394662,-2.040905825682377
-0.00258363,0.2514131500124132,-2.033304220675255
-0.002583,0.2438424742394627,-2.021901813164581
-0.00258237,0.2400571363529901,-2.021901813164581
-0.00258174,0.2438424742394645,-2.010499405653906
-0.00258111,0.2400571363529901,-2.002897800646786
-0.00258048,0.2400571363529901,-1.995296195639673
-0.00257985,0.2362717984665157,-1.987694590632557
-0.00257922,0.2287011226935705,-1.976292183121887
-0.00257859,0.2249157848070927,-1.964889775611207
-0.00257796,0.2249157848070927,-1.949686565596971
-0.00257733,0.2249157848070927,-1.942084960589858
-0.0025767,0.2211304469206183,-1.934483355582741
-0.00257607,0.2173451090341439,-1.930682553079176
-0.00257544,0.2173451090341439,-1.91547934306495
-0.00257481,0.2173451090341439,-1.904076935554275
-0.00257418,0.2135597711476713,-1.896475330547163
-0.00257355,0.2059890953747209,-1.896475330547159
-0.00257292,0.2059890953747209,-1.888873725540043
-0.00257229,0.2059890953747209,-1.877471318029368
-0.00257166,0.1984184196017721,-1.866068910518693
-0.00257103,0.2022037574882448,-1.854666503008015
-0.0025704,0.1984184196017721,-1.847064898000902
-0.00256977,0.1984184196017721,-1.839463292993786
-0.00256914,0.1984184196017721,-1.82426008297956
-0.00256851,0.1946330817152978,-1.820459280475994
-0.00256788,0.1908477438288234,-1.80905687296532
-0.00256725,0.1908477438288234,-1.805256070461762
-0.00256662,0.1832770680558747,-1.793853662951087
-0.00256599,0.1870624059423474,-1.782451255440409
-0.00256536,0.1832770680558747,-1.774849650433296
-0.00256473,0.1832770680558747,-1.767248045426179
-0.0025641,0.1832770680558747,-1.75584563791551
-0.00256347,0.1794917301694004,-1.748244032908388
-0.00256284,0.175706392282926,-1.733040822894155
-0.00256221,0.175706392282926,-1.725439217887042
-0.00256158,0.1794917301694004,-1.717837612879922
-0.00256095,0.1719210543964499,-1.706435205369244
-0.00256032,0.1681357165099773,-1.698833600362131
-0.00255969,0.1681357165099773,-1.691231995355015
-0.00255906,0.160565040737032,-1.683630390347902
-0.00255843,0.1643503786235029,-1.672227982837224
-0.0025578,0.1681357165099773,-1.664626377830107
-0.00255717,0.1681357165099773,-1.653223970319438
-0.00255654,0.1605650407370286,-1.641821562808758
-0.00255591,0.1567797028505525,-1.63421995780164
-0.00255528,0.1529943649640799,-1.630419155298083
-0.00255465,0.1529943649640799,-1.61521594528385
-0.00255402,0.1454236891911346,-1.603813537773181
-0.00255339,0.1454236891911312,-1.596211932766059
-0.00255276,0.1454236891911312,-1.584809525255384
-0.00255213,0.1454236891911312,-1.573407117744715
-0.0025515,0.1454236891911312,-1.565805512737593
-0.00255087,0.1416383513046568,-1.558203907730475
-0.00255024,0.1416383513046568,-1.554403105226918
-0.00254961,0.1340676755317081,-1.543000697716244
-0.00254898,0.1340676755317064,-1.531598290205566
-0.00254835,0.1302823376452337,-1.523996685198453
-0.00254772,0.1264969997587594,-1.520195882694894
-0.00254709,0.1227116618722867,-1.508793475184225
-0.00254646,0.122711661872285,-1.497391067673545
-0.00254583,0.1151409860993363,-1.48978946266642
-0.0025452,0.1151409860993363,-1.470785450148637
-0.00254457,0.1151409860993363,-1.466984647645079
-0.00254394,0.1151409860993346,-1.463183845141516
-0.00254331,0.1113556482128619,-1.451781437630846
-0.00254268,0.1113556482128619,-1.436578227616613
-0.00254205,0.1075703103263893,-1.421375017602387
-0.00254142,0.1037849724399132,-1.417574215098822
-0.00254079,0.1075703103263859,-1.406171807588144
-0.00254016,0.1037849724399132,-1.398570202581031
-0.00253953,0.09999963455343887,-1.387167795070356
-0.0025389,0.09999963455343887,-1.37576538755968
-0.00253827,0.09999963455343887,-1.371964585056124
-0.00253764,0.09999963455343887,-1.356761375041891
-0.00253701,0.09999963455343887,-1.349159770034778
-0.00253638,0.09242895878049015,-1.337757362524099
-0.00253575,0.09242895878049015,-1.330155757516983
-0.00253512,0.0886436208940158,-1.326354955013425
-0.00253449,0.08485828300754145,-1.311151744999192
-0.00253386,0.08107294512106536,-1.30355013999207
-0.00253323,0.07728760723459273,-1.292147732481401
-0.0025326,0.08107294512106708,-1.280745324970726
-0.00253197,0.08107294512106708,-1.273143719963613
-0.00253134,0.07728760723459273,-1.265542114956493
-0.00253071,0.07728760723459273,-1.254139707445818
-0.00253008,0.06971693146164401,-1.242737299935144
-0.00252945,0.06593159357516966,-1.235135694928027
-0.00252882,0.06971693146164573,-1.223733287417346
-0.00252819,0.07350226934811838,-1.20853007740312
-0.00252756,0.06971693146164401,-1.200928472396003
-0.00252693,0.06593159357517138,-1.189526064885334
-0.0025263,0.06593159357516966,-1.178123657374654
-0.00252567,0.05457557991574658,-1.174322854871096
-0.00252504,0.05836091780221922,-1.162920447360426
-0.00252441,0.05457557991574658,-1.155318842353305
-0.00252378,0.05079024202927222,-1.143916434842626
-0.00252315,0.05079024202927222,-1.136314829835513
-0.00252252,0.04700490414279787,-1.128713224828397
-0.00252189,0.03943422836985259,-1.117310817317728
-0.00252126,0.04321956625632351,-1.113510014814164
-0.00252063,0.04700490414279787,-1.102107607303489
-0.00252,0.04321956625632523,-1.09070519979282
-0.00251937,0.04700490414279787,-1.075501989778582
-0.00251874,0.03943422836984915,-1.067900384771464
-0.00251811,0.03943422836984915,-1.064099582267907
-0.00251748,0.02807821471042608,-1.045095569750116
-0.00251685,0.02807821471042608,-1.033693162239446
-0.00251622,0.03186355259690044,-1.022290754728767
-0.00251559,0.02429287682395172,-1.01468914972165
-0.00251496,0.02050753893747909,-1.003286742210981
-0.00251433,0.02050753893747737,-0.9994859397074173
-0.0025137,0.02050753893747565,-0.9880835321967391
-0.00251307,0.01672220105100301,-0.9804819271896261
-0.00251244,0.009151525278054297,-0.9690795196789515
-0.00251181,0.009151525278054297,-0.9652787171753863
-0.00251118,0.009151525278054297,-0.9500755071611603
-0.00251055,0.009151525278054297,-0.9348722971469273
-0.00250992,0.005366187391581661,-0.9272706921398144
-0.00250929,0.001580849505105583,-0.9158682846291362
-0.00250866,0.005366187391576497,-0.9044658771184563
-0.00250803,-0.002204488381368774,-0.8930634696077868
-0.0025074,-0.005989826267843132,-0.877860259593554
-0.00250677,-0.005989826267844853,-0.8740594570899922
-0.00250614,-0.009775164154317489,-0.8664578520828793
-0.00250551,-0.01356050204079185,-0.8588562470757628
-0.00250488,-0.00977516415431921,-0.8512546420686498
-0.00250425,-0.01356050204079185,-0.8436530370615298
-0.00250362,-0.02113117781374056,-0.8284498270472935
-0.00250299,-0.02113117781374056,-0.8208482220401805
-0.00250236,-0.02113117781374056,-0.8094458145295058
-0.00250173,-0.02491651570021492,-0.8056450120259407
-0.0025011,-0.02491651570021492,-0.7904418020117147
-0.00250047,-0.02870185358668927,-0.7828401970045982
-0.00249984,-0.02870185358668927,-0.7714377894939287
-0.00249921,-0.02870185358668927,-0.7600353819832488
-0.00249858,-0.03248719147316363,-0.7486329744725742
-0.00249795,-0.03627252935963799,-0.7410313694654577
-0.00249732,-0.03627252935963799,-0.729628961954783
-0.00249669,-0.04005786724611407,-0.7258281594512196
-0.00249606,-0.0438432051325867,-0.7144257519405501
-0.00249543,-0.05519921879200977,-0.7030233444298755
-0.0024948,-0.05141388090553714,-0.6878201344156494
-0.00249417,-0.04762854301906106,-0.6764177269049678
-0.00249354,-0.05141388090553542,-0.6688161218978513
-0.00249291,-0.05898455667848069,-0.6612145168907384
-0.00249228,-0.06276989456495849,-0.6536129118836185
-0.00249165,-0.07034057033790549,-0.6422105043729386
-0.00249102,-0.06655523245143284,-0.6308080968622691
-0.00249039,-0.06655523245143284,-0.6194056893515943
-0.00248976,-0.06276989456496021,-0.6080032818409249
-0.00248913,-0.05898455667848413,-0.6004016768338033
-0.0024885,-0.06276989456495849,-0.5928000718266868
-0.00248787,-0.06276989456495849,-0.5851984668195738
-0.00248724,-0.06655523245143284,-0.5699952568053375
-0.00248661,-0.07412590822438156,-0.5623936517982175
-0.00248598,-0.07412590822438156,-0.5547920467911045
-0.00248535,-0.07791124611085593,-0.547190441783988
-0.00248472,-0.08169658399732856,-0.5357880342733186
-0.00248409,-0.08169658399733028,-0.5243856267626387
-0.00248346,-0.07791124611085593,-0.512983219251964
-0.00248283,-0.08169658399732856,-0.497780009237738
-0.0024822,-0.08926725977027899,-0.4863776017270564
-0.00248157,-0.09305259765675335,-0.482576799223493
-0.00248094,-0.09305259765675335,-0.4711743917128235
-0.00248031,-0.09305259765675335,-0.4559711816985906
-0.00247968,-0.09305259765675507,-0.4445687741879125
-0.00247905,-0.0968379355432277,-0.4369671691807994
-0.00247842,-0.1006232734297021,-0.4255647616701247
-0.00247779,-0.1006232734297021,-0.4179631566630118
-0.00247716,-0.1044086113161764,-0.4103615516558918
-0.00247653,-0.1081939492026542,-0.398959144145212
-0.0024759,-0.1157646249755995,-0.3875567366345425
-0.00247527,-0.1119792870891251,-0.3761543291238678
-0.00247464,-0.1081939492026542,-0.3647519216131914
-0.00247401,-0.1157646249755995,-0.3609511191096349
-0.00247338,-0.1195499628620739,-0.3571503166060767
-0.00247275,-0.1233353007485465,-0.3495487115989636
-0.00247212,-0.1233353007485482,-0.3381463040882855
-0.00247149,-0.1233353007485499,-0.3305446990811621
-0.00247086,-0.1271206386350225,-0.3153414890669362
-0.00247023,-0.1309059765214969,-0.3001382790527032
-0.0024696,-0.1309059765214969,-0.2887358715420233
-0.00246897,-0.1309059765214969,-0.2773334640313538
-0.00246834,-0.1309059765214969,-0.2659310565206792
-0.00246771,-0.1309059765214969,-0.2621302540171226
-0.00246708,-0.1384766522944456,-0.2507278465064463
-0.00246645,-0.14226199018092,-0.2431262414993298
-0.00246582,-0.14226199018092,-0.2355246364922133
-0.00246519,-0.14226199018092,-0.2203214264779804
-0.00246456,-0.1422619901809217,-0.208919018967304
-0.00246393,-0.1460473280673943,-0.2051182164637475
-0.0024633,-0.1460473280673943,-0.1937158089530728
-0.00246267,-0.149832665953867,-0.1861142039459598
-0.00246204,-0.1498326659538687,-0.1747117964352817
-0.00246141,-0.1574033417268174,-0.1671101914281652
-0.00246078,-0.1611886796132918,-0.1519069814139323
-0.00246015,-0.1649740174997661,-0.1481061789103741
-0.00245952,-0.1611886796132901,-0.1367037713996942
-0.00245889,-0.1574033417268174,-0.1253013638890247
-0.00245826,-0.1611886796132918,-0.11389895637835
-0.00245763,-0.1611886796132918,-0.1024965488676805
-0.002457,-0.1649740174997661,-0.09489494386055888
-0.00245637,-0.1763300311591892,-0.08729333885344243
