Module3/data/exp3/7_Module2sine_1kHz_OP97F_sine_1V_1kOhm_5kOhm.csv

#Digilent WaveForms Oscilloscope Acquisition
#Device Name: Discovery2
#Serial Number: SN:210321AC1D4D
#Date Time: 2020-11-19 17:31:25.638
#Sample rate: 1.5873e+06Hz
#Samples: 8192
#Trigger: Source: Channel 1 Type: Edge Condition: Rising Level: 0 V Hyst.: Auto HoldOff: 0 s
#Channel 1: Range: 1 V/div Offset: 0 V Attenuation: 1 X
#Channel 2: Range: 1 V/div Offset: 0 V Attenuation: 1 X
#Wavegen Channel 1: Running
#Mode: Simple
#Type: Sine
#Frequency: 1 kHz
#Period: 1 ms
#Amplitude: 1 V
#Offset: 0 V
#Symmetry: 50 %
#Phase: 0 ¡Æ
#Power Supplies: ON
#Positive Supply: ON
#Voltage: 5 V
#Negative Supply: ON
#Voltage: -5 V

Time (s),Channel 1 (V),Channel 2 (V)
-0.0026964,0.9933393757613872,4.211414292670914
-0.00269577,0.9895540378749146,4.211414292670914
-0.00269514,0.9895540378749128,4.211414292670914
-0.00269451,0.9819833621019659,4.211414292670914
-0.00269388,0.9857686999884384,4.211414292670914
-0.00269325,0.9781980242154897,4.211414292670914
-0.00269262,0.9781980242154897,4.203812687663801
-0.00269199,0.9819833621019641,4.207613490167355
-0.00269136,0.9744126863290153,4.207613490167355
-0.00269073,0.9744126863290153,4.207613490167355
-0.0026901,0.9744126863290153,4.207613490167355
-0.00268947,0.9744126863290136,4.207613490167357
-0.00268884,0.9706273484425411,4.211414292670914
-0.00268821,0.9630566726695923,4.211414292670914
-0.00268758,0.9630566726695905,4.211414292670912
-0.00268695,0.959271334783118,4.207613490167355
-0.00268632,0.9630566726695923,4.211414292670914
-0.00268569,0.9630566726695923,4.207613490167357
-0.00268506,0.959271334783118,4.207613490167355
-0.00268443,0.9592713347831162,4.207613490167357
-0.0026838,0.9554859968966436,4.211414292670914
-0.00268317,0.9554859968966436,4.215215095174472
-0.00268254,0.9479153211236967,4.211414292670912
-0.00268191,0.9517006590101692,4.207613490167355
-0.00268128,0.9479153211236949,4.203812687663797
-0.00268065,0.9441299832372223,4.203812687663797
-0.00268002,0.9403446453507461,4.203812687663797
-0.00267939,0.9403446453507461,4.203812687663797
-0.00267876,0.9403446453507461,4.203812687663797
-0.00267813,0.9365593074642719,4.211414292670914
-0.0026775,0.9403446453507444,4.211414292670912
-0.00267687,0.9365593074642719,4.207613490167355
-0.00267624,0.9289886316913231,4.203812687663797
-0.00267561,0.9252032938048506,4.203812687663797
-0.00267498,0.9252032938048488,4.211414292670914
-0.00267435,0.9252032938048488,4.211414292670914
-0.00267372,0.9214179559183744,4.215215095174472
-0.00267309,0.9214179559183744,4.215215095174472
-0.00267246,0.9214179559183709,4.211414292670912
-0.00267183,0.9138472801454257,4.207613490167355
-0.0026712,0.9100619422589513,4.211414292670914
-0.00267057,0.9062766043724787,4.211414292670914
-0.00266994,0.9062766043724769,4.207613490167355
-0.00266931,0.9062766043724769,4.215215095174472
-0.00266868,0.9062766043724769,4.215215095174472
-0.00266805,0.9062766043724769,4.215215095174472
-0.00266742,0.9024912664860026,4.21521509517447
-0.00266679,0.9024912664860026,4.211414292670914
-0.00266616,0.9024912664860026,4.207613490167355
-0.00266553,0.89870592859953,4.211414292670912
-0.0026649,0.8987059285995282,4.207613490167355
-0.00266427,0.8949205907130539,4.207613490167355
-0.00266364,0.8911352528265813,4.211414292670912
-0.00266301,0.8911352528265796,4.211414292670914
-0.00266238,0.8835645770536308,4.211414292670915
-0.00266175,0.8835645770536308,4.215215095174472
-0.00266112,0.8759939012806821,4.211414292670914
-0.00266049,0.8722085633942095,4.211414292670914
-0.00265986,0.8722085633942077,4.211414292670914
-0.00265923,0.8722085633942077,4.215215095174472
-0.0026586,0.8646378876212625,4.207613490167359
-0.00265797,0.864637887621259,4.207613490167355
-0.00265734,0.8684232255077317,4.211414292670912
-0.00265671,0.864637887621259,4.207613490167355
-0.00265608,0.8608525497347846,4.211414292670914
-0.00265545,0.8570672118483121,4.211414292670914
-0.00265482,0.8570672118483104,4.207613490167355
-0.00265419,0.8494965360753616,4.207613490167355
-0.00265356,0.845711198188889,4.211414292670912
-0.00265293,0.853281873961836,4.211414292670914
-0.0026523,0.8494965360753598,4.211414292670914
-0.00265167,0.8457111981888872,4.211414292670914
-0.00265104,0.8419258603024129,4.215215095174472
-0.00265041,0.8419258603024111,4.211414292670915
-0.00264978,0.8381405224159385,4.215215095174472
-0.00264915,0.8305698466429898,4.211414292670914
-0.00264852,0.8267845087565172,4.211414292670914
-0.00264789,0.8267845087565154,4.211414292670914
-0.00264726,0.8305698466429881,4.211414292670912
-0.00264663,0.8267845087565154,4.207613490167355
-0.002646,0.822999170870041,4.211414292670914
-0.00264537,0.8192138329835668,4.215215095174468
-0.00264474,0.8192138329835668,4.207613490167355
-0.00264411,0.8154284950970924,4.211414292670914
-0.00264348,0.8154284950970924,4.211414292670914
-0.00264285,0.8078578193241437,4.211414292670914
-0.00264222,0.8040724814376693,4.207613490167355
-0.00264159,0.8040724814376693,4.211414292670914
-0.00264096,0.8040724814376693,4.211414292670914
-0.00264033,0.8040724814376641,4.207613490167355
-0.0026397,0.7927164677782462,4.207613490167355
-0.00263907,0.7851457920052975,4.211414292670914
-0.00263844,0.7851457920052975,4.21521509517447
-0.00263781,0.7813604541188232,4.211414292670914
-0.00263718,0.7813604541188232,4.211414292670914
-0.00263655,0.7813604541188232,4.211414292670914
-0.00263592,0.7813604541188232,4.207613490167355
-0.00263529,0.777575116232347,4.211414292670914
-0.00263466,0.7737897783458745,4.211414292670914
-0.00263403,0.7700044404594001,4.211414292670914
-0.0026334,0.7662191025729275,4.211414292670914
-0.00263277,0.7624337646864514,4.215215095174472
-0.00263214,0.758648426799977,4.215215095174472
-0.00263151,0.7510777510270318,4.211414292670915
-0.00263088,0.7472924131405539,4.211414292670914
-0.00263025,0.7435070752540796,4.203812687663797
-0.00262962,0.7435070752540796,4.203812687663797
-0.00262899,0.7435070752540796,4.203812687663797
-0.00262836,0.7435070752540796,4.207613490167353
-0.00262773,0.7397217373676053,4.203812687663797
-0.0026271,0.7321510615946565,4.203812687663797
-0.00262647,0.7321510615946565,4.207613490167353
-0.00262584,0.7283657237081822,4.207613490167355
-0.00262521,0.728365723708177,4.207613490167355
-0.00262458,0.7170097100487591,4.207613490167355
-0.00262395,0.7170097100487591,4.207613490167355
-0.00262332,0.7207950479352316,4.207613490167355
-0.00262269,0.7132243721622847,4.207613490167355
-0.00262206,0.7132243721622847,4.211414292670914
-0.00262143,0.7132243721622847,4.211414292670914
-0.0026208,0.7132243721622847,4.207613490167355
-0.00262017,0.7018683585028617,4.207613490167357
-0.00261954,0.7018683585028617,4.211414292670914
-0.00261891,0.6980830206163873,4.211414292670914
-0.00261828,0.694297682729913,4.207613490167353
-0.00261765,0.694297682729913,4.203812687663797
-0.00261702,0.6905123448434386,4.207613490167355
-0.00261639,0.6791563311840207,4.211414292670912
-0.00261576,0.6791563311840155,4.215215095174472
-0.00261513,0.6753709932975411,4.211414292670914
-0.0026145,0.6753709932975411,4.211414292670914
-0.00261387,0.6678003175245925,4.211414292670914
-0.00261324,0.6640149796381163,4.203812687663797
-0.00261261,0.6602296417516438,4.203812687663797
-0.00261198,0.6640149796381181,4.200011885160239
-0.00261135,0.6602296417516456,4.181007872642457
-0.00261072,0.6564443038651694,4.158203057621098
-0.00261009,0.6526589659786932,4.127796637592611
-0.00260946,0.6488736280922207,4.078386205046376
-0.00260883,0.6488736280922207,4.032776575003677
-0.0026082,0.6488736280922189,3.990967747464518
-0.00260757,0.6450882902057463,3.949158919925396
-0.00260694,0.6375176144327976,3.914951697393372
-0.00260631,0.6375176144327976,3.888346079868476
-0.00260568,0.6375176144327976,3.857939659839999
-0.00260505,0.6337322765463232,3.827533239811533
-0.00260442,0.6299469386598489,3.804728424790183
-0.00260379,0.6299469386598489,3.778122807265276
-0.00260316,0.6223762628868984,3.755317992243917
-0.00260253,0.6185909250004258,3.732513177222577
-0.0026019,0.6223762628869002,3.709708362201228
-0.00260127,0.6148055871139549,3.686903547179889
-0.00260064,0.6148055871139515,3.667899534662087
-0.00260001,0.6072349113410027,3.645094719640738
-0.00259938,0.6034495734545284,3.626090707122946
-0.00259875,0.5958788976815796,3.595684287094481
-0.00259812,0.5958788976815779,3.57668027457668
-0.00259749,0.5920935597951053,3.55387545955534
-0.00259686,0.588308221908631,3.531070644533991
-0.00259623,0.588308221908631,3.512066632016209
-0.0025956,0.5845228840221566,3.48926181699485
-0.00259497,0.5807375461356822,3.466457001973501
-0.00259434,0.5807375461356822,3.447452989455718
-0.00259371,0.5769522082492079,3.424648174434361
-0.00259308,0.5731668703627335,3.405644161916559
-0.00259245,0.5731668703627335,3.38283934689522
-0.00259182,0.5693815324762591,3.360034531873871
-0.00259119,0.5618108567033139,3.333428914348975
-0.00259056,0.5542401809303618,3.310624099327613
-0.00258993,0.5542401809303618,3.284018481802706
-0.0025893,0.5504548430438891,3.265014469284923
-0.00258867,0.5504548430438874,3.246010456767124
-0.00258804,0.546669505157413,3.219404839242206
-0.00258741,0.546669505157413,3.196600024220867
-0.00258678,0.5353134914979899,3.177596011703076
-0.00258615,0.5277428157250447,3.154791196681737
-0.00258552,0.5277428157250412,3.139587986667493
-0.00258489,0.5239574778385668,3.116783171646144
-0.00258426,0.5201721399520943,3.093978356624805
-0.00258363,0.5163868020656182,3.067372739099887
-0.002583,0.5163868020656182,3.048368726582087
-0.00258237,0.5163868020656182,3.029364714064305
-0.00258174,0.5050307884061951,2.998958294035839
-0.00258111,0.5012454505197173,2.979954281518038
-0.00258048,0.493674774746772,2.957149466496698
-0.00257985,0.493674774746772,2.930543848971791
-0.00257922,0.4898894368602994,2.907739033950452
-0.00257859,0.4861040989738233,2.884934218929092
-0.00257796,0.4861040989738198,2.854527798900616
-0.00257733,0.4785334232008746,2.831722983879277
-0.0025767,0.4747480853144002,2.808918168857928
-0.00257607,0.4709627474279259,2.78231255133301
-0.00257544,0.4709627474279259,2.75950773631167
-0.00257481,0.4709627474279259,2.740503723793879
-0.00257418,0.4671774095414533,2.725300513779653
-0.00257355,0.4558213958820285,2.698694896254739
-0.00257292,0.4558213958820285,2.679690883736948
-0.00257229,0.4520360579955541,2.65308526621204
-0.00257166,0.4482507201090797,2.626479648687132
-0.00257103,0.4368947064496549,2.607475636169327
-0.0025704,0.4331093685631823,2.577069216140876
-0.00256977,0.4331093685631823,2.554264401119526
-0.00256914,0.4331093685631823,2.531459586098187
-0.00256851,0.4331093685631823,2.504853968573269
-0.00256788,0.4255386927902336,2.48204915355192
-0.00256725,0.4217533549037592,2.455443536027012
-0.00256662,0.4179680170172849,2.436439523509221
-0.00256599,0.4179680170172831,2.409833905984301
-0.00256536,0.4141826791308105,2.383228288459406
-0.00256473,0.4066120033578618,2.360423473438057
-0.0025641,0.4028266654713892,2.333817855913161
-0.00256347,0.3952559896984387,2.311013040891799
-0.00256284,0.38768531392549,2.292009028374008
-0.00256221,0.38768531392549,2.26920421335267
-0.00256158,0.3838999760390157,2.24639939833131
-0.00256095,0.3763293002660652,2.22359458330995
-0.00256032,0.3725439623795926,2.200789768288611
-0.00255969,0.3725439623795926,2.177984953267262
-0.00255906,0.36875862449312,2.151379335742366
-0.00255843,0.3687586244931182,2.124773718217447
-0.0025578,0.3649732866066439,2.101968903196097
-0.00255717,0.3649732866066439,2.071562483167645
-0.00255654,0.3611879487201695,2.05255847064984
-0.00255591,0.3498319350607447,2.025952853124921
-0.00255528,0.3460465971742721,1.999347235600025
-0.00255465,0.3422612592877977,1.972741618075117
-0.00255402,0.3460465971742704,1.946136000550222
-0.00255339,0.3422612592877977,1.927131988032419
-0.00255276,0.3309052456283746,1.900526370507511
-0.00255213,0.327119907741902,1.877721555486172
-0.0025515,0.323334569855426,1.851115937961254
-0.00255087,0.3233345698554225,1.828311122939896
-0.00255024,0.3157638940824772,1.809307110422113
-0.00254961,0.3157638940824772,1.782701492897206
-0.00254898,0.3157638940824755,1.756095875372286
-0.00254835,0.3119785561960029,1.729490257847391
-0.00254772,0.3081932183095285,1.710486245329599
-0.00254709,0.2968372046501106,1.683880627804704
-0.00254646,0.2930518667636311,1.653474207776226
-0.00254583,0.2930518667636311,1.63066939275487
-0.0025452,0.2930518667636311,1.615466182740644
-0.00254457,0.2854811909906824,1.588860565215736
-0.00254394,0.2816958531042046,1.558454145187257
-0.00254331,0.2741251773312593,1.528047725158805
-0.00254268,0.2741251773312593,1.509043712641013
-0.00254205,0.2741251773312593,1.486238897619675
-0.00254142,0.270339839444785,1.455832477591198
-0.00254079,0.2589838257853584,1.433027662569833
-0.00254016,0.2514131500124132,1.398820440037825
-0.00253953,0.2551984878988875,1.379816427520034
-0.0025389,0.2514131500124097,1.357011612498674
-0.00253827,0.2438424742394645,1.334206797477335
-0.00253764,0.2438424742394645,1.311401982455986
-0.00253701,0.2400571363529918,1.28479636493109
-0.00253638,0.2324864605800414,1.25819074740617
-0.00253575,0.228701122693567,1.231585129881263
-0.00253512,0.2249157848070927,1.204979512356355
-0.00253449,0.2135597711476696,1.178373894831448
-0.00253386,0.2173451090341422,1.155569079810088
-0.00253323,0.2135597711476696,1.132764264788749
-0.0025326,0.2022037574882465,1.106158647263841
-0.00253197,0.1984184196017739,1.079553029738946
-0.00253134,0.1984184196017721,1.056748214717584
-0.00253071,0.1946330817152978,1.030142597192677
-0.00253008,0.1908477438288234,1.003536979667769
-0.00252945,0.1832770680558747,0.9807321646464198
-0.00252882,0.1870624059423474,0.9541265471215018
-0.00252819,0.1832770680558747,0.9313217321001628
-0.00252756,0.1719210543964517,0.9009153120716969
-0.00252693,0.168135716509979,0.8743096945468014
-0.0025263,0.1719210543964517,0.85150487952544
-0.00252567,0.1643503786235029,0.8287000645040906
-0.00252504,0.1567797028505577,0.8020944469791951
-0.00252441,0.1529943649640799,0.7792896319578336
-0.00252378,0.1492090270776021,0.7488832119293575
-0.00252315,0.1416383513046568,0.7260783969080185
-0.00252252,0.1454236891911312,0.7032735818866691
-0.00252189,0.1416383513046585,0.68046876686533
-0.00252126,0.1378530134181824,0.6538631493404121
-0.00252063,0.1340676755317081,0.6310583343190628
-0.00252,0.1264969997587628,0.6082535192977236
-0.00251937,0.122711661872285,0.5778470992692475
-0.00251874,0.1151409860993346,0.547440679240773
-0.00251811,0.1113556482128619,0.5284366667229906
-0.00251748,0.1075703103263876,0.4980302466945247
-0.00251685,0.1037849724399149,0.4752254316731858
-0.00251622,0.1037849724399132,0.4486198141482678
-0.00251559,0.09621429666696452,0.4220141966233601
-0.00251496,0.08864362089401924,0.3954085790984647
-0.00251433,0.0886436208940158,0.3764045665806614
-0.0025137,0.08864362089401408,0.3459981465521835
-0.00251307,0.08485828300754145,0.319392529027288
-0.00251244,0.07728760723459273,0.2965877140059386
-0.00251181,0.07728760723459101,0.2737828989845789
-0.00251118,0.07350226934811838,0.2509780839632399
-0.00251055,0.06971693146164401,0.2205716639347741
-0.00250992,0.05457557991575347,0.1977668489134351
-0.00250929,0.05079024202927222,0.1673604288849589
-0.00250866,0.05457557991574142,0.1483564163671556
-0.00250803,0.04321956625632351,0.1217507988422601
-0.0025074,0.0356488904833748,0.09514518131735253
-0.00250677,0.03186355259690044,0.0647387612888746
-0.00250614,0.03186355259690044,0.0381331437639791
-0.00250551,0.02429287682395172,0.01532832874262974
-0.00250488,0.02429287682395172,-0.003675683775152762
-0.00250425,0.02050753893747737,-0.02648049879651078
-0.00250362,0.01293686316452693,-0.06448852383210515
-0.00250299,0.009151525278054297,-0.09109414135700065
-0.00250236,0.00536618739157994,-0.1100981538747918
-0.00250173,-0.002204488381370496,-0.1367037713997098
-0.0025011,-0.005989826267843132,-0.1595085864210488
-0.00250047,-0.005989826267843132,-0.1823134014423981
-0.00249984,-0.009775164154315768,-0.2089190189672936
-0.00249921,-0.009775164154317489,-0.2393254389957716
-0.00249858,-0.009775164154317489,-0.2621302540171209
-0.00249795,-0.0173458399272662,-0.2849350690384703
-0.00249732,-0.02491651570021492,-0.3115406865633779
-0.00249669,-0.02870185358669271,-0.3381463040882976
-0.00249606,-0.03627252935963799,-0.3647519216131931
-0.00249543,-0.03627252935963799,-0.3951583416416589
-0.0024948,-0.03627252935963799,-0.4179631566629979
-0.00249417,-0.0438432051325867,-0.4445687741879159
-0.00249354,-0.04762854301906106,-0.4673735892092652
-0.00249291,-0.0514138809055337,-0.4901784042306043
-0.00249228,-0.05519921879200977,-0.5205848242590805
-0.00249165,-0.06276989456495849,-0.5471904417840019
-0.00249102,-0.06276989456495849,-0.5775968618124538
-0.00249039,-0.06655523245143284,-0.6042024793373615
-0.00248976,-0.07412590822437812,-0.6270072943587005
-0.00248913,-0.07791124611085593,-0.6498121093800602
-0.0024885,-0.08548192188380463,-0.6764177269049678
-0.00248787,-0.08926725977027727,-0.7030233444298634
-0.00248724,-0.09305259765675335,-0.729628961954783
-0.00248661,-0.09305259765675507,-0.752433776976141
-0.00248598,-0.0968379355432277,-0.7714377894939235
-0.00248535,-0.1006232734297021,-0.8018442095223893
-0.00248472,-0.1006232734297021,-0.8284498270472849
-0.00248409,-0.1081939492026508,-0.8512546420686463
-0.00248346,-0.1119792870891251,-0.877860259593554
-0.00248283,-0.1195499628620704,-0.9044658771184494
-0.0024822,-0.1271206386350225,-0.9272706921398109
-0.00248157,-0.1309059765214969,-0.9576771121682889
-0.00248094,-0.1309059765214969,-0.9842827296931843
-0.00248031,-0.1384766522944456,-1.003286742210975
-0.00247968,-0.1422619901809217,-1.033693162239453
-0.00247905,-0.1460473280673943,-1.060298779764349
-0.00247842,-0.1536180038403431,-1.083103594785698
-0.00247779,-0.1536180038403431,-1.102107607303481
-0.00247716,-0.1574033417268174,-1.132514027331955
-0.00247653,-0.1649740174997679,-1.155318842353315
-0.0024759,-0.1687593553862405,-1.178123657374654
-0.00247527,-0.1687593553862405,-1.204729274899561
-0.00247464,-0.1763300311591909,-1.23133489242448
-0.00247401,-0.1801153690456636,-1.254139707445818
-0.00247338,-0.1801153690456636,-1.280745324970726
-0.00247275,-0.1801153690456636,-1.307350942495622
-0.00247212,-0.1914713827050866,-1.330155757516983
-0.00247149,-0.1990420584780388,-1.356761375041903
-0.00247086,-0.2066127342509841,-1.383366992566798
-0.00247023,-0.2103980721374584,-1.409972610091706
-0.0024696,-0.2066127342509858,-1.436578227616625
-0.00246897,-0.2103980721374584,-1.463183845141521
-0.00246834,-0.2141834100239328,-1.48598866016287
-0.00246771,-0.2141834100239328,-1.512594277687766
-0.00246708,-0.2179687479104071,-1.535399092709127
-0.00246645,-0.2293247615698302,-1.554403105226918
-0.00246582,-0.2368954373427789,-1.577207920248268
-0.00246519,-0.2406807752292533,-1.600012735269617
-0.00246456,-0.2444661131157276,-1.626618352794537
-0.00246393,-0.2444661131157276,-1.653223970319432
-0.0024633,-0.2520367888886763,-1.67982958784434
-0.00246267,-0.255822126775149,-1.706435205369236
-0.00246204,-0.259607464661625,-1.736841625397713
-0.00246141,-0.2671781404345738,-1.759646440419063
-0.00246078,-0.2709634783210481,-1.782451255440412
-0.00246015,-0.2709634783210481,-1.80905687296532
-0.00245952,-0.2709634783210498,-1.835662490490238
-0.00245889,-0.2747488162075225,-1.858467305511577
-0.00245826,-0.2785341540939968,-1.877471318029368
-0.00245763,-0.2785341540939968,-1.900276133050707
-0.002457,-0.2861048298669456,-1.923080948072067
-0.00245637,-0.2898901677534199,-1.953487368100532
-0.00245574,-0.2974608435263652,-1.972491380618315
-0.00245511,-0.2974608435263686,-2.00289780064679
-0.00245448,-0.3012461814128464,-2.025702615668151
-0.00245385,-0.3088168571857917,-2.052308233193046
-0.00245322,-0.3088168571857917,-2.075113048214396
-0.00245259,-0.3126021950722643,-2.101718665739292
-0.00245196,-0.3163875329587404,-2.124523480760653
-0.00245133,-0.3201728708452148,-2.143527493278444
