Module3/data/exp3/7_Module2sine_1kHz_OP97F_sine_1V_1kOhm_2.5kOhm.csv

#Digilent WaveForms Oscilloscope Acquisition
#Device Name: Discovery2
#Serial Number: SN:210321AC1D4D
#Date Time: 2020-11-19 17:32:21.695
#Sample rate: 1.5873e+06Hz
#Samples: 8192
#Trigger: Source: Channel 1 Type: Edge Condition: Rising Level: 0 V Hyst.: Auto HoldOff: 0 s
#Channel 1: Range: 1 V/div Offset: 0 V Attenuation: 1 X
#Channel 2: Range: 1 V/div Offset: 0 V Attenuation: 1 X
#Wavegen Channel 1: Running
#Mode: Simple
#Type: Sine
#Frequency: 1 kHz
#Period: 1 ms
#Amplitude: 1 V
#Offset: 0 V
#Symmetry: 50 %
#Phase: 0 ¡Æ
#Power Supplies: ON
#Positive Supply: ON
#Voltage: 5 V
#Negative Supply: ON
#Voltage: -5 V

Time (s),Channel 1 (V),Channel 2 (V)
-0.0026964,0.9971247136478615,3.5120666320162
-0.00269577,0.9971247136478615,3.508265829512643
-0.00269514,0.9933393757613872,3.504465027009084
-0.00269451,0.9895540378749128,3.50446502700908
-0.00269388,0.9895540378749128,3.496863422001967
-0.00269325,0.9857686999884384,3.48926181699485
-0.00269262,0.989554037874911,3.481660211987737
-0.00269199,0.9819833621019641,3.477859409484176
-0.00269136,0.9857686999884384,3.466457001973501
-0.00269073,0.989554037874911,3.462656199469945
-0.0026901,0.9857686999884384,3.458855396966385
-0.00268947,0.9744126863290153,3.451253791959268
-0.00268884,0.9744126863290153,3.451253791959268
-0.00268821,0.9781980242154897,3.439851384448594
-0.00268758,0.9744126863290153,3.436050581945035
-0.00268695,0.9744126863290153,3.436050581945035
-0.00268632,0.9781980242154897,3.428448976937919
-0.00268569,0.9744126863290171,3.420847371930805
-0.00268506,0.9706273484425411,3.413245766923686
-0.00268443,0.9706273484425393,3.401843359413009
-0.0026838,0.9668420105560667,3.398042556909453
-0.00268317,0.9630566726695923,3.390440951902336
-0.00268254,0.9630566726695905,3.386640149398777
-0.00268191,0.959271334783118,3.38283934689522
-0.00268128,0.9554859968966436,3.371436939384545
-0.00268065,0.9554859968966436,3.367636136880989
-0.00268002,0.959271334783118,3.356233729370312
-0.00267939,0.9554859968966418,3.348632124363196
-0.00267876,0.9517006590101692,3.348632124363196
-0.00267813,0.9554859968966436,3.344831321859638
-0.0026775,0.9479153211236949,3.325827309341843
-0.00267687,0.9479153211236949,3.31822570433473
-0.00267624,0.9441299832372205,3.314424901831172
-0.00267561,0.9441299832372205,3.314424901831172
-0.00267498,0.9441299832372205,3.310624099327613
-0.00267435,0.9441299832372205,3.299221691816939
-0.00267372,0.9403446453507461,3.287819284306265
-0.00267309,0.9289886316913231,3.284018481802706
-0.00267246,0.9289886316913231,3.276416876795586
-0.00267183,0.9289886316913231,3.268815271788474
-0.0026712,0.9252032938048488,3.261213666781357
-0.00267057,0.9252032938048488,3.253612061774244
-0.00266994,0.9252032938048488,3.249811259270682
-0.00266931,0.9289886316913231,3.242209654263566
-0.00266868,0.9252032938048488,3.230807246752891
-0.00266805,0.9176326180319,3.219404839242216
-0.00266742,0.9214179559183726,3.2118032342351
-0.00266679,0.9176326180319,3.2118032342351
-0.00266616,0.9138472801454257,3.208002431731542
-0.00266553,0.9176326180318982,3.196600024220873
-0.0026649,0.9100619422589513,3.177596011703076
-0.00266427,0.9062766043724769,3.16999440669596
-0.00266364,0.9024912664860044,3.166193604192403
-0.00266301,0.9024912664860026,3.166193604192401
-0.00266238,0.8987059285995282,3.158591999185279
-0.00266175,0.8987059285995282,3.14718959167461
-0.00266112,0.8987059285995282,3.135787184163935
-0.00266049,0.8949205907130556,3.128185579156822
-0.00265986,0.8873499149401052,3.120583974149702
-0.00265923,0.8835645770536308,3.112982369142586
-0.0026586,0.8797792391671583,3.109181566639029
-0.00265797,0.8835645770536308,3.093978356624794
-0.00265734,0.8797792391671547,3.090177554121235
-0.00265671,0.8759939012806821,3.086376751617678
-0.00265608,0.8797792391671565,3.078775146610562
-0.00265545,0.8759939012806839,3.067372739099892
-0.00265482,0.8684232255077334,3.05977113409277
-0.00265419,0.864637887621259,3.048368726582096
-0.00265356,0.864637887621259,3.033165516567871
-0.00265293,0.8608525497347846,3.029364714064305
-0.0026523,0.8570672118483104,3.014161504050072
-0.00265167,0.8570672118483104,3.014161504050072
-0.00265104,0.8570672118483104,3.002759096539397
-0.00265041,0.8570672118483104,2.991356689028719
-0.00264978,0.8570672118483104,2.983755084021606
-0.00264915,0.853281873961836,2.976153479014489
-0.00264852,0.8457111981888906,2.968551874007376
-0.00264789,0.8457111981888872,2.960950269000257
-0.00264726,0.8457111981888854,2.953348663993133
-0.00264663,0.8419258603024129,2.938145453978907
-0.002646,0.8381405224159385,2.926743046468233
-0.00264537,0.8381405224159385,2.915340638957552
-0.00264474,0.8381405224159385,2.903938231446883
-0.00264411,0.8343551845294641,2.896336626439767
-0.00264348,0.8343551845294641,2.89253582393621
-0.00264285,0.8305698466429898,2.881133416425534
-0.00264222,0.8267845087565154,2.869731008914859
-0.00264159,0.822999170870041,2.858328601404184
-0.00264096,0.822999170870041,2.850726996397068
-0.00264033,0.8229991708700376,2.83932458888639
-0.0026397,0.8154284950970924,2.831722983879277
-0.00263907,0.8154284950970924,2.820320576368602
-0.00263844,0.8154284950970924,2.816519773865045
-0.00263781,0.8078578193241437,2.801316563850811
-0.00263718,0.8040724814376693,2.801316563850811
-0.00263655,0.8002871435511949,2.786113353836578
-0.00263592,0.7965018056647206,2.770910143822345
-0.00263529,0.7927164677782462,2.759507736311667
-0.00263466,0.7927164677782462,2.751906131304554
-0.00263403,0.7889311298917718,2.748105328800996
-0.0026334,0.7851457920052993,2.736702921290327
-0.00263277,0.7851457920052975,2.725300513779646
-0.00263214,0.7813604541188232,2.710097303765414
-0.00263151,0.7813604541188232,2.702495698758301
-0.00263088,0.7737897783458745,2.698694896254739
-0.00263025,0.7737897783458745,2.687292488744056
-0.00262962,0.7737897783458745,2.668288476226273
-0.00262899,0.7737897783458745,2.660686871219156
-0.00262836,0.7737897783458745,2.649284463708487
-0.00262773,0.7624337646864514,2.645483661204924
-0.0026271,0.7624337646864514,2.634081253694249
-0.00262647,0.7624337646864514,2.62267884618358
-0.00262584,0.7548630889135026,2.615077241176458
-0.00262521,0.7510777510270249,2.603674833665778
-0.00262458,0.7435070752540796,2.592272426155109
-0.00262395,0.7397217373676053,2.577069216140876
-0.00262332,0.7359363994811327,2.565666808630207
-0.00262269,0.7359363994811309,2.554264401119526
-0.00262206,0.7283657237081822,2.542861993608851
-0.00262143,0.7283657237081822,2.535260388601738
-0.0026208,0.7283657237081822,2.52385798109106
-0.00262017,0.7283657237081822,2.512455573580381
-0.00261954,0.7283657237081822,2.501053166069712
-0.00261891,0.7207950479352334,2.485849956055478
-0.00261828,0.7170097100487574,2.478248351048356
-0.00261765,0.7132243721622847,2.466845943537687
-0.00261702,0.7132243721622847,2.455443536027012
-0.00261639,0.7056536963893395,2.4478419310199
-0.00261576,0.7056536963893361,2.432638721005663
-0.00261513,0.6980830206163855,2.425037115998541
-0.0026145,0.694297682729913,2.413634708487872
-0.00261387,0.6905123448434386,2.406033103480755
-0.00261324,0.6867270069569624,2.398431498473633
-0.00261261,0.6829416690704899,2.387029090962964
-0.00261198,0.6829416690704899,2.371825880948731
-0.00261135,0.6867270069569624,2.356622670934506
-0.00261072,0.6867270069569642,2.345220263423824
-0.00261009,0.6829416690704847,2.330017053409586
-0.00260946,0.6715856554110669,2.318614645898916
-0.00260883,0.6678003175245925,2.307212238388241
-0.0026082,0.6678003175245925,2.299610633381119
-0.00260757,0.6678003175245925,2.28820822587045
-0.00260694,0.6602296417516438,2.273005015856217
-0.00260631,0.6602296417516438,2.257801805841992
-0.00260568,0.652658965978695,2.250200200834868
-0.00260505,0.6488736280922207,2.242598595827752
-0.00260442,0.6450882902057463,2.231196188317077
-0.00260379,0.6413029523192719,2.212192175799285
-0.00260316,0.6375176144327959,2.200789768288606
-0.00260253,0.6337322765463232,2.189387360777936
-0.0026019,0.6299469386598489,2.18178575577082
-0.00260127,0.6299469386598489,2.166582545756594
-0.00260064,0.6299469386598489,2.155180138245912
-0.00260001,0.6261616007733746,2.143777730735238
-0.00259938,0.6223762628869002,2.132375323224563
-0.00259875,0.6185909250004258,2.11717211321033
-0.00259812,0.6185909250004223,2.105769705699648
-0.00259749,0.6110202492274771,2.090566495685422
-0.00259686,0.6110202492274771,2.075363285671189
-0.00259623,0.6034495734545319,2.060160075656964
-0.0025956,0.599664235568054,2.044956865642724
-0.00259497,0.599664235568054,2.037355260635607
-0.00259434,0.5958788976815814,2.029753655628494
-0.00259371,0.5920935597951053,2.018351248117816
-0.00259308,0.5883082219086275,2.003148038103576
-0.00259245,0.5807375461356822,1.98794482808935
-0.00259182,0.5769522082492079,1.972741618075117
-0.00259119,0.5769522082492079,1.961339210564448
-0.00259056,0.5769522082492079,1.949936803053768
-0.00258993,0.5693815324762591,1.942335198046651
-0.0025893,0.5655961945897866,1.927131988032426
-0.00258867,0.5618108567033104,1.908127975514627
-0.00258804,0.55424018093036,1.900526370507508
-0.00258741,0.5504548430438874,1.892924765500394
-0.00258678,0.546669505157413,1.873920752982603
-0.00258615,0.546669505157413,1.858717542968377
-0.00258552,0.5428841672709387,1.847315135457696
-0.00258489,0.5428841672709387,1.835912727947021
-0.00258426,0.5390988293844661,1.832111925443465
-0.00258363,0.5353134914979899,1.81690871542923
-0.002583,0.5277428157250412,1.797904702911434
-0.00258237,0.5277428157250412,1.786502295400764
-0.00258174,0.5201721399520925,1.771299085386531
-0.00258111,0.5239574778385651,1.75989667787585
-0.00258048,0.5201721399520925,1.744693467861624
-0.00257985,0.5163868020656182,1.729490257847391
-0.00257922,0.5126014641791455,1.725689455343834
-0.00257859,0.5088161262926695,1.710486245329599
-0.00257796,0.5012454505197207,1.695283035315362
-0.00257733,0.5012454505197207,1.683880627804692
-0.0025767,0.493674774746772,1.668677417790459
-0.00257607,0.4861040989738198,1.649673405272666
-0.00257544,0.4785334232008746,1.64587260276911
-0.00257481,0.4823187610873489,1.626868590251318
-0.00257418,0.4785334232008763,1.611665380237093
-0.00257355,0.4709627474279259,1.604063775229969
-0.00257292,0.4633920716549771,1.592661367719294
-0.00257229,0.4596067337685028,1.577458157705062
-0.00257166,0.4596067337685028,1.55845414518727
-0.00257103,0.4558213958820285,1.547051737676589
-0.0025704,0.4558213958820285,1.531848527662363
-0.00256977,0.4520360579955541,1.51664531764813
-0.00256914,0.4520360579955541,1.501442107633904
-0.00256851,0.4444653822226054,1.486238897619664
-0.00256788,0.440680044336131,1.474836490108989
-0.00256725,0.4293240306767079,1.463434082598315
-0.00256662,0.4217533549037592,1.45203167508764
-0.00256599,0.4255386927902319,1.433027662569842
-0.00256536,0.4217533549037592,1.417824452555616
-0.00256473,0.4179680170172849,1.402621242541383
-0.0025641,0.4179680170172849,1.391218835030714
-0.00256347,0.4103973412443361,1.383617230023592
-0.00256284,0.4103973412443361,1.368414020009359
-0.00256221,0.4066120033578635,1.353210809995133
-0.00256158,0.4028266654713875,1.338007599980893
-0.00256095,0.3990413275849113,1.330405994973768
-0.00256032,0.3952559896984387,1.311401982455986
-0.00255969,0.38768531392549,1.296198772441753
-0.00255906,0.3801146381525448,1.284796364931083
-0.00255843,0.3763293002660669,1.265792352413287
-0.0025578,0.3801146381525413,1.254389944902612
-0.00255717,0.372543962379596,1.242987537391943
-0.00255654,0.3725439623795926,1.231585129881263
-0.00255591,0.3687586244931165,1.212581117363465
-0.00255528,0.3649732866066439,1.197377907349239
-0.00255465,0.3574026108336952,1.189776302342122
-0.00255402,0.3536172729472225,1.174573092327896
-0.00255339,0.3498319350607464,1.159369882313656
-0.00255276,0.3536172729472208,1.144166672299423
-0.00255213,0.3460465971742755,1.128963462285198
-0.0025515,0.3384759214013234,1.117561054774516
-0.00255087,0.3384759214013199,1.098557042256721
-0.00255024,0.3309052456283746,1.090955437249608
-0.00254961,0.3271199077419003,1.071951424731817
-0.00254898,0.3195492319689516,1.056748214717579
-0.00254835,0.3195492319689516,1.04534580720691
-0.00254772,0.3271199077419003,1.030142597192677
-0.00254709,0.3157638940824824,1.014939387178451
-0.00254646,0.3119785561960029,1.003536979667769
-0.00254583,0.3081932183095268,0.995935374660644
-0.0025452,0.3044078804230542,0.9769313621428615
-0.00254457,0.2968372046501054,0.9617281521286286
-0.00254394,0.2892665288771601,0.9503257446179453
-0.00254331,0.2968372046501054,0.9313217321001628
-0.00254268,0.2892665288771567,0.9199193245894881
-0.00254205,0.2816958531042115,0.9009153120717056
-0.00254142,0.2779105152177336,0.885712102057464
-0.00254079,0.2741251773312593,0.8705088920432242
-0.00254016,0.2741251773312593,0.8553056820289981
-0.00253953,0.2665545015583106,0.8477040770218818
-0.0025389,0.2589838257853602,0.8325008670076419
-0.00253827,0.2551984878988875,0.8172976569934159
-0.00253764,0.2476278121259388,0.7982936444756248
-0.00253701,0.2514131500124114,0.7830904344613987
-0.00253638,0.2476278121259388,0.767887224447159
-0.00253575,0.2438424742394645,0.7564848169364843
-0.00253512,0.2362717984665157,0.7450824094258096
-0.00253449,0.2324864605800414,0.7260783969080185
-0.00253386,0.2324864605800397,0.7146759893973369
-0.00253323,0.228701122693567,0.6994727793831108
-0.0025326,0.2173451090341439,0.6880703718724361
-0.00253197,0.2097744332611987,0.6728671618582102
-0.00253134,0.2135597711476696,0.6538631493404121
-0.00253071,0.2059890953747209,0.634859136822621
-0.00253008,0.2022037574882465,0.619655926808388
-0.00252945,0.1984184196017721,0.6082535192977133
-0.00252882,0.1984184196017704,0.5892495067799171
-0.00252819,0.1946330817152978,0.5778470992692475
-0.00252756,0.1870624059423491,0.5664446917585728
-0.00252693,0.1832770680558765,0.5588430867514599
-0.0025263,0.175706392282926,0.5436398767372235
-0.00252567,0.175706392282926,0.5284366667229906
-0.00252504,0.1719210543964534,0.5132334567087645
-0.00252441,0.1681357165099773,0.4980302466945247
-0.00252378,0.1605650407370286,0.4790262341767267
-0.00252315,0.1605650407370286,0.4638230241625007
-0.00252252,0.1529943649640799,0.4448190116447095
-0.00252189,0.1454236891911346,0.43341660413404
-0.00252126,0.1416383513046568,0.4144125916162437
-0.00252063,0.1378530134181824,0.3992093816020108
-0.00252,0.1302823376452372,0.3916077765948978
-0.00251937,0.1302823376452337,0.3764045665806614
-0.00251874,0.1264969997587594,0.3650021590699798
-0.00251811,0.1264969997587594,0.3497989490557538
-0.00251748,0.122711661872285,0.3383965415450791
-0.00251685,0.1189263239858124,0.3231933315308532
-0.00251622,0.1113556482128619,0.3041893190130551
-0.00251559,0.1075703103263876,0.2927869115023804
-0.00251496,0.1037849724399149,0.2813845039917109
-0.00251433,0.09999963455343887,0.2623804914739146
-0.0025137,0.09999963455343543,0.2433764789561165
-0.00251307,0.09242895878049015,0.2281732689418905
-0.00251244,0.08485828300754145,0.2129700589276576
-0.00251181,0.08107294512106708,0.2015676514169743
-0.00251118,0.08107294512106708,0.1825636388991918
-0.00251055,0.07728760723459273,0.1711612313885171
-0.00250992,0.0735022693481201,0.1521572188707346
-0.00250929,0.06971693146164401,0.136954008856493
-0.00250866,0.06971693146164229,0.1255516013458132
-0.00250803,0.06593159357516966,0.1141491938351437
-0.0025074,0.05457557991574658,0.09514518131735253
-0.00250677,0.05457557991574486,0.07614116879955619
-0.00250614,0.05079024202927222,0.0647387612888867
-0.00250551,0.04321956625632351,0.04953555127465379
-0.00250488,0.03943422836985087,0.03433234126042779
-0.00250425,0.03186355259690044,0.02292993374974619
-0.00250362,0.031863552596897,0.007726723735504637
-0.00250299,0.02429287682395172,-0.01127728878227786
-0.00250236,0.02050753893747737,-0.02648049879651078
-0.00250173,0.009151525278052576,-0.04548451131430883
-0.0025011,0.00536618739157994,-0.06068772132853483
-0.00250047,0.001580849505105583,-0.07969173384632597
-0.00249984,0.001580849505105583,-0.09109414135699546
-0.00249921,-0.002204488381368774,-0.1024965488676753
-0.00249858,-0.002204488381368774,-0.1215005613854665
-0.00249795,-0.009775164154317489,-0.1329029688961412
-0.00249732,-0.01356050204079185,-0.1519069814139323
-0.00249669,-0.01734583992726792,-0.1671101914281687
-0.00249606,-0.02113117781374056,-0.1747117964352817
-0.00249543,-0.02870185358668927,-0.1899150064495146
-0.0024948,-0.03248719147316191,-0.2013174139601841
-0.00249417,-0.03627252935963799,-0.212719821470864
-0.00249354,-0.04005786724611235,-0.2317238339886551
-0.00249291,-0.04384320513258498,-0.2469270440028811
-0.00249228,-0.04762854301906106,-0.2621302540171209
-0.00249165,-0.05519921879200805,-0.2849350690384738
-0.00249102,-0.05141388090553542,-0.2925366740455868
-0.00249039,-0.05519921879200977,-0.3115406865633779
-0.00248976,-0.06276989456495505,-0.3267438965776039
-0.00248913,-0.07412590822438156,-0.345747909095402
-0.0024885,-0.07034057033790721,-0.3571503166060767
-0.00248787,-0.07412590822437984,-0.3723535266203026
-0.00248724,-0.08548192188380463,-0.3875567366345425
-0.00248661,-0.08926725977028244,-0.4027599466487823
-0.00248598,-0.0968379355432277,-0.4179631566630083
-0.00248535,-0.1006232734297021,-0.4331663666772412
-0.00248472,-0.1006232734297021,-0.4445687741879107
-0.00248409,-0.1006232734297021,-0.4559711816985906
-0.00248346,-0.1044086113161764,-0.4635727867057071
-0.00248283,-0.1157646249755943,-0.4825767992234895
-0.0024822,-0.1233353007485482,-0.5053816142448475
-0.00248157,-0.1233353007485465,-0.5205848242590891
-0.00248094,-0.1195499628620739,-0.5395888367768716
-0.00248031,-0.1233353007485482,-0.547190441783988
-0.00247968,-0.1309059765214986,-0.5585928492946697
-0.00247905,-0.1346913144079713,-0.5737960593088957
-0.00247842,-0.14226199018092,-0.5889992693231286
-0.00247779,-0.1460473280673926,-0.608003281840911
-0.00247716,-0.1460473280673943,-0.6308080968622691
-0.00247653,-0.1536180038403431,-0.6422105043729472
-0.0024759,-0.1536180038403431,-0.6498121093800602
-0.00247527,-0.1611886796132918,-0.6688161218978513
-0.00247464,-0.1611886796132969,-0.6840193319120895
-0.00247401,-0.1725446932727148,-0.695421739422759
-0.00247338,-0.1763300311591892,-0.7106249494369918
-0.00247275,-0.1801153690456618,-0.7220273569476614
-0.00247212,-0.1876860448186123,-0.7334297644583413
-0.00247149,-0.187686044818614,-0.7448321719690246
-0.00247086,-0.1914713827050866,-0.7638361844868071
-0.00247023,-0.1914713827050866,-0.7828401970045982
-0.0024696,-0.1952567205915627,-0.7942426045152816
-0.00246897,-0.1990420584780354,-0.813246617033064
-0.00246834,-0.2103980721374584,-0.8208482220401805
-0.00246771,-0.2103980721374584,-0.8322506295508499
-0.00246708,-0.2141834100239328,-0.8512546420686463
-0.00246645,-0.2217540857968815,-0.862657049579321
-0.00246582,-0.2255394236833559,-0.8816610620971121
-0.00246519,-0.2293247615698302,-0.8968642721113451
-0.00246456,-0.2293247615698336,-0.9082666796220284
-0.00246393,-0.2368954373427789,-0.9272706921398109
-0.0024633,-0.2444661131157276,-0.9386730996504856
-0.00246267,-0.2444661131157276,-0.9538763096647116
-0.00246204,-0.248251451002202,-0.9690795196789515
-0.00246141,-0.248251451002202,-0.9918843347003008
-0.00246078,-0.2558221267751507,-1.003286742210975
-0.00246015,-0.259607464661625,-1.01468914972165
-0.00245952,-0.2633928025481012,-1.022290754728773
-0.00245889,-0.2671781404345738,-1.037493964742999
-0.00245826,-0.2709634783210481,-1.052697174757232
-0.00245763,-0.2785341540939934,-1.064099582267902
-0.002457,-0.2785341540939968,-1.07930279228214
-0.00245637,-0.2823194919804712,-1.090705199792815
-0.00245574,-0.2861048298669439,-1.113510014814154
-0.00245511,-0.2936755056398943,-1.128713224828397
-0.00245448,-0.2974608435263704,-1.140115632339077
-0.00245385,-0.301246181412843,-1.151518039849746
-0.00245322,-0.301246181412843,-1.170522052367537
-0.00245259,-0.3088168571857883,-1.181924459878207
-0.00245196,-0.3126021950722661,-1.189526064885329
-0.00245133,-0.3201728708452148,-1.204729274899561
