Module3/data/exp3/7_Module2sine_1kHz_OP97F_sine_1V_10kOhm_2.csv

#Digilent WaveForms Oscilloscope Acquisition
#Device Name: Discovery2
#Serial Number: SN:210321AC1D4D
#Date Time: 2020-11-19 17:33:22.721
#Sample rate: 1.5873e+06Hz
#Samples: 8192
#Trigger: Source: Channel 1 Type: Edge Condition: Rising Level: 0 V Hyst.: Auto HoldOff: 0 s
#Channel 1: Range: 1 V/div Offset: 0 V Attenuation: 1 X
#Channel 2: Range: 1 V/div Offset: 0 V Attenuation: 1 X
#Wavegen Channel 1: Running
#Mode: Simple
#Type: Sine
#Frequency: 1 kHz
#Period: 1 ms
#Amplitude: 1 V
#Offset: 0 V
#Symmetry: 50 %
#Phase: 0 ¡Æ
#Power Supplies: ON
#Positive Supply: ON
#Voltage: 5 V
#Negative Supply: ON
#Voltage: -5 V

Time (s),Channel 1 (V),Channel 2 (V)
-0.002696715,0.9933393757613872,4.226617502685147
-0.002696085,0.9933393757613872,4.230418305188703
-0.002695455,0.9933393757613872,4.230418305188705
-0.002694825,0.989554037874911,4.226617502685147
-0.002694195,0.9857686999884384,4.226617502685147
-0.002693565,0.9819833621019641,4.222816700181588
-0.002692935,0.9819833621019641,4.219015897678032
-0.002692305,0.9819833621019641,4.222816700181588
-0.002691675,0.9819833621019641,4.230418305188705
-0.002691045,0.9781980242154915,4.226617502685149
-0.002690415,0.9781980242154897,4.226617502685147
-0.002689785,0.978198024215488,4.230418305188703
-0.002689155,0.9744126863290153,4.226617502685147
-0.002688525,0.9706273484425411,4.226617502685147
-0.002687895,0.9744126863290136,4.222816700181586
-0.002687265,0.9706273484425411,4.21901589767803
-0.002686635,0.9668420105560667,4.226617502685147
-0.002686005,0.963056672669594,4.226617502685147
-0.002685375,0.9630566726695923,4.21901589767803
-0.002684745,0.959271334783118,4.222816700181588
-0.002684115,0.959271334783118,4.222816700181588
-0.002683485,0.959271334783118,4.222816700181588
-0.002682855,0.9592713347831162,4.22281670018159
-0.002682225,0.9554859968966436,4.226617502685147
-0.002681595,0.9554859968966436,4.226617502685147
-0.002680965,0.9479153211236984,4.22281670018159
-0.002680335,0.9441299832372205,4.226617502685147
-0.002679705,0.9479153211236931,4.226617502685145
-0.002679075,0.9441299832372205,4.222816700181588
-0.002678445,0.9365593074642719,4.226617502685147
-0.002677815,0.9327739695777975,4.226617502685147
-0.002677185,0.9327739695777975,4.226617502685147
-0.002676555,0.9365593074642719,4.226617502685147
-0.002675925,0.9365593074642719,4.230418305188703
-0.002675295,0.9327739695777975,4.230418305188705
-0.002674665,0.9289886316913231,4.234219107692263
-0.002674035,0.9252032938048488,4.230418305188705
-0.002673405,0.9252032938048488,4.230418305188705
-0.002672775,0.9252032938048453,4.230418305188703
-0.002672145,0.9176326180319,4.226617502685147
-0.002671515,0.9176326180319,4.222816700181588
-0.002670885,0.9176326180319,4.222816700181588
-0.002670255,0.9138472801454257,4.230418305188705
-0.002669625,0.9100619422589513,4.230418305188705
-0.002668995,0.9138472801454257,4.230418305188705
-0.002668365,0.9024912664860026,4.230418305188705
-0.002667735,0.9024912664860026,4.226617502685149
-0.002667105,0.9024912664860026,4.230418305188705
-0.002666475,0.9024912664860026,4.230418305188705
-0.002665845,0.9024912664860026,4.230418305188705
-0.002665215,0.9024912664860026,4.226617502685147
-0.002664585,0.8987059285995282,4.226617502685147
-0.002663955,0.8949205907130556,4.226617502685147
-0.002663325,0.8949205907130539,4.230418305188705
-0.002662695,0.8873499149401052,4.226617502685147
-0.002662065,0.8873499149401052,4.226617502685147
-0.002661435,0.8835645770536308,4.222816700181588
-0.002660805,0.8797792391671583,4.226617502685145
-0.002660175,0.8797792391671565,4.230418305188705
-0.002659545,0.8759939012806821,4.222816700181588
-0.002658915,0.8722085633942095,4.226617502685145
-0.002658285,0.8722085633942077,4.222816700181588
-0.002657655,0.8759939012806787,4.219015897678034
-0.002657025,0.8684232255077334,4.226617502685147
-0.002656395,0.864637887621259,4.222816700181588
-0.002655765,0.8608525497347864,4.222816700181588
-0.002655135,0.8570672118483104,4.222816700181588
-0.002654505,0.864637887621259,4.226617502685147
-0.002653875,0.8608525497347864,4.226617502685147
-0.002653245,0.8494965360753616,4.226617502685147
-0.002652615,0.8494965360753616,4.22281670018159
-0.002651985,0.8494965360753616,4.226617502685147
-0.002651355,0.8457111981888872,4.226617502685147
-0.002650725,0.8457111981888837,4.230418305188705
-0.002650095,0.8381405224159385,4.230418305188705
-0.002649465,0.8381405224159385,4.234219107692263
-0.002648835,0.8343551845294659,4.234219107692263
-0.002648205,0.8343551845294641,4.226617502685147
-0.002647575,0.8229991708700393,4.230418305188701
-0.002646945,0.8192138329835668,4.222816700181588
-0.002646315,0.822999170870041,4.222816700181588
-0.002645685,0.8229991708700393,4.230418305188705
-0.002645055,0.8192138329835668,4.230418305188705
-0.002644425,0.8078578193241437,4.226617502685147
-0.002643795,0.8078578193241437,4.230418305188703
-0.002643165,0.8078578193241437,4.230418305188705
-0.002642535,0.8078578193241437,4.230418305188705
-0.002641905,0.8078578193241437,4.222816700181588
-0.002641275,0.8078578193241437,4.226617502685147
-0.002640645,0.8040724814376659,4.22281670018159
-0.002640015,0.7965018056647206,4.226617502685147
-0.002639385,0.7927164677782462,4.226617502685147
-0.002638755,0.7889311298917736,4.226617502685147
-0.002638125,0.7927164677782462,4.226617502685147
-0.002637495,0.7889311298917718,4.230418305188705
-0.002636865,0.7889311298917718,4.230418305188705
-0.002636235,0.7813604541188232,4.222816700181588
-0.002635605,0.777575116232347,4.222816700181588
-0.002634975,0.7737897783458745,4.222816700181588
-0.002634345,0.7662191025729257,4.222816700181588
-0.002633715,0.7700044404593983,4.219015897678032
-0.002633085,0.7662191025729257,4.222816700181588
-0.002632455,0.7662191025729257,4.226617502685147
-0.002631825,0.7548630889135078,4.226617502685147
-0.002631195,0.758648426799977,4.222816700181588
-0.002630565,0.7510777510270266,4.222816700181588
-0.002629935,0.7472924131405539,4.222816700181588
-0.002629305,0.7472924131405539,4.226617502685147
-0.002628675,0.7435070752540813,4.226617502685147
-0.002628045,0.7435070752540796,4.226617502685147
-0.002627415,0.7397217373676053,4.222816700181588
-0.002626785,0.7359363994811327,4.226617502685145
-0.002626155,0.7245803858217078,4.226617502685147
-0.002625525,0.7283657237081788,4.226617502685145
-0.002624895,0.7207950479352334,4.222816700181588
-0.002624265,0.7207950479352334,4.226617502685147
-0.002623635,0.7170097100487609,4.22281670018159
-0.002623005,0.7132243721622847,4.222816700181588
-0.002622375,0.7094390342758103,4.222816700181588
-0.002621745,0.7094390342758103,4.226617502685145
-0.002621115,0.7056536963893361,4.222816700181588
-0.002620485,0.7018683585028617,4.230418305188707
-0.002619855,0.7018683585028617,4.234219107692263
-0.002619225,0.7018683585028617,4.230418305188705
-0.002618595,0.6980830206163838,4.230418305188705
-0.002617965,0.6905123448434386,4.230418305188705
-0.002617335,0.6867270069569642,4.230418305188705
-0.002616705,0.6829416690704917,4.230418305188705
-0.002616075,0.6829416690704899,4.230418305188705
-0.002615445,0.6791563311840155,4.230418305188705
-0.002614815,0.6791563311840155,4.230418305188705
-0.002614185,0.6753709932975411,4.230418305188705
-0.002613555,0.6715856554110634,4.226617502685147
-0.002612925,0.6640149796381181,4.226617502685147
-0.002612295,0.6678003175245925,4.222816700181588
-0.002611665,0.6640149796381198,4.219015897678032
-0.002611035,0.6602296417516438,4.222816700181588
-0.002610405,0.6526589659786968,4.230418305188703
-0.002609775,0.6564443038651694,4.226617502685147
-0.002609145,0.6488736280922207,4.226617502685147
-0.002608515,0.6450882902057429,4.226617502685149
-0.002607885,0.6375176144327976,4.230418305188705
-0.002607255,0.6375176144327976,4.226617502685147
-0.002606625,0.6375176144327976,4.22281670018159
-0.002605995,0.6299469386598489,4.222816700181588
-0.002605365,0.6299469386598489,4.226617502685147
-0.002604735,0.6261616007733746,4.226617502685147
-0.002604105,0.6299469386598489,4.230418305188705
-0.002603475,0.622376262886895,4.230418305188703
-0.002602845,0.6110202492274771,4.226617502685147
-0.002602215,0.6110202492274771,4.222816700181588
-0.002601585,0.6034495734545319,4.226617502685145
-0.002600955,0.599664235568054,4.226617502685147
-0.002600325,0.5958788976815796,4.226617502685147
-0.002599695,0.5958788976815796,4.226617502685147
-0.002599065,0.5958788976815796,4.226617502685147
-0.002598435,0.5958788976815744,4.226617502685145
-0.002597805,0.5845228840221566,4.222816700181588
-0.002597175,0.5845228840221566,4.222816700181588
-0.002596545,0.5769522082492113,4.222816700181588
-0.002595915,0.5693815324762591,4.226617502685147
-0.002595285,0.5693815324762591,4.226617502685147
-0.002594655,0.5693815324762591,4.226617502685147
-0.002594025,0.5655961945897848,4.226617502685147
-0.002593395,0.5580255188168343,4.226617502685145
-0.002592765,0.5542401809303618,4.222816700181588
-0.002592135,0.5504548430438874,4.222816700181588
-0.002591505,0.5466695051574147,4.222816700181588
-0.002590875,0.546669505157413,4.222816700181588
-0.002590245,0.546669505157413,4.226617502685147
-0.002589615,0.5390988293844677,4.226617502685147
-0.002588985,0.5315281536115156,4.226617502685147
-0.002588355,0.5277428157250412,4.230418305188703
-0.002587725,0.5277428157250412,4.226617502685147
-0.002587095,0.5239574778385668,4.226617502685147
-0.002586465,0.5277428157250394,4.230418305188703
-0.002585835,0.5239574778385668,4.226617502685147
-0.002585205,0.5201721399520925,4.226617502685147
-0.002584575,0.5088161262926747,4.226617502685147
-0.002583945,0.5050307884061951,4.226617502685147
-0.002583315,0.5012454505197207,4.226617502685147
-0.002582685,0.5012454505197207,4.226617502685147
-0.002582055,0.4898894368602977,4.230418305188705
-0.002581425,0.489889436860296,4.230418305188705
-0.002580795,0.4861040989738233,4.230418305188705
-0.002580165,0.4823187610873489,4.230418305188705
-0.002579535,0.4785334232008763,4.226617502685149
-0.002578905,0.4747480853144002,4.226617502685147
-0.002578275,0.4633920716549754,4.226617502685147
-0.002577645,0.4596067337685028,4.226617502685147
-0.002577015,0.4596067337685028,4.226617502685147
-0.002576385,0.455821395882025,4.226617502685145
-0.002575755,0.4482507201090797,4.222816700181588
-0.002575125,0.4482507201090797,4.226617502685147
-0.002574495,0.4444653822226071,4.226617502685147
-0.002573865,0.4368947064496567,4.222816700181588
-0.002573235,0.4368947064496567,4.222816700181588
-0.002572605,0.4368947064496567,4.21901589767803
-0.002571975,0.4331093685631823,4.226617502685147
-0.002571345,0.4293240306767079,4.230418305188703
-0.002570715,0.4293240306767079,4.226617502685147
-0.002570085,0.4255386927902336,4.222816700181588
-0.002569455,0.4179680170172883,4.222816700181588
-0.002568825,0.4141826791308105,4.226617502685147
-0.002568195,0.4066120033578618,4.222816700181588
-0.002567565,0.3990413275849131,4.222816700181588
-0.002566935,0.4028266654713875,4.226617502685147
-0.002566305,0.402826665471384,4.230418305188701
-0.002565675,0.3952559896984387,4.222816700181588
-0.002565045,0.3914706518119644,4.222816700181588
-0.002564415,0.3801146381525465,4.222816700181588
-0.002563785,0.3801146381525413,4.226617502685147
-0.002563155,0.3725439623795926,4.222816700181588
-0.002562525,0.36875862449312,4.226617502685145
-0.002561895,0.3649732866066439,4.226617502685147
-0.002561265,0.3649732866066439,4.222816700181588
-0.002560635,0.3649732866066439,4.222816700181588
-0.002560005,0.3611879487201695,4.222816700181588
-0.002559375,0.3574026108336969,4.215215095174475
-0.002558745,0.3498319350607464,4.188609477649564
-0.002558115,0.3460465971742721,4.150601452613982
-0.002557485,0.3498319350607447,4.101191020067747
-0.002556855,0.3422612592877977,4.032776575003677
-0.002556225,0.3422612592877943,3.964362129939598
-0.002555595,0.334690583514849,3.895947684875581
-0.002554965,0.3271199077419003,3.835134844818649
-0.002554335,0.3271199077419003,3.774322004761745
-0.002553705,0.3271199077419003,3.721110769711903
-0.002553075,0.323334569855426,3.667899534662087
-0.002552445,0.3195492319689533,3.622289904619409
-0.002551815,0.3195492319689516,3.569078669569573
-0.002551185,0.3119785561960029,3.515867434519735
-0.002550555,0.3119785561960029,3.466457001973501
-0.002549925,0.3044078804230542,3.413245766923686
-0.002549295,0.3044078804230542,3.360034531873847
-0.002548665,0.3044078804230542,3.306823296824056
-0.002548035,0.3006225425365798,3.257412864277798
-0.002547405,0.2968372046501072,3.215604036738677
-0.002546775,0.2930518667636311,3.166193604192401
-0.002546145,0.2930518667636294,3.120583974149681
-0.002545515,0.2892665288771567,3.074974344107003
-0.002544885,0.281695853104208,3.021763109057188
-0.002544255,0.2741251773312559,2.976153479014469
-0.002543625,0.2665545015583106,2.930543848971791
-0.002542995,0.2627691636718362,2.881133416425534
-0.002542365,0.2627691636718362,2.831722983879299
-0.002541735,0.2627691636718362,2.786113353836578
-0.002541105,0.2589838257853602,2.736702921290299
-0.002540475,0.2551984878988875,2.687292488744064
-0.002539845,0.2476278121259388,2.645483661204924
-0.002539215,0.2438424742394627,2.596073228658641
-0.002538585,0.2400571363529901,2.539061191105294
-0.002537955,0.2438424742394645,2.493451561062595
-0.002537325,0.2438424742394645,2.447841931019917
-0.002536695,0.2362717984665157,2.402232300977198
-0.002536065,0.2324864605800414,2.35282186843094
-0.002535435,0.228701122693567,2.307212238388241
-0.002534805,0.2211304469206183,2.261602608345543
-0.002534175,0.2211304469206149,2.219793780806383
-0.002533545,0.2135597711476696,2.177984953267262
-0.002532915,0.2059890953747209,2.136176125728121
-0.002532285,0.2022037574882482,2.086765693181887
-0.002531655,0.2022037574882465,2.037355260635607
-0.002531025,0.1984184196017721,1.991745630592908
-0.002530395,0.2022037574882465,1.942335198046651
-0.002529765,0.1946330817152978,1.900526370507511
-0.002529135,0.1870624059423491,1.851115937961235
-0.002528505,0.1870624059423491,1.809307110422113
-0.002527875,0.1832770680558747,1.756095875372298
-0.002527245,0.1757063922829294,1.71048624532962
-0.002526615,0.1681357165099773,1.664876615286901
-0.002525985,0.1605650407370286,1.615466182740644
-0.002525355,0.1605650407370286,1.569856552697966
-0.002524725,0.1567797028505542,1.524246922655246
-0.002524095,0.1454236891911312,1.478637292612525
-0.002523465,0.1454236891911312,1.429226860066291
-0.002522835,0.1416383513046568,1.383617230023592
-0.002522205,0.1416383513046568,1.341808402484471
-0.002521575,0.1378530134181824,1.296198772441753
-0.002520945,0.1340676755317081,1.254389944902612
-0.002520315,0.1302823376452354,1.201178709852821
-0.002519685,0.1264969997587594,1.155569079810098
-0.002519055,0.1264969997587594,1.109959449767379
-0.002518425,0.1264969997587594,1.064349819724701
-0.002517795,0.1189263239858107,1.014939387178444
-0.002517165,0.115140986099338,0.9693297571357659
-0.002516535,0.1113556482128619,0.9199193245894881
-0.002515905,0.1037849724399132,0.8743096945467893
-0.002515275,0.09999963455344059,0.8287000645041114
-0.002514645,0.09999963455343887,0.7830904344613918
-0.002514015,0.09621429666696107,0.733680001915116
-0.002513385,0.0886436208940158,0.6918711743759944
-0.002512755,0.08107294512106708,0.6424607418297374
-0.002512125,0.07728760723459101,0.5968511117870179
-0.002511495,0.07350226934811838,0.55124148174434
-0.002510865,0.07350226934811838,0.5056318517016412
-0.002510235,0.07350226934811838,0.4562214191554067
-0.002509605,0.06971693146164401,0.4106117891126855
-0.002508975,0.06593159357516622,0.3650021590699642
-0.002508345,0.05836091780222094,0.3155917265237298
-0.002507715,0.05079024202927222,0.2775837014881475
-0.002507085,0.05079024202927394,0.228173268941868
-0.002506455,0.05457557991574658,0.1787628363956336
-0.002505825,0.05079024202927222,0.1331532063529348
-0.002505195,0.03943422836985432,0.09134437881381331
-0.002504565,0.02807821471042608,0.04193394626753733
-0.002503935,0.02807821471042436,-0.007476486278740375
-0.002503305,0.02429287682395172,-0.05308611632141837
-0.002502675,0.02429287682395172,-0.09869574636411711
-0.002502045,0.01293686316452693,-0.1481061789103948
-0.002501415,0.009151525278054297,-0.1937158089530728
-0.002500785,0.009151525278054297,-0.2355246364922133
-0.002500155,0.001580849505109025,-0.2773334640313349
-0.002499525,-0.002204488381368774,-0.3267438965776108
-0.002498895,-0.005989826267843132,-0.3685527241167513
-0.002498265,-0.01356050204079185,-0.4217639591665665
-0.002497635,-0.005989826267843132,-0.4711743917128235
-0.002497005,-0.01356050204079529,-0.5167840217555446
-0.002496375,-0.02113117781374056,-0.5661944543017792
-0.002495745,-0.02491651570021492,-0.6156048868480362
-0.002495115,-0.02491651570021492,-0.6650153193942707
-0.002494485,-0.03248719147316363,-0.7068241469334337
-0.002493855,-0.03627252935963799,-0.7524337769761323
-0.002493225,-0.03627252935963799,-0.794242604515254
-0.002492595,-0.04005786724611235,-0.8436530370615298
-0.002491965,-0.04762854301906278,-0.8930634696078076
-0.002491335,-0.05141388090553542,-0.9386730996504856
-0.002490705,-0.05898455667848413,-0.9842827296931843
-0.002490075,-0.06276989456495677,-1.029892359735862
-0.002489445,-0.06655523245143284,-1.075501989778582
-0.002488815,-0.07034057033790721,-1.124912422324839
-0.002488185,-0.07034057033790721,-1.170522052367517
-0.002487555,-0.07412590822438156,-1.212330879906678
-0.002486925,-0.07791124611085937,-1.257940509949396
-0.002486295,-0.08548192188380463,-1.299749337488517
-0.002485665,-0.08926725977027899,-1.345358967531216
-0.002485035,-0.09305259765675163,-1.402371005084563
-0.002484405,-0.1006232734297021,-1.447980635127288
-0.002483775,-0.1044086113161764,-1.493590265169987
-0.002483145,-0.108193949202649,-1.535399092709108
-0.002482515,-0.1119792870891251,-1.584809525255384
-0.002481885,-0.1119792870891269,-1.634219957801657
-0.002481255,-0.1157646249755995,-1.668427180333665
-0.002480625,-0.1195499628620739,-1.717837612879922
-0.002479995,-0.1195499628620756,-1.771048847929757
-0.002479365,-0.1233353007485482,-1.812857675468878
-0.002478735,-0.1233353007485482,-1.862268108015135
-0.002478105,-0.1346913144079661,-1.907877738057813
-0.002477475,-0.1384766522944456,-1.957288170604091
-0.002476845,-0.1422619901809217,-1.99909699814325
-0.002476215,-0.1460473280673943,-2.040905825682372
-0.002475585,-0.1536180038403431,-2.08651545572507
-0.002474955,-0.1574033417268191,-2.13212508576779
-0.002474325,-0.1611886796132918,-2.177734715810468
-0.002473695,-0.1687593553862405,-2.230945950860283
-0.002473065,-0.1649740174997679,-2.276555580902961
-0.002472435,-0.1687593553862405,-2.322165210945681
-0.002471805,-0.1763300311591909,-2.363974038484844
-0.002471175,-0.1801153690456636,-2.413384471031078
-0.002470545,-0.1839007069321379,-2.458994101073777
-0.002469915,-0.1914713827050883,-2.500802928612938
-0.002469285,-0.195256720591561,-2.546412558655616
-0.002468655,-0.2028273963645097,-2.592022188698315
-0.002468025,-0.2028273963645097,-2.637631818740993
-0.002467395,-0.2066127342509841,-2.683241448783712
-0.002466765,-0.2103980721374584,-2.725050276322853
-0.002466135,-0.2141834100239328,-2.770659906365552
-0.002465505,-0.2179687479104071,-2.820070338911808
-0.002464875,-0.2179687479104123,-2.865679968954528
-0.002464245,-0.2293247615698302,-2.911289598997207
-0.002463615,-0.2331100994563046,-2.956899229039905
-0.002462985,-0.2293247615698319,-3.002508859082583
-0.002462355,-0.2368954373427789,-3.044317686621744
-0.002461725,-0.2406807752292533,-3.089927316664443
-0.002461095,-0.248251451002202,-3.131736144203583
-0.002460465,-0.248251451002202,-3.173544971742724
-0.002459835,-0.2558221267751507,-3.226756206792562
-0.002459205,-0.2558221267751507,-3.276166639338796
-0.002458575,-0.259607464661625,-3.321776269381495
-0.002457945,-0.2633928025480977,-3.367385899424173
-0.002457315,-0.2709634783210481,-3.405393924459776
-0.002456685,-0.2747488162075225,-3.451003554502474
-0.002456055,-0.2747488162075225,-3.492812382041596
