Module3/data/exp3/7_Module2sine_1kHz_OP97F_sine_1V_1kOhm_2kOhm.csv

#Digilent WaveForms Oscilloscope Acquisition
#Device Name: Discovery2
#Serial Number: SN:210321AC1D4D
#Date Time: 2020-11-19 17:29:27.384
#Sample rate: 1.5873e+06Hz
#Samples: 8192
#Trigger: Source: Channel 1 Type: Edge Condition: Rising Level: 0 V Hyst.: Auto HoldOff: 0 s
#Channel 1: Range: 1 V/div Offset: 0 V Attenuation: 1 X
#Channel 2: Range: 1 V/div Offset: 0 V Attenuation: 1 X
#Wavegen Channel 1: Running
#Mode: Simple
#Type: Sine
#Frequency: 1 kHz
#Period: 1 ms
#Amplitude: 1 V
#Offset: 0 V
#Symmetry: 50 %
#Phase: 0 ¡Æ
#Power Supplies: ON
#Positive Supply: ON
#Voltage: 5 V
#Negative Supply: ON
#Voltage: -5 V

Time (s),Channel 1 (V),Channel 2 (V)
-0.0026964,0.9971247136478615,3.101579961631911
-0.00269577,0.993339375761389,3.093978356624798
-0.00269514,0.9933393757613872,3.086376751617678
-0.00269451,0.9895540378749128,3.086376751617678
-0.00269388,0.9895540378749128,3.086376751617678
-0.00269325,0.9895540378749128,3.078775146610562
-0.00269262,0.9857686999884402,3.071173541603449
-0.00269199,0.9857686999884384,3.05977113409277
-0.00269136,0.9819833621019641,3.063571936596329
-0.00269073,0.9857686999884366,3.059771134092772
-0.0026901,0.9819833621019641,3.052169529085655
-0.00268947,0.9781980242154897,3.044567924078534
-0.00268884,0.9781980242154897,3.036966319071421
-0.00268821,0.9781980242154897,3.036966319071421
-0.00268758,0.9781980242154897,3.03316551656786
-0.00268695,0.9781980242154897,3.025563911560747
-0.00268632,0.9706273484425411,3.021763109057188
-0.00268569,0.9744126863290136,3.017962306553632
-0.00268506,0.9706273484425411,3.014161504050072
-0.00268443,0.9706273484425393,3.006559899042954
-0.0026838,0.9668420105560667,3.002759096539397
-0.00268317,0.9630566726695923,2.995157491532281
-0.00268254,0.9630566726695923,2.991356689028719
-0.00268191,0.9630566726695923,2.983755084021606
-0.00268128,0.959271334783118,2.976153479014489
-0.00268065,0.9554859968966454,2.972352676510933
-0.00268002,0.9554859968966436,2.968551874007373
-0.00267939,0.9554859968966436,2.960950269000255
-0.00267876,0.9554859968966436,2.957149466496698
-0.00267813,0.9517006590101692,2.953348663993141
-0.0026775,0.9479153211236949,2.94574705898602
-0.00267687,0.9479153211236949,2.938145453978907
-0.00267624,0.9441299832372205,2.93434465147535
-0.00267561,0.9403446453507479,2.926743046468236
-0.00267498,0.9403446453507461,2.915340638957558
-0.00267435,0.9441299832372205,2.911539836454
-0.00267372,0.9403446453507461,2.907739033950442
-0.00267309,0.9365593074642719,2.900137428943325
-0.00267246,0.9327739695777975,2.896336626439761
-0.00267183,0.9327739695777975,2.884934218929092
-0.0026712,0.9289886316913231,2.881133416425534
-0.00267057,0.9289886316913231,2.869731008914864
-0.00266994,0.9289886316913231,2.858328601404184
-0.00266931,0.9214179559183744,2.850726996397068
-0.00266868,0.9252032938048488,2.850726996397068
-0.00266805,0.9176326180319,2.843125391389951
-0.00266742,0.9214179559183726,2.835523786382834
-0.00266679,0.9176326180319,2.831722983879277
-0.00266616,0.9176326180319,2.820320576368602
-0.00266553,0.9176326180319,2.808918168857933
-0.0026649,0.9100619422589513,2.805117366354369
-0.00266427,0.9100619422589513,2.797515761347253
-0.00266364,0.9062766043724787,2.797515761347253
-0.00266301,0.9024912664860026,2.789914156340137
-0.00266238,0.9024912664860026,2.786113353836573
-0.00266175,0.9024912664860026,2.774710946325904
-0.00266112,0.8949205907130539,2.767109341318787
-0.00266049,0.8911352528265813,2.759507736311674
-0.00265986,0.8873499149401052,2.755706933808113
-0.00265923,0.8835645770536308,2.748105328800996
-0.0026586,0.8797792391671583,2.748105328800996
-0.00265797,0.8835645770536308,2.736702921290322
-0.00265734,0.8797792391671565,2.725300513779643
-0.00265671,0.8797792391671565,2.717698908772531
-0.00265608,0.8797792391671565,2.710097303765414
-0.00265545,0.8759939012806839,2.702495698758301
-0.00265482,0.8684232255077334,2.694894093751181
-0.00265419,0.864637887621259,2.683491686240506
-0.00265356,0.864637887621259,2.679690883736949
-0.00265293,0.864637887621259,2.672089278729831
-0.0026523,0.8608525497347829,2.668288476226271
-0.00265167,0.8570672118483104,2.664487673722715
-0.00265104,0.8608525497347846,2.65308526621204
-0.00265041,0.8570672118483086,2.649284463708477
-0.00264978,0.853281873961836,2.637882056197808
-0.00264915,0.8457111981888872,2.626479648687132
-0.00264852,0.8457111981888872,2.61887804368002
-0.00264789,0.8457111981888872,2.6112764386729
-0.00264726,0.8419258603024129,2.607475636169334
-0.00264663,0.8419258603024129,2.592272426155109
-0.002646,0.8381405224159385,2.580870018644434
-0.00264537,0.8305698466429916,2.569467611133757
-0.00264474,0.8343551845294641,2.565666808630201
-0.00264411,0.8343551845294641,2.558065203623085
-0.00264348,0.8343551845294641,2.550463598615972
-0.00264285,0.8305698466429898,2.550463598615968
-0.00264222,0.8267845087565154,2.535260388601735
-0.00264159,0.822999170870041,2.52385798109106
-0.00264096,0.8192138329835668,2.516256376083944
-0.00264033,0.8154284950970924,2.508654771076822
-0.0026397,0.8154284950970924,2.497252363566153
-0.00263907,0.8078578193241437,2.493451561062595
-0.00263844,0.8078578193241437,2.485849956055482
-0.00263781,0.8040724814376693,2.470646746041245
-0.00263718,0.8040724814376693,2.463045141034129
-0.00263655,0.8002871435511949,2.451642733523454
-0.00263592,0.7965018056647206,2.444041128516337
-0.00263529,0.8002871435511931,2.440240326012776
-0.00263466,0.7965018056647206,2.432638721005663
-0.00263403,0.7889311298917718,2.421236313494989
-0.0026334,0.7813604541188266,2.409833905984319
-0.00263277,0.7775751162323488,2.402232300977198
-0.00263214,0.7813604541188232,2.394630695970081
-0.00263151,0.7813604541188232,2.390829893466524
-0.00263088,0.7737897783458745,2.379427485955848
-0.00263025,0.7662191025729257,2.371825880948724
-0.00262962,0.7662191025729257,2.356622670934499
-0.00262899,0.7700044404594001,2.345220263423824
-0.00262836,0.7700044404594001,2.33761865841671
-0.00262773,0.758648426799977,2.333817855913149
-0.0026271,0.758648426799977,2.322415448402475
-0.00262647,0.7548630889135044,2.311013040891805
-0.00262584,0.7548630889135026,2.303411435884684
-0.00262521,0.7472924131405505,2.292009028374003
-0.00262458,0.7397217373676053,2.280606620863334
-0.00262395,0.7472924131405539,2.269204213352659
-0.00262332,0.7435070752540813,2.265403410849102
-0.00262269,0.7397217373676053,2.254001003338426
-0.00262206,0.7321510615946565,2.24639939833131
-0.00262143,0.728365723708184,2.238797793324196
-0.0026208,0.7283657237081822,2.227395385813518
-0.00262017,0.7207950479352316,2.219793780806398
-0.00261954,0.7170097100487591,2.212192175799285
-0.00261891,0.7170097100487591,2.200789768288611
-0.00261828,0.713224372162283,2.189387360777931
-0.00261765,0.7094390342758103,2.177984953267262
-0.00261702,0.7094390342758103,2.174184150763703
-0.00261639,0.713224372162283,2.158980940749478
-0.00261576,0.7056536963893361,2.151379335742354
-0.00261513,0.7056536963893361,2.136176125728118
-0.0026145,0.7056536963893361,2.128574520721005
-0.00261387,0.6980830206163873,2.11717211321033
-0.00261324,0.6942976827299112,2.109570508203208
-0.00261261,0.6905123448434386,2.098168100692539
-0.00261198,0.6867270069569642,2.086765693181865
-0.00261135,0.6829416690704917,2.079164088174752
-0.00261072,0.6791563311840155,2.067761680664073
-0.00261009,0.6753709932975394,2.060160075656953
-0.00260946,0.6715856554110669,2.05255847064984
-0.00260883,0.6678003175245925,2.037355260635607
-0.0026082,0.6678003175245907,2.025952853124929
-0.00260757,0.6640149796381181,2.018351248117816
-0.00260694,0.6602296417516438,2.006948840607142
-0.00260631,0.6564443038651712,1.999347235600029
-0.00260568,0.6564443038651694,1.98794482808935
-0.00260505,0.652658965978695,1.972741618075117
-0.00260442,0.6450882902057463,1.957538408060884
-0.00260379,0.6450882902057463,1.949936803053768
-0.00260316,0.6450882902057445,1.93853439554309
-0.00260253,0.6413029523192719,1.930932790535977
-0.0026019,0.6337322765463232,1.919530383025302
-0.00260127,0.6299469386598506,1.908127975514633
-0.00260064,0.6299469386598489,1.892924765500394
-0.00260001,0.6299469386598489,1.885323160493278
-0.00259938,0.6261616007733746,1.877721555486162
-0.00259875,0.6185909250004258,1.866319147975487
-0.00259812,0.6148055871139515,1.851115937961252
-0.00259749,0.6148055871139515,1.847315135457696
-0.00259686,0.6148055871139515,1.832111925443463
-0.00259623,0.6110202492274789,1.820709517932793
-0.0025956,0.6072349113410027,1.813107912925672
-0.00259497,0.599664235568054,1.801705505414997
-0.00259434,0.5958788976815814,1.790303097904328
-0.00259371,0.5920935597951053,1.778900690393648
-0.00259308,0.5883082219086292,1.767498282882968
-0.00259245,0.5845228840221566,1.756095875372298
-0.00259182,0.5845228840221566,1.740892665358065
-0.00259119,0.580737546135684,1.733291060350953
-0.00259056,0.5731668703627335,1.721888652840274
-0.00258993,0.5693815324762591,1.718087850336716
-0.0025893,0.5618108567033139,1.706685442826047
-0.00258867,0.5618108567033104,1.695283035315367
-0.00258804,0.5618108567033087,1.683880627804687
-0.00258741,0.558025518816836,1.672478220294017
-0.00258678,0.558025518816836,1.664876615286901
-0.00258615,0.5466695051574182,1.649673405272675
-0.00258552,0.5428841672709387,1.634470195258435
-0.00258489,0.5390988293844643,1.619266985244202
-0.00258426,0.5353134914979917,1.607864577733533
-0.00258363,0.5315281536115156,1.600262972726411
-0.002583,0.5315281536115138,1.592661367719288
-0.00258237,0.5277428157250412,1.577458157705062
-0.00258174,0.5201721399520925,1.566055750194387
-0.00258111,0.5126014641791438,1.554653342683707
-0.00258048,0.5126014641791438,1.543250935173037
-0.00257985,0.5126014641791438,1.528047725158805
-0.00257922,0.5088161262926713,1.520446120151692
-0.00257859,0.5088161262926695,1.505242910137455
-0.00257796,0.5012454505197173,1.493840502626775
-0.00257733,0.493674774746772,1.482438095116106
-0.0025767,0.4861040989738233,1.474836490108989
-0.00257607,0.4823187610873472,1.46343408259831
-0.00257544,0.4785334232008746,1.45203167508764
-0.00257481,0.4785334232008746,1.436828465073407
-0.00257418,0.4785334232008746,1.425426057562738
-0.00257355,0.4709627474279259,1.410222847548499
-0.00257292,0.4709627474279259,1.398820440037825
-0.00257229,0.4671774095414515,1.391218835030708
-0.00257166,0.4596067337685028,1.379816427520034
-0.00257103,0.4482507201090815,1.364613217505797
-0.0025704,0.4520360579955541,1.357011612498684
-0.00256977,0.4482507201090797,1.341808402484451
-0.00256914,0.4444653822226071,1.326605192470225
-0.00256851,0.440680044336131,1.315202784959544
-0.00256788,0.4368947064496567,1.299999574945311
-0.00256725,0.440680044336131,1.292397969938194
-0.00256662,0.4368947064496567,1.277194759923961
-0.00256599,0.4293240306767045,1.26579235241328
-0.00256536,0.4217533549037592,1.250589142399054
-0.00256473,0.4217533549037592,1.239186734888379
-0.0025641,0.4179680170172866,1.231585129881266
-0.00256347,0.4103973412443361,1.223983524874146
-0.00256284,0.3990413275849131,1.212581117363472
-0.00256221,0.3990413275849131,1.197377907349246
-0.00256158,0.3952559896984387,1.182174697335006
-0.00256095,0.3952559896984387,1.170772289824328
-0.00256032,0.3952559896984387,1.163170684817215
-0.00255969,0.3838999760390157,1.15176827730654
-0.00255906,0.3838999760390157,1.136565067292314
-0.00255843,0.3838999760390157,1.121361857278074
-0.0025578,0.3801146381525413,1.109959449767399
-0.00255717,0.372543962379596,1.094756239753173
-0.00255654,0.3649732866066439,1.079553029738934
-0.00255591,0.3649732866066421,1.071951424731814
-0.00255528,0.3611879487201695,1.064349819724701
-0.00255465,0.3574026108336952,1.052947412214026
-0.00255402,0.3536172729472225,1.033943399696243
-0.00255339,0.3460465971742721,1.02254099218556
-0.00255276,0.3460465971742721,1.011138584674885
-0.00255213,0.3422612592877994,0.9997361771642161
-0.0025515,0.3384759214013234,0.9883337696535361
-0.00255087,0.3309052456283746,0.976931362142858
-0.00255024,0.3309052456283746,0.9693297571357451
-0.00254961,0.3271199077419003,0.9465249421143956
-0.00254898,0.323334569855426,0.9313217321001576
-0.00254835,0.323334569855426,0.9199193245894881
-0.00254772,0.323334569855426,0.9085169170788134
-0.00254709,0.3195492319689533,0.8933137070645873
-0.00254646,0.3119785561960029,0.885712102057464
-0.00254583,0.3044078804230524,0.8705088920432277
-0.0025452,0.3006225425365798,0.8629072870361146
-0.00254457,0.2968372046501054,0.8477040770218818
-0.00254394,0.3006225425365764,0.8439032745183148
-0.00254331,0.2930518667636311,0.8248992620005324
-0.00254268,0.2854811909906824,0.8058952494827413
-0.00254205,0.2854811909906824,0.7944928419720718
-0.00254142,0.2779105152177336,0.7792896319578336
-0.00254079,0.2779105152177302,0.7640864219435973
-0.00254016,0.270339839444785,0.7564848169364843
-0.00253953,0.2665545015583106,0.7450824094258096
-0.0025389,0.2665545015583071,0.7298791994115714
-0.00253827,0.2589838257853619,0.718476791900902
-0.00253764,0.2438424742394645,0.7070743843902273
-0.00253701,0.2400571363529918,0.6994727793831143
-0.00253638,0.2400571363529901,0.684269569368878
-0.00253575,0.2400571363529901,0.6728671618582033
-0.00253512,0.2362717984665157,0.6614647543475286
-0.00253449,0.228701122693567,0.6462615443332956
-0.00253386,0.2249157848070892,0.6310583343190541
-0.00253323,0.2173451090341439,0.6120543218012716
-0.0025326,0.2135597711476696,0.6006519142905969
-0.00253197,0.2135597711476696,0.5892495067799275
-0.00253134,0.2135597711476696,0.5778470992692475
-0.00253071,0.2097744332611952,0.5702454942621311
-0.00253008,0.2059890953747209,0.5550422842478981
-0.00252945,0.1946330817152978,0.5398390742336653
-0.00252882,0.1946330817152944,0.5246358642194271
-0.00252819,0.1870624059423491,0.5132334567087576
-0.00252756,0.1832770680558747,0.501831049198083
-0.00252693,0.1794917301694021,0.486627839183857
-0.0025263,0.175706392282926,0.4752254316731754
-0.00252567,0.1719210543964517,0.4676238266660589
-0.00252504,0.1643503786235064,0.4524206166518329
-0.00252441,0.1681357165099773,0.4410182091411513
-0.00252378,0.1681357165099721,0.4220141966233532
-0.00252315,0.1567797028505542,0.4068109866091272
-0.00252252,0.1567797028505542,0.3954085790984526
-0.00252189,0.149209027077609,0.3878069740913396
-0.00252126,0.1416383513046568,0.368802961573545
-0.00252063,0.1378530134181824,0.3612013565664285
-0.00252,0.1340676755317098,0.3459981465522026
-0.00251937,0.1340676755317081,0.3345957390415209
-0.00251874,0.130282337645232,0.3231933315308393
-0.00251811,0.1264969997587594,0.3079901215166133
-0.00251748,0.122711661872285,0.2965877140059386
-0.00251685,0.1151409860993397,0.2889861089988256
-0.00251622,0.1113556482128619,0.2737828989845892
-0.00251559,0.1075703103263876,0.2585796889703563
-0.00251496,0.09999963455344231,0.2433764789561303
-0.00251433,0.09242895878049015,0.235774873949007
-0.0025137,0.09242895878048843,0.2167708614312124
-0.00251307,0.0886436208940158,0.2091692564240994
-0.00251244,0.08485828300754145,0.1977668489134247
-0.00251181,0.08485828300753973,0.1787628363956284
-0.00251118,0.08107294512106708,0.1673604288849589
-0.00251055,0.07350226934811838,0.1521572188707259
-0.00250992,0.06971693146164573,0.1369540088564999
-0.00250929,0.06593159357516966,0.1255516013458184
-0.00250866,0.06214625568868841,0.1141491938351402
-0.00250803,0.04700490414279787,0.1065475888280272
-0.0025074,0.04321956625632351,0.08754357631023607
-0.00250677,0.04700490414279615,0.07614116879955447
-0.00250614,0.04321956625632351,0.06093795878532848
-0.00250551,0.04700490414279787,0.04573474877109556
-0.00250488,0.03943422836985259,0.03053153875686956
-0.00250425,0.0356488904833748,0.01912913124618796
-0.00250362,0.031863552596897,0.003925921231948138
-0.00250299,0.02429287682395172,-0.01127728878227786
-0.00250236,0.02050753893747737,-0.02267969629295255
-0.00250173,0.01293686316452865,-0.03408210380363587
-0.0025011,0.01293686316452865,-0.05308611632141837
-0.00250047,0.00536618739157994,-0.06448852383209305
-0.00249984,0.001580849505107304,-0.07589093134276255
-0.00249921,-0.005989826267843132,-0.09109414135700065
-0.00249858,-0.01356050204079185,-0.1024965488676753
-0.00249795,-0.0173458399272662,-0.1100981538747918
-0.00249732,-0.0173458399272662,-0.1253013638890247
-0.00249669,-0.02113117781374056,-0.136703771399708
-0.00249606,-0.02113117781374056,-0.1557077839174905
-0.00249543,-0.02113117781374056,-0.1671101914281652
-0.0024948,-0.03248719147315847,-0.1785125989388347
-0.00249417,-0.0438432051325867,-0.1899150064495146
-0.00249354,-0.0438432051325867,-0.197516611456631
-0.00249291,-0.0438432051325867,-0.2089190189673006
-0.00249228,-0.05141388090553542,-0.2203214264779804
-0.00249165,-0.04762854301906622,-0.2355246364922202
-0.00249102,-0.05898455667848413,-0.2507278465064463
-0.00249039,-0.06276989456495849,-0.2659310565206792
-0.00248976,-0.0741259082243764,-0.2811342665349051
-0.00248913,-0.07791124611085593,-0.2925366740455868
-0.0024885,-0.08169658399733028,-0.3077398840598197
-0.00248787,-0.07791124611085765,-0.3153414890669327
-0.00248724,-0.08548192188380463,-0.3343455015847273
-0.00248661,-0.08926725977028072,-0.3457479090954089
-0.00248598,-0.09305259765675335,-0.3609511191096349
-0.00248535,-0.09305259765675335,-0.3723535266203096
-0.00248472,-0.09305259765675335,-0.3799551316274226
-0.00248409,-0.1006232734297021,-0.3951583416416589
-0.00248346,-0.1119792870891251,-0.4065607491523336
-0.00248283,-0.1195499628620704,-0.4217639591665596
-0.0024822,-0.1195499628620739,-0.4369671691807994
-0.00248157,-0.1195499628620756,-0.4483695766914811
-0.00248094,-0.1233353007485482,-0.4635727867057071
-0.00248031,-0.1309059765214969,-0.4749751942163817
-0.00247968,-0.1309059765214986,-0.4901784042306198
-0.00247905,-0.1346913144079713,-0.5015808117412893
-0.00247842,-0.1384766522944456,-0.5205848242590805
-0.00247779,-0.1498326659538635,-0.5357880342733065
-0.00247716,-0.1498326659538687,-0.547190441783988
-0.00247653,-0.1536180038403448,-0.5623936517982244
-0.0024759,-0.1574033417268174,-0.5699952568053375
-0.00247527,-0.1611886796132918,-0.5813976643160121
-0.00247464,-0.1649740174997679,-0.5928000718266937
-0.00247401,-0.1687593553862405,-0.6080032818409197
-0.00247338,-0.1763300311591892,-0.6194056893515943
-0.00247275,-0.1763300311591892,-0.6346088993658204
-0.00247212,-0.1801153690456636,-0.646011306876502
-0.00247149,-0.1839007069321396,-0.6574137143871835
-0.00247086,-0.1876860448186123,-0.6726169244014096
-0.00247023,-0.1914713827050866,-0.6916209369192008
-0.0024696,-0.1990420584780371,-0.7030233444298807
-0.00246897,-0.2028273963645097,-0.7144257519405501
-0.00246834,-0.2066127342509841,-0.7220273569476666
-0.00246771,-0.2103980721374567,-0.7372305669618926
-0.00246708,-0.2179687479104071,-0.744832171969016
-0.00246645,-0.2217540857968815,-0.7600353819832488
-0.00246582,-0.2255394236833559,-0.7714377894939235
-0.00246519,-0.2255394236833559,-0.7866409995081565
-0.00246456,-0.2331100994563097,-0.7980434070188364
-0.00246393,-0.2444661131157276,-0.8094458145295058
-0.0024633,-0.2444661131157276,-0.8246490245437388
-0.00246267,-0.2482514510022003,-0.8398522345579648
-0.00246204,-0.248251451002202,-0.8512546420686463
-0.00246141,-0.248251451002202,-0.8588562470757628
-0.00246078,-0.259607464661625,-0.8740594570899957
-0.00246015,-0.2633928025480994,-0.8854618646006703
-0.00245952,-0.2633928025480994,-0.8968642721113503
-0.00245889,-0.2633928025480994,-0.9082666796220198
-0.00245826,-0.2709634783210481,-0.9272706921398109
-0.00245763,-0.2747488162075208,-0.9424739021540369
-0.002457,-0.2823194919804712,-0.9500755071611603
-0.00245637,-0.2823194919804712,-0.961477914671835
-0.00245574,-0.2823194919804712,-0.9804819271896175
-0.00245511,-0.2898901677534199,-0.9918843347003008
-0.00245448,-0.2974608435263721,-0.9994859397074242
-0.00245385,-0.3050315192993174,-1.01468914972165
-0.00245322,-0.3050315192993174,-1.026091557232325
-0.00245259,-0.30881685718579,-1.041294767246551
-0.00245196,-0.3126021950722661,-1.052697174757232
