Module4/data/1207/500uV_1Hz.csv

#Digilent WaveForms Oscilloscope Acquisition
#Device Name: Discovery2
#Serial Number: SN:210321AC1D4D
#Date Time: 2020-12-07 16:12:32.660
#Sample rate: 800Hz
#Samples: 8192
#Trigger: Source: Channel 1 Type: Edge Condition: Rising Level: 0 V Hyst.: Auto HoldOff: 0 s
#Channel 1: Range: 500 mV/div Offset: 0 V Attenuation: 1 X
#Channel 2: Range: 2 V/div Offset: 0 V Attenuation: 1 X
#Wavegen Channel 1: Running
#Mode: Simple
#Type: Sine
#Frequency: 1 Hz
#Period: 1 s
#Amplitude: 500 uV
#Offset: 1 V
#Symmetry: 50 %
#Phase: 0 ¡Æ
#Power Supplies: ON
#Positive Supply: ON
#Voltage: 5 V
#Negative Supply: ON
#Voltage: -5 V

Time (s),Channel 1 (V),Channel 2 (V)
-5.463,-0.07822625379841977,4.76122641629498
-5.46175,-0.08062019722001507,4.76122641629498
-5.4605,-0.08096218913738706,4.76122641629498
-5.45925,-0.08267214872424161,4.76122641629498
-5.458,-0.08369812447635436,4.76122641629498
-5.45675,-0.08335613255898329,4.76122641629498
-5.4555,-0.08301414064161253,4.76122641629498
-5.45425,-0.08746003556743437,4.76122641629498
-5.453,-0.0888280032369174,4.76122641629498
-5.45175,-0.09053796282377366,4.76122641629498
-5.4505,-0.09293190624536896,4.76122641629498
-5.44925,-0.09566784158433625,4.76122641629498
-5.448,-0.094641865832224,4.765004509755569
-5.44675,-0.09429987391485262,4.76122641629498
-5.4455,-0.09293190624536896,4.76122641629498
-5.44425,-0.09053796282377258,4.76122641629498
-5.443,-0.0905379628237718,4.76122641629498
-5.44175,-0.08882800323691803,4.76122641629498
-5.4405,-0.08404011639372527,4.76122641629498
-5.43925,-0.08472410022846677,4.76122641629498
-5.438,-0.08643405981532165,4.76122641629498
-5.43675,-0.08335613255898344,4.76122641629498
-5.4355,-0.08335613255898344,4.76122641629498
-5.43425,-0.08643405981532212,4.76122641629498
-5.433,-0.08746003556743437,4.76122641629498
-5.43175,-0.08780202748480528,4.76122641629498
-5.4305,-0.08472410022846848,4.76122641629498
-5.42925,-0.08540808406320891,4.76122641629498
-5.428,-0.08951198707165986,4.76122641629498
-5.42675,-0.09293190624536896,4.76122641629498
-5.4255,-0.0994297526754211,4.76122641629498
-5.42425,-0.1100315021139145,4.76122641629498
-5.423,-0.1175553242960746,4.76122641629498
-5.42175,-0.1230271949740067,4.76122641629498
-5.4205,-0.1319189848256566,4.76122641629498
-5.41925,-0.1401267908425547,4.76122641629498
-5.418,-0.1490185806941984,4.76122641629498
-5.41675,-0.1572263867110966,4.76122641629498
-5.4155,-0.1603043139674385,4.76122641629498
-5.41425,-0.166118176562744,4.76122641629498
-5.413,-0.170222079571195,4.76122641629498
-5.41175,-0.1763779340838728,4.76122641629498
-5.4105,-0.1794558613402095,4.76122641629498
-5.40925,-0.185611715852886,4.76122641629498
-5.408,-0.1921095622829303,4.76122641629498
-5.40675,-0.1958714733740133,4.76122641629498
-5.4055,-0.1996333844650933,4.76122641629498
-5.40425,-0.2057892389777697,4.76122641629498
-5.403,-0.2078411904819981,4.76122641629498
-5.40175,-0.2143390369120425,4.76122641629498
-5.4005,-0.2133130611599298,4.76122641629498
-5.39925,-0.2136550530773005,4.76122641629498
-5.398,-0.2170749722510098,4.76122641629498
-5.39675,-0.2194689156726062,4.76122641629498
-5.3955,-0.2235728186810571,4.76122641629498
-5.39425,-0.227676721689509,4.76122641629498
-5.393,-0.2297286731937336,4.76122641629498
-5.39175,-0.2321226166153299,4.76122641629498
-5.3905,-0.2358845277064082,4.76122641629498
-5.38925,-0.2375944872932659,4.76122641629498
-5.388,-0.2406724145496027,4.76122641629498
-5.38675,-0.2440923337233118,4.76122641629498
-5.3855,-0.2444343256406826,4.76122641629498
-5.38425,-0.24717026097965,4.76122641629498
-5.383,-0.2458022933101664,4.76122641629498
-5.38175,-0.2499061963186173,4.76122641629498
-5.3805,-0.2495642044012475,4.76122641629498
-5.37925,-0.2519581478228428,4.76122641629498
-5.378,-0.2519581478228428,4.76122641629498
-5.37675,-0.2529841235749551,4.76122641629498
-5.3755,-0.2509321720707301,4.76122641629498
-5.37425,-0.2536681074096974,4.76122641629498
-5.373,-0.2536681074096974,4.76122641629498
-5.37175,-0.2529841235749551,4.76122641629498
-5.3705,-0.2519581478228428,4.76122641629498
-5.36925,-0.2509321720707301,4.76122641629498
-5.368,-0.2509321720707301,4.76122641629498
-5.36675,-0.2488802205665046,4.76122641629498
-5.3655,-0.2526421316575846,4.76122641629498
-5.36425,-0.2608499376744865,4.76122641629498
-5.363,-0.2697417275261346,4.76122641629498
-5.36175,-0.2793175012125158,4.76122641629498
-5.3605,-0.2882092910641594,4.76122641629498
-5.35925,-0.2943651455768331,4.76122641629498
-5.358,-0.2984690485852897,4.76122641629498
-5.35675,-0.3049668950153341,4.76122641629498
-5.3555,-0.3097547818585268,4.76122641629498
-5.35425,-0.3135166929496052,4.76122641629498
-5.353,-0.3200145393796542,4.76122641629498
-5.35175,-0.3244604343054761,4.76122641629498
-5.3505,-0.3309582807355234,4.76122641629498
-5.34925,-0.3354041756613462,4.76122641629498
-5.348,-0.3374561271655707,4.76122641629498
-5.34675,-0.3395080786697962,4.76122641629498
-5.3455,-0.343953973595616,4.765004509755569
-5.34425,-0.3460059250998435,4.76122641629498
-5.343,-0.3504518200256653,4.76122641629498
-5.34175,-0.3507938119430362,4.76500450975557
-5.3405,-0.3552397068688598,4.765004509755569
-5.33925,-0.3590016179599381,4.76122641629498
-5.338,-0.3617375532989054,4.76500450975557
-5.33675,-0.3637895048031299,4.76500450975557
-5.3355,-0.3668674320594691,4.76500450975557
-5.33425,-0.3682353997289528,4.76122641629498
-5.333,-0.3665254401420981,4.76122641629498
-5.33175,-0.3689193835636959,4.76122641629498
-5.3305,-0.3719973108200327,4.76122641629498
-5.32925,-0.3743912542416291,4.76122641629498
-5.328,-0.3754172299937414,4.765004509755569
-5.32675,-0.3754172299937423,4.76500450975557
-5.3255,-0.3764432057458546,4.76500450975557
-5.32425,-0.3771271895805964,4.76500450975557
-5.323,-0.3781531653327087,4.761226416294982
-5.32175,-0.3778111734153383,4.76122641629498
-5.3205,-0.378837149167451,4.76122641629498
-5.31925,-0.3805471087543055,4.76122641629498
-5.318,-0.3750752380763703,4.76122641629498
-5.31675,-0.3737072704068873,4.76122641629498
-5.3155,-0.3750752380763709,4.76122641629498
-5.31425,-0.3737072704068879,4.76122641629498
-5.313,-0.3740492623242582,4.76122641629498
-5.31175,-0.3743912542416291,4.76122641629498
-5.3105,-0.3784951572500801,4.757448322834391
-5.30925,-0.3856769875148742,4.757448322834391
-5.308,-0.3966207288707384,4.757448322834391
-5.30675,-0.4072224783092366,4.757448322834391
-5.3055,-0.4171402439129886,4.757448322834391
-5.30425,-0.4236380903430404,4.757448322834391
-5.303,-0.4297939448557168,4.757448322834391
-5.30175,-0.4369757751205059,4.757448322834391
-5.3005,-0.4431316296331844,4.757448322834391
-5.29925,-0.4475775245590042,4.757448322834391
-5.298,-0.4554433386585351,4.757448322834391
-5.29675,-0.4592052497496135,4.757448322834391
-5.2955,-0.4639931365928098,4.757448322834393
-5.29425,-0.4680970396012589,4.76122641629498
-5.293,-0.4701489911054844,4.757448322834391
-5.29175,-0.4742528941139334,4.757448322834391
-5.2905,-0.4749368779486771,4.757448322834391
-5.28925,-0.4773308213702735,4.757448322834391
-5.288,-0.4834866758829499,4.757448322834391
-5.28675,-0.4841706597176924,4.757448322834391
-5.2855,-0.4855386273871753,4.757448322834391
-5.28425,-0.486906595056659,4.76122641629498
-5.283,-0.4858806193045467,4.757448322834393
-5.28175,-0.4882745627261427,4.757448322834391
-5.2805,-0.4889585465608845,4.76122641629498
-5.27925,-0.4875905788914008,4.757448322834391
-5.278,-0.485196635469804,4.757448322834391
-5.27675,-0.4841706597176917,4.757448322834391
-5.2755,-0.4838286678003208,4.757448322834391
-5.27425,-0.4834866758829501,4.757448322834391
-5.273,-0.4821187082134663,4.757448322834391
-5.27175,-0.4800667567092408,4.76122641629498
-5.2705,-0.4804087486266117,4.757448322834391
-5.26925,-0.4786987890397568,4.76122641629498
-5.268,-0.4780148052050153,4.76122641629498
-5.26675,-0.4756208617834189,4.76122641629498
-5.2655,-0.4725429345270821,4.76122641629498
-5.26425,-0.4691230153533714,4.76122641629498
-5.263,-0.4687810234360007,4.76122641629498
-5.26175,-0.4680970396012589,4.76122641629498
-5.2605,-0.4653611042622928,4.76122641629498
-5.25925,-0.4636511446754371,4.757448322834391
-5.258,-0.4609152093364697,4.757448322834391
-5.25675,-0.4684390315186298,4.76122641629498
-5.2555,-0.4732269183618227,4.76122641629498
-5.25425,-0.4735689102791935,4.76122641629498
-5.253,-0.4783567971223862,4.76122641629498
-5.25175,-0.48006675670924,4.76122641629498
-5.2505,-0.483144683965579,4.757448322834391
-5.24925,-0.4879325708087717,4.76122641629498
-5.248,-0.4879325708087717,4.76122641629498
-5.24675,-0.4886165546435149,4.76122641629498
-5.2455,-0.4916944818998518,4.76122641629498
-5.24425,-0.4957983849083027,4.76122641629498
-5.243,-0.4978503364125272,4.76122641629498
-5.24175,-0.5009282636688663,4.76122641629498
-5.2405,-0.5036641990078337,4.76122641629498
-5.23925,-0.5033222070904627,4.76122641629498
-5.238,-0.5012702555862379,4.76122641629498
-5.23675,-0.5026382232557209,4.76122641629498
-5.2355,-0.5012702555862373,4.76122641629498
-5.23425,-0.500244279834125,4.76122641629498
-5.233,-0.5002442798341238,4.76122641629498
-5.23175,-0.49853432024727,4.76122641629498
-5.2305,-0.4981923283298991,4.76122641629498
-5.22925,-0.4978503364125283,4.76122641629498
-5.228,-0.4957983849083027,4.76122641629498
-5.22675,-0.49477240915619,4.76122641629498
-5.2255,-0.490668506147739,4.757448322834391
-5.22425,-0.4896425303956259,4.76122641629498
-5.223,-0.4889585465608845,4.76122641629498
-5.22175,-0.4841706597176917,4.757448322834391
-5.2205,-0.4800667567092426,4.761226416294979
-5.21925,-0.479040780957128,4.76122641629498
-5.218,-0.4735689102791935,4.76122641629498
-5.21675,-0.4718589506923389,4.76122641629498
-5.2155,-0.4698069991881137,4.76122641629498
-5.21425,-0.4704909830228552,4.76122641629498
-5.213,-0.471516958774968,4.76122641629498
-5.21175,-0.4680970396012604,4.76122641629498
-5.2105,-0.4650191123449207,4.76122641629498
-5.20925,-0.4615991931712116,4.76122641629498
-5.208,-0.4574952901627606,4.76122641629498
-5.20675,-0.4547593548237918,4.76122641629498
-5.2055,-0.4513394356500842,4.76122641629498
-5.20425,-0.4492874841458587,4.76122641629498
-5.203,-0.4448415892200389,4.76122641629498
-5.20175,-0.4414216700463256,4.761226416294979
-5.2005,-0.436633783203135,4.757448322834391
-5.19925,-0.4318458963599422,4.757448322834391
-5.198,-0.4270580095167517,4.757448322834391
-5.19675,-0.4195341873345895,4.757448322834391
-5.1955,-0.4154302843261385,4.757448322834391
-5.19425,-0.4219281307561858,4.76122641629498
-5.193,-0.4236380903430406,4.76122641629498
-5.19175,-0.4239800822604113,4.76122641629498
-5.1905,-0.4263740256820077,4.76122641629498
-5.18925,-0.4277419933514907,4.76122641629498
-5.188,-0.4335558559467968,4.76122641629498
-5.18675,-0.4342398397815386,4.76122641629498
-5.1855,-0.4369757751205059,4.76122641629498
-5.18425,-0.4403956942942158,4.76122641629498
-5.183,-0.4421056538810696,4.76122641629498
-5.18175,-0.4441576053852951,4.76122641629498
-5.1805,-0.4462095568895196,4.76122641629498
-5.17925,-0.4455255730547787,4.76122641629498
-5.178,-0.4462095568895205,4.76122641629498
-5.17675,-0.4448415892200369,4.76122641629498
-5.1755,-0.443131629633182,4.757448322834391
-5.17425,-0.4424476457984405,4.757448322834391
-5.173,-0.4417636619636987,4.757448322834391
-5.17175,-0.4417636619636987,4.761226416294979
-5.1705,-0.4369757751205047,4.76122641629498
-5.16925,-0.4342398397815386,4.76122641629498
-5.168,-0.4308199206078295,4.757448322834391
-5.16675,-0.4263740256820097,4.757448322834391
-5.1655,-0.4256900418472658,4.76122641629498
-5.16425,-0.4239800822604113,4.76122641629498
-5.163,-0.4229541065082986,4.76122641629498
-5.16175,-0.421586138838814,4.757448322834391
-5.1605,-0.4195341873345895,4.757448322834391
-5.15925,-0.4205601630867022,4.757448322834391
-5.158,-0.4161142681608823,4.761226416294979
-5.15675,-0.4116683732350585,4.76122641629498
-5.1555,-0.4109843894003167,4.76122641629498
-5.15425,-0.4085904459787203,4.76122641629498
-5.153,-0.4075644702266072,4.761226416294979
-5.15175,-0.4068804863918657,4.757448322834391
-5.1505,-0.4038025591355275,4.757448322834391
-5.14925,-0.4038025591355275,4.757448322834391
-5.148,-0.4000406480444475,4.757448322834391
-5.14675,-0.3976467046228511,4.757448322834391
-5.1455,-0.3949107692838838,4.757448322834391
-5.14425,-0.3908068662754323,4.757448322834391
-5.143,-0.3894388986059492,4.757448322834391
-5.14175,-0.3856769875148692,4.757448322834391
-5.1405,-0.3822570683411616,4.757448322834391
-5.13925,-0.3805471087543034,4.757448322834393
-5.138,-0.3757592219111128,4.76122641629498
-5.13675,-0.3723393027374037,4.76122641629498
-5.1355,-0.3699453593158084,4.76122641629498
-5.13425,-0.3699453593158073,4.76122641629498
-5.133,-0.3661834482247273,4.76122641629498
-5.13175,-0.3648154805552436,4.757448322834391
-5.1305,-0.3627635290510162,4.757448322834391
-5.12925,-0.3583176341251963,4.757448322834391
-5.128,-0.3542137311167454,4.757448322834391
-5.12675,-0.3483998685214425,4.757448322834391
-5.1255,-0.3477158846866981,4.757448322834391
-5.12425,-0.3449799493477307,4.757448322834391
-5.123,-0.3408760463392798,4.757448322834391
-5.12175,-0.3371141352481984,4.757448322834391
-5.1205,-0.3340362079918616,4.757448322834391
-5.11925,-0.3309582807355234,4.757448322834391
-5.118,-0.325828401974962,4.757448322834391
-5.11675,-0.3203565312970251,4.757448322834391
-5.1155,-0.3186465717101706,4.757448322834391
-5.11425,-0.3138586848669778,4.757448322834391
-5.113,-0.3077028303543005,4.757448322834391
-5.11175,-0.3056508788500759,4.757448322834391
-5.1105,-0.3032569354284795,4.757448322834391
-5.10925,-0.299837016254772,4.757448322834391
-5.108,-0.2943651455768331,4.757448322834391
-5.10675,-0.2882092910641594,4.757448322834391
-5.1055,-0.2830794123035958,4.757448322834391
-5.10425,-0.2786335173777759,4.757448322834391
-5.103,-0.2772655497082903,4.757448322834391
-5.10175,-0.2721356709477266,4.757448322834391
-5.1005,-0.2693997356087593,4.757448322834391
-5.09925,-0.2659798164350479,4.757448322834391
-5.098,-0.2608499376744865,4.757448322834391
-5.09675,-0.2543520912444392,4.757448322834391
-5.0955,-0.2492222124838778,4.757448322834391
-5.09425,-0.23964643879749,4.757448322834391
-5.093,-0.2379364792106354,4.757448322834391
-5.09175,-0.2328066004500718,4.757448322834391
-5.0905,-0.2269927378547647,4.757448322834391
-5.08925,-0.2235728186810571,4.757448322834391
-5.088,-0.2187849318378644,4.757448322834391
-5.08675,-0.2167329803336399,4.757448322834391
-5.0855,-0.2139970449946716,4.757448322834391
-5.08425,-0.2109191177383334,4.757448322834391
-5.083,-0.2071572066472534,4.757448322834391
-5.08175,-0.2020273278866877,4.757448322834391
-5.0805,-0.1975814329608679,4.757448322834391
-5.07925,-0.1897156188613369,4.757448322834391
-5.078,-0.1859537077702586,4.757448322834391
-5.07675,-0.1832177724312882,4.757448322834391
-5.0755,-0.1801398451749514,4.757448322834391
-5.07425,-0.177745901753355,4.757448322834391
-5.073,-0.1743259825796474,4.757448322834391
-5.07175,-0.1712480553233077,4.757448322834391
-5.0705,-0.1671441523148567,4.757448322834391
-5.06925,-0.1589363462979549,4.757448322834391
-5.068,-0.1534644756200175,4.757448322834391
-5.06675,-0.1473086211073439,4.757448322834391
-5.0655,-0.142862726181522,4.757448322834391
-5.06425,-0.1411527665946682,4.757448322834391
-5.063,-0.1373908555035875,4.757448322834391
-5.06175,-0.1343129282472492,4.757448322834391
-5.0605,-0.1305510171561692,4.757448322834391
-5.05925,-0.1298670333214251,4.757448322834393
-5.058,-0.1247371545608637,4.76122641629498
-5.05675,-0.1206332515524128,4.76122641629498
-5.0555,-0.1137934132049977,4.76122641629498
-5.05425,-0.11208345361814,4.76122641629498
-5.053,-0.1072955667749473,4.757448322834391
-5.05175,-0.1038756476012381,4.76122641629498
-5.0505,-0.1018236960970108,4.76122641629498
-5.04925,-0.09771979308856171,4.76122641629498
-5.048,-0.09532584966696533,4.76122641629498
-5.04675,-0.09361589008011156,4.76122641629498
-5.0455,-0.09156393857588284,4.757448322834391
-5.04425,-0.08609206789795074,4.757448322834391
-5.043,-0.07822625379841977,4.757448322834391
-5.04175,-0.07446434270734144,4.757448322834391
-5.0405,-0.07138641545100155,4.757448322834391
-5.03925,-0.06899247202940517,4.757448322834391
-5.038,-0.06796649627729243,4.757448322834391
-5.03675,-0.06591454477306556,4.757448322834391
-5.0355,-0.06283661751672875,4.757448322834391
-5.03425,-0.06112665792987419,4.757448322834391
-5.033,-0.05975869026039118,4.757448322834391
-5.03175,-0.05702275492142326,4.757448322834391
-5.0305,-0.0522348680782305,4.757448322834391
-5.02925,-0.04813096506977956,4.757448322834391
-5.028,-0.04607901356555285,4.757448322834391
-5.02675,-0.0433430782265868,4.757448322834391
-5.0255,-0.03650323987916857,4.757448322834391
-5.02425,-0.03342531262283176,4.757448322834391
-5.023,-0.03205734495334672,4.757448322834391
-5.02175,-0.03274132878808855,4.757448322834391
-5.0205,-0.02966340153175034,4.757448322834391
-5.01925,-0.02521750660592693,4.757448322834391
-5.018,-0.02179758743221938,4.757448322834391
-5.01675,-0.01769368442376844,4.757448322834391
-5.0155,-0.01427376525006088,4.757448322834391
-5.01425,-0.01290579758057474,4.757448322834391
-5.013,-0.01085384607635021,4.757448322834391
-5.01175,-0.008801894572124739,4.757448322834391
-5.0105,-0.008459902654753984,4.757448322834391
-5.00925,-0.006407951150528359,4.757448322834391
-5.008,-0.00196205622470651,4.757448322834391
-5.00675,0.003851806370598986,4.757448322834391
-5.0055,0.005561765957454321,4.757448322834391
-5.00425,0.0072717255443081,4.757448322834391
-5.003,0.01171762047012995,4.757448322834391
-5.00175,0.01205961238750071,4.757448322834391
-5.0005,0.01582152347858089,4.757448322834391
-4.99925,0.01718949114806453,4.757448322834391
-4.998,0.01684749923069362,4.757448322834391
-4.99675,0.02060941032177427,4.757448322834391
-4.9955,0.02197737799125729,4.757448322834391
-4.99425,0.0250553052475955,4.757448322834391
-4.993,0.02573928908233701,4.757448322834391
-4.99175,0.02881721633867552,4.76122641629498
-4.9905,0.02984319209078826,4.757448322834391
-4.98925,0.03052717592553008,4.757448322834391
-4.988,0.03121115976027284,4.757448322834391
-4.98675,0.03326311126449737,4.757448322834391
-4.9855,0.03223713551238464,4.757448322834391
-4.98425,0.03086916784290161,4.757448322834391
-4.983,0.03292111934712615,4.757448322834391
-4.98175,0.03223713551238464,4.757448322834391
-4.9805,0.03599904660346467,4.757448322834391
-4.97925,0.03736701427294769,4.757448322834391
-4.978,0.03839299002506105,4.757448322834391
-4.97675,0.03976095769454469,4.757448322834391
-4.9755,0.03873498194243195,4.757448322834391
-4.97425,0.04112892536402989,4.757448322834391
-4.973,0.04454884453773745,4.757448322834391
-4.97175,0.04762677179407566,4.757448322834391
-4.9705,0.04865274754618792,4.757448322834391
-4.96925,0.05070469905041386,4.757448322834391
-4.968,0.05138868288515568,4.757448322834391
-4.96675,0.05036270713304294,4.757448322834391
-4.9655,0.05138868288515615,4.757448322834391
-4.96425,0.05241465863726841,4.757448322834391
-4.963,0.05651856164571935,4.757448322834391
-4.96175,0.05515059397623633,4.757448322834391
-4.9605,0.05309864247201024,4.757448322834391
-4.95925,0.05104669096778477,4.757448322834391
-4.958,0.05104669096778477,4.757448322834391
-4.95675,0.05036270713304294,4.757448322834391
-4.9555,0.05036270713304294,4.757448322834391
-4.95425,0.05344063438938115,4.757448322834391
-4.953,0.05549258589360569,4.757448322834391
-4.95175,0.05857051314994607,4.76122641629498
-4.9505,0.06130644848891211,4.76122641629498
-4.94925,0.06233242424102484,4.76122641629498
-4.948,0.0643843757452494,4.757448322834393
-4.94675,0.06746230300158851,4.757448322834391
-4.9455,0.06814628683633034,4.757448322834391
-4.94425,0.07156620601003946,4.76122641629498
-4.943,0.07532811710112088,4.757448322834391
-4.94175,0.07840604435745768,4.757448322834391
-4.9405,0.07943202010957043,4.757448322834391
-4.93925,0.08079998777905344,4.761226416294979
-4.938,0.07909002819219951,4.757448322834391
-4.93675,0.07909002819219951,4.757448322834391
