Module4/data/1207/listen_to_my_heartbeat5 - raw data.csv

#Digilent WaveForms Oscilloscope Acquisition
#Device Name: Discovery2
#Serial Number: SN:210321AC1D4D
#Date Time: 2020-12-07 16:08:38.544
#Sample rate: 16Hz
#Samples: 2305
#Trigger: Source: Channel 1 Type: Edge Condition: Rising Level: 0 V Hyst.: Auto HoldOff: 0 s
#Channel 1: Range: 500 mV/div Offset: 0 V Attenuation: 1 X
#Channel 2: Range: 2 V/div Offset: 0 V Attenuation: 1 X
#Wavegen Channel 1: Running
#Mode: Simple
#Type: Sine
#Frequency: 1 Hz
#Period: 1 s
#Amplitude: 500 uV
#Offset: 1 V
#Symmetry: 50 %
#Phase: 0 ¡Æ
#Power Supplies: ON
#Positive Supply: ON
#Voltage: 5 V
#Negative Supply: ON
#Voltage: -5 V

Time (s),Channel 1 (V),Channel 2 (V)
-54.625,0.1447524763274145,0.1103933663091783
-54.5625,0.4060343011987909,0.4428655908410635
-54.5,0.231960415256997,0.4428655908410635
-54.4375,0.1139732037640325,0.4390874973804739
-54.375,-0.05257685999560141,0.4390874973804739
-54.3125,-0.1524384998679076,0.4390874973804739
-54.25,-0.2953911213289486,0.4390874973804739
-54.1875,-0.3631055209683891,0.4390874973804739
-54.125,-0.4530493952369388,0.4428655908410635
-54.0625,-0.4824607001308371,0.4428655908410635
-54,-0.3952527612012547,0.4428655908410635
-53.9375,-0.2413563983843445,0.4428655908410635
-53.875,0.6163593303819014,0.4428655908410635
-53.8125,1.208347339350949,0.4428655908410635
-53.75,0.9573252720007002,0.4428655908410635
-53.6875,0.5236795207743844,0.4428655908410635
-53.625,0.2733414372588772,0.4428655908410635
-53.5625,0.1912633770898585,0.4428655908410635
-53.5,0.006587741709566278,0.4428655908410635
-53.4375,-0.2765815658735484,0.4390874973804739
-53.375,-0.4321878882773132,0.4390874973804739
-53.3125,-0.4708329749402262,0.4390874973804739
-53.25,-0.4992183040820118,0.4390874973804739
-53.1875,-0.5012702555862373,0.4390874973804739
-53.125,-0.50605814242943,0.4428655908410635
-53.0625,-0.529313592810652,0.4428655908410635
-53,-0.3049668950153341,0.4428655908410635
-52.9375,0.5072639087405807,0.4428655908410635
-52.875,1.004520156597886,0.4428655908410635
-52.8125,0.7548660569171206,0.4428655908410635
-52.75,0.4573330888044276,0.4428655908410635
-52.6875,0.2853111543668591,0.4428655908410635
-52.625,0.2227266334879823,0.4428655908410635
-52.5625,0.08216795544853772,0.4428655908410635
-52.5,-0.1558584190416167,0.4428655908410635
-52.4375,-0.3607115775467927,0.4390874973804739
-52.375,-0.5789024208294342,0.4390874973804739
-52.3125,-0.6808160122059658,0.4390874973804739
-52.25,-0.6014738873759143,0.4428655908410635
-52.1875,-0.4851966354698045,0.4428655908410635
-52.125,-0.3986726803749638,0.4428655908410635
-52.0625,-0.05736474683879417,0.4428655908410635
-52,0.7781215072983425,0.4390874973804739
-51.9375,0.9429616114711219,0.4428655908410635
-51.875,0.571558389206312,0.4428655908410635
-51.8125,0.2661596069940881,0.4428655908410635
-51.75,0.4511772342917512,0.4428655908410635
-51.6875,0.3027527421527756,0.4428655908410635
-51.625,-0.08746003556743437,0.4428655908410635
-51.5625,-0.4267160175993786,0.4428655908410635
-51.5,-0.6291752326829582,0.4428655908410635
-51.4375,-0.4643351285101788,0.4390874973804739
-51.375,-0.2752135982040648,0.4390874973804739
-51.3125,-0.1828757805139187,0.4390874973804739
-51.25,-0.3265123858097015,0.4390874973804739
-51.1875,-0.3569496664557126,0.4390874973804739
-51.125,0.4268958081584165,0.4390874973804739
-51.0625,1.06984061281573,0.4390874973804739
-51,0.4949521997152279,0.4390874973804739
-50.9375,0.1252589370372726,0.4428655908410635
-50.875,0.1085013330860979,0.4428655908410635
-50.8125,0.2411941970260116,0.4428655908410635
-50.75,-0.1756939502491295,0.4428655908410635
-50.6875,-0.5734305501514996,0.4428655908410635
-50.625,-0.753318298688599,0.4428655908410635
-50.5625,-0.5970279924500925,0.4428655908410635
-50.5,-0.4893005384782554,0.4428655908410635
-50.4375,-0.4332138640294259,0.4428655908410635
-50.375,-0.432871872112055,0.4428655908410635
-50.3125,-0.2909452264031268,0.4428655908410635
-50.25,0.1303888157978362,0.4428655908410635
-50.1875,0.94603953872746,0.4390874973804739
-50.125,1.020251784796948,0.4390874973804739
-50.0625,0.6344849020025597,0.4390874973804739
-50,0.3116445320044193,0.4390874973804739
-49.9375,0.1669819509565238,0.4428655908410635
-49.875,0.07806405244008677,0.4428655908410635
-49.8125,-0.2478542448143919,0.4428655908410635
-49.75,-0.4814347243787244,0.4428655908410635
-49.6875,-0.5474391644313104,0.4428655908410635
-49.625,-0.5700106309777905,0.4428655908410635
-49.5625,-0.5970279924500925,0.4466436843016531
-49.5,-0.5193958272068956,0.4466436843016531
-49.4375,-0.3600275937120508,0.4428655908410635
-49.375,-0.1804818370923223,0.4428655908410635
-49.3125,0.5260734641959808,0.4390874973804739
-49.25,1.123191351925592,0.4390874973804739
-49.1875,0.9354377892889618,0.4390874973804739
-49.125,0.5503548903293155,0.4390874973804739
-49.0625,0.3431077884025431,0.4390874973804739
-49,0.2942029442185028,0.4390874973804739
-48.9375,0.1143151956814034,0.4428655908410635
-48.875,-0.181507812844435,0.4428655908410635
-48.8125,-0.4386857347073605,0.4428655908410635
-48.75,-0.5241837140500883,0.4428655908410635
-48.6875,-0.5135819646115901,0.4428655908410635
-48.625,-0.490668506147739,0.4428655908410635
-48.5625,-0.4085904459787203,0.4428655908410635
-48.5,-0.3651574724726145,0.4466436843016531
-48.4375,-0.2601659538397447,0.4428655908410635
-48.375,0.3338740066335286,0.4390874973804739
-48.3125,0.8106107394485792,0.4428655908410635
-48.25,0.5852380659011485,0.4390874973804739
-48.1875,0.2788133079368118,0.4390874973804739
-48.125,0.1495403631706073,0.4390874973804739
-48.0625,0.1676659347912656,0.4390874973804739
-48,-0.01016986224160838,0.4390874973804739
-47.9375,-0.2300706651111045,0.4428655908410635
-47.875,-0.2478542448143919,0.4428655908410635
-47.8125,-0.1647502088932604,0.4428655908410635
-47.75,-0.1001137365101581,0.4428655908410635
-47.6875,-0.2379364792106354,0.4428655908410635
-47.625,-0.3925168258622874,0.4428655908410635
-47.5625,-0.3935428016144002,0.4428655908410635
-47.5,0.05993848081942846,0.4428655908410635
-47.4375,0.9381737246279291,0.4390874973804739
-47.375,1.025039671640141,0.4390874973804739
-47.3125,0.718272921758433,0.4390874973804739
-47.25,0.4463893474485584,0.4390874973804739
-47.1875,0.3639692953621688,0.4390874973804739
-47.125,0.2128088678842259,0.4390874973804739
-47.0625,-0.07583231037682339,0.4390874973804739
-47,-0.3384821029176834,0.4390874973804739
-46.9375,-0.506400134346801,0.4428655908410635
-46.875,-0.5276036332237974,0.4428655908410635
-46.8125,-0.5111880211899937,0.4428655908410635
-46.75,-0.560434857291405,0.4428655908410635
-46.6875,-0.5464131886791976,0.4428655908410635
-46.625,-0.4701489911054844,0.4428655908410635
-46.5625,0.3116445320044193,0.4428655908410635
-46.5,0.9781867789603258,0.4428655908410635
-46.4375,0.8584896078805068,0.4390874973804739
-46.375,0.5308613510391735,0.4390874973804739
-46.3125,0.06848827875370125,0.4390874973804739
-46.25,-0.2841053880557085,0.4390874973804739
-46.1875,-0.4622831770059534,0.4390874973804739
-46.125,-0.5382053826622958,0.4390874973804739
-46.0625,-0.560434857291405,0.4390874973804739
-46,-0.486906595056659,0.4390874973804739
-45.9375,-0.3193305555449124,0.4428655908410635
-45.875,-0.2157070045815262,0.4428655908410635
-45.8125,-0.2269927378547663,0.4428655908410635
-45.75,-0.2964170970810613,0.4428655908410635
-45.6875,-0.3234344585533633,0.4428655908410635
-45.625,0.2822332271105209,0.4428655908410635
-45.5625,0.9251780317678345,0.4428655908410635
-45.5,0.854043712954685,0.4428655908410635
-45.4375,0.6512425059537343,0.4390874973804739
-45.375,0.4351036141753183,0.4390874973804739
-45.3125,0.274025421093619,0.4353094039198843
-45.25,0.05857051314994483,0.4353094039198843
-45.1875,-0.1979234248782388,0.4390874973804739
-45.125,-0.4154302843261385,0.4390874973804739
-45.0625,-0.5183698514547829,0.4390874973804739
-45,-0.5983959601195762,0.4390874973804739
-44.9375,-0.6729501981064349,0.4428655908410635
-44.875,-0.6777380849496276,0.4428655908410635
-44.8125,-0.6264392973439908,0.4428655908410635
-44.75,-0.3586596260425672,0.4428655908410635
-44.6875,0.1580901611048801,0.4428655908410635
-44.625,0.9648490941828602,0.4428655908410635
-44.5625,1.082494313758454,0.4428655908410635
-44.5,0.6444026676063161,0.4428655908410635
-44.4375,0.2668435908288299,0.4390874973804739
-44.375,0.1981032154372767,0.4390874973804739
-44.3125,0.06404238382787941,0.4390874973804739
-44.25,-0.1432047180988929,0.4390874973804739
-44.1875,-0.2341745681195554,0.4390874973804739
-44.125,-0.3066768546021886,0.4390874973804739
-44.0625,-0.4848546435524335,0.4390874973804739
-44,-0.7365606947374244,0.4390874973804739
-43.9375,-0.6537986507336638,0.4428655908410635
-43.875,-0.4164562600782513,0.4428655908410635
-43.8125,0.1225230016983053,0.4428655908410635
-43.75,0.9692949891086821,0.4428655908410635
-43.6875,1.090702119775356,0.4428655908410635
-43.625,0.8509657856983467,0.4428655908410635
-43.5625,0.5264154561133517,0.4428655908410635
-43.5,0.3985104790166308,0.4428655908410635
-43.4375,0.1994711831067603,0.4390874973804739
-43.375,-0.1438887019336348,0.4390874973804739
-43.3125,-0.3849930036801274,0.4390874973804739
-43.25,-0.3535297472820035,0.4390874973804739
-43.1875,-0.359343609877309,0.4390874973804739
-43.125,-0.4263740256820077,0.4390874973804739
-43.0625,-0.5224737544632339,0.4390874973804739
-43,-0.4957983849083027,0.4390874973804739
-42.9375,-0.154490451372133,0.4428655908410635
-42.875,0.6731299886654727,0.4428655908410635
-42.8125,0.9378317327105582,0.4428655908410635
-42.75,0.9279139671068017,0.4428655908410635
-42.6875,0.8099267556138373,0.4390874973804739
-42.625,0.5674544861978611,0.4390874973804739
-42.5625,0.3407138449809468,0.4390874973804739
-42.5,-0.04676299740029592,0.4390874973804739
-42.4375,-0.3955947531186256,0.4390874973804739
-42.375,-0.5553049785308413,0.4390874973804739
-42.3125,-0.5320495281496194,0.4390874973804739
-42.25,-0.5238417221327174,0.4390874973804739
-42.1875,-0.529313592810652,0.4390874973804739
-42.125,-0.4270580095167495,0.4390874973804739
-42.0625,-0.2837633961383376,0.4390874973804739
-42,0.421081945563111,0.4353094039198843
-41.9375,0.8971346945434198,0.4390874973804739
-41.875,0.7911172001584372,0.4390874973804739
-41.8125,0.4850344341114714,0.4390874973804739
-41.75,0.3362679500551249,0.4390874973804739
-41.6875,0.2647916393246044,0.4390874973804739
-41.625,0.03497307085135193,0.4390874973804739
-41.5625,-0.2519581478228428,0.4390874973804739
-41.5,-0.444499597302666,0.4390874973804739
-41.4375,-0.4349238236162805,0.4353094039198843
-41.375,-0.3449799493477307,0.4353094039198843
-41.3125,-0.4657030961796625,0.4353094039198843
-41.25,-0.5566729462003249,0.4390874973804739
-41.1875,-0.5125559888594774,0.4390874973804739
-41.125,-0.1592783382153258,0.4353094039198843
-41.0625,0.764783822520877,0.4353094039198843
-41,0.9056844924776926,0.4353094039198843
-40.9375,0.6245671363988033,0.4390874973804739
-40.875,0.3208783137734339,0.4390874973804739
-40.8125,0.2829172109452627,0.4390874973804739
-40.75,0.2018651265283568,0.4390874973804739
-40.6875,0.005219774040082632,0.4353094039198843
-40.625,-0.1979234248782388,0.4390874973804739
-40.5625,-0.2016853359693188,0.4390874973804739
-40.5,-0.2581140023355192,0.4390874973804739
-40.4375,-0.316936612123316,0.4353094039198843
-40.375,-0.4024345914660439,0.4353094039198843
-40.3125,-0.5139239565289611,0.4353094039198843
-40.25,-0.4893005384782554,0.4353094039198843
-40.1875,-0.03923917521813586,0.4353094039198843
-40.125,0.7579439841734588,0.4353094039198843
-40.0625,0.834550173664543,0.4353094039198843
-40,0.5736103407105375,0.4353094039198843
-39.9375,0.3981684870992599,0.4390874973804739
-39.875,0.3896186891649871,0.4390874973804739
-39.8125,0.2688955423330553,0.4390874973804739
-39.75,-0.000936080472593775,0.4390874973804739
-39.6875,-0.2717936790303557,0.4390874973804739
-39.625,-0.3723393027374037,0.4390874973804739
-39.5625,-0.4308199206078295,0.4390874973804739
-39.5,-0.4462095568895205,0.4390874973804739
-39.4375,-0.4509974437327133,0.4353094039198843
-39.375,-0.405854510639753,0.4353094039198843
-39.3125,-0.003672015811561067,0.4353094039198843
-39.25,0.9258620156025763,0.4353094039198843
-39.1875,1.217923113037335,0.4353094039198843
-39.125,0.9433036033884928,0.4353094039198843
-39.0625,0.5117098036664025,0.4353094039198843
-39,0.3735450690485543,0.4353094039198843
-38.9375,0.2791552998541827,0.4353094039198843
-38.875,0.01582152347858089,0.4353094039198843
-38.8125,-0.2475122528970209,0.4390874973804739
-38.75,-0.4718589506923389,0.4390874973804739
-38.6875,-0.6151535640707508,0.4390874973804739
-38.625,-0.5717205905646451,0.4390874973804739
-38.5625,-0.5231577382979756,0.4390874973804739
-38.5,-0.2813694527167412,0.4390874973804739
-38.4375,0.3171164026823539,0.4353094039198843
-38.375,1.040771299839203,0.4353094039198843
-38.3125,1.057528903790377,0.4353094039198843
-38.25,0.7042512531462257,0.4353094039198843
-38.1875,0.3742290528832961,0.4315313104592947
-38.125,0.2056270376194368,0.4315313104592947
-38.0625,-0.01085384607635021,0.4315313104592947
-38,-0.2369105034585227,0.4315313104592947
-37.9375,-0.4595472416669861,0.4353094039198843
-37.875,-0.5036641990078337,0.4353094039198843
-37.8125,-0.5741145339862415,0.4353094039198843
-37.75,-0.656876577990002,0.4353094039198843
-37.6875,-0.5081100939336555,0.4353094039198843
-37.625,-0.3853349955974983,0.4353094039198843
-37.5625,-0.1278150818172019,0.4353094039198843
-37.5,0.5729263568757956,0.4353094039198843
-37.4375,0.6868096653603092,0.4315313104592947
-37.375,0.3550775055105251,0.4315313104592947
-37.3125,0.04762677179407566,0.4315313104592947
-37.25,-0.0375292156312813,0.4315313104592947
-37.1875,-0.100455728427529,0.4315313104592947
-37.125,-0.2598239619223738,0.4315313104592947
-37.0625,-0.3600275937120508,0.4315313104592947
-37,-0.4725429345270807,0.4315313104592947
-36.9375,-0.6148115721533799,0.4353094039198843
-36.875,-0.6644004001721621,0.4353094039198843
-36.8125,-0.5706946148125324,0.4353094039198843
-36.75,-0.4051705268050111,0.4353094039198843
-36.6875,-0.2382784711280063,0.4353094039198843
-36.625,0.4036403577771945,0.4353094039198843
-36.5625,1.055134960368781,0.4353094039198843
-36.5,0.9060264843950635,0.4353094039198843
-36.4375,0.6594503119706363,0.4315313104592947
-36.375,0.4125321476288382,0.4315313104592947
-36.3125,0.2230686254053532,0.4315313104592947
-36.25,-0.04300108630921589,0.4315313104592947
-36.1875,-0.4663870800144043,0.4353094039198843
-36.125,-0.6732921900238058,0.4315313104592947
-36.0625,-0.5983959601195762,0.4353094039198843
-36,-0.6661103597590167,0.4353094039198843
-35.9375,-0.3932008096970293,0.4353094039198843
-35.875,-0.1982654167956097,0.4390874973804739
-35.8125,0.1485143874184945,0.4353094039198843
-35.75,0.8889268885265179,0.4353094039198843
-35.6875,1.293503326776306,0.4353094039198843
-35.625,0.8437839554335576,0.4353094039198843
-35.5625,0.4614369918128785,0.4353094039198843
-35.5,0.3776489720570052,0.4353094039198843
-35.4375,0.3215622976081757,0.4315313104592947
-35.375,0.02779124058656279,0.4315313104592947
-35.3125,-0.3918328420275456,0.4315313104592947
-35.25,-0.6637164163374203,0.4315313104592947
-35.1875,-0.7180931311993952,0.4315313104592947
-35.125,-0.6503787315599547,0.4315313104592947
-35.0625,-0.6100236853101871,0.4353094039198843
-35,-0.5535950189439868,0.4353094039198843
-34.9375,-0.3784951572500801,0.4353094039198843
-34.875,0.2117828921321132,0.4353094039198843
-34.8125,0.9932344233246458,0.4353094039198843
-34.75,1.003152188928403,0.4353094039198843
-34.6875,0.7189569055931748,0.4353094039198843
-34.625,0.2825752190278918,0.4353094039198843
-34.5625,-0.04539502973081227,0.4353094039198843
-34.5,-0.2649538406829375,0.4353094039198843
-34.4375,-0.3278803534791851,0.4315313104592947
-34.375,-0.3552397068688581,0.4315313104592947
-34.3125,-0.4243220741777822,0.4353094039198843
-34.25,-0.4701489911054844,0.4353094039198843
-34.1875,-0.4537333790716806,0.4353094039198843
-34.125,-0.440395694294215,0.4353094039198843
-34.0625,-0.5891621783505615,0.4353094039198843
-34,-0.4934044414867063,0.4353094039198843
-33.9375,0.1885274417508912,0.4353094039198843
-33.875,0.6078095324476286,0.4353094039198843
-33.8125,0.3701251498748452,0.4353094039198843
-33.75,0.07909002819219951,0.4353094039198843
-33.6875,0.2480340353734298,0.4353094039198843
-33.625,0.1365446703105127,0.4353094039198843
-33.5625,-0.1079795506096891,0.4353094039198843
-33.5,-0.598737952036947,0.4390874973804739
-33.4375,-0.6613224729158239,0.4353094039198843
-33.375,-0.6667943435937584,0.4353094039198843
-33.3125,-0.4923784657345936,0.4353094039198843
-33.25,-0.4338978478641677,0.4353094039198843
-33.1875,-0.2752135982040648,0.4353094039198843
-33.125,0.5568527367593629,0.4353094039198843
-33.0625,1.217581121119964,0.4353094039198843
-33,0.9508274255706528,0.4353094039198843
-32.9375,0.4515192262091221,0.4390874973804739
-32.875,0.3133544915912739,0.4353094039198843
-32.8125,0.3543935216757833,0.4353094039198843
-32.75,0.008981685131162659,0.4353094039198843
-32.6875,-0.3743912542416291,0.4390874973804739
-32.625,-0.5317075362322484,0.4390874973804739
-32.5625,-0.4089324378960912,0.4390874973804739
-32.5,-0.4838286678003208,0.4390874973804739
-32.4375,-0.7006515434134787,0.4353094039198843
-32.375,-0.834712375022876,0.4353094039198843
-32.3125,-0.7950413126078503,0.4353094039198843
-32.25,-0.07480633462471065,0.4353094039198843
-32.1875,1.180987985961276,0.4353094039198843
-32.125,1.212793234276771,0.4353094039198843
-32.0625,0.7794894749678262,0.4353094039198843
-32,0.3964585275124053,0.4353094039198843
-31.9375,0.2842851786147464,0.4353094039198843
-31.875,0.1495403631706073,0.4353094039198843
-31.8125,-0.08780202748480528,0.4353094039198843
-31.75,-0.3449799493477307,0.4353094039198843
-31.6875,-0.4585212659148734,0.4390874973804739
-31.625,-0.490668506147739,0.4390874973804739
-31.5625,-0.4879325708087717,0.4390874973804739
-31.5,-0.4421056538810696,0.4390874973804739
-31.4375,-0.3244604343054761,0.4353094039198843
-31.375,-0.1038756476012381,0.4353094039198843
-31.3125,0.6806538108476328,0.4353094039198843
-31.25,0.9374897407931873,0.4353094039198843
-31.1875,0.7138270268326112,0.4353094039198843
-31.125,0.5301773672044318,0.4353094039198843
-31.0625,0.6963854390466947,0.4315313104592947
-31,0.7528141054128951,0.4315313104592947
-30.9375,0.4200559698109982,0.4353094039198843
-30.875,-0.0197456359279939,0.4353094039198843
-30.8125,-0.4089324378960912,0.4353094039198843
-30.75,-0.6076297418885908,0.4353094039198843
-30.6875,-0.7786257005740465,0.4353094039198843
-30.625,-0.9092666130097347,0.4390874973804739
-30.5625,-0.9526995865158404,0.4390874973804739
-30.5,-0.861729736495178,0.4390874973804739
-30.4375,-0.1582523624632131,0.4353094039198843
-30.375,0.5264154561133517,0.4315313104592947
-30.3125,0.4918742724588896,0.4315313104592947
-30.25,0.2247785849922078,0.4315313104592947
-30.1875,0.02642327291707914,0.4315313104592947
-30.125,0.02779124058656279,0.4315313104592947
-30.0625,-0.1206332515524128,0.4315313104592947
-30,-0.3309582807355234,0.4315313104592947
-29.9375,-0.4342398397815386,0.4353094039198843
-29.875,-0.4797247647918699,0.4353094039198843
-29.8125,-0.4639931365928079,0.4353094039198843
-29.75,-0.4380017508726187,0.4353094039198843
-29.6875,-0.3548977149514872,0.4353094039198843
-29.625,-0.0522348680782305,0.4353094039198843
-29.5625,0.6539784412927017,0.4353094039198843
-29.5,0.788039272902099,0.4353094039198843
-29.4375,0.5332552944607699,0.4315313104592947
-29.375,0.301042782565921,0.4315313104592947
-29.3125,0.2600037524814117,0.4315313104592947
-29.25,0.1310727996325781,0.4315313104592947
-29.1875,-0.07412235078996884,0.4315313104592947
-29.125,-0.2786335173777739,0.4353094039198843
-29.0625,-0.2919712021552395,0.4353094039198843
-29,-0.3189885636275415,0.4353094039198843
-28.9375,-0.3737072704068873,0.4353094039198843
-28.875,-0.3562656826209708,0.4353094039198843
-28.8125,-0.270767703278243,0.4390874973804739
-28.75,0.2719734695893936,0.4353094039198843
