Module4/data/1207/listen_to_my_heartbeat.csv

#Digilent WaveForms Oscilloscope Acquisition
#Device Name: Discovery2
#Serial Number: SN:210321AC1D4D
#Date Time: 2020-12-07 15:44:05.513
#Sample rate: 400Hz
#Samples: 8192
#Trigger: Source: Channel 1 Type: Edge Condition: Rising Level: 0 V Hyst.: Auto HoldOff: 0 s
#Channel 1: Range: 1 V/div Offset: 0 V Attenuation: 1 X
#Channel 2: Range: 2 V/div Offset: 0 V Attenuation: 1 X
#Wavegen Channel 1: Running
#Mode: Simple
#Type: Sine
#Frequency: 1 Hz
#Period: 1 s
#Amplitude: 500 uV
#Offset: 1 V
#Symmetry: 50 %
#Phase: 0 ¡Æ
#Power Supplies: ON
#Positive Supply: ON
#Voltage: 5 V
#Negative Supply: ON
#Voltage: -5 V

Time (s),Channel 1 (V),Channel 2 (V)
-12.83875,-0.03546084686880303,0.1292838336121263
-12.83625,-0.03546084686880303,0.1292838336121263
-12.83375,-0.03546084686880303,0.1292838336121263
-12.83125,-0.03546084686880303,0.1292838336121263
-12.82875,-0.03546084686880303,0.1292838336121263
-12.82625,-0.03546084686880131,0.1292838336121263
-12.82375,-0.03169711512906257,0.1292838336121263
-12.82125,-0.03169711512906086,0.1292838336121263
-12.81875,-0.03169711512906086,0.1292838336121263
-12.81625,-0.03169711512906086,0.1292838336121263
-12.81375,-0.02793338338931869,0.1292838336121263
-12.81125,-0.02793338338931869,0.1292838336121263
-12.80875,-0.02416965164957824,0.1292838336121263
-12.80625,-0.02040591990983436,0.1292838336121263
-12.80375,-0.01664218817009562,0.1292838336121263
-12.80125,-0.01287845643035003,0.1292838336121263
-12.79875,-0.009114724690606152,0.1292838336121263
-12.79625,-0.00535099295086741,0.1292838336121263
-12.79375,-0.001587261211123531,0.1292838336121263
-12.79125,0.002176470528615212,0.1292838336121263
-12.78875,0.009703934008099543,0.1330619270727142
-12.78625,0.01346766574784513,0.1330619270727159
-12.78375,0.01723139748758388,0.1330619270727159
-12.78125,0.02475886096706821,0.1330619270727159
-12.77875,0.0285225927068138,0.1330619270727159
-12.77625,0.03228632444655254,0.1330619270727159
-12.77375,0.03605005618629641,0.1330619270727159
-12.77125,0.04357751966578247,0.1330619270727159
-12.76875,0.04734125140552121,0.1330619270727159
-12.76625,0.05110498314526679,0.1330619270727159
-12.76375,0.05110498314527021,0.1330619270727159
-12.76125,0.05863244662474771,0.1330619270727159
-12.75875,0.05863244662475113,0.1330619270727159
-12.75625,0.06239617836448987,0.1330619270727159
-12.75375,0.06239617836449329,0.1330619270727159
-12.75125,0.06615991010423546,0.1330619270727159
-12.74875,0.06615991010423546,0.1330619270727159
-12.74625,0.06615991010423546,0.1330619270727159
-12.74375,0.06992364184397762,0.1330619270727159
-12.74125,0.06992364184397762,0.1330619270727159
-12.73875,0.06992364184397762,0.1330619270727159
-12.73625,0.06992364184397591,0.1330619270727159
-12.73375,0.06615991010423716,0.1330619270727159
-12.73125,0.06615991010423546,0.1330619270727159
-12.72875,0.06615991010423546,0.1330619270727159
-12.72625,0.06615991010423546,0.1330619270727159
-12.72375,0.06615991010423546,0.1330619270727159
-12.72125,0.06615991010423546,0.1330619270727159
-12.71875,0.06615991010423546,0.1330619270727159
-12.71625,0.06615991010423546,0.1330619270727159
-12.71375,0.06992364184397419,0.1330619270727159
-12.71125,0.07368737358371809,0.1330619270727159
-12.70875,0.0736873735837198,0.1330619270727159
-12.70625,0.07745110532345853,0.1330619270727159
-12.70375,0.08121483706320412,0.1330619270727159
-12.70125,0.08497856880294972,0.1330619270727159
-12.69875,0.09250603228242719,0.1330619270727159
-12.69625,0.09626976402217279,0.1330619270727159
-12.69375,0.1000334957619115,0.1330619270727159
-12.69125,0.1075609592413959,0.1330619270727159
-12.68875,0.1113246909811414,0.1330619270727159
-12.68625,0.1188521544606189,0.1330619270727159
-12.68375,0.1301433496798471,0.1330619270727159
-12.68125,0.1376708131593366,0.1330619270727159
-12.67875,0.1451982766388141,0.1330619270727159
-12.67625,0.1564894718580475,0.1330619270727159
-12.67375,0.1640169353375369,0.1330619270727159
-12.67125,0.1753081305567532,0.1330619270727159
-12.66875,0.1865993257759848,0.1330619270727159
-12.66625,0.1941267892554623,0.1330619270727159
-12.66375,0.2054179844746905,0.1330619270727159
-12.66125,0.2167091796939221,0.1330619270727159
-12.65875,0.2280003749131383,0.1330619270727159
-12.65625,0.23929157013237,0.1330619270727159
-12.65375,0.2543464970913438,0.1330619270727159
-12.65125,0.26563769231056,0.1330619270727159
-12.64875,0.2769288875297916,0.1330619270727159
-12.64625,0.2882200827490233,0.1330619270727159
-12.64375,0.2995112779682395,0.1330619270727159
-12.64125,0.3108024731874763,0.1330619270727159
-12.63875,0.3220936684067079,0.1330619270727159
-12.63625,0.3333848636259241,0.1330619270727159
-12.63375,0.3446760588451557,0.1330619270727159
-12.63125,0.355967254064372,0.1330619270727159
-12.62875,0.3672584492836036,0.1330619270727159
-12.62625,0.3785496445028352,0.1330619270727159
-12.62375,0.3860771079823128,0.1330619270727159
-12.62125,0.3973683032015409,0.1330619270727159
-12.61875,0.4048957666810304,0.1330619270727159
-12.61625,0.4161869619002466,0.1330619270727159
-12.61375,0.4237144253797412,0.1330619270727159
-12.61125,0.431241888859229,0.1330619270727159
-12.60875,0.4387693523387065,0.1330619270727159
-12.60625,0.4462968158181942,0.1292838336121263
-12.60375,0.450060547557933,0.1292838336121263
-12.60125,0.4538242792976769,0.1292838336121263
-12.59875,0.4575880110374207,0.1330619270727159
-12.59625,0.4613517427771595,0.1292838336121298
-12.59375,0.4613517427771629,0.1330619270727142
-12.59125,0.465115474516905,0.1292838336121263
-12.58875,0.465115474516905,0.1292838336121263
-12.58625,0.465115474516905,0.1330619270727142
-12.58375,0.465115474516905,0.1292838336121263
-12.58125,0.465115474516905,0.1292838336121263
-12.57875,0.465115474516905,0.1330619270727159
-12.57625,0.4613517427771629,0.1330619270727142
-12.57375,0.4613517427771629,0.1292838336121281
-12.57125,0.4575880110374207,0.1292838336121263
-12.56875,0.4575880110374207,0.1330619270727125
-12.56625,0.4538242792976803,0.1330619270727159
-12.56375,0.4500605475579364,0.1330619270727159
-12.56125,0.4462968158181977,0.1330619270727159
-12.55875,0.4462968158181942,0.1330619270727159
-12.55625,0.4425330840784521,0.1330619270727159
-12.55375,0.4387693523387133,0.1330619270727159
-12.55125,0.4350056205989677,0.1330619270727159
-12.54875,0.4312418888592239,0.1330619270727159
-12.54625,0.4274781571194851,0.1330619270727159
-12.54375,0.4237144253797412,0.1330619270727159
-12.54125,0.4199506936400025,0.1330619270727159
-12.53875,0.4161869619002586,0.1292838336121281
-12.53625,0.4086594984207726,0.1292838336121263
-12.53375,0.4048957666810338,0.1292838336121263
-12.53125,0.3973683032015495,0.1330619270727142
-12.52875,0.3936045714618039,0.1330619270727159
-12.52625,0.3860771079823264,0.1292838336121298
-12.52375,0.3823133762425792,0.1292838336121263
-12.52125,0.3747859127630931,0.1330619270727159
-12.51875,0.3672584492836156,0.1330619270727159
-12.51625,0.3597309858041244,0.1292838336121263
-12.51375,0.3522035223246366,0.1330619270727159
-12.51125,0.3446760588451592,0.1330619270727159
-12.50875,0.3371485953656714,0.1292838336121263
-12.50625,0.3296211318861939,0.1330619270727125
-12.50375,0.3183299366669657,0.1292838336121281
-12.50125,0.3108024731874763,0.1330619270727159
-12.49875,0.29951127796826,0.1330619270727159
-12.49625,0.2919838144887689,0.1330619270727159
-12.49375,0.2806926192695389,0.1292838336121263
-12.49125,0.2694014240503227,0.1330619270727125
-12.48875,0.2618739605708281,0.1292838336121263
-12.48625,0.2505827653515965,0.1330619270727142
-12.48375,0.2392915701323802,0.1292838336121281
-12.48125,0.2280003749131486,0.1292838336121263
-12.47875,0.2167091796939324,0.1292838336121263
-12.47625,0.2091817162144412,0.1330619270727142
-12.47375,0.1978905209952113,0.1330619270727159
-12.47125,0.1865993257759951,0.1292838336121298
-12.46875,0.1753081305567634,0.1292838336121263
-12.46625,0.1640169353375318,0.1330619270727159
-12.46375,0.1564894718580543,0.1330619270727159
-12.46125,0.1451982766388261,0.1292838336121281
-12.45875,0.1376708131593366,0.1292838336121263
-12.45625,0.1263796179401204,0.1292838336121263
-12.45375,0.1188521544606258,0.1330619270727159
-12.45125,0.111324690981138,0.1292838336121263
-12.44875,0.1037972275016606,0.1292838336121263
-12.44625,0.09250603228243062,0.1330619270727159
-12.44375,0.08497856880295314,0.1292838336121298
-12.44125,0.07745110532346539,0.1292838336121263
-12.43875,0.06992364184397762,0.1330619270727159
-12.43625,0.0586324466247614,0.1330619270727159
-12.43375,0.05110498314527021,0.1292838336121281
-12.43125,0.04357751966578247,0.1292838336121263
-12.42875,0.03981378792604372,0.1292838336121263
-12.42625,0.03228632444655596,0.1330619270727159
-12.42375,0.02475886096706992,0.1292838336121263
-12.42125,0.02099512922733118,0.1292838336121263
-12.41875,0.0172313974875873,0.1330619270727159
-12.41625,0.01346766574784856,0.1292838336121298
-12.41375,0.009703934008104679,0.1292838336121263
-12.41125,0.005940202268360801,0.1330619270727159
-12.40875,0.005940202268360801,0.1330619270727159
-12.40625,0.002176470528620347,0.1330619270727159
-12.40375,0.002176470528618635,0.1330619270727159
-12.40125,-0.001587261211120108,0.1330619270727159
-12.39875,-0.001587261211123531,0.1330619270727159
-12.39625,-0.001587261211123531,0.1292838336121263
-12.39375,-0.005350992950862275,0.1292838336121263
-12.39125,-0.005350992950865698,0.1292838336121263
-12.38875,-0.005350992950863986,0.1292838336121281
-12.38625,-0.001587261211125243,0.1330619270727142
-12.38375,-0.001587261211123531,0.1292838336121263
-12.38125,-0.001587261211123531,0.1292838336121263
-12.37875,-0.001587261211123531,0.1292838336121263
-12.37625,-0.001587261211123531,0.1292838336121263
-12.37375,-0.001587261211123531,0.1292838336121263
-12.37125,0.002176470528616923,0.1292838336121263
-12.36875,0.002176470528618635,0.1292838336121263
-12.36625,0.002176470528618635,0.1292838336121263
-12.36375,0.002176470528618635,0.1292838336121263
-12.36125,0.002176470528618635,0.1292838336121263
-12.35875,0.002176470528618635,0.1292838336121263
-12.35625,0.002176470528618635,0.1292838336121263
-12.35375,0.002176470528618635,0.1292838336121263
-12.35125,0.002176470528618635,0.1292838336121263
-12.34875,0.002176470528618635,0.1292838336121263
-12.34625,0.002176470528618635,0.1292838336121263
-12.34375,0.002176470528618635,0.1292838336121263
-12.34125,-0.001587261211123531,0.1292838336121263
-12.33875,-0.001587261211123531,0.1292838336121263
-12.33625,-0.001587261211123531,0.1292838336121263
-12.33375,-0.005350992950865698,0.1292838336121263
-12.33125,-0.009114724690604441,0.1292838336121263
-12.32875,-0.009114724690607864,0.1330619270727159
-12.32625,-0.01287845643035174,0.1330619270727159
-12.32375,-0.01664218817009049,0.1330619270727159
-12.32125,-0.02040591990983436,0.1330619270727159
-12.31875,-0.0241696516495731,0.1330619270727159
-12.31625,-0.02793338338931698,0.1330619270727159
-12.31375,-0.03169711512906086,0.1330619270727159
-12.31125,-0.03546084686879961,0.1330619270727159
-12.30875,-0.03922457860854348,0.1330619270727159
-12.30625,-0.04298831034828736,0.1330619270727159
-12.30375,-0.0467520420880261,0.1330619270727159
-12.30125,-0.05051577382777169,0.1292838336121263
-12.29875,-0.05804323730725774,0.1330619270727159
-12.29625,-0.06180696904699647,0.1330619270727159
-12.29375,-0.06557070078674035,0.1330619270727159
-12.29125,-0.07309816426621785,0.1330619270727159
-12.28875,-0.07686189600596514,0.1292838336121281
-12.28625,-0.08438935948545119,0.1292838336121263
-12.28375,-0.09191682296492867,0.1292838336121263
-12.28125,-0.09568055470467597,0.1292838336121263
-12.27875,-0.103208018184162,0.1255057401515368
-12.27625,-0.1107354816636395,0.1255057401515368
-12.27375,-0.1182629451431273,0.1292838336121246
-12.27125,-0.1220266768828728,0.1292838336121263
-12.26875,-0.1295541403623503,0.1292838336121263
-12.26625,-0.1370816038418415,0.1292838336121263
-12.26375,-0.1446090673213292,0.1292838336121263
-12.26125,-0.1521365308008068,0.1292838336121263
-12.25875,-0.1596639942802945,0.1292838336121263
-12.25625,-0.167191457759772,0.1292838336121263
-12.25375,-0.1747189212392598,0.1255057401515385
-12.25125,-0.1822463847187475,0.1292838336121263
-12.24875,-0.189773848198225,0.1292838336121263
-12.24625,-0.2010650434174532,0.1292838336121263
-12.24375,-0.2048287751572005,0.1292838336121263
-12.24125,-0.2161199703764167,0.1292838336121263
-12.23875,-0.2198837021161692,0.1292838336121263
-12.23625,-0.2274111655956569,0.1292838336121263
-12.23375,-0.2349386290751344,0.1292838336121263
-12.23125,-0.2424660925546222,0.1292838336121263
-12.22875,-0.2462298242943609,0.1292838336121263
-12.22625,-0.2537572877738452,0.1292838336121263
-12.22375,-0.2575210195135909,0.1292838336121263
-12.22125,-0.2612847512533296,0.1292838336121263
-12.21875,-0.2688122147328139,0.1292838336121263
-12.21625,-0.2725759464725595,0.1292838336121263
-12.21375,-0.2763396782122982,0.1292838336121263
-12.21125,-0.2801034099520421,0.1292838336121263
-12.20875,-0.283867141691786,0.1292838336121263
-12.20625,-0.2876308734315247,0.1292838336121263
-12.20375,-0.2913946051712703,0.1292838336121263
-12.20125,-0.2951583369110142,0.1292838336121263
-12.19875,-0.2989220686507529,0.1292838336121263
-12.19625,-0.3026858003904968,0.1292838336121263
-12.19375,-0.3064495321302356,0.1292838336121263
-12.19125,-0.3102132638699794,0.1292838336121263
-12.18875,-0.3139769956097233,0.1292838336121263
-12.18625,-0.3177407273494621,0.1292838336121263
-12.18375,-0.3215044590892059,0.1292838336121263
-12.18125,-0.3215044590892077,0.1292838336121263
-12.17875,-0.3252681908289464,0.1292838336121263
-12.17625,-0.329031922568692,0.1292838336121263
-12.17375,-0.329031922568692,0.1292838336121263
-12.17125,-0.329031922568692,0.1292838336121263
-12.16875,-0.329031922568692,0.1292838336121263
-12.16625,-0.3327956543084307,0.1292838336121263
-12.16375,-0.3327956543084342,0.1292838336121263
-12.16125,-0.329031922568692,0.1292838336121263
-12.15875,-0.329031922568692,0.1292838336121263
-12.15625,-0.329031922568692,0.1292838336121263
-12.15375,-0.329031922568692,0.1292838336121263
-12.15125,-0.3252681908289533,0.1292838336121263
-12.14875,-0.3252681908289498,0.1292838336121263
-12.14625,-0.3215044590892077,0.1292838336121263
-12.14375,-0.317740727349469,0.1292838336121263
-12.14125,-0.3177407273494655,0.1292838336121263
-12.13875,-0.3139769956097216,0.1292838336121263
-12.13625,-0.3102132638699829,0.1292838336121263
-12.13375,-0.306449532130239,0.1292838336121263
-12.13125,-0.3026858003905002,0.1292838336121263
-12.12875,-0.2989220686507564,0.1292838336121263
-12.12625,-0.2913946051712703,0.1292838336121263
-12.12375,-0.2876308734315316,0.1292838336121263
-12.12125,-0.2838671416917877,0.1292838336121263
-12.11875,-0.2801034099520438,0.1292838336121263
-12.11625,-0.2763396782123051,0.1292838336121263
-12.11375,-0.2688122147328173,0.1292838336121263
-12.11125,-0.2612847512533296,0.1292838336121263
-12.10875,-0.2537572877738521,0.1292838336121263
-12.10625,-0.2499935560341065,0.1292838336121263
-12.10375,-0.2387023608148903,0.1292838336121263
-12.10125,-0.2311748973353991,0.1292838336121263
-12.09875,-0.2236474338559113,0.1292838336121263
-12.09625,-0.2161199703764339,0.1292838336121263
-12.09375,-0.2048287751572056,0.1292838336121263
-12.09125,-0.1973013116777162,0.1292838336121263
-12.08875,-0.1860101164584999,0.1292838336121263
-12.08625,-0.1784826529790088,0.1292838336121263
-12.08375,-0.170955189499521,0.1292838336121263
-12.08125,-0.1596639942803048,0.1292838336121263
-12.07875,-0.1521365308008102,0.1292838336121263
-12.07625,-0.1446090673213224,0.1292838336121263
-12.07375,-0.1370816038418449,0.1292838336121263
-12.07125,-0.125790408622615,0.1292838336121263
-12.06875,-0.1182629451431375,0.1292838336121263
-12.06625,-0.1144992134033902,0.1292838336121263
-12.06375,-0.1069717499239042,0.1292838336121263
-12.06125,-0.0994442864444267,0.1292838336121263
-12.05875,-0.09568055470467939,0.1292838336121263
-12.05625,-0.08815309122519335,0.1292838336121263
-12.05375,-0.08438935948545462,0.1292838336121263
-12.05125,-0.08062562774570903,0.1292838336121263
-12.04875,-0.07686189600596342,0.1292838336121263
-12.04625,-0.06933443252648595,0.1292838336121263
-12.04375,-0.06557070078674035,0.1292838336121263
-12.04125,-0.06557070078674035,0.1292838336121263
-12.03875,-0.0618069690469999,0.1292838336121263
-12.03625,-0.05804323730725602,0.1292838336121263
-12.03375,-0.05804323730725602,0.1292838336121263
-12.03125,-0.05427950556751557,0.1292838336121263
-12.02875,-0.05427950556751386,0.1292838336121263
-12.02625,-0.05427950556751386,0.1292838336121263
-12.02375,-0.05427950556751386,0.1292838336121263
-12.02125,-0.05804323730725602,0.1292838336121263
-12.01875,-0.05804323730725602,0.1292838336121263
-12.01625,-0.05804323730725602,0.1292838336121263
-12.01375,-0.05804323730725602,0.1292838336121263
-12.01125,-0.05804323730725602,0.1292838336121263
-12.00875,-0.05804323730725602,0.1292838336121263
-12.00625,-0.05804323730725602,0.1292838336121263
-12.00375,-0.05804323730725602,0.1292838336121263
-12.00125,-0.05427950556751386,0.1292838336121263
-11.99875,-0.05427950556751386,0.1292838336121263
-11.99625,-0.05427950556751386,0.1292838336121263
-11.99375,-0.05051577382777169,0.1292838336121263
-11.99125,-0.05051577382777169,0.1292838336121263
-11.98875,-0.04675204208802952,0.1292838336121263
-11.98625,-0.04675204208802781,0.1292838336121263
-11.98375,-0.04298831034828907,0.1292838336121263
-11.98125,-0.0392245786085452,0.1292838336121263
-11.97875,-0.03546084686880645,0.1292838336121263
-11.97625,-0.03546084686880303,0.1292838336121263
-11.97375,-0.03169711512906086,0.1292838336121263
-11.97125,-0.02793338338932212,0.1292838336121263
-11.96875,-0.02793338338931869,0.1292838336121263
-11.96625,-0.02416965164957653,0.1292838336121263
-11.96375,-0.02040591990983779,0.1292838336121263
-11.96125,-0.01664218817009391,0.1292838336121263
-11.95875,-0.0166421881700922,0.1292838336121263
-11.95625,-0.01287845643035345,0.1292838336121263
-11.95375,-0.01287845643035003,0.1292838336121263
-11.95125,-0.009114724690607864,0.1292838336121263
-11.94875,-0.009114724690607864,0.1292838336121263
-11.94625,-0.005350992950865698,0.1292838336121263
-11.94375,-0.005350992950865698,0.1292838336121263
-11.94125,-0.001587261211125243,0.1292838336121263
-11.93875,-0.001587261211123531,0.1292838336121263
-11.93625,0.002176470528615212,0.1292838336121263
-11.93375,0.002176470528618635,0.1292838336121263
-11.93125,0.005940202268360801,0.1292838336121263
-11.92875,0.009703934008099544,0.1292838336121263
-11.92625,0.0172313974875873,0.1292838336121263
-11.92375,0.02099512922733289,0.1292838336121263
-11.92125,0.02852259270681037,0.1292838336121263
-11.91875,0.03605005618629813,0.1292838336121263
-11.91625,0.04357751966577562,0.1292838336121263
-11.91375,0.05486871488500383,0.1292838336121263
-11.91125,0.06239617836449329,0.1292838336121263
-11.90875,0.06992364184397078,0.1292838336121263
-11.90625,0.08121483706319899,0.1292838336121263
-11.90375,0.08874230054268846,0.1292838336121263
-11.90125,0.1000334957619047,0.1292838336121263
-11.89875,0.1075609592413959,0.1292838336121263
-11.89625,0.1150884227208836,0.1292838336121263
-11.89375,0.1263796179400998,0.1292838336121263
-11.89125,0.1339070814195945,0.1292838336121263
-11.88875,0.1451982766388261,0.1292838336121263
-11.88625,0.1564894718580423,0.1292838336121263
-11.88375,0.1640169353375318,0.1292838336121263
-11.88125,0.175308130556748,0.1292838336121263
-11.87875,0.1865993257759797,0.1292838336121263
-11.87625,0.1978905209952113,0.1292838336121263
-11.87375,0.2054179844746888,0.1292838336121263
-11.87125,0.216709179693917,0.1292838336121263
-11.86875,0.2280003749131486,0.1292838336121263
-11.86625,0.2430553018721036,0.1292838336121263
-11.86375,0.2543464970913438,0.1292838336121263
-11.86125,0.2694014240503175,0.1292838336121263
-11.85875,0.2806926192695338,0.1292838336121263
-11.85625,0.2957475462285076,0.1292838336121263
-11.85375,0.3108024731874626,0.1292838336121263
