Module4/data/1207/listen_to_my_heartbeat4.csv

#Digilent WaveForms Oscilloscope Acquisition
#Device Name: Discovery2
#Serial Number: SN:210321AC1D4D
#Date Time: 2020-12-07 16:04:44.104
#Sample rate: 400Hz
#Samples: 8192
#Trigger: Source: Channel 1 Type: Edge Condition: Rising Level: 0 V Hyst.: Auto HoldOff: 0 s
#Channel 1: Range: 500 mV/div Offset: 0 V Attenuation: 1 X
#Channel 2: Range: 2 V/div Offset: 0 V Attenuation: 1 X
#Wavegen Channel 1: Running
#Mode: Simple
#Type: Sine
#Frequency: 1 Hz
#Period: 1 s
#Amplitude: 500 uV
#Offset: 1 V
#Symmetry: 50 %
#Phase: 0 ¡Æ
#Power Supplies: ON
#Positive Supply: ON
#Voltage: 5 V
#Negative Supply: ON
#Voltage: -5 V

Time (s),Channel 1 (V),Channel 2 (V)
-12.8385843373494,-0.2659798164350502,0.4504217777622427
-12.8360843373494,-0.269057743691387,0.4504217777622427
-12.8335843373494,-0.2721356709477266,0.4504217777622427
-12.8310843373494,-0.2758975820388066,0.4504217777622427
-12.8285843373494,-0.2793175012125158,0.4504217777622427
-12.8260843373494,-0.2823954284688557,0.4504217777622427
-12.8235843373494,-0.2861573395599339,0.4504217777622427
-12.8210843373494,-0.289919250651014,0.4504217777622427
-12.8185843373494,-0.2929971779073508,0.4504217777622427
-12.8160843373494,-0.296759088998434,0.4504217777622427
-12.8135843373494,-0.3005210000895123,0.4504217777622427
-12.8110843373494,-0.3032569354284795,0.4504217777622427
-12.8085843373494,-0.3063348626848164,0.4504217777622427
-12.8060843373494,-0.3100967737758978,0.4504217777622427
-12.8035843373494,-0.312832709114865,0.4504217777622427
-12.8010843373494,-0.3152266525364614,0.4504217777622427
-12.7985843373494,-0.31796258787543,0.4504217777622427
-12.7960843373494,-0.320698523214396,0.4504217777622427
-12.7935843373494,-0.3227504747186215,0.4504217777622427
-12.7910843373494,-0.3258284019749583,0.4504217777622427
-12.7885843373494,-0.328564337313927,0.4504217777622427
-12.7860843373494,-0.3306162888181525,0.4504217777622427
-12.7835843373494,-0.332326248405007,0.4504217777622427
-12.7810843373494,-0.3350621837439751,0.4504217777622427
-12.7785843373494,-0.3367721433308289,0.4504217777622427
-12.7760843373494,-0.3384821029176834,0.4504217777622427
-12.7735843373494,-0.3408760463392787,0.4504217777622427
-12.7710843373494,-0.3429279978435053,0.4504217777622427
-12.7685843373494,-0.3436119816782471,0.4504217777622427
-12.7660843373494,-0.3449799493477307,0.4504217777622427
-12.7635843373494,-0.3460059250998435,0.4504217777622427
-12.7610843373494,-0.3460059250998435,0.4504217777622427
-12.7585843373494,-0.3460059250998435,0.4504217777622427
-12.7560843373494,-0.3470319008519558,0.4504217777622427
-12.7535843373494,-0.3473738927693275,0.4504217777622427
-12.7510843373494,-0.3480578766040689,0.4504217777622427
-12.7485843373494,-0.3490838523561817,0.4504217777622427
-12.7460843373494,-0.350109828108294,0.4504217777622427
-12.7435843373494,-0.3504518200256653,0.4504217777622427
-12.7410843373494,-0.351477795777778,0.4504217777622427
-12.7385843373494,-0.3521617796125199,0.4504217777622427
-12.7360843373494,-0.3528457634472622,0.4504217777622427
-12.7335843373494,-0.3538717391993744,0.4504217777622427
-12.7310843373494,-0.3552397068688581,0.4504217777622427
-12.7285843373494,-0.3562656826209704,0.4504217777622427
-12.7260843373494,-0.3572916583730836,0.4504217777622427
-12.7235843373494,-0.3586596260425672,0.4504217777622427
-12.7210843373494,-0.35968560179468,0.4504217777622427
-12.7185843373494,-0.3596856017946804,0.4504217777622427
-12.7160843373494,-0.3607115775467927,0.4504217777622427
-12.7135843373494,-0.3620795452162763,0.4504217777622427
-12.7110843373494,-0.3631055209683886,0.4504217777622427
-12.7085843373494,-0.3637895048031309,0.4504217777622427
-12.7060843373494,-0.3654994643899854,0.4504217777622427
-12.7035843373494,-0.3665254401420981,0.4504217777622427
-12.7010843373494,-0.3675514158942115,0.4504217777622427
-12.6985843373494,-0.3689193835636945,0.4504217777622427
-12.6960843373494,-0.3702873512331782,0.4504217777622427
-12.6935843373494,-0.3709713350679197,0.4504217777622427
-12.6910843373494,-0.372681294654775,0.4504217777622427
-12.6885843373494,-0.3737072704068873,0.4504217777622427
-12.6860843373494,-0.3740492623242582,0.4504217777622427
-12.6835843373494,-0.3747332461589997,0.4504217777622427
-12.6810843373494,-0.3764432057458546,0.4504217777622427
-12.6785843373494,-0.3774691814979673,0.4504217777622427
-12.6760843373494,-0.3784951572500801,0.4504217777622427
-12.6735843373494,-0.3805471087543065,0.4504217777622427
-12.6710843373494,-0.382599060258531,0.4504217777622427
-12.6685843373494,-0.3843090198453856,0.4504217777622427
-12.6660843373494,-0.3870449551843516,0.4504217777622427
-12.6635843373494,-0.390122882440691,0.4504217777622427
-12.6610843373494,-0.3925168258622874,0.4504217777622427
-12.6585843373494,-0.3945687773665129,0.4504217777622427
-12.6560843373494,-0.3973047127054813,0.4504217777622427
-12.6535843373494,-0.3996986561270766,0.4504217777622427
-12.6510843373494,-0.4024345914660439,0.4504217777622427
-12.6485843373494,-0.4055125187223807,0.4504217777622427
-12.6460843373494,-0.4085904459787203,0.4504217777622427
-12.6435843373494,-0.4113263813176876,0.4504217777622427
-12.6410843373494,-0.4150882924087676,0.4504217777622427
-12.6385843373494,-0.4191921954172199,0.4504217777622427
-12.6360843373494,-0.4222701226735567,0.4504217777622427
-12.6335843373494,-0.4263740256820077,0.4504217777622427
-12.6310843373494,-0.431503904442569,0.4504217777622427
-12.6285843373494,-0.4362917912857663,0.4504217777622427
-12.6260843373494,-0.4410796781289569,0.4504217777622427
-12.6235843373494,-0.4462095568895205,0.4504217777622427
-12.6210843373494,-0.4513394356500819,0.4504217777622427
-12.6185843373494,-0.4554433386585351,0.4504217777622427
-12.6160843373494,-0.4602312255017279,0.4504217777622427
-12.6135843373494,-0.4646771204275498,0.4504217777622427
-12.6110843373494,-0.4680970396012601,0.4504217777622427
-12.6085843373494,-0.4708329749402262,0.4504217777622427
-12.6060843373494,-0.4735689102791935,0.4504217777622427
-12.6035843373494,-0.4752788698660472,0.4504217777622427
-12.6010843373494,-0.4763048456181608,0.4504217777622427
-12.5985843373494,-0.4780148052050153,0.4504217777622427
-12.5960843373494,-0.479040780957128,0.4504217777622427
-12.5935843373494,-0.4800667567092412,0.4504217777622427
-12.5910843373494,-0.4810927324613535,0.4504217777622427
-12.5885843373494,-0.4821187082134663,0.4504217777622427
-12.5860843373494,-0.482460700130837,0.4504217777622427
-12.5835843373494,-0.4824607001308371,0.4504217777622427
-12.5810843373494,-0.4824607001308371,0.4504217777622427
-12.5785843373494,-0.4814347243787244,0.4504217777622427
-12.5760843373494,-0.4807507405439826,0.4504217777622427
-12.5735843373494,-0.4807507405439826,0.4504217777622427
-12.5710843373494,-0.4807507405439826,0.4541998712228323
-12.5685843373494,-0.4800667567092411,0.4541998712228323
-12.5660843373494,-0.4804087486266117,0.4504217777622427
-12.5635843373494,-0.4804087486266117,0.4504217777622427
-12.5610843373494,-0.4797247647918699,0.4504217777622427
-12.5585843373494,-0.4790407809571284,0.4504217777622427
-12.5560843373494,-0.4793827728744989,0.4504217777622427
-12.5535843373494,-0.4793827728744989,0.4504217777622427
-12.5510843373494,-0.479040780957128,0.4504217777622427
-12.5485843373494,-0.4800667567092411,0.4504217777622427
-12.5460843373494,-0.4807507405439826,0.4504217777622427
-12.5435843373494,-0.4810927324613535,0.4504217777622427
-12.5410843373494,-0.4814347243787243,0.4504217777622427
-12.5385843373494,-0.4821187082134663,0.4504217777622427
-12.5360843373494,-0.4817767162960953,0.4504217777622427
-12.5335843373494,-0.4817767162960953,0.4504217777622427
-12.5310843373494,-0.4821187082134659,0.4504217777622427
-12.5285843373494,-0.4814347243787244,0.4504217777622427
-12.5260843373494,-0.4793827728744989,0.4504217777622427
-12.5235843373494,-0.4773308213702744,0.4504217777622427
-12.5210843373494,-0.4745948860313062,0.4541998712228323
-12.5185843373494,-0.4701489911054844,0.4541998712228323
-12.5160843373494,-0.4660450880970334,0.4541998712228323
-12.5135843373494,-0.4615991931712092,0.4541998712228306
-12.5110843373494,-0.4564693144106479,0.4504217777622427
-12.5085843373494,-0.4509974437327133,0.4541998712228323
-12.5060843373494,-0.445867564972152,0.4541998712228323
-12.5035843373494,-0.4393697185420992,0.4504217777622427
-12.5010843373494,-0.4325298801946841,0.4504217777622427
-12.4985843373494,-0.4263740256820077,0.4504217777622427
-12.4960843373494,-0.4195341873345926,0.4504217777622427
-12.4935843373494,-0.4116683732350585,0.4504217777622427
-12.4910843373494,-0.4044865429702694,0.4504217777622427
-12.4885843373494,-0.3976467046228511,0.4504217777622427
-12.4860843373494,-0.3901228824406876,0.4504217777622427
-12.4835843373494,-0.382599060258531,0.4504217777622427
-12.4810843373494,-0.3754172299937419,0.4504217777622427
-12.4785843373494,-0.3672094239768437,0.4504217777622427
-12.4760843373494,-0.3586596260425672,0.4504217777622427
-12.4735843373494,-0.3507938119430362,0.4504217777622427
-12.4710843373494,-0.3415600301740216,0.4504217777622427
-12.4685843373494,-0.3309582807355184,0.4504217777622427
-12.4660843373494,-0.3200145393796542,0.4504217777622427
-12.4635843373494,-0.3083868141890432,0.4504217777622427
-12.4610843373494,-0.2950491294115837,0.4504217777622427
-12.4585843373494,-0.2806854688819994,0.4504217777622427
-12.4560843373494,-0.2656378245176793,0.4504217777622427
-12.4535843373494,-0.2485382286491337,0.4504217777622427
-12.4510843373494,-0.2304126570284667,0.4504217777622427
-12.4485843373494,-0.2112611096557043,0.4504217777622427
-12.4460843373494,-0.1897156188613369,0.4504217777622427
-12.4435843373494,-0.1654341927280132,0.4504217777622427
-12.4410843373494,-0.1397847989251714,0.4504217777622427
-12.4385843373494,-0.1124254455355109,0.4504217777622427
-12.4360843373494,-0.08301414064161253,0.4504217777622427
-12.4335843373494,-0.05223486807824449,0.4504217777622427
-12.4310843373494,-0.02042961976273573,0.4504217777622427
-12.4285843373494,0.01342758005698451,0.4504217777622427
-12.4260843373494,0.0489947394635593,0.4504217777622427
-12.4235843373494,0.08524588270489304,0.4504217777622427
-12.4210843373494,0.1228649936156762,0.4504217777622427
-12.4185843373494,0.1625360560307019,0.4504217777622427
-12.4160843373494,0.2018651265283389,0.4504217777622427
-12.4135843373494,0.2411941970260116,0.4504217777622427
-12.4110843373494,0.2812072513584082,0.4504217777622427
-12.4085843373494,0.3208783137734339,0.4504217777622427
-12.4060843373494,0.3602073842711069,0.4504217777622427
-12.4035843373494,0.4002204386034854,0.4504217777622427
-12.4010843373494,0.4405754848532529,0.4504217777622427
-12.3985843373494,0.4802465472682606,0.4504217777622427
-12.3960843373494,0.5195756177659335,0.4504217777622427
-12.3935843373494,0.5589046882635883,0.4504217777622427
-12.3910843373494,0.5972077830091304,0.4504217777622427
-12.3885843373494,0.6348268939199476,0.4504217777622427
-12.3860843373494,0.67210401291336,0.4504217777622427
-12.3835843373494,0.7090391399894185,0.4541998712228323
-12.3810843373494,0.7442643074786063,0.4541998712228323
-12.3785843373494,0.7794894749678414,0.4541998712228323
-12.3760843373494,0.8130046828701756,0.4541998712228323
-12.3735843373494,0.8444679392682993,0.4541998712228323
-12.3710843373494,0.8749052199142966,0.4541998712228323
-12.3685843373494,0.9043165248082089,0.4541998712228323
-12.3660843373494,0.9320178701152527,0.4541998712228323
-12.3635843373494,0.9580092558354419,0.4541998712228323
-12.3610843373494,0.9829746658035291,0.4541998712228323
-12.3585843373494,1.006230116184741,0.4541998712228323
-12.3560843373494,1.027091623144366,0.4541998712228323
-12.3535843373494,1.046585162434499,0.4504217777622444
-12.3510843373494,1.063684758303054,0.4504217777622427
-12.3485843373494,1.078048418832632,0.4541998712228323
-12.3460843373494,1.091386103610098,0.4541998712228323
-12.3435843373494,1.103013828800713,0.4541998712228323
-12.3410843373494,1.112589602487094,0.4541998712228323
-12.3385843373494,1.120455416586625,0.4541998712228323
-12.3360843373494,1.127637246851411,0.4541998712228323
-12.3335843373494,1.132425133694607,0.4541998712228323
-12.3310843373494,1.135503060950945,0.4541998712228323
-12.3285843373494,1.138238996289912,0.4541998712228323
-12.3260843373494,1.140290947794138,0.4541998712228323
-12.3235843373494,1.139948955876767,0.4541998712228323
-12.3210843373494,1.138580988207283,0.4504217777622427
-12.3185843373494,1.13687102862043,0.4504217777622427
-12.3160843373494,1.133793101364088,0.4504217777622427
-12.3135843373494,1.128663222603527,0.4504217777622427
-12.3110843373494,1.123191351925592,0.4504217777622427
-12.3085843373494,1.116693505495548,0.4504217777622427
-12.3060843373494,1.108827691396014,0.4541998712228323
-12.3035843373494,1.100619885379112,0.4504217777622427
-12.3010843373494,1.091386103610098,0.4504217777622427
-12.2985843373494,1.081126346088965,0.4504217777622427
-12.2960843373494,1.070182604733101,0.4504217777622427
-12.2935843373494,1.059580855294603,0.4504217777622427
-12.2910843373494,1.047269146269256,0.4504217777622427
-12.2885843373494,1.034615445326526,0.4504217777622427
-12.2860843373494,1.022303736301174,0.4504217777622427
-12.2835843373494,1.009992027275821,0.4504217777622427
-12.2810843373494,0.9966543424983492,0.4541998712228323
-12.2785843373494,0.9840006415556313,0.4541998712228323
-12.2760843373494,0.9706629567781657,0.4541998712228323
-12.2735843373494,0.956299296248594,0.4504217777622444
-12.2710843373494,0.9419356357190092,0.4541998712228323
-12.2685843373494,0.9282559590241727,0.4541998712228323
-12.2660843373494,0.9135503065772235,0.4504217777622427
-12.2635843373494,0.8985026622128969,0.4541998712228323
-12.2610843373494,0.8841390016833252,0.4541998712228323
-12.2585843373494,0.8701173330711177,0.4504217777622427
-12.2560843373494,0.8550696887068046,0.4504217777622427
-12.2535843373494,0.8410480200945839,0.4504217777622444
-12.2510843373494,0.8270263514823829,0.4541998712228323
-12.2485843373494,0.8123206990354337,0.4504217777622427
-12.2460843373494,0.7982990304232327,0.4504217777622427
-12.2435843373494,0.7839353698936481,0.4504217777622427
-12.2410843373494,0.7692297174466989,0.4504217777622427
-12.2385843373494,0.7545240649997497,0.4504217777622427
-12.2360843373494,0.7401604044701647,0.4504217777622427
-12.2335843373494,0.7254547520232222,0.4504217777622427
-12.2310843373494,0.7100651157415312,0.4504217777622427
-12.2285843373494,0.6950174713772179,0.4504217777622427
-12.2260843373494,0.6803118189302618,0.4504217777622427
-12.2235843373494,0.6649221826485708,0.4504217777622427
-12.2210843373494,0.6498745382842508,0.4504217777622427
-12.2185843373494,0.6361948615894076,0.4504217777622427
-12.2160843373494,0.6214892091424651,0.4504217777622427
-12.2135843373494,0.6060995728607741,0.4504217777622427
-12.2110843373494,0.5913939204138315,0.4541998712228306
-12.2085843373494,0.5766882679668757,0.4541998712228323
-12.2060843373494,0.5616406236025556,0.4504217777622427
-12.2035843373494,0.5483029388250901,0.4504217777622427
-12.2010843373494,0.5349652540476184,0.4504217777622427
-12.1985843373494,0.521627569270159,0.4504217777622427
-12.1960843373494,0.5086318764100644,0.4504217777622427
-12.1935843373494,0.4959781754673463,0.4541998712228306
-12.1910843373494,0.4826404906898691,0.4541998712228323
-12.1885843373494,0.4696447978297804,0.4541998712228323
-12.1860843373494,0.4573330888044276,0.4541998712228323
-12.1835843373494,0.4446793878617096,0.4541998712228323
-12.1810843373494,0.4313417030842383,0.4504217777622427
-12.1785843373494,0.4193719859762564,0.4541998712228323
-12.1760843373494,0.4077442607856454,0.4541998712228323
-12.1735843373494,0.3957745436776584,0.4504217777622427
-12.1710843373494,0.3844888104044235,0.4504217777622427
-12.1685843373494,0.3742290528832961,0.4541998712228323
-12.1660843373494,0.3632853115274319,0.4504217777622444
-12.1635843373494,0.3530255540062996,0.4504217777622427
-12.1610843373494,0.3434497803199141,0.4504217777622427
-12.1585843373494,0.3345579904682703,0.4504217777622427
-12.1560843373494,0.3253242086992522,0.4504217777622427
-12.1535843373494,0.3174583945997248,0.4504217777622427
-12.1510843373494,0.3102765643349357,0.4504217777622427
-12.1485843373494,0.302752742152779,0.4504217777622427
-12.1460843373494,0.2955709118879865,0.4504217777622427
-12.1435843373494,0.289757049292681,0.4504217777622427
-12.1410843373494,0.2829172109452627,0.4504217777622427
-12.1385843373494,0.2760773725978417,0.4504217777622427
-12.1360843373494,0.2699215180851681,0.4504217777622427
-12.1335843373494,0.2634236716551208,0.4504217777622427
-12.1310843373494,0.2565838333077057,0.4504217777622427
-12.1285843373494,0.2507699707123943,0.4541998712228306
-12.1260843373494,0.2446141161997207,0.4504217777622427
-12.1235843373494,0.2377742778523025,0.4504217777622427
-12.1210843373494,0.2316184233396288,0.4504217777622427
-12.1185843373494,0.2258045607443205,0.4504217777622427
-12.1160843373494,0.2193067143142732,0.4504217777622427
-12.1135843373494,0.212466875966855,0.4504217777622427
-12.1110843373494,0.2059690295368046,0.4504217777622427
-12.1085843373494,0.1991291911893895,0.4504217777622427
-12.1060843373494,0.1909213851724876,0.4504217777622427
-12.1035843373494,0.1833975629903309,0.4504217777622427
-12.1010843373494,0.1755317488907966,0.4504217777622427
-12.0985843373494,0.1673239428738947,0.4504217777622427
-12.0960843373494,0.1598001206917346,0.4504217777622427
-12.0935843373494,0.1526182904269419,0.4504217777622427
-12.0910843373494,0.1447524763274145,0.4504217777622427
-12.0885843373494,0.1368866622278836,0.4504217777622427
-12.0860843373494,0.1293628400457269,0.4504217777622427
-12.0835843373494,0.1214970259461925,0.4504217777622427
-12.0810843373494,0.1132892199292907,0.4504217777622427
-12.0785843373494,0.1061073896645015,0.4504217777622427
-12.0760843373494,0.09858356748233772,0.4541998712228306
-12.0735843373494,0.0903757614654396,0.4504217777622427
-12.0710843373494,0.08216795544853772,0.4504217777622427
-12.0685843373494,0.07498612518375185,0.4504217777622427
-12.0660843373494,0.06712031108421389,0.4504217777622427
-12.0635843373494,0.05891250506731573,0.4504217777622427
-12.0610843373494,0.05138868288515568,0.4504217777622427
-12.0585843373494,0.04352286878562829,0.4504217777622427
-12.0560843373494,0.03497307085135193,0.4504217777622427
-12.0535843373494,0.02744924866919188,0.4504217777622427
-12.0510843373494,0.01958343456966091,0.4504217777622427
-12.0485843373494,0.01171762047012684,0.4504217777622427
-12.0460843373494,0.00487778212271172,0.4504217777622427
-12.0435843373494,-0.001620064307335598,0.4504217777622427
-12.0410843373494,-0.008117910737379962,0.4504217777622427
-12.0385843373494,-0.01461575716743023,0.4541998712228323
-12.0360843373494,-0.02111360359747755,0.4504217777622427
-12.0335843373494,-0.02761145002752487,0.4504217777622427
-12.0310843373494,-0.0354772641270591,0.4504217777622427
-12.0285843373494,-0.04265909439184497,0.4504217777622427
-12.0260843373494,-0.05018291657400503,0.4504217777622427
-12.0235843373494,-0.05804873067353242,0.4504217777622427
-12.0210843373494,-0.06591454477306696,0.4504217777622427
-12.0185843373494,-0.07343836695522701,0.4504217777622427
-12.0160843373494,-0.08164617297212889,0.4504217777622427
-12.0135843373494,-0.09053796282377631,0.4504217777622427
-12.0110843373494,-0.09874576884067446,0.4504217777622427
-12.0085843373494,-0.1066115829402054,0.4541998712228323
-12.0060843373494,-0.1155033727918451,0.4541998712228323
-12.0035843373494,-0.1233691868913838,0.4504217777622427
-12.0010843373494,-0.131576992908282,0.4504217777622427
-11.9985843373494,-0.1401267908425547,0.4504217777622427
-11.9960843373494,-0.1479926049420821,0.4504217777622427
-11.9935843373494,-0.1562004109589876,0.4504217777622427
-11.9910843373494,-0.1654341927280022,0.4504217777622427
-11.9885843373494,-0.1750099664143877,0.4504217777622427
-11.9860843373494,-0.1839017562660356,0.4504217777622427
