Module3/data/exp2/exp2.2/Self-biased_negative_feedback_V_CE.csv

#Digilent WaveForms Oscilloscope Acquisition
#Device Name: Discovery2
#Serial Number: SN:210321AC1D4D
#Date Time: 2020-11-12 19:11:14.694
#Sample rate: 970874Hz
#Samples: 8192
#Trigger: Source: Channel 1 Type: Edge Condition: Rising Level: 0 V Hyst.: Auto HoldOff: 0 s
#Channel 1: Range: 1 V/div Offset: 0 V Attenuation: 1 X
#Channel 2: Range: 1 V/div Offset: 0 V Attenuation: 1 X
#Wavegen Channel 1: Running
#Mode: Simple
#Type: Sine
#Frequency: 1 kHz
#Period: 1 ms
#Amplitude: 1.5 V
#Offset: 0 V
#Symmetry: 50 %
#Phase: 0 ¡Æ
#Power Supplies: ON
#Positive Supply: ON
#Voltage: 2.5 V
#Negative Supply: ON
#Voltage: -2.5 V

Time (s),Channel 1 (V),Channel 2 (V)
-0.00305086,-0.4715863863041899,2.109570508203214
-0.00304983,-0.4640157105312415,2.105769705699656
-0.0030488,-0.4526596968718195,2.101968903196098
-0.00304777,-0.4413036832123928,2.109570508203213
-0.00304674,-0.4337330074394439,2.105769705699655
-0.00304571,-0.4223769937800214,2.105769705699656
-0.00304468,-0.4110209801205988,2.109570508203213
-0.00304365,-0.3996649664611763,2.109570508203213
-0.00304262,-0.3920942906882279,2.113371310706772
-0.00304159,-0.3807382770288055,2.109570508203214
-0.00304056,-0.3731676012558568,2.113371310706771
-0.00303953,-0.3618115875964347,2.113371310706772
-0.0030385,-0.3542409118234832,2.105769705699656
-0.00303747,-0.3504555739370078,2.109570508203215
-0.00303644,-0.3390995602775853,2.11717211321033
-0.00303541,-0.3277435466181632,2.11717211321033
-0.00303438,-0.3239582087316888,2.11717211321033
-0.00303335,-0.3126021950722662,2.120972915713888
-0.00303232,-0.2974608435263696,2.120972915713888
-0.00303129,-0.2861048298669467,2.124773718217446
-0.00303026,-0.2861048298669456,2.120972915713889
-0.00302923,-0.2709634783210511,2.117172113210331
-0.0030282,-0.2709634783210454,2.117172113210331
-0.00302717,-0.2558221267751491,2.120972915713887
-0.00302614,-0.2444661131157269,2.113371310706773
-0.00302511,-0.2368954373427785,2.120972915713888
-0.00302408,-0.2293247615698301,2.120972915713888
-0.00302305,-0.2179687479104076,2.124773718217447
-0.00302202,-0.206612734250985,2.11717211321033
-0.00302099,-0.1952567205915624,2.120972915713888
-0.00301996,-0.1839007069321399,2.124773718217446
-0.00301893,-0.1725446932727141,2.128574520721004
-0.0030179,-0.1687593553862387,2.124773718217447
-0.00301687,-0.157403341726817,2.124773718217446
-0.00301584,-0.1536180038403422,2.120972915713889
-0.00301481,-0.1422619901809196,2.128574520721005
-0.00301378,-0.1309059765214971,2.124773718217447
-0.00301275,-0.1195499628620745,2.128574520721005
-0.00301172,-0.1119792870891259,2.124773718217447
-0.00301069,-0.1006232734297037,2.124773718217447
-0.00300966,-0.08926725977028116,2.128574520721004
-0.00300863,-0.08169658399732958,2.128574520721005
-0.0030076,-0.07791124611085432,2.128574520721005
-0.00300657,-0.06655523245143175,2.132375323224563
-0.00300554,-0.05519921879200917,2.132375323224563
-0.00300451,-0.04384320513258664,2.132375323224563
-0.00300348,-0.03627252935963825,2.136176125728121
-0.00300245,-0.02491651570021581,2.132375323224563
-0.00300142,-0.01356050204079324,2.132375323224563
-0.00300039,0.001580849505103062,2.132375323224563
-0.00299936,0.01293686316452626,2.13617612572812
-0.00299833,0.02050753893747925,2.139976928231679
-0.0029973,0.03186355259690042,2.136176125728121
-0.00299627,0.03186355259690132,2.136176125728122
-0.00299524,0.04321956625632389,2.139976928231679
-0.00299421,0.05457557991574646,2.139976928231679
-0.00299318,0.06971693146164319,2.136176125728121
-0.00299215,0.07350226934811797,2.136176125728121
-0.00299112,0.081072945121066,2.139976928231679
-0.00299009,0.09242895878048803,2.139976928231679
-0.00298906,0.107570310326389,2.143777730735237
-0.00298803,0.1151409860993374,2.139976928231679
-0.002987,0.1227116618722854,2.13997692823168
-0.00298597,0.12649699975876,2.143777730735238
-0.00298494,0.1378530134181826,2.143777730735238
-0.00298391,0.1492090270776052,2.143777730735238
-0.00298288,0.1605650407370277,2.143777730735238
-0.00298185,0.1719210543964503,2.147578533238796
-0.00298082,0.1832770680558729,2.143777730735238
-0.00297979,0.1908477438288219,2.143777730735238
-0.00297876,0.1946330817153004,2.143777730735238
-0.00297773,0.2097744332611957,2.147578533238796
-0.0029767,0.2135597711476711,2.147578533238796
-0.00297567,0.2324864605800417,2.147578533238796
-0.00297464,0.24005713635299,2.151379335742354
-0.00297361,0.2514131500124126,2.151379335742354
-0.00297258,0.2627691636718352,2.147578533238796
-0.00297155,0.2703398394447838,2.147578533238796
-0.00297052,0.2703398394447849,2.151379335742353
-0.00296949,0.2816958531042102,2.147578533238797
-0.00296846,0.2930518667636328,2.155180138245912
-0.00296743,0.304407880423055,2.151379335742354
-0.0029664,0.3119785561960038,2.147578533238796
-0.00296537,0.3271199077419004,2.151379335742354
-0.00296434,0.3309052456283745,2.155180138245912
-0.00296331,0.3422612592877969,2.151379335742355
-0.00296228,0.3498319350607456,2.151379335742354
-0.00296125,0.3611879487201677,2.151379335742354
-0.00296022,0.3687586244931166,2.147578533238797
-0.00295919,0.3801146381525413,2.151379335742354
-0.00295816,0.3801146381525433,2.151379335742354
-0.00295713,0.3952559896984397,2.147578533238796
-0.0029561,0.4066120033578623,2.155180138245912
-0.00295507,0.4179680170172849,2.147578533238796
-0.00295404,0.4293240306767074,2.147578533238796
-0.00295301,0.44068004433613,2.147578533238796
-0.00295198,0.4482507201090787,2.151379335742354
-0.00295095,0.4596067337685008,2.147578533238797
-0.00294992,0.4633920716549786,2.147578533238795
-0.00294889,0.4709627474279282,2.143777730735238
-0.00294786,0.4861040989738241,2.143777730735238
-0.00294683,0.4936747747467728,2.143777730735237
-0.0029458,0.5050307884061953,2.139976928231679
-0.00294477,0.5163868020656179,2.136176125728121
-0.00294374,0.5239574778385664,2.139976928231679
-0.00294271,0.5315281536115147,2.136176125728122
-0.00294168,0.5428841672709369,2.136176125728121
-0.00294065,0.5504548430438858,2.128574520721006
-0.00293962,0.5618108567033118,2.124773718217447
-0.00293859,0.5693815324762601,2.124773718217446
-0.00293756,0.5769522082492082,2.11717211321033
-0.00293653,0.5807375461356827,2.113371310706771
-0.0029355,0.5920935597951053,2.101968903196097
-0.00293447,0.5996642355680537,2.098168100692539
-0.00293344,0.6110202492274761,2.094367298188981
-0.00293241,0.6223762628868987,2.086765693181865
-0.00293138,0.6299469386598475,2.082964890678306
-0.00293035,0.6337322765463256,2.079164088174745
-0.00292932,0.6450882902057488,2.063960878160513
-0.00292829,0.6602296417516441,2.05255847064984
-0.00292726,0.6640149796381188,2.048757668146282
-0.00292623,0.6753709932975412,2.041156063139165
-0.0029252,0.6791563311840154,2.033554458132049
-0.00292417,0.6905123448434379,2.022152050621375
-0.00292314,0.6980830206163865,2.014550445614259
-0.00292211,0.7094390342758087,2.003148038103585
-0.00292108,0.713224372162284,1.991745630592911
-0.00292005,0.7245803858217091,1.980343223082231
-0.00291902,0.732151061594657,1.965140013067999
-0.00291799,0.7359363994811315,1.949936803053767
-0.00291696,0.7435070752540798,1.934733593039535
-0.00291593,0.7472924131405541,1.927131988032419
-0.0029149,0.7586484267999766,1.915729580521744
-0.00291387,0.7700044404593992,1.896725568003954
-0.00291284,0.7813604541188217,1.877721555486164
-0.00291181,0.7851457920052969,1.862518345471931
-0.00291078,0.7965018056647222,1.847315135457693
-0.00290975,0.8040724814376705,1.835912727947018
-0.00290872,0.8116431572106197,1.816908715429228
-0.00290769,0.8267845087565154,1.801705505414995
-0.00290666,0.8267845087565158,1.778900690393647
-0.00290563,0.8381405224159384,1.756095875372299
-0.0029046,0.8419258603024127,1.740892665358066
-0.00290357,0.8457111981888868,1.729490257847392
-0.00290254,0.8532818739618349,1.710486245329603
-0.00290151,0.8646378876212568,1.691482232811812
-0.00290048,0.8722085633942105,1.668677417790458
-0.00289945,0.8873499149401057,1.66107581278334
-0.00289842,0.8911352528265802,1.645872602769107
-0.00289739,0.8987059285995285,1.619266985244201
-0.00289636,0.9024912664860026,1.592661367719294
-0.00289533,0.9100619422589511,1.58125896020862
-0.0028943,0.9214179559183735,1.56225494769083
-0.00289327,0.932773969577796,1.539450132669482
-0.00289224,0.9365593074642711,1.528047725158807
-0.00289121,0.9403446453507485,1.509043712641009
-0.00289018,0.9517006590101699,1.48623889761966
-0.00288915,0.9554859968966449,1.463434082598312
-0.00288812,0.9668420105560672,1.440629267576964
-0.00288709,0.9744126863290155,1.425426057562732
-0.00288606,0.9781980242154897,1.402621242541383
-0.00288503,0.985768699988438,1.379816427520035
-0.002884,0.9971247136478604,1.364613217505802
-0.00288297,1.000910051534335,1.345609204988012
-0.00288194,1.008480727307283,1.33040599497378
-0.00288091,1.01226606519376,1.303800377448866
-0.00287988,1.01983674096671,1.284796364931076
-0.00287885,1.034978092512606,1.269593154916842
-0.00287782,1.042548768285554,1.242987537391936
-0.00287679,1.046334106172028,1.220182722370588
-0.00287576,1.057690119831451,1.204979512356356
-0.00287473,1.065260795604399,1.189776302342124
-0.0028737,1.069046133490874,1.174573092327891
-0.00287267,1.072831471377348,1.147967474802986
-0.00287164,1.080402147150296,1.140365869795867
-0.00287061,1.091758160809721,1.117561054774513
-0.00286958,1.095543498696195,1.098557042256721
-0.00286855,1.09932883658267,1.071951424731816
-0.00286752,1.106899512355618,1.060549017221142
-0.00286649,1.106899512355618,1.04534580720691
-0.00286546,1.110684850242092,1.030142597192677
-0.00286443,1.125826201787988,1.011138584674887
-0.0028634,1.133396877560937,0.9959353746606547
-0.00286237,1.137182215447412,0.9731305596393075
-0.00286134,1.148538229106836,0.9541265471215077
-0.00286031,1.152323566993311,0.9313217321001617
-0.00285928,1.159894242766259,0.9237201270930443
-0.00285825,1.163679580652734,0.904716114575254
-0.00285722,1.171250256425682,0.8857121020574639
-0.00285619,1.175035594312156,0.8705088920432316
-0.00285516,1.182606270085105,0.8515048795254413
-0.00285413,1.186391607971579,0.8363016695112089
-0.0028531,1.193962283744527,0.8172976569934189
-0.00285207,1.197747621631002,0.7982936444756287
-0.00285104,1.205318297403952,0.7830904344613893
-0.00285001,1.2128889731769,0.767887224447157
-0.00284898,1.216674311063375,0.7526840144329244
-0.00284795,1.224244986836323,0.7336800019151346
-0.00284692,1.228030324722797,0.7260783969080185
-0.00284589,1.235601000495746,0.7146759893973443
-0.00284486,1.243171676268694,0.6956719768795544
-0.00284383,1.246957014155169,0.6804687668653219
-0.0028428,1.250742352041643,0.669066359354647
-0.00284177,1.258313027814593,0.6500623468368517
-0.00284074,1.262098365701068,0.6386599393261769
-0.00283971,1.269669041474015,0.6234567293119451
-0.00283868,1.265883703587541,0.6120543218012706
-0.00283765,1.27345437936049,0.5968511117870383
-0.00283662,1.281025055133438,0.5816479017728061
-0.00283559,1.284810393019912,0.5740462967656899
-0.00283456,1.288595730906386,0.5626438892550158
-0.00283353,1.288595730906387,0.5512414817443417
-0.0028325,1.296166406679334,0.53603827173011
-0.00283147,1.303737082452285,0.5208350617158728
-0.00283044,1.307522420338759,0.5132334567087556
-0.00282941,1.311307758225234,0.4980302466945238
-0.00282838,1.318878433998182,0.4866278391838496
-0.00282735,1.326449109771131,0.4752254316731754
-0.00282632,1.330234447657605,0.4600222216589431
-0.00282529,1.334019785544079,0.441018209141153
-0.00282426,1.341590461317027,0.4334166041340359
-0.00282323,1.345375799203502,0.4258149991269197
-0.0028222,1.341590461317029,0.4182133941197997
-0.00282117,1.345375799203503,0.4068109866091243
-0.00282014,1.349161137089977,0.3878069740913357
-0.00281911,1.349161137089978,0.3840061715877771
-0.00281808,1.3605171507494,0.3726037640771031
-0.00281705,1.368087826522348,0.365002159069987
-0.00281602,1.368087826522349,0.3612013565664288
-0.00281499,1.368087826522349,0.3535997515593129
-0.00281396,1.37944384018177,0.3459981465521968
-0.00281293,1.379443840181772,0.3307949365379657
-0.0028119,1.383229178068247,0.3269941340344038
-0.00281087,1.390799853841195,0.3231933315308447
-0.00280984,1.390799853841195,0.3117909240201708
-0.00280881,1.390799853841195,0.3041893190130547
-0.00280778,1.394585191727669,0.2965877140059386
-0.00280675,1.402155867500618,0.2889861089988225
-0.00280572,1.402155867500618,0.2813845039917063
-0.00280469,1.409726543273566,0.2813845039917057
-0.00280366,1.405941205387093,0.269982096481033
-0.00280263,1.409726543273568,0.266181293977472
-0.0028016,1.417297219046516,0.262380491473914
-0.00280057,1.421082556932989,0.2585796889703555
-0.00279954,1.42108255693299,0.2509780839632396
-0.00279851,1.424867894819464,0.2471772814596816
-0.00279748,1.424867894819464,0.2433764789561235
-0.00279645,1.432438570592412,0.2319740714454495
-0.00279542,1.436223908478887,0.2281732689418909
-0.00279439,1.436223908478887,0.2243724664383329
-0.00279336,1.432438570592413,0.2205716639347748
-0.00279233,1.436223908478887,0.2205716639347727
-0.0027913,1.436223908478887,0.2129700589276571
-0.00279027,1.440009246365362,0.2091692564240994
-0.00278924,1.44757992213831,0.2091692564240994
-0.00278821,1.44757992213831,0.2091692564240994
-0.00278718,1.44757992213831,0.2053684539205413
-0.00278615,1.455150597911258,0.1977668489134253
-0.00278512,1.458935935797733,0.1939660464098669
-0.00278409,1.462721273684207,0.1977668489134241
-0.00278306,1.458935935797733,0.2053684539205404
-0.00278203,1.458935935797734,0.2015676514169823
-0.002781,1.462721273684208,0.1977668489134247
-0.00277997,1.466506611570682,0.1977668489134247
-0.00277894,1.474077287343631,0.1977668489134246
-0.00277791,1.474077287343631,0.1939660464098665
-0.00277688,1.477862625230105,0.1939660464098665
-0.00277585,1.477862625230105,0.1977668489134243
-0.00277482,1.477862625230105,0.1977668489134247
-0.00277379,1.481647963116579,0.2015676514169822
-0.00277276,1.477862625230104,0.1939660464098686
-0.00277173,1.474077287343632,0.2053684539205406
-0.0027707,1.481647963116579,0.2015676514169829
-0.00276967,1.477862625230105,0.2015676514169829
-0.00276864,1.481647963116579,0.2015676514169829
-0.00276761,1.481647963116579,0.2015676514169829
-0.00276658,1.481647963116579,0.2015676514169829
-0.00276555,1.481647963116579,0.2015676514169829
-0.00276452,1.485433301003053,0.2053684539205405
-0.00276349,1.489218638889527,0.2053684539205412
-0.00276246,1.489218638889527,0.2167708614312152
-0.00276143,1.485433301003054,0.2129700589276581
-0.0027604,1.489218638889528,0.2167708614312162
-0.00275937,1.489218638889528,0.2205716639347742
-0.00275834,1.485433301003054,0.2243724664383323
-0.00275731,1.489218638889528,0.2243724664383323
-0.00275628,1.493003976776002,0.2281732689418902
-0.00275525,1.489218638889528,0.2395756764525636
-0.00275422,1.493003976776002,0.2357748739490077
-0.00275319,1.489218638889529,0.2433764789561242
-0.00275216,1.496789314662476,0.2471772814596834
-0.00275113,1.493003976776002,0.2585796889703568
-0.0027501,1.489218638889528,0.2623804914739151
-0.00274907,1.496789314662477,0.2699820964810311
-0.00274804,1.496789314662477,0.2737828989845892
-0.00274701,1.493003976776003,0.2775837014881473
-0.00274598,1.489218638889528,0.2851853064952631
-0.00274495,1.493003976776002,0.2927869115023792
-0.00274392,1.496789314662476,0.3003885165094953
-0.00274289,1.489218638889528,0.3041893190130558
-0.00274186,1.489218638889528,0.3079901215166133
-0.00274083,1.489218638889528,0.3079901215166143
-0.0027398,1.489218638889528,0.3193925290272883
-0.00273877,1.485433301003054,0.3269941340344044
-0.00273774,1.485433301003054,0.3307949365379625
-0.00273671,1.485433301003054,0.3459981465521942
-0.00273568,1.48164796311658,0.353599751559311
-0.00273465,1.485433301003053,0.3650021590699847
-0.00273362,1.48164796311658,0.3726037640771047
-0.00273259,1.485433301003053,0.3802053690842203
-0.00273156,1.48164796311658,0.3840061715877791
-0.00273053,1.485433301003053,0.3954085790984536
-0.0027295,1.481647963116579,0.4106117891126855
-0.00272847,1.481647963116579,0.4144125916162436
-0.00272744,1.477862625230105,0.4258149991269176
-0.00272641,1.470291949457157,0.4372174066375918
-0.00272538,1.470291949457156,0.4562214191553812
-0.00272435,1.470291949457156,0.4638230241624992
-0.00272332,1.47407728734363,0.4752254316731767
-0.00272229,1.470291949457156,0.4828270366802934
-0.00272126,1.466506611570682,0.4942294441909679
-0.00272023,1.462721273684207,0.5094326542052001
-0.0027192,1.458935935797733,0.5246358642194323
-0.00271817,1.462721273684207,0.5284366667229904
-0.00271714,1.462721273684207,0.5398390742336643
-0.00271611,1.462721273684207,0.5588430867514539
-0.00271508,1.458935935797734,0.5664446917585715
-0.00271405,1.455150597911258,0.5778470992692506
-0.00271302,1.451365260024785,0.5930503092834822
-0.00271199,1.455150597911258,0.6044527167941564
-0.00271096,1.44757992213831,0.6158551243048311
-0.00270993,1.443794584251836,0.6348591368226212
-0.0027089,1.440009246365361,0.6462615443332954
-0.00270787,1.436223908478887,0.6614647543475276
-0.00270684,1.436223908478887,0.6766679643617598
-0.00270581,1.440009246365361,0.6880703718724344
-0.00270478,1.432438570592414,0.6994727793831086
-0.00270375,1.428653232705938,0.7146759893973466
-0.00270272,1.424867894819464,0.7298791994115792
-0.00270169,1.424867894819464,0.7488832119293681
-0.00270066,1.421082556932989,0.7526840144329268
-0.00269963,1.417297219046515,0.7678872244471591
-0.0026986,1.413511881160041,0.7906920394685074
-0.00269757,1.413511881160041,0.8058952494827399
-0.00269654,1.409726543273567,0.8210984594969721
-0.00269551,1.402155867500619,0.8363016695112044
-0.00269448,1.390799853841195,0.8515048795254438
-0.00269345,1.394585191727668,0.8705088920432329
-0.00269242,1.390799853841194,0.8819112995539071
-0.00269139,1.38701451595472,0.8933137070645821
-0.00269036,1.383229178068246,0.9161185220859305
-0.00268933,1.383229178068246,0.9351225346037206
-0.0026883,1.379443840181772,0.950325744617953
-0.00268727,1.375658502295298,0.9693297571357431
-0.00268624,1.371873164408824,0.9883337696535334
-0.00268521,1.371873164408823,1.003536979667766
-0.00268418,1.364302488635873,1.022540992185564
-0.00268315,1.360517150749399,1.041545004703354
-0.00268212,1.356731812862925,1.056748214717586
-0.00268109,1.349161137089977,1.06815062222826
-0.00268006,1.349161137089977,1.08715463474605
-0.00267903,1.345375799203503,1.109959449767399
-0.002678,1.337805123430554,1.128963462285189
-0.00267697,1.330234447657606,1.136565067292306
-0.00267594,1.330234447657605,1.155569079810095
-0.00267491,1.32644910977113,1.174573092327893
-0.00267388,1.322663771884655,1.189776302342124
-0.00267285,1.315093096111708,1.2011787098528
-0.00267182,1.315093096111707,1.223983524874148
-0.00267079,1.311307758225233,1.23918673488838
-0.00266976,1.307522420338759,1.25819074740617
-0.00266873,1.303737082452285,1.280995562427518
-0.0026677,1.288595730906388,1.299999574945309
-0.00266667,1.288595730906387,1.319003587463099
-0.00266564,1.28102505513344,1.341808402484447
-0.00266461,1.277239717246964,1.357011612498687
-0.00266358,1.277239717246964,1.372214822512921
-0.00266255,1.277239717246963,1.395019637534268
-0.00266152,1.269669041474015,1.414023650052059
-0.00266049,1.265883703587541,1.436828465073407
-0.00265946,1.258313027814592,1.45203167508764
-0.00265843,1.254527689928118,1.478637292612546
-0.0026574,1.250742352041644,1.490039700123221
-0.00265637,1.243171676268696,1.505242910137453
-0.00265534,1.239386338382221,1.524246922655242
-0.00265431,1.228030324722798,1.54325093517304
-0.00265328,1.23181566260927,1.558454145187273
-0.00265225,1.220459648949848,1.577458157705063
-0.00265122,1.2128889731769,1.596462170222853
-0.00265019,1.209103635290425,1.611665380237085
-0.00264916,1.201532959517477,1.626868590251318
-0.00264813,1.197747621631003,1.64207180026555
-0.0026471,1.190176945858055,1.664876615286897
-0.00264607,1.190176945858054,1.683880627804689
-0.00264504,1.178820932198628,1.69528303531537
-0.00264401,1.167464918539208,1.714287047833161
