Module3/data/exp2/exp2.2/Self-biased_negative_feedback_V_BE.csv

#Digilent WaveForms Oscilloscope Acquisition
#Device Name: Discovery2
#Serial Number: SN:210321AC1D4D
#Date Time: 2020-11-12 19:11:34.255
#Sample rate: 970874Hz
#Samples: 8192
#Trigger: Source: Channel 1 Type: Edge Condition: Rising Level: 0 V Hyst.: Auto HoldOff: 0 s
#Channel 1: Range: 1 V/div Offset: 0 V Attenuation: 1 X
#Channel 2: Range: 1 V/div Offset: 0 V Attenuation: 1 X
#Wavegen Channel 1: Running
#Mode: Simple
#Type: Sine
#Frequency: 1 kHz
#Period: 1 ms
#Amplitude: 1.5 V
#Offset: 0 V
#Symmetry: 50 %
#Phase: 0 ¡Æ
#Power Supplies: ON
#Positive Supply: ON
#Voltage: 2.5 V
#Negative Supply: ON
#Voltage: -2.5 V

Time (s),Channel 1 (V),Channel 2 (V)
-0.003051203333333333,-0.4678010484177144,0.2775837014881483
-0.003050173333333333,-0.4640157105312395,0.285185306495264
-0.003049143333333333,-0.4488743589853428,0.285185306495264
-0.003048113333333333,-0.4413036832123944,0.2889861089988221
-0.003047083333333334,-0.433733007439446,0.2889861089988222
-0.003046053333333334,-0.4223769937800237,0.2965877140059378
-0.003045023333333334,-0.414806318007075,0.2965877140059386
-0.003043993333333334,-0.4110209801206001,0.3003885165094961
-0.003042963333333333,-0.399664966461175,0.3041893190130558
-0.003041933333333333,-0.3920942906882267,0.3079901215166133
-0.003040903333333333,-0.3845236149152783,0.3079901215166136
-0.003039873333333333,-0.3769529391423299,0.3117909240201716
-0.003038843333333333,-0.3693822633693815,0.3117909240201716
-0.003037813333333333,-0.3542409118234848,0.3117909240201716
-0.003036783333333334,-0.339099560277588,0.3155917265237295
-0.003035753333333334,-0.3353142223911127,0.3193925290272875
-0.003034723333333334,-0.3239582087316912,0.3269941340344031
-0.003033693333333333,-0.3126021950722638,0.3231933315308477
-0.003032663333333333,-0.3012461814128419,0.3307949365379633
-0.003031633333333333,-0.2936755056398935,0.3345957390415217
-0.003030603333333333,-0.2861048298669449,0.3421973440486374
-0.003029573333333333,-0.2747488162075224,0.3421973440486375
-0.003028543333333333,-0.267178140434574,0.3497989490557536
-0.003027513333333333,-0.2558221267751515,0.3497989490557539
-0.003026483333333334,-0.2520367888886768,0.3497989490557539
-0.003025453333333334,-0.2444661131157289,0.3535997515593114
-0.003024423333333334,-0.2293247615698333,0.3650021590699845
-0.003023393333333333,-0.2255394236833539,0.3612013565664299
-0.003022363333333333,-0.2141834100239308,0.368802961573545
-0.003021333333333333,-0.1990420584780344,0.3688029615735453
-0.003020303333333333,-0.187686044818612,0.3726037640771034
-0.003019273333333333,-0.1801153690456636,0.3764045665806615
-0.003018243333333333,-0.168759355386241,0.3802053690842195
-0.003017213333333334,-0.1611886796132925,0.3802053690842197
-0.003016183333333334,-0.1460473280673964,0.3840061715877774
-0.003015153333333334,-0.1422619901809207,0.3878069740913355
-0.003014123333333333,-0.1346913144079691,0.3878069740913361
-0.003013093333333333,-0.1233353007485471,0.3878069740913367
-0.003012063333333333,-0.1157646249755983,0.3916077765948948
-0.003011033333333333,-0.1044086113161757,0.3954085790984528
-0.003010003333333333,-0.09305259765675328,0.399209381602011
-0.003008973333333333,-0.08926725977027909,0.4068109866091271
-0.003007943333333333,-0.0779112461108567,0.4068109866091273
-0.003006913333333334,-0.06655523245143413,0.4068109866091273
-0.003005883333333334,-0.05898455667848532,0.4144125916162426
-0.003004853333333334,-0.04762854301906334,0.4182133941198012
-0.003003823333333333,-0.03248719147316096,0.4220141966233609
-0.003002793333333333,-0.01734583992726571,0.4258149991269189
-0.003001763333333333,-0.01356050204079118,0.4296158016304766
-0.003000733333333333,-0.005989826267842465,0.4296158016304771
-0.002999703333333333,0.009151525278054285,0.4410182091411513
-0.002998673333333333,0.01293686316452847,0.4410182091411513
-0.002997643333333334,0.02429287682395072,0.4334166041340355
-0.002996613333333334,0.03186355259689943,0.4410182091411503
-0.002995583333333334,0.04321956625632151,0.4448190116447089
-0.002994553333333333,0.05836091780222169,0.4524206166518268
-0.002993523333333333,0.06214625568869706,0.4562214191553836
-0.002992493333333333,0.07350226934811921,0.4524206166518269
-0.002991463333333333,0.08107294512106733,0.460022221658943
-0.002990433333333333,0.08485828300754179,0.4676238266660588
-0.002989403333333333,0.09999963455343856,0.4638230241625008
-0.002988373333333333,0.1075703103263871,0.4676238266660587
-0.002987343333333334,0.1151409860993355,0.4790262341767324
-0.002986313333333334,0.1302823376452314,0.4828270366802913
-0.002985283333333334,0.1454236891911282,0.4790262341767343
-0.002984253333333333,0.1492090270776076,0.4828270366802925
-0.002983223333333333,0.1605650407370296,0.4866278391838506
-0.002982193333333333,0.1681357165099783,0.4904286416874083
-0.002981163333333333,0.1794917301694007,0.4904286416874083
-0.002980133333333333,0.1870624059423491,0.4904286416874084
-0.002979103333333333,0.1946330817152975,0.4980302466945245
-0.002978073333333334,0.2059890953747199,0.5018310491980826
-0.002977043333333334,0.2173451090341425,0.5056318517016408
-0.002976013333333334,0.2211304469206176,0.5056318517016413
-0.002974983333333333,0.2400571363529908,0.5132334567087576
-0.002973953333333333,0.2438424742394663,0.5132334567087589
-0.002972923333333333,0.2551984878988884,0.5208350617158746
-0.002971893333333333,0.2627691636718371,0.5246358642194325
-0.002970863333333333,0.2741251773312596,0.5284366667229906
-0.002969833333333333,0.2854811909906822,0.5284366667229906
-0.002968803333333333,0.2968372046501048,0.5284366667229906
-0.002967773333333334,0.3044078804230534,0.5360382717301062
-0.002966743333333334,0.3119785561960017,0.5436398767372224
-0.002965713333333334,0.3233345698554237,0.5398390742336661
-0.002964683333333333,0.330905245628376,0.5436398767372241
-0.002963653333333333,0.338475921401325,0.5474406792407818
-0.002962623333333333,0.3498319350607464,0.5474406792407818
-0.002961593333333333,0.3498319350607472,0.547440679240782
-0.002960563333333333,0.364973286606644,0.5512414817443401
-0.002959533333333333,0.3801146381525407,0.5588430867514562
-0.002958503333333334,0.3876853139254894,0.5626438892550143
-0.002957473333333334,0.3914706518119639,0.5626438892550146
-0.002956443333333334,0.3990413275849118,0.5664446917585721
-0.002955413333333333,0.4103973412443401,0.5702454942621311
-0.002954383333333333,0.4293240306767092,0.5702454942621318
-0.002953353333333333,0.4368947064496576,0.5740462967656897
-0.002952323333333333,0.4444653822226062,0.5778470992692482
-0.002951293333333333,0.4558213958820285,0.585448704276364
-0.002950263333333333,0.4596067337685028,0.585448704276364
-0.002949233333333333,0.4709627474279253,0.585448704276364
-0.002948203333333334,0.4785334232008738,0.5892495067799219
-0.002947173333333334,0.4861040989738222,0.5892495067799223
-0.002946143333333334,0.5012454505197178,0.5930503092834798
-0.002945113333333333,0.5050307884061972,0.5968511117870393
-0.002944083333333333,0.5163868020656193,0.6006519142905975
-0.002943053333333333,0.5239574778385676,0.6044527167941551
-0.002942023333333333,0.5315281536115161,0.6044527167941556
-0.002940993333333333,0.5390988293844645,0.6120543218012716
-0.002939963333333333,0.5542401809303613,0.6120543218012716
-0.002938933333333334,0.5580255188168357,0.6158551243048295
-0.002937903333333334,0.5693815324762578,0.6158551243048298
-0.002936873333333334,0.5807375461356803,0.6234567293119451
-0.002935843333333334,0.5845228840221558,0.6234567293119463
-0.002934813333333333,0.5958788976815815,0.6234567293119463
-0.002933783333333333,0.6072349113410027,0.6234567293119467
-0.002932753333333333,0.6072349113410036,0.6272575318155045
-0.002931723333333333,0.6185909250004262,0.6272575318155045
-0.002930693333333333,0.6299469386598487,0.6272575318155045
-0.002929663333333333,0.6413029523192714,0.6310583343190626
-0.002928633333333334,0.6488736280922198,0.6348591368226206
-0.002927603333333334,0.6564443038651683,0.634859136822621
-0.002926573333333334,0.6640149796381166,0.6462615443332935
-0.002925543333333333,0.6791563311840163,0.6462615443332949
-0.002924513333333333,0.6829416690704909,0.642460741829738
-0.002923483333333333,0.6905123448434398,0.6462615443332956
-0.002922453333333333,0.7018683585028619,0.6462615443332956
-0.002921423333333333,0.7056536963893362,0.6462615443332957
-0.002920393333333333,0.7170097100487588,0.6538631493404119
-0.002919363333333333,0.7245803858217073,0.6538631493404121
-0.002918333333333334,0.7321510615946556,0.6500623468368544
-0.002917303333333334,0.7359363994811303,0.6538631493404116
-0.002916273333333334,0.7472924131405516,0.6614647543475271
-0.002915243333333333,0.7624337646864527,0.657663951843971
-0.002914213333333333,0.7700044404594011,0.6614647543475286
-0.002913183333333333,0.7775751162323494,0.6614647543475289
-0.002912153333333333,0.785145792005298,0.6652655568510868
-0.002911123333333333,0.7965018056647206,0.6652655568510868
-0.002910093333333333,0.8002871435511947,0.6728671618582029
-0.002909063333333334,0.811643157210617,0.6690663593546453
-0.002908033333333334,0.8154284950970918,0.669066359354645
-0.002907003333333334,0.8267845087565134,0.669066359354645
-0.002905973333333333,0.8305698466429913,0.6728671618582041
-0.002904943333333333,0.8381405224159396,0.6766679643617615
-0.002903913333333333,0.8457111981888884,0.676667964361761
-0.002902883333333333,0.8570672118483107,0.6728671618582033
-0.002901853333333333,0.8646378876212593,0.6728671618582034
-0.002900823333333333,0.8759939012806819,0.6766679643617614
-0.002899793333333333,0.8759939012806821,0.6804687668653195
-0.002898763333333334,0.8873499149401038,0.6766679643617619
-0.002897733333333334,0.8949205907130526,0.6804687668653192
-0.002896703333333334,0.902491266486001,0.6842695693688772
-0.002895673333333333,0.910061942258952,0.6804687668653204
-0.002894643333333333,0.9138472801454266,0.6842695693688785
-0.002893613333333333,0.9214179559183747,0.6880703718724358
-0.002892583333333333,0.9252032938048491,0.6842695693688778
-0.002891553333333333,0.9365593074642717,0.6804687668653198
-0.002890523333333333,0.9517006590101685,0.6804687668653198
-0.002889493333333334,0.9517006590101692,0.6880703718724355
-0.002888463333333334,0.959271334783117,0.6880703718724361
-0.002887433333333334,0.9706273484425391,0.6918711743759938
-0.002886403333333333,0.978198024215492,0.6880703718724354
-0.002885373333333333,0.989554037874914,0.6842695693688785
-0.002884343333333333,0.9971247136478619,0.6880703718724366
-0.002883313333333333,1.000910051534336,0.6918711743759947
-0.002882283333333333,1.008480727307285,0.6956719768795525
-0.002881253333333333,1.019836740966708,0.6918711743759945
-0.002880223333333333,1.023622078853182,0.6918711743759944
-0.002879193333333334,1.03119275462613,0.6956719768795522
-0.002878163333333334,1.031192754626131,0.691871174375995
-0.002877133333333334,1.042548768285552,0.6918711743759944
-0.002876103333333333,1.053904781944978,0.695671976879552
-0.002875073333333333,1.061475457717925,0.6918711743759944
-0.002874043333333333,1.057690119831452,0.6918711743759948
-0.002873013333333333,1.069046133490875,0.6956719768795526
-0.002871983333333333,1.076616809263823,0.6956719768795526
-0.002870953333333333,1.080402147150297,0.6956719768795526
-0.002869923333333334,1.087972822923245,0.6918711743759948
-0.002868893333333334,1.09175816080972,0.6994727793831098
-0.002867863333333334,1.099328836582668,0.6994727793831108
-0.002866833333333333,1.103114174469145,0.6956719768795534
-0.002865803333333333,1.110684850242094,0.6994727793831108
-0.002864773333333333,1.122040863901516,0.6994727793831108
-0.002863743333333333,1.129611539674464,0.699472779383111
-0.002862713333333333,1.137182215447413,0.7032735818866691
-0.002861683333333333,1.140967553333887,0.7032735818866691
-0.002860653333333333,1.148538229106835,0.7032735818866691
-0.002859623333333334,1.156108904879784,0.7032735818866691
-0.002858593333333334,1.159894242766258,0.7032735818866691
-0.002857563333333334,1.167464918539206,0.7032735818866691
-0.002856533333333333,1.175035594312157,0.7070743843902266
-0.002855503333333333,1.178820932198631,0.7032735818866686
-0.002854473333333333,1.182606270085105,0.6994727793831108
-0.002853443333333333,1.182606270085106,0.6994727793831111
-0.002852413333333333,1.193962283744528,0.7070743843902273
-0.002851383333333333,1.201532959517477,0.6994727793831111
-0.002850353333333334,1.205318297403951,0.7032735818866688
-0.002849323333333334,1.209103635290425,0.6956719768795536
-0.002848293333333334,1.216674311063373,0.6994727793831101
-0.002847263333333333,1.224244986836325,0.7032735818866699
-0.002846233333333333,1.231815662609272,0.7070743843902266
-0.002845203333333333,1.235601000495746,0.7032735818866691
-0.002844173333333333,1.235601000495747,0.7032735818866691
-0.002843143333333333,1.250742352041644,0.7032735818866691
-0.002842113333333333,1.254527689928118,0.7032735818866691
-0.002841083333333333,1.262098365701066,0.7070743843902271
-0.002840053333333334,1.262098365701066,0.7032735818866694
-0.002839023333333334,1.26588370358754,0.7032735818866691
-0.002837993333333334,1.269669041474015,0.7070743843902266
-0.002836963333333333,1.277239717246964,0.7070743843902273
-0.002835933333333333,1.277239717246965,0.7070743843902273
-0.002834903333333333,1.284810393019913,0.7070743843902273
-0.002833873333333333,1.288595730906387,0.7070743843902273
-0.002832843333333333,1.296166406679336,0.7070743843902273
-0.002831813333333333,1.29995174456581,0.7070743843902273
-0.002830783333333334,1.303737082452284,0.7070743843902273
-0.002829753333333334,1.307522420338758,0.7108751868937851
-0.002828723333333334,1.311307758225232,0.707074384390228
-0.002827693333333334,1.315093096111707,0.7070743843902273
-0.002826663333333333,1.318878433998182,0.7108751868937856
-0.002825633333333333,1.322663771884657,0.7108751868937856
-0.002824603333333333,1.330234447657605,0.7108751868937856
-0.002823573333333333,1.334019785544079,0.7108751868937856
-0.002822543333333333,1.334019785544079,0.7108751868937856
-0.002821513333333333,1.337805123430553,0.7070743843902275
-0.002820483333333334,1.349161137089976,0.7070743843902273
-0.002819453333333334,1.349161137089977,0.7070743843902273
-0.002818423333333334,1.35294647497645,0.7108751868937849
-0.002817393333333333,1.356731812862926,0.7108751868937856
-0.002816363333333333,1.3605171507494,0.7108751868937856
-0.002815333333333333,1.364302488635875,0.710875186893786
-0.002814303333333333,1.368087826522349,0.7146759893973438
-0.002813273333333333,1.375658502295297,0.7146759893973438
-0.002812243333333333,1.379443840181771,0.7146759893973438
-0.002811213333333333,1.375658502295297,0.7108751868937859
-0.002810183333333334,1.375658502295297,0.7070743843902277
-0.002809153333333334,1.390799853841192,0.7070743843902273
-0.002808123333333334,1.394585191727668,0.7108751868937848
-0.002807093333333333,1.39458519172767,0.7070743843902273
-0.002806063333333333,1.398370529614144,0.7070743843902283
-0.002805033333333333,1.405941205387092,0.7146759893973431
-0.002804003333333333,1.402155867500618,0.7070743843902274
-0.002802973333333333,1.409726543273566,0.7108751868937856
-0.002801943333333333,1.409726543273566,0.7146759893973436
-0.002800913333333334,1.417297219046515,0.7108751868937859
-0.002799883333333334,1.421082556932989,0.7146759893973432
-0.002798853333333334,1.421082556932989,0.7146759893973438
-0.002797823333333333,1.424867894819464,0.7108751868937856
-0.002796793333333333,1.424867894819466,0.7108751868937856
-0.002795763333333333,1.436223908478887,0.7108751868937856
-0.002794733333333333,1.432438570592413,0.710875186893786
-0.002793703333333333,1.432438570592413,0.7184767919009019
-0.002792673333333333,1.440009246365361,0.7146759893973439
-0.002791643333333333,1.440009246365361,0.7108751868937858
-0.002790613333333334,1.443794584251835,0.7070743843902277
-0.002789583333333334,1.443794584251836,0.7070743843902273
-0.002788553333333334,1.447579922138309,0.7108751868937848
-0.002787523333333333,1.451365260024784,0.7108751868937849
-0.002786493333333333,1.451365260024784,0.7070743843902277
-0.002785463333333333,1.451365260024785,0.7108751868937856
-0.002784433333333333,1.462721273684207,0.7108751868937855
-0.002783403333333333,1.458935935797733,0.7070743843902273
-0.002782373333333333,1.458935935797733,0.7108751868937854
-0.002781343333333334,1.462721273684207,0.7146759893973434
-0.002780313333333334,1.466506611570681,0.7146759893973438
-0.002779283333333334,1.462721273684208,0.7146759893973438
-0.002778253333333333,1.470291949457156,0.7108751868937864
-0.002777223333333333,1.470291949457156,0.7146759893973438
-0.002776193333333333,1.470291949457157,0.7146759893973438
-0.002775163333333333,1.474077287343631,0.714675989397344
-0.002774133333333333,1.477862625230105,0.7184767919009017
-0.002773103333333333,1.477862625230105,0.7108751868937858
-0.002772073333333333,1.481647963116579,0.7070743843902275
-0.002771043333333334,1.481647963116579,0.7108751868937851
-0.002770013333333334,1.485433301003053,0.7146759893973432
-0.002768983333333334,1.48164796311658,0.7146759893973438
-0.002767953333333333,1.485433301003054,0.7108751868937863
-0.002766923333333333,1.485433301003054,0.7146759893973438
-0.002765893333333333,1.485433301003053,0.7146759893973431
-0.002764863333333333,1.48164796311658,0.7070743843902276
-0.002763833333333333,1.485433301003054,0.7146759893973438
-0.002762803333333333,1.485433301003054,0.7146759893973438
-0.002761773333333334,1.485433301003054,0.7108751868937859
-0.002760743333333334,1.489218638889527,0.7146759893973433
-0.002759713333333334,1.485433301003054,0.7108751868937863
-0.002758683333333333,1.489218638889529,0.7070743843902281
-0.002757653333333333,1.493003976776002,0.7108751868937856
-0.002756623333333333,1.489218638889528,0.7108751868937856
-0.002755593333333333,1.489218638889528,0.7108751868937858
-0.002754563333333333,1.489218638889528,0.7146759893973436
-0.002753533333333333,1.489218638889528,0.7070743843902274
-0.002752503333333333,1.493003976776002,0.7070743843902273
-0.002751473333333334,1.485433301003054,0.7108751868937851
-0.002750443333333334,1.485433301003054,0.7184767919009009
-0.002749413333333334,1.485433301003054,0.710875186893787
-0.002748383333333333,1.485433301003054,0.707074384390228
-0.002747353333333333,1.489218638889528,0.7108751868937861
-0.002746323333333333,1.489218638889528,0.7146759893973434
-0.002745293333333333,1.489218638889528,0.7108751868937856
-0.002744263333333333,1.493003976776002,0.7108751868937856
-0.002743233333333333,1.485433301003054,0.7108751868937856
-0.002742203333333334,1.489218638889528,0.7108751868937856
-0.002741173333333334,1.493003976776002,0.7146759893973433
-0.002740143333333334,1.489218638889529,0.7108751868937863
-0.002739113333333333,1.489218638889528,0.7108751868937848
-0.002738083333333333,1.489218638889527,0.7070743843902273
-0.002737053333333333,1.485433301003054,0.7070743843902277
-0.002736023333333333,1.485433301003054,0.7108751868937856
-0.002734993333333333,1.489218638889528,0.7108751868937856
-0.002733963333333333,1.481647963116579,0.7108751868937856
-0.002732933333333333,1.481647963116579,0.7108751868937856
-0.002731903333333334,1.477862625230105,0.7108751868937856
-0.002730873333333334,1.477862625230105,0.7108751868937856
-0.002729843333333334,1.477862625230105,0.7108751868937856
-0.002728813333333333,1.481647963116579,0.7108751868937856
-0.002727783333333333,1.481647963116578,0.710875186893785
-0.002726753333333333,1.474077287343631,0.7070743843902276
-0.002725723333333333,1.47407728734363,0.7108751868937854
-0.002724693333333333,1.470291949457156,0.7070743843902273
-0.002723663333333333,1.462721273684208,0.7032735818866692
-0.002722633333333334,1.462721273684207,0.710875186893785
-0.002721603333333334,1.462721273684207,0.7070743843902277
-0.002720573333333334,1.466506611570681,0.7070743843902273
-0.002719543333333333,1.462721273684206,0.7070743843902273
-0.002718513333333333,1.455150597911259,0.7070743843902266
