Module2/opampdata/Module2.500Hz.csv

#Digilent WaveForms Oscilloscope Acquisition
#Device Name: Discovery2
#Serial Number: SN:210321AC1D4D
#Date Time: 2020-10-28 18:31:58.481
#Sample rate: 400000Hz
#Samples: 8192
#Trigger: Source: Channel 1 Type: Edge Condition: Rising Level: 0 V Hyst.: Auto HoldOff: 0 s
#Channel 1: Range: 100 mV/div Offset: 0 V Attenuation: 1 X
#Channel 2: Range: 500 mV/div Offset: 0 V Attenuation: 1 X
#Wavegen Channel 1: Running
#Mode: Simple
#Type: Triangle
#Frequency: 500 Hz
#Period: 2 ms
#Amplitude: 1 V
#Offset: 0 V
#Symmetry: 50 %
#Phase: 0 ¡Æ
#Wavegen Channel 2: Running
#Mode: Simple
#Type: DC
#Offset: 3 V
#Power Supplies: ON
#Positive Supply: ON
#Voltage: 4 V
#Negative Supply: ON
#Voltage: -4 V

Time (s),Channel 1 (V),Channel 2 (V)
-0.007410833333333334,0.2212306117427525,0.1671065195006612
-0.007408333333333333,0.2198551998489359,0.1719445599037475
-0.007405833333333332,0.2195113468754815,0.1778193232503541
-0.007403333333333333,0.2188236409285735,0.1816206407099202
-0.007400833333333332,0.2181359349816652,0.187495404056525
-0.007398333333333333,0.2174482290347569,0.1923334444596113
-0.007395833333333332,0.2174482290347569,0.19786263349171
-0.007393333333333333,0.2171043760613029,0.2023550995802881
-0.007390833333333333,0.2174482290347569,0.2068475656688702
-0.007388333333333332,0.2167605230878479,0.2116856060719589
-0.007385833333333333,0.2150412582205779,0.2168692207895491
-0.007383333333333332,0.2146974052471235,0.2223984098216499
-0.007380833333333333,0.2140096993002155,0.227236450224734
-0.007378333333333332,0.2140096993002155,0.2310377676843018
-0.007375833333333333,0.2126342874063989,0.2372581053454128
-0.007373333333333332,0.2119465814594906,0.2420961457484991
-0.007370833333333333,0.2116027284860366,0.2465886118370773
-0.007368333333333333,0.2109150225391282,0.2517722265546718
-0.007365833333333332,0.211258875512582,0.2576469899012788
-0.007363333333333333,0.210571169565674,0.2624850303043629
-0.007360833333333332,0.2102273165922194,0.2666319220784396
-0.007358333333333333,0.2091957576718575,0.2725066854250417
-0.007355833333333332,0.2091957576718575,0.2783814487716465
-0.007353333333333333,0.2078203457780415,0.2828739148602246
-0.007350833333333332,0.2067887868576785,0.287711955263313
-0.007348333333333333,0.2054133749638625,0.2928955699809032
-0.007345833333333333,0.2050695219904078,0.2970424617549794
-0.007343333333333332,0.2030064041496831,0.3022260764725744
-0.007340833333333333,0.203350257123137,0.3077552655046706
-0.007338333333333332,0.203350257123137,0.3119021572787446
-0.007335833333333333,0.2023186982027746,0.3174313463108432
-0.007333333333333332,0.2019748452293205,0.3229605353429419
-0.007330833333333333,0.2002555803620505,0.32745300143152
-0.007328333333333333,0.1995678744151415,0.3329821904636207
-0.007325833333333334,0.1985363154947795,0.3381658051812108
-0.007323333333333333,0.198536315494779,0.3430038455842995
-0.007320833333333332,0.1975047565744163,0.3474963116728821
-0.007318333333333333,0.1968170506275083,0.3530255007049783
-0.007315833333333332,0.1961293446806,0.3575179667935584
-0.007313333333333333,0.1944100798133293,0.3623560071966447
-0.007310833333333332,0.1940662268398752,0.3675396219142372
-0.007308333333333333,0.1926908149460592,0.3730688109463334
-0.007305833333333333,0.1909715500787879,0.377561277034916
-0.007303333333333332,0.190283844131879,0.383090466067017
-0.007300833333333333,0.188908432238063,0.3882740807846072
-0.007298333333333332,0.1878768733177001,0.3924209725586838
-0.007295833333333333,0.1868453143973382,0.3982957359052859
-0.007293333333333332,0.1868453143973382,0.4034793506228784
-0.007290833333333333,0.1858137554769757,0.4076262423969524
-0.007288333333333332,0.1851260495300674,0.4128098571145449
-0.007285833333333333,0.1840944906097055,0.417647897517629
-0.007283333333333333,0.1830629316893426,0.4228315122352237
-0.007280833333333332,0.1827190787158872,0.4280151269528185
-0.007278333333333333,0.1799682549282553,0.4331987416704087
-0.007275833333333332,0.1796244019548002,0.4383823563880032
-0.007273333333333333,0.1775612841140763,0.4428748224765813
-0.007270833333333332,0.1761858722202597,0.44840401150868
-0.007268333333333333,0.1751543132998978,0.4532420519117641
-0.007265833333333332,0.1737789014060807,0.4580800923148526
-0.007263333333333333,0.1730911954591728,0.4625725584034307
-0.007260833333333333,0.1724034895122642,0.4677561731210252
-0.007258333333333332,0.1724034895122634,0.4725942135241139
-0.007255833333333333,0.1706842246449934,0.4777778282417041
-0.007253333333333332,0.169652665724631,0.4836525915883089
-0.007250833333333333,0.1686211068042686,0.4884906319913952
-0.007248333333333332,0.167245694910452,0.4929830980799753
-0.007245833333333333,0.1658702830166361,0.4985122871120715
-0.007243333333333333,0.1641510181493647,0.502659178886148
-0.007240833333333333,0.1634633122024567,0.5081883679182441
-0.007238333333333333,0.1620879003086399,0.5137175569503453
-0.007235833333333332,0.1607124884148224,0.5178644487244215
-0.007233333333333333,0.1586493705740984,0.5227024891275056
-0.007230833333333332,0.1565862527333736,0.5282316781596043
-0.007228333333333333,0.1555546938130112,0.5330697185626905
-0.007225833333333332,0.1541792819191946,0.538253333280283
-0.007223333333333333,0.1534915759722866,0.5434369479978731
-0.007220833333333333,0.1524600170519239,0.5489661370299741
-0.007218333333333332,0.1528038700253775,0.5541497517475686
-0.007215833333333333,0.1517723111050156,0.5586422178361468
-0.007213333333333332,0.1510846051581066,0.5638258325537412
-0.007210833333333333,0.1497091932642907,0.5679727243278132
-0.007208333333333332,0.1476460754235659,0.5738474876744181
-0.007205833333333333,0.1459268105562951,0.5790311023920105
-0.007203333333333332,0.143175986768662,0.5835235684805907
-0.007200833333333333,0.1407690159544841,0.5887071831981808
-0.007198333333333333,0.1390497510872123,0.5938907979157757
-0.007195833333333332,0.1373304862199414,0.5980376896898522
-0.007193333333333333,0.1369866332464874,0.6035668787219483
-0.007190833333333332,0.1356112213526705,0.608750493439543
-0.007188333333333333,0.1349235154057626,0.6135885338426271
-0.007185833333333332,0.1338919564854001,0.6187721485602196
-0.007183333333333333,0.1342358094588543,0.6236101889633059
-0.007180833333333332,0.1318288386446753,0.628102655051886
-0.007178333333333333,0.1301095737774053,0.6325951211404642
-0.007175833333333333,0.1280464559366797,0.6377787358580587
-0.007173333333333332,0.1249517791755918,0.6436534992046655
-0.007170833333333333,0.1235763672817758,0.6481459652932436
-0.007168333333333332,0.121513249441051,0.6540207286398485
-0.007165833333333333,0.1201378375472344,0.6588587690429348
-0.007163333333333332,0.1187624256534178,0.6630056608170087
-0.007160833333333333,0.1170431607861479,0.6685348498491048
-0.007158333333333333,0.1163554548392388,0.6747551875102183
-0.007155833333333333,0.1156677488923309,0.6789020792842905
-0.007153333333333333,0.1153238959188764,0.6837401196873787
-0.007150833333333332,0.1136046310516046,0.6882325857759614
-0.007148333333333333,0.1111976602374267,0.6937617748080575
-0.007145833333333332,0.1098222483436101,0.6985998152111438
-0.007143333333333333,0.1077591305028853,0.7041290042432424
-0.007140833333333332,0.1056960126621604,0.7086214703318227
-0.007138333333333333,0.1026013359010745,0.7134595107349068
-0.007135833333333333,0.1001943650868941,0.7189886997670076
-0.007133333333333332,0.09778739427271464,0.7238267401700956
-0.007130833333333333,0.09675583535235267,0.7276280576296618
-0.007128333333333332,0.09538042345853563,0.7335028209762691
-0.007125833333333333,0.09434886453817368,0.7390320100083652
-0.007123333333333332,0.09366115859126539,0.7431789017824392
-0.007120833333333333,0.09297345264435711,0.7487080908145378
-0.007118333333333332,0.09022262885672395,0.7535461312176241
-0.007115833333333333,0.08884721696290801,0.7583841716207083
-0.007113333333333333,0.08678409912218253,0.7635677863383029
-0.007110833333333332,0.08575254020181854,0.7687514010558972
-0.007108333333333333,0.08231401046727867,0.7725527185154633
-0.007105833333333332,0.08025089262655256,0.7780819075475646
-0.007103333333333333,0.07750006883892066,0.7839566708941668
-0.007100833333333332,0.07578080397164995,0.7891402856117592
-0.007098333333333333,0.07406153910437924,0.7936327517003393
-0.007095833333333332,0.07234227423710853,0.7988163664179319
-0.007093333333333333,0.07131071531674656,0.8043455554500279
-0.007090833333333333,0.06924759747602123,0.8084924472241045
-0.007088333333333332,0.06752833260874989,0.8129849133126872
-0.007085833333333333,0.06615292071493395,0.8185141023447833
-0.007083333333333332,0.06408980287420908,0.8230065684333634
-0.007080833333333333,0.06202668503348423,0.8281901831509559
-0.007078333333333332,0.05927586124585109,0.8344105208120669
-0.007075833333333333,0.05790044935203513,0.838902986900645
-0.007073333333333333,0.05446191961749308,0.8444321759327457
-0.007070833333333333,0.05308650772367714,0.8492702163358298
-0.007068333333333333,0.05102338988295164,0.853417108109906
-0.007065833333333332,0.04964797798913383,0.8586007228275008
-0.007063333333333333,0.04689715420150194,0.863784337545091
-0.007060833333333332,0.04517788933423121,0.8686223779481773
-0.007058333333333333,0.04380247744041464,0.8738059926657697
-0.007055833333333332,0.04173935959968979,0.8793351816978684
-0.007053333333333333,0.04002009473241986,0.8834820734719405
-0.007050833333333333,0.03726927094478592,0.8886656881895348
-0.007048333333333334,0.03451844715715403,0.893503728592619
-0.007045833333333333,0.03279918228988206,0.8986873433102137
-0.007043333333333332,0.03107991742261057,0.9035253837133025
-0.007040833333333333,0.02936065255534064,0.9090545727453987
-0.007038333333333332,0.02626597579425335,0.9142381874629911
-0.007035833333333333,0.02385900498007434,0.9183850792370651
-0.007033333333333332,0.02179588713934949,0.9246054168981761
-0.007030833333333333,0.02042047524553354,0.9294434573012602
-0.007028333333333333,0.01801350443135391,0.9332447747608302
-0.007025833333333332,0.01595038659062812,0.9387739637929312
-0.007023333333333333,0.0138872687499042,0.9439575785105213
-0.007020833333333332,0.0118241509091784,0.94879561891361
-0.007018333333333333,0.009761033068454479,0.9539792336312002
-0.007015833333333332,0.007354062254275476,0.9588172740342865
-0.007013333333333333,0.004603238466642331,0.9636553144373728
-0.007010833333333332,0.002883973599371616,0.9684933548404591
-0.007008333333333333,0.0001331498117397223,0.9747136925015674
-0.007005833333333333,-0.00330537992280296,0.9785150099611379
-0.007003333333333332,-0.006056203710436574,0.9836986246787327
-0.007000833333333333,-0.007087762630798534,0.9888822393963229
-0.006998333333333332,-0.009150880471524486,0.9937202797994112
-0.006995833333333333,-0.01155785128570239,0.9982127458879894
-0.006993333333333332,-0.0139648220998814,1.001668489033051
-0.006990833333333333,-0.01705949886096728,0.9964848743154608
-0.006988333333333333,-0.0187787637282394,0.9913012595978661
-0.006985833333333333,-0.02152958751587129,0.9861176448802759
-0.006983333333333333,-0.02393655833005155,0.9812796044771872
-0.006980833333333332,-0.02634352914423149,0.9767871383886049
-0.006978333333333333,-0.02840664698495541,0.9719490979855208
-0.006975833333333332,-0.03081361779913441,0.9657287603244098
-0.006973333333333333,-0.03390829456022169,0.9615818685503358
-0.006970833333333332,-0.03597141240094655,0.9563982538327434
-0.006968333333333333,-0.03803453024167048,0.9508690648006473
-0.006965833333333333,-0.04078535402930455,0.9460310243975584
-0.006963333333333334,-0.04284847187002849,0.9405018353654623
-0.006960833333333333,-0.04491158971075428,0.9356637949623734
-0.006958333333333332,-0.04663085457802561,0.9311713288737911
-0.006955833333333333,-0.04800626647184156,0.926333288470707
-0.006953333333333332,-0.05041323728602057,0.9208040994386083
-0.006950833333333333,-0.05316406107365371,0.915966059035522
-0.006948333333333332,-0.05522717891437857,0.9111280186324356
-0.006945833333333333,-0.05729029675510249,0.9059444039148454
-0.006943333333333333,-0.05935341459582828,0.901451937826263
-0.006940833333333332,-0.06141653243655423,0.895922748794162
-0.006938333333333333,-0.06382350325073215,0.8907391340765719
-0.006935833333333332,-0.06588662109145778,0.8859010936734837
-0.006933333333333333,-0.06760588595872773,0.8817542018994116
-0.006930833333333332,-0.0689812978525443,0.8762250128673129
-0.006928333333333333,-0.07104441569326915,0.8706958238352143
-0.006925833333333332,-0.07345138650744816,0.8665489320611403
-0.006923333333333333,-0.07448294542781012,0.8610197430290442
-0.006920833333333333,-0.07688991624198958,0.8558361283114492
-0.006918333333333332,-0.07860918110926139,0.8513436622228666
-0.006915833333333333,-0.08101615192343931,0.8461600475052765
-0.006913333333333332,-0.08273541679071079,0.8409764327876815
-0.006910833333333333,-0.08445468165798073,0.8354472437555853
-0.006908333333333332,-0.08686165247215974,0.8309547776670052
-0.006905833333333333,-0.08995632923324562,0.8257711629494151
-0.006903333333333333,-0.09167559410051775,0.8212786968608325
-0.006900833333333333,-0.09373871194124166,0.8167862307722544
-0.006898333333333333,-0.09511412383505917,0.8102203187966353
-0.006895833333333332,-0.09717724167578465,0.805382278393547
-0.006893333333333333,-0.09855265356960061,0.801235386619475
-0.006890833333333332,-0.09924035951650889,0.7960517719018825
-0.006888333333333333,-0.1009596243837796,0.7901770085552777
-0.006885833333333332,-0.1026788892510503,0.786721265410216
-0.006883333333333333,-0.1057735660121362,0.7808465020636138
-0.006880833333333333,-0.1071489779059542,0.7753173130315125
-0.006878333333333334,-0.1092120957466781,0.7715159955719465
-0.006875833333333333,-0.1105875076404956,0.7659868065398461
-0.006873333333333332,-0.1119629195343136,0.7604576175077457
-0.006870833333333333,-0.1150575962953995,0.7566563000481796
-0.006868333333333332,-0.1157453022423078,0.751127111016081
-0.006865833333333333,-0.1181522730564868,0.7462890706129947
-0.006863333333333332,-0.1195276849503033,0.7411054558954022
-0.006860833333333333,-0.1209030968441193,0.7362674154923181
-0.006858333333333333,-0.1219346557644823,0.7310838007747233
-0.006855833333333332,-0.123653920631754,0.7259001860571289
-0.006853333333333333,-0.1257170384724779,0.7214077199685508
-0.006850833333333332,-0.1274363033397499,0.7169152538799682
-0.006848333333333333,-0.1301871271273818,0.7117316391623781
-0.006845833333333332,-0.1319063919946525,0.7065480244447856
-0.006843333333333333,-0.1329379509150149,0.7010188354126869
-0.006840833333333332,-0.1339695098353773,0.6954896463805883
-0.006838333333333333,-0.1339695098353773,0.6913427546065163
-0.006835833333333333,-0.1353449217291939,0.6861591398889219
-0.006833333333333332,-0.1363764806495576,0.6806299508568214
-0.006830833333333333,-0.1391273044371895,0.6768286333972554
-0.006828333333333332,-0.1415342752513696,0.6709538700506483
-0.006825833333333333,-0.1439412460655475,0.6661158296475642
-0.006823333333333332,-0.1463482168797265,0.6612777892444779
-0.006820833333333333,-0.1470359228266345,0.6564397488413939
-0.006818333333333332,-0.1484113347204513,0.6512561341237991
-0.006815833333333333,-0.1494428936408133,0.646072519406209
-0.006813333333333333,-0.1501305995877221,0.6422712019466389
-0.006810833333333332,-0.1511621585080848,0.6357052899710197
-0.006808333333333333,-0.1518498644549928,0.6312128238824415
-0.006805833333333332,-0.1535691293222635,0.6267203577938614
-0.006803333333333333,-0.1552883941895342,0.6208455944472566
-0.006800833333333332,-0.1580392179771674,0.6156619797296641
-0.006798333333333333,-0.1601023358178913,0.611515087955592
-0.006795833333333333,-0.1621654536586171,0.6063314732379976
-0.006793333333333334,-0.164228571499341,0.6008022842059015
-0.006790833333333333,-0.1642285714993419,0.5959642438028127
-0.006788333333333332,-0.1649162774462502,0.5907806290852179
-0.006785833333333333,-0.1649162774462502,0.5855970143676277
-0.006783333333333332,-0.1659478363666126,0.5817956969080599
-0.006780833333333333,-0.1673232482604292,0.5762665078759612
-0.006778333333333332,-0.1693863661011541,0.5710828931583687
-0.006775833333333333,-0.171105630968424,0.5655537041262726
-0.006773333333333333,-0.1717933369153331,0.5603700894086776
-0.006770833333333332,-0.1735126017826041,0.5555320490055893
-0.006768333333333333,-0.1742003077295121,0.5510395829170112
-0.006765833333333332,-0.1755757196233293,0.5458559681994164
-0.006763333333333333,-0.1769511315171452,0.5410179277963323
-0.006760833333333332,-0.1779826904375077,0.5358343130787399
-0.006758333333333333,-0.1800458082782325,0.5313418469901597
-0.006755833333333332,-0.1810773671985949,0.5258126579580611
-0.006753333333333333,-0.1827966320658649,0.5206290432404709
-0.006750833333333333,-0.1831404850393198,0.5157910028373822
-0.006748333333333332,-0.1838281909862286,0.510261813805281
-0.006745833333333333,-0.1848597499065905,0.5047326247731849
-0.006743333333333332,-0.1858913088269534,0.5009313073136145
-0.006740833333333333,-0.1869228677473154,0.4950565439670123
-0.006738333333333332,-0.1882982796411319,0.490218503563926
-0.006735833333333333,-0.1900175445084019,0.4860716117898539
-0.006733333333333332,-0.1907052504553109,0.4812335713867657
-0.006730833333333333,-0.1920806623491269,0.4753588080401636
-0.006728333333333333,-0.1934560742429441,0.4701751933225684
-0.006725833333333332,-0.1941437801898531,0.4656827272339854
-0.006723333333333333,-0.1958630450571231,0.4594623895728773
-0.006720833333333332,-0.1962068980305773,0.4560066464278156
-0.006718333333333333,-0.1975823099243938,0.450477457395717
-0.006715833333333332,-0.1975823099243938,0.4456394169926307
-0.006713333333333333,-0.1986138688447558,0.4401102279605345
-0.006710833333333333,-0.1993015747916645,0.4356177618719518
-0.006708333333333334,-0.1999892807385725,0.4304341471543617
-0.006705833333333333,-0.2010208396589352,0.4249049581222607
-0.006703333333333332,-0.2010208396589362,0.4207580663481844
-0.006700833333333333,-0.2030839574996601,0.4155744516305943
-0.006698333333333332,-0.205147075340385,0.4103908369130018
-0.006695833333333333,-0.2061786342607474,0.4052072221954093
-0.006693333333333332,-0.2072101931811098,0.4000236074778168
-0.006690833333333333,-0.2075540461545638,0.3951855670747327
-0.006688333333333333,-0.2082417521014722,0.3903475266716441
-0.006685833333333332,-0.2089294580483807,0.3848183376395432
-0.006683333333333333,-0.2092733110218347,0.379634722921953
-0.006680833333333332,-0.2099610169687431,0.3754878311478768
-0.006678333333333333,-0.2103048699421971,0.3706497907447927
-0.006675833333333332,-0.2116802818360137,0.3654661760272002
-0.006673333333333333,-0.212367987782922,0.3602825613096077
-0.006670833333333332,-0.2133995467032844,0.3561356695355338
-0.006668333333333333,-0.2137433996767384,0.3506064805034376
-0.006665833333333333,-0.2144311056236468,0.3454228657858426
-0.006663333333333332,-0.2151188115705553,0.340584825382754
-0.006660833333333333,-0.2154626645440093,0.3354012106651638
-0.006658333333333332,-0.2164942234643719,0.329872021633063
-0.006655833333333333,-0.2168380764378258,0.3250339812299788
-0.006653333333333332,-0.2185573413050965,0.3198503665123864
-0.006650833333333333,-0.2189011942785505,0.3153579004238083
-0.006648333333333332,-0.2192450472520048,0.3105198600207199
-0.006645833333333333,-0.2206204591458208,0.3053362453031297
-0.006643333333333333,-0.2206204591458214,0.2994614819565226
-0.006640833333333332,-0.222339724013092,0.2949690158679404
-0.006638333333333333,-0.221995871039638,0.2904765497793623
-0.006635833333333332,-0.2233712829334545,0.2852929350617698
-0.006633333333333333,-0.2237151359069087,0.2797637460296712
-0.006630833333333332,-0.2247466948272711,0.2756168542555972
-0.006628333333333333,-0.2257782537476331,0.269742090908995
-0.006625833333333333,-0.2257782537476336,0.2652496248204123
-0.006623333333333334,-0.2261221067210875,0.2607571587318341
-0.006620833333333333,-0.2254344007741794,0.2545368210707211
