Module2/opampdata/Module2square_2kHz_capa양단.csv

#Digilent WaveForms Oscilloscope Acquisition
#Device Name: Discovery2
#Serial Number: SN:210321AC1D4D
#Date Time: 2020-10-28 18:40:54.672
#Sample rate: 1.5873e+06Hz
#Samples: 8192
#Trigger: Source: Channel 1 Type: Edge Condition: Rising Level: 0 V Hyst.: Auto HoldOff: 0 s
#Channel 1: Range: 100 mV/div Offset: 0 V Attenuation: 1 X
#Channel 2: Range: 500 mV/div Offset: 0 V Attenuation: 1 X
#Wavegen Channel 1: Running
#Mode: Simple
#Type: Square
#Frequency: 2 kHz
#Period: 500 us
#Amplitude: 1 V
#Offset: 0 V
#Symmetry: 50 %
#Phase: 0 ¡Æ
#Wavegen Channel 2: Running
#Mode: Simple
#Type: DC
#Offset: 3 V
#Power Supplies: ON
#Positive Supply: ON
#Voltage: 4 V
#Negative Supply: ON
#Voltage: -4 V

Time (s),Channel 1 (V),Channel 2 (V)
0.0060102,0.009073327121546819,-1.064865911713819
0.00601083,0.009761033068454791,-1.064520337399313
0.00601146,0.01044873901536277,-1.064865911713819
0.006012089999999999,0.01182415090917871,-1.065211486028325
0.006012719999999999,0.01182415090917934,-1.064520337399314
0.00601335,0.01285570982954177,-1.064520337399313
0.006013979999999999,0.01319956280299575,-1.064865911713819
0.00601461,0.01423112172335834,-1.064520337399313
0.00601524,0.01423112172335834,-1.064865911713819
0.00601587,0.01423112172335834,-1.064174763084807
0.006016499999999999,0.01526268064371983,-1.063829188770301
0.00601713,0.01629423956408335,-1.063483614455795
0.00601776,0.01663809253753734,-1.064520337399313
0.00601839,0.01801350443135391,-1.064520337399313
0.00601902,0.01801350443135423,-1.064174763084806
0.00601965,0.0187012103782622,-1.0638291887703
0.006020279999999999,0.01904506335171618,-1.064174763084806
0.006020909999999999,0.019732769298624,-1.064174763084807
0.00602154,0.02042047524553291,-1.064174763084807
0.00602217,0.02110818119244183,-1.064865911713819
0.0060228,0.0217958871393498,-1.064865911713819
0.00602343,0.02248359308625777,-1.065211486028325
0.006024059999999999,0.02317129903316575,-1.064520337399313
0.006024689999999999,0.02385900498007372,-1.063829188770301
0.00602532,0.02454671092698263,-1.0638291887703
0.00602595,0.0252344168738906,-1.064174763084806
0.00602658,0.02557826984734537,-1.064520337399313
0.00602721,0.0262659757942535,-1.064174763084807
0.00602784,0.02660982876770749,-1.064174763084807
0.006028469999999999,0.02729753471461547,-1.064174763084807
0.0060291,0.02832909363497852,-1.064520337399313
0.00602973,0.02901679958188649,-1.065211486028325
0.00603036,0.0297045055287954,-1.064520337399313
0.00603099,0.03039221147570337,-1.064865911713819
0.00603162,0.03107991742261135,-1.064865911713819
0.006032249999999999,0.03176762336951932,-1.065211486028325
0.006032879999999999,0.03176762336951963,-1.064865911713819
0.00603351,0.03245532931642792,-1.065211486028325
0.00603414,0.03279918228988237,-1.064865911713819
0.00603477,0.03314303526333653,-1.064520337399313
0.0060354,0.0338307412102445,-1.064174763084807
0.00603603,0.03486230013060646,-1.064520337399313
0.006036659999999999,0.03520615310406076,-1.063829188770301
0.00603729,0.03589385905096935,-1.0638291887703
0.00603792,0.03658156499787764,-1.064520337399313
0.00603855,0.03761312391824069,-1.064520337399313
0.00603918,0.03830082986514866,-1.064520337399313
0.00603981,0.03898853581205663,-1.064865911713819
0.006040439999999999,0.03967624175896462,-1.064520337399313
0.006041069999999999,0.04036394770587259,-1.064174763084807
0.0060417,0.04070780067932736,-1.063483614455794
0.00604233,0.04105165365278244,-1.063829188770301
0.00604296,0.04208321257314424,-1.064174763084807
0.00604359,0.04277091852005221,-1.064520337399313
0.006044219999999999,0.0431147714935062,-1.065211486028325
0.006044849999999999,0.04380247744041402,-1.065211486028325
0.00604548,0.04414633041386878,-1.064174763084807
0.00604611,0.04449018338732277,-1.064520337399313
0.00604674,0.04517788933423152,-1.063829188770301
0.00604737,0.04586559528113951,-1.064865911713819
0.006048,0.04689715420150146,-1.064865911713819
0.006048629999999999,0.04724100717495592,-1.064520337399313
0.00604926,0.04827256609531867,-1.064865911713819
0.00604989,0.04861641906877265,-1.064174763084807
0.00605052,0.04930412501568156,-1.064865911713818
0.00605115,0.04999183096258938,-1.064174763084807
0.00605178,0.05033568393604336,-1.064865911713819
0.006052409999999999,0.05102338988295133,-1.064520337399313
0.006053039999999999,0.05171109582985932,-1.064865911713819
0.00605367,0.05239880177676823,-1.064865911713819
0.0060543,0.05274265475022299,-1.064520337399313
0.00605493,0.05343036069713097,-1.064520337399313
0.00605556,0.05411806664403894,-1.064865911713819
0.006056189999999999,0.05480577259094691,-1.064520337399313
0.006056819999999999,0.05549347853785488,-1.065211486028324
0.00605745,0.05583733151130965,-1.065211486028325
0.00605808,0.05652503745821762,-1.064865911713819
0.00605871,0.05755659637858068,-1.064865911713819
0.00605934,0.05824430232548913,-1.064520337399313
0.00605997,0.05927586124585109,-1.064520337399313
0.006060599999999999,0.05961971421930507,-1.064174763084807
0.00606123,0.05961971421930539,-1.064865911713819
0.00606186,0.05996356719275937,-1.064865911713819
0.00606249,0.06099512611312274,-1.064865911713818
0.00606312,0.06202668503348439,-1.064174763084807
0.00606375,0.06237053800693837,-1.064865911713819
0.006064379999999999,0.06305824395384634,-1.064865911713819
0.006065009999999999,0.06374594990075431,-1.064865911713819
0.00606564,0.06408980287420908,-1.064174763084807
0.00606627,0.06477750882111769,-1.0638291887703
0.0060669,0.06512136179457166,-1.063829188770301
0.00606753,0.06546521476802565,-1.064174763084807
0.00606816,0.06615292071493363,-1.064174763084807
0.006068789999999999,0.06752833260874927,-1.064865911713818
0.00606942,0.0682160385556588,-1.065211486028325
0.00607005,0.06855989152911295,-1.065557060342831
0.00607068,0.06924759747602185,-1.065211486028324
0.00607131,0.06993530342292999,-1.064520337399313
0.00607194,0.07096686234329194,-1.064865911713819
0.006072569999999999,0.07131071531674593,-1.064865911713819
0.006073199999999999,0.07199842126365374,-1.065211486028325
0.00607383,0.07268612721056267,-1.064865911713819
0.00607446,0.07337383315747158,-1.064520337399313
0.00607509,0.07406153910437956,-1.064520337399313
0.00607572,0.07474924505128752,-1.064865911713819
0.006076349999999999,0.07509309802474151,-1.064520337399313
0.006076979999999999,0.07578080397164932,-1.064865911713819
0.00607761,0.07612465694510409,-1.064520337399313
0.00607824,0.07646850991855808,-1.064520337399313
0.00607887,0.07750006883892081,-1.064865911713819
0.0060795,0.0778439218123748,-1.065211486028325
0.00608013,0.07853162775928278,-1.065557060342831
0.006080759999999999,0.07921933370619107,-1.064865911713819
0.00608139,0.07990703965309982,-1.064174763084807
0.00608202,0.08025089262655381,-1.064520337399313
0.00608265,0.08128245154691656,-1.065557060342831
0.00608328,0.08162630452037054,-1.065557060342831
0.00608391,0.08197015749382452,-1.064520337399313
0.006084539999999999,0.08265786344073249,-1.063829188770301
0.006085169999999999,0.08368942236109429,-1.064174763084806
0.0060858,0.08437712830800352,-1.064174763084807
0.00608643,0.0847209812814583,-1.064520337399313
0.00608706,0.08540868722836628,-1.064865911713819
0.00608769,0.08609639317527425,-1.064865911713819
0.006088319999999999,0.08644024614872824,-1.064174763084807
0.006088949999999999,0.08747180506908987,-1.064520337399313
0.00608958,0.0881595110159991,-1.064174763084807
0.00609021,0.08850336398945309,-1.064174763084807
0.00609084,0.08919106993636185,-1.064520337399313
0.00609147,0.08987877588327028,-1.064174763084806
0.0060921,0.09091033480363224,-1.0638291887703
0.006092729999999999,0.09091033480363224,-1.064174763084806
0.00609336,0.09159804075054086,-1.064520337399313
0.00609399,0.09228574669744882,-1.064865911713819
0.00609462,0.09297345264435743,-1.065211486028325
0.00609525,0.09331730561781157,-1.064865911713819
0.00609588,0.09400501156471953,-1.064865911713819
0.006096509999999999,0.0946927175116275,-1.064865911713819
0.006097139999999999,0.09538042345853548,-1.064520337399313
0.00609777,0.09606812940544439,-1.064174763084807
0.0060984,0.09641198237889916,-1.064174763084806
0.00609903,0.09709968832580697,-1.063483614455794
0.00609966,0.09744354129926097,-1.0638291887703
0.00610029,0.09881895319307692,-1.064520337399313
0.006100919999999999,0.0995066591399852,-1.064520337399313
0.00610155,0.09950665913998583,-1.064174763084807
0.00610218,0.1001943650868941,-1.064174763084807
0.00610281,0.1008820710338033,-1.063829188770301
0.00610344,0.101913629954165,-1.064174763084807
0.00610407,0.102257482927619,-1.064520337399313
0.006104699999999999,0.102601335901073,-1.064520337399313
0.006105329999999999,0.1036328948214346,-1.064520337399313
0.00610596,0.1043206007683438,-1.064174763084807
0.00610659,0.1046644537417986,-1.0638291887703
0.00610722,0.1053521596887066,-1.063138040141288
0.00610785,0.1060398656356145,-1.063138040141288
0.006108479999999999,0.1063837186090685,-1.063483614455794
0.006109109999999999,0.1074152775294302,-1.064520337399312
0.00610974,0.1081029834763394,-1.064520337399313
0.00611037,0.1087906894232474,-1.063829188770301
0.006111,0.1094783953701561,-1.063483614455794
0.00611163,0.1098222483436101,-1.064174763084807
0.00611226,0.1105099542905181,-1.064520337399313
0.006112889999999999,0.1118853661843344,-1.063829188770301
0.00611352,0.1122292191577896,-1.063829188770301
0.00611415,0.1132607780781515,-1.064520337399313
0.00611478,0.113604631051606,-1.063829188770301
0.00611541,0.11394848402506,-1.064174763084807
0.00611604,0.114292336998514,-1.064520337399313
0.006116669999999999,0.1149800429454219,-1.064520337399313
0.006117299999999999,0.1156677488923299,-1.063829188770301
0.00611793,0.1163554548392388,-1.0638291887703
0.00611856,0.1170431607861471,-1.063829188770301
0.00611919,0.1170431607861474,-1.064174763084807
0.00611982,0.1177308667330554,-1.064865911713819
0.00612045,0.1184185726799634,-1.064865911713819
0.006121079999999999,0.1191062786268714,-1.064520337399313
0.00612171,0.1194501316003261,-1.064174763084807
0.00612234,0.1194501316003261,-1.064520337399313
0.00612297,0.120137837547235,-1.064865911713819
0.0061236,0.1208255434941432,-1.064520337399313
0.00612423,0.1218571024145051,-1.0638291887703
0.006124859999999999,0.1225448083614131,-1.063483614455794
0.00612549,0.123232514308322,-1.063138040141288
0.00612612,0.12392022025523,-1.062792465826782
0.00612675,0.1249517791755927,-1.0638291887703
0.00612738,0.1252956321490468,-1.063829188770301
0.00612801,0.1259833380959549,-1.064174763084807
0.006128639999999999,0.1259833380959549,-1.064174763084807
0.006129269999999999,0.1259833380959549,-0.5209319406816084
0.0061299,0.1246079262021383,1.075966966651877
0.00613053,0.1277026029632262,1.085297473143543
0.00613116,0.1283903089101337,1.084951898829036
0.00613179,0.1280464559366797,1.081841729998481
0.00613242,0.1273587499897717,1.078385986853421
0.006133049999999999,0.1266710440428638,1.076312540966385
0.00613368,0.1252956321490465,1.07389352076484
0.00613431,0.1242640732286841,1.072856797821321
0.00613494,0.1232325143083205,1.072165649192309
0.00613557,0.1218571024145048,1.072165649192309
0.0061362,0.1211693964675968,1.071820074877803
0.006136829999999999,0.1201378375472349,1.071474500563297
0.006137459999999999,0.1191062786268729,1.070783351934285
0.00613809,0.1184185726799637,1.070783351934284
0.00613872,0.1173870137596,1.070092203305272
0.00613935,0.1160116018657845,1.070092203305272
0.00613998,0.1156677488923305,1.069401054676259
0.006140609999999999,0.1149800429454226,1.069401054676259
0.006141239999999999,0.1142923369985146,1.069055480361754
0.00614187,0.1136046310516057,1.069055480361753
0.0061425,0.1129169251046977,1.068709906047247
0.00614313,0.1118853661843348,1.068709906047247
0.00614376,0.1115415132108808,1.068018757418235
0.00614439,0.1108538072639729,1.068018757418235
0.006145019999999999,0.1105099542905186,1.068018757418235
0.00614565,0.1094783953701556,1.068709906047247
0.00614628,0.1087906894232477,1.068364331732741
0.00614691,0.1081029834763388,1.068364331732741
0.00614754,0.1074152775294306,1.068018757418235
0.00614817,0.1063837186090687,1.068018757418235
0.006148799999999999,0.1053521596887067,1.068364331732741
0.006149429999999999,0.1046644537417986,1.068018757418235
0.00615006,0.1036328948214355,1.067327608789223
0.00615069,0.1036328948214346,1.067673183103728
0.00615132,0.102601335901073,1.067327608789222
0.00615195,0.102257482927619,1.06663646016021
0.00615258,0.101225924007257,1.06663646016021
0.006153209999999999,0.09985051211344122,1.066982034474716
0.00615384,0.09950665913998583,1.066982034474716
0.00615447,0.09916280616653184,1.066982034474716
0.0061551,0.09881895319307692,1.06663646016021
0.00615573,0.09813124724616894,1.066290885845704
0.00615636,0.09744354129926097,1.06663646016021
0.006156989999999999,0.096411982378899,1.06663646016021
0.00615762,0.09606812940544424,1.06663646016021
0.00615825,0.09572427643199025,1.066982034474716
0.00615888,0.09503657048508102,1.065599737216692
0.00615951,0.09400501156471938,1.065599737216692
0.00616014,0.09366115859126539,1.065945311531198
0.006160769999999999,0.0933173056178114,1.065599737216692
0.006161399999999999,0.09228574669744977,1.065254162902186
0.00616203,0.09159804075054054,1.065599737216692
0.00616266,0.09159804075053959,1.065254162902185
0.00616329,0.09056648183017778,1.065254162902185
0.00616392,0.08987877588326981,1.064563014273173
0.00616455,0.08919106993636185,1.065254162902185
0.006165179999999999,0.08815951101600004,1.065599737216691
0.00616581,0.08712795209563652,1.065945311531198
0.00616644,0.08678409912218253,1.065599737216692
0.00616707,0.08575254020181979,1.065254162902186
0.0061677,0.08540868722836564,1.065599737216691
0.00616833,0.08472098128145768,1.064563014273173
0.006168959999999999,0.0840332753345497,1.064563014273173
0.006169589999999999,0.08334556938764172,1.064908588587679
0.00617022,0.08300171641418695,1.065254162902185
0.00617085,0.08231401046727867,1.064908588587679
0.00617148,0.08231401046727835,1.064908588587679
0.00617211,0.08162630452037038,1.065254162902185
0.006172739999999999,0.08059474560000843,1.065945311531198
0.006173369999999999,0.0799070396531003,1.065254162902186
0.006174,0.07921933370619139,1.065599737216692
0.00617463,0.07818777478582942,1.064908588587679
0.00617526,0.07750006883892051,1.064563014273173
0.00617589,0.07715621586546652,1.064217439958667
0.00617652,0.07646850991855823,1.064217439958667
0.006177149999999999,0.07578080397165027,1.064908588587679
0.00617778,0.07509309802474151,1.064908588587679
0.00617841,0.07474924505128752,1.064908588587679
0.00617904,0.07406153910437861,1.065254162902185
0.00617967,0.07337383315747063,1.064563014273173
0.0061803,0.07268612721056267,1.065254162902185
0.006180929999999999,0.0716545682902007,1.064908588587679
0.006181559999999999,0.0713107153167464,1.064908588587679
0.00618219,0.0706230093698378,1.064908588587679
0.00618282,0.07027915639638334,1.064908588587679
0.00618345,0.06993530342292936,1.065254162902185
0.00618408,0.06959145044947537,1.064217439958667
0.00618471,0.06855989152911342,1.064563014273173
0.006185339999999999,0.06787218558220529,1.064908588587679
0.00618597,0.06649677368838809,1.063871865644161
0.0061866,0.06546521476802612,1.064217439958667
0.00618723,0.06546521476802533,1.064217439958667
0.00618786,0.06512136179457119,1.064563014273173
0.00618849,0.06443365584766322,1.064217439958667
0.006189119999999999,0.06374594990075526,1.064217439958667
0.006189749999999999,0.06271439098039346,1.064217439958667
0.00619038,0.06202668503348423,1.064217439958667
0.00619101,0.06168283206002946,1.063871865644161
0.00619164,0.06099512611312164,1.063871865644161
0.00619227,0.06065127313966766,1.063871865644161
0.006192899999999999,0.06065127313966766,1.063526291329655
0.006193529999999999,0.05961971421930617,1.063871865644161
0.00619416,0.0585881552989428,1.063526291329655
0.00619479,0.05790044935203451,1.063871865644161
0.00619542,0.05790044935203403,1.063871865644161
0.00619605,0.05686889043167208,1.064563014273173
0.00619668,0.05618118448476411,1.065254162902185
0.006197309999999999,0.05549347853785613,1.064908588587679
0.00619794,0.05480577259094706,1.064217439958667
0.00619857,0.05446191961749308,1.063871865644161
0.0061992,0.05377421367058449,1.064217439958667
0.00619983,0.05343036069713034,1.063871865644161
0.00620046,0.05274265475022237,1.063871865644161
0.006201089999999999,0.05171109582986042,1.063871865644161
0.006201719999999999,0.05102338988295227,1.064217439958667
0.00620235,0.05102338988295164,1.064563014273173
0.00620298,0.04999183096258859,1.064563014273173
0.00620361,0.04930412501568077,1.064217439958667
0.00620424,0.04896027204222679,1.063871865644161
0.006204869999999999,0.04792871312186484,1.063871865644161
0.006205499999999999,0.0472410071749567,1.064217439958667
0.00620613,0.04689715420150194,1.063526291329655
0.00620676,0.04620944825459396,1.064217439958667
0.00620739,0.0455217423076849,1.063871865644161
0.00620802,0.04449018338732293,1.064563014273173
0.00620865,0.04380247744041464,1.064908588587679
0.006209279999999999,0.04345862446696066,1.063871865644161
0.00620991,0.04311477149350589,1.064217439958667
0.00621054,0.04208321257314393,1.064217439958667
0.00621117,0.04173935959968916,1.064908588587679
0.0062118,0.04105165365278119,1.064563014273173
0.00621243,0.04036394770587322,1.064908588587679
0.006213059999999999,0.03967624175896525,1.063871865644161
0.006213689999999999,0.0393323887855111,1.063180717015149
0.00621432,0.03864468283860249,1.063526291329655
0.00621495,0.03761312391823913,1.063871865644161
0.00621558,0.03658156499787733,1.063871865644161
0.00621621,0.03589385905096935,1.063526291329655
0.00621684,0.03555000607751537,1.063526291329655
0.006217469999999999,0.03486230013060755,1.063180717015149
0.0062181,0.03451844715715278,1.063526291329655
0.00621873,0.0341745941836988,1.063526291329655
0.00621936,0.03348688823678973,1.063871865644161
0.00621999,0.03279918228988175,1.064563014273173
0.00622062,0.03211147634297377,1.063871865644161
0.006221249999999999,0.03176762336951979,1.063526291329655
0.006221879999999999,0.03039221147570432,1.064563014273172
0.00622251,0.03004835850224892,1.064563014273173
0.00622314,0.02936065255534001,1.06387186564416
0.00622377,0.02867294660843219,1.063180717015149
0.0062244,0.02832909363497821,1.063526291329655
0.006225029999999999,0.02798524066152422,1.063871865644161
0.006225659999999999,0.0272975347146164,1.063871865644161
0.00622629,0.02660982876770749,1.063526291329655
0.00622692,0.02592212282079952,1.063526291329655
0.00622755,0.02626597579425288,1.064563014273173
0.00622818,0.02523441687389092,1.064563014273173
0.00622881,0.02420285795352896,1.064217439958667
0.006229439999999999,0.02351515200662083,1.064217439958667
0.00623007,0.02282744605971145,1.064217439958667
0.0062307,0.02179588713934949,1.063526291329655
0.00623133,0.02145203416589503,1.063871865644161
0.00623196,0.02110818119244089,1.063871865644161
0.00623259,0.02042047524553291,1.063180717015148
0.006233219999999999,0.02007662227207893,1.063180717015148
0.006233849999999999,0.01938891632517111,1.063526291329654
0.00623448,0.0187012103782622,1.064217439958667
0.00623511,0.01801350443135266,1.063526291329655
0.00623574,0.01663809253753719,1.063526291329654
0.00623637,0.0162942395640832,1.062835142700642
0.006236999999999999,0.01595038659062921,1.063526291329654
0.006237629999999999,0.01526268064372139,1.064217439958666
0.00623826,0.01423112172335834,1.064563014273173
0.00623889,0.01388726874990435,1.064908588587679
0.00623952,0.01285570982954177,1.063871865644161
0.00624015,0.01285570982954177,1.064217439958667
0.00624078,0.01216800388263348,1.063871865644161
0.006241409999999999,0.01113644496227152,1.063180717015149
0.00624204,0.01044873901536261,1.063871865644161
0.00624267,0.01010488604190862,1.063871865644161
0.0062433,0.009417180095000022,1.06387186564416
0.00624393,0.009073327121545566,1.063180717015148
0.00624456,0.00769791522772962,1.063180717015148
