Module2/opampdata/Module2sine_2kHz.csv

#Digilent WaveForms Oscilloscope Acquisition
#Device Name: Discovery2
#Serial Number: SN:210321AC1D4D
#Date Time: 2020-10-28 18:45:29.544
#Sample rate: 1.5873e+06Hz
#Samples: 8192
#Trigger: Source: Channel 1 Type: Edge Condition: Rising Level: 0 V Hyst.: Auto HoldOff: 0 s
#Channel 1: Range: 100 mV/div Offset: 0 V Attenuation: 1 X
#Channel 2: Range: 500 mV/div Offset: 0 V Attenuation: 1 X
#Wavegen Channel 1: Running
#Mode: Simple
#Type: Sine
#Frequency: 2 kHz
#Period: 500 us
#Amplitude: 1 V
#Offset: 0 V
#Symmetry: 50 %
#Phase: 0 ¡Æ
#Wavegen Channel 2: Running
#Mode: Simple
#Type: DC
#Offset: 3 V
#Power Supplies: ON
#Positive Supply: ON
#Voltage: 4 V
#Negative Supply: ON
#Voltage: -4 V

Time (s),Channel 1 (V),Channel 2 (V)
0.0060102,0.01010488604190925,-1.060719019939745
0.00601083,0.01079259198881675,-1.060719019939744
0.00601146,0.01044873901536277,-1.059682296996227
0.006012089999999999,0.01148029793572473,-1.058991148367214
0.006012719999999999,0.01182415090917902,-1.058645574052708
0.00601335,0.01354341577645005,-1.057608851109189
0.006013979999999999,0.01423112172335803,-1.055535405222153
0.00601461,0.01423112172335865,-1.055535405222152
0.00601524,0.01491882767026662,-1.054153107964128
0.00601587,0.01526268064372061,-1.05311638502061
0.006016499999999999,0.01629423956408226,-1.05138851344808
0.00601713,0.01732579848444531,-1.050006216190053
0.00601776,0.01663809253753734,-1.048623918932029
0.00601839,0.01698194551099211,-1.047587195988509
0.00601902,0.01766965145790024,-1.045859324415979
0.00601965,0.0187012103782622,-1.04309472989993
0.006020279999999999,0.01973276929862416,-1.041021284012895
0.006020909999999999,0.02042047524553229,-1.038947838125858
0.00602154,0.0211081811924412,-1.037911115182338
0.00602217,0.02213974011280394,-1.036528817924311
0.0060228,0.02248359308625824,-1.033764223408263
0.00602343,0.0235151520066202,-1.031345203206721
0.006024059999999999,0.02385900498007419,-1.029271757319685
0.006024689999999999,0.02454671092698201,-1.027198311432649
0.00602532,0.02523441687389092,-1.024433716916598
0.00602595,0.02592212282079889,-1.022360271029561
0.00602658,0.02729753471461625,-1.019250102199004
0.00602721,0.02832909363497852,-1.017522230626473
0.00602784,0.02901679958188649,-1.014757636110425
0.006028469999999999,0.02936065255534048,-1.013375338852401
0.0060291,0.03004835850224892,-1.010956318650856
0.00602973,0.03004835850224892,-1.008191724134808
0.00603036,0.03073606444915815,-1.005081555304249
0.00603099,0.03176762336951994,-1.001280237844683
0.00603162,0.03245532931642792,-0.9988612176431413
0.006032249999999999,0.03348688823678989,-0.9960966231270932
0.006032879999999999,0.03451844715715185,-0.9933320286110452
0.00603351,0.03417459418369864,-0.9905674340949934
0.00603414,0.03451844715715278,-0.9867661166354225
0.00603477,0.03451844715715326,-0.9833103734903624
0.0060354,0.03555000607751521,-0.9802002046598084
0.00603603,0.03555000607751521,-0.9770900358292544
0.006036659999999999,0.03623771202442287,-0.9732887183696886
0.00603729,0.0362377120244235,-0.9694874009101173
0.00603792,0.03692541797133178,-0.9663772320795617
0.00603855,0.037613123918241,-0.9618847659909794
0.00603918,0.03864468283860265,-0.9594657457894366
0.00603981,0.03898853581205663,-0.9553188540153644
0.006040439999999999,0.03967624175896462,-0.9518631108703044
0.006041069999999999,0.0393323887855111,-0.9484073677252443
0.0060417,0.04036394770587322,-0.9442604759511671
0.00604233,0.04139550662623627,-0.9404591584915956
0.00604296,0.04208321257314424,-0.9363122667175235
0.00604359,0.04277091852005221,-0.9325109492579575
0.006044219999999999,0.04345862446696019,-0.9280184831693794
0.006044849999999999,0.04380247744041433,-0.9238715913953072
0.00604548,0.04483403636077707,-0.9193791253067233
0.00604611,0.04552174230768505,-0.9155778078471573
0.00604674,0.04620944825459365,-0.9114309160730795
0.00604737,0.04620944825459365,-0.9069384499845013
0.006048,0.04724100717495561,-0.9017548352669111
0.006048629999999999,0.04758486014841006,-0.8972623691783307
0.00604926,0.04896027204222726,-0.8920787544607343
0.00604989,0.04999183096258922,-0.8879318626866622
0.00605052,0.05067953690949844,-0.8834393965980776
0.00605115,0.05171109582985994,-0.8786013561949934
0.00605178,0.05171109582985994,-0.8734177414774033
0.006052409999999999,0.05239880177676792,-0.8685797010743191
0.006053039999999999,0.05274265475022206,-0.8640872349857409
0.00605367,0.05343036069713065,-0.8589036202681443
0.0060543,0.05377421367058542,-0.8537200055505472
0.00605493,0.05446191961749324,-0.8485363908329571
0.00605556,0.05480577259094722,-0.843698350429873
0.006056189999999999,0.05514962556440121,-0.8385147357122829
0.006056819999999999,0.05514962556440137,-0.8329855466801869
0.00605745,0.05583733151130965,-0.8274563576480832
0.00605808,0.05549347853785567,-0.8226183172449991
0.00605871,0.05652503745821778,-0.8170891282128957
0.00605934,0.05618118448476442,-0.8115599391807973
0.00605997,0.05755659637858036,-0.8063763244632072
0.006060599999999999,0.05858815529894233,-0.800501561116605
0.00606123,0.05961971421930507,-0.7946267977699951
0.00606186,0.05927586124585109,-0.789443183052405
0.00606249,0.05927586124585109,-0.7842595683348076
0.00606312,0.05927586124585156,-0.7787303793027112
0.00606375,0.06030742016621352,-0.7725100416416029
0.006064379999999999,0.06030742016621352,-0.7666352782950008
0.006065009999999999,0.06099512611312118,-0.7604149406338928
0.00606564,0.06133897908657594,-0.7541946029727762
0.00606627,0.06237053800693899,-0.7493565625696839
0.0060669,0.06305824395384681,-0.74279065059407
0.00606753,0.0634020969273008,-0.7369158872474678
0.00606816,0.06374594990075479,-0.7303499752718537
0.006068789999999999,0.06477750882111642,-0.7241296376107453
0.00606942,0.06477750882111737,-0.7179092999496287
0.00607005,0.06580906774147979,-0.712034536603024
0.00607068,0.06649677368838841,-0.7058141989419073
0.00607131,0.06684062666184239,-0.6995938612807991
0.00607194,0.06718447963529638,-0.693373523619691
0.006072569999999999,0.06821603855565833,-0.6868076116440769
0.006073199999999999,0.0682160385556588,-0.6802416996684627
0.00607383,0.06855989152911295,-0.6736757876928395
0.00607446,0.06855989152911295,-0.6671098757172178
0.00607509,0.06855989152911326,-0.6619262609996265
0.00607572,0.06924759747602123,-0.6543236260804943
0.006076349999999999,0.06924759747602123,-0.6481032884193861
0.006076979999999999,0.06993530342292889,-0.6405006535002545
0.00607761,0.07027915639638366,-0.6339347415246305
0.00607824,0.07062300936983765,-0.6270232552345103
0.00607887,0.0713107153167464,-0.6201117689443805
0.0060795,0.07199842126365437,-0.6125091340252482
0.00608013,0.07234227423710837,-0.6052520734206221
0.006080759999999999,0.07234227423710853,-0.5993773100740166
0.00608139,0.07199842126365469,-0.591429100840369
0.00608202,0.07268612721056267,-0.5845176145502489
0.00608265,0.07302998018401681,-0.5776061282601196
0.00608328,0.07302998018401696,-0.5710402162845053
0.00608391,0.07337383315747095,-0.5641287299943851
0.006084539999999999,0.07268612721056299,-0.5565260950752529
0.006085169999999999,0.07268612721056267,-0.5496146087851325
0.0060858,0.07371768613092509,-0.5423575481804966
0.00608643,0.074405392077834,-0.5357916362048722
0.00608706,0.07509309802474214,-0.5278434269712343
0.00608769,0.07612465694510409,-0.5205863663666083
0.006088319999999999,0.07646850991855808,-0.512983731447476
0.006088949999999999,0.07750006883891972,-0.505035522213838
0.00608958,0.07750006883892066,-0.4981240359237075
0.00609021,0.07784392181237465,-0.4905214010045753
0.00609084,0.07784392181237496,-0.4829187660854327
0.00609147,0.07818777478582863,-0.4753161311662973
0.0060921,0.07750006883892066,-0.4680590705616711
0.006092729999999999,0.07818777478582863,-0.4601108613280329
0.00609336,0.0788754807327374,-0.4528538007233966
0.00609399,0.07921933370619139,-0.4459423144332765
0.00609462,0.07956318667964585,-0.4379941051996274
0.00609525,0.07990703965309967,-0.4300458959659892
0.00609588,0.07990703965309967,-0.422097686732351
0.006096509999999999,0.08059474560000764,-0.4141494774987128
0.006097139999999999,0.08059474560000796,-0.4062012682650746
0.00609777,0.0809385985734621,-0.3985986333459318
0.0060984,0.08093859857346304,-0.3909959984267889
0.00609903,0.08197015749382452,-0.3830477891931506
0.00609966,0.08197015749382452,-0.3747540056450064
0.00610029,0.08197015749382452,-0.3664602220968622
0.006100919999999999,0.08231401046727835,-0.3585120128632238
0.00610155,0.08162630452037038,-0.3509093779440809
0.00610218,0.08162630452037038,-0.3433067430249453
0.00610281,0.0816263045203707,-0.3357041081058018
0.00610344,0.08197015749382468,-0.3270647502431519
0.00610407,0.08231401046727867,-0.3191165410095137
0.006104699999999999,0.08265786344073266,-0.3111683317758755
0.006105329999999999,0.08231401046727899,-0.3035656968567432
0.00610596,0.08265786344073281,-0.2942351903650698
0.00610659,0.08265786344073375,-0.2869781297604331
0.00610722,0.08368942236109524,-0.2790299205267949
0.00610785,0.08368942236109524,-0.2710817112931567
0.006108479999999999,0.0843771283080032,-0.2627879277450125
0.006109109999999999,0.08368942236109586,-0.2541485698823625
0.00610974,0.08472098128145768,-0.2455092120197004
0.00611037,0.08437712830800367,-0.2375610027860622
0.006111,0.08506483425491197,-0.2296127935524127
0.00611163,0.08540868722836596,-0.2206278613752565
0.00611226,0.08506483425491197,-0.2126796521416183
0.006112889999999999,0.08540868722836581,-0.2050770172224825
0.00611352,0.08540868722836611,-0.1971288079888328
0.00611415,0.0857525402018201,-0.1874527271826646
0.00611478,0.08609639317527425,-0.1791589436345095
0.00611541,0.08609639317527457,-0.1712107344008713
0.00611604,0.08678409912218253,-0.1632625251672331
0.006116669999999999,0.08678409912218253,-0.1542775929900768
0.006117299999999999,0.08712795209563635,-0.1463293837564381
0.00611793,0.08712795209563667,-0.1383811745227891
0.00611856,0.08712795209563605,-0.1293962423456216
0.00611919,0.08644024614872824,-0.1214480331119832
0.00611982,0.08609639317527425,-0.113154249563839
0.00612045,0.08609639317527425,-0.1041693173866828
0.006121079999999999,0.08575254020182042,-0.09587553383853831
0.00612171,0.08609639317527425,-0.08723617597587661
0.00612234,0.08575254020182026,-0.07963354105674443
0.00612297,0.08609639317527393,-0.07133975750858546
0.0061236,0.08575254020181995,-0.06304597396044094
0.00612423,0.08540868722836596,-0.05406104178328472
0.006124859999999999,0.084720981281458,-0.04576725823514052
0.00612549,0.08506483425491182,-0.03678232605797283
0.00612612,0.08506483425491182,-0.02883411682433464
0.00612675,0.0857525402018201,-0.01984918464716679
0.00612738,0.08575254020181979,-0.01155540109902243
0.00612801,0.08506483425491182,-0.002916043236372221
0.006128639999999999,0.08540868722836581,0.005377740311771981
0.006129269999999999,0.08506483425491214,0.01401709817442203
0.0061299,0.08506483425491182,0.0219653074080717
0.00613053,0.08472098128145768,0.02956794232721488
0.00613116,0.08472098128145783,0.0378617258753594
0.00613179,0.08506483425491182,0.04684665805251562
0.00613242,0.08472098128145783,0.05583159022967184
0.006133049999999999,0.08575254020181916,0.06412537377781635
0.00613368,0.08609639317527425,0.07241915732597187
0.00613431,0.08644024614872839,0.081058515188626
0.00613494,0.08644024614872807,0.09004344736579323
0.00613557,0.08609639317527409,0.09764608228492588
0.0061362,0.0857525402018201,0.1062854401475761
0.006136829999999999,0.08609639317527409,0.1152703723247323
0.006137459999999999,0.08644024614872807,0.123218581558371
0.00613809,0.08644024614872839,0.1318579394210324
0.00613872,0.08644024614872871,0.1401517229691882
0.00613935,0.08678409912218268,0.1487910808318381
0.00613998,0.08712795209563667,0.1567392900654763
0.006140609999999999,0.08609639317527472,0.1650330736136205
0.006141239999999999,0.08575254020182042,0.1729812828472588
0.00614187,0.08472098128145768,0.1823117893389325
0.0061425,0.08437712830800367,0.1899144242580647
0.00614313,0.08437712830800337,0.1985537821207259
0.00614376,0.08403327533454938,0.2065019913543641
0.00614439,0.08437712830800337,0.2151413492170143
0.006145019999999999,0.08403327533454953,0.2234351327651624
0.00614565,0.08403327533454906,0.2317289163133179
0.00614628,0.08334556938764109,0.2400226998614621
0.00614691,0.08368942236109524,0.2476253347806053
0.00614754,0.08368942236109508,0.2559191183287494
0.00614817,0.08334556938764109,0.2638673275623876
0.006148799999999999,0.08265786344073313,0.2721611111105318
0.006149429999999999,0.08231401046727899,0.280454894658676
0.00615006,0.08231401046727867,0.2880575295778192
0.00615069,0.08265786344073313,0.2966968874404802
0.00615132,0.08300171641418663,0.3042995223596127
0.00615195,0.08231401046727867,0.3125933059077569
0.00615258,0.0816263045203707,0.3208870894559011
0.006153209999999999,0.08197015749382421,0.3288352986895395
0.00615384,0.08128245154691624,0.3367835079231885
0.00615447,0.08093859857346225,0.3450772914713327
0.0061551,0.08025089262655413,0.3523343520759735
0.00615573,0.08059474560000796,0.3606281356241179
0.00615636,0.08059474560000796,0.3692674934867681
0.006156989999999999,0.08093859857346195,0.3768701284059003
0.00615762,0.08093859857346195,0.3841271890105366
0.00615825,0.08059474560000796,0.3917298239296688
0.00615888,0.08059474560000733,0.400023607477824
0.00615951,0.07990703965309935,0.4079718167114619
0.00616014,0.07921933370619139,0.4152288773160881
0.006160769999999999,0.07853162775928342,0.4235226608642323
0.006161399999999999,0.0785316277592831,0.4314708700978707
0.00616203,0.0778439218123748,0.4394190793315196
0.00616266,0.078187774785828,0.4463305656216502
0.00616329,0.07715621586546652,0.4542787748552881
0.00616392,0.07715621586546652,0.4615358354599143
0.00616455,0.07646850991855855,0.4694840446935525
0.006165179999999999,0.07578080397165057,0.4767411052981789
0.00616581,0.07578080397164995,0.4846893145318308
0.00616644,0.07578080397164995,0.492291949450963
0.00616707,0.07543695099819549,0.4998945843701049
0.0061677,0.07509309802474151,0.5068060706602251
0.00616833,0.07474924505128752,0.5137175569503453
0.006168959999999999,0.07509309802474151,0.5209746175549714
0.006169589999999999,0.07406153910438018,0.5282316781595977
0.00617022,0.07406153910437924,0.5358343130787399
0.00617085,0.07337383315747063,0.5437825223123882
0.00617148,0.07302998018401681,0.5510395829170143
0.00617211,0.07302998018401681,0.5579510692071344
0.006172739999999999,0.07234227423710884,0.5655537041262666
0.006173369999999999,0.07234227423710853,0.5724651904163871
0.006174,0.07131071531674608,0.5790311023920105
0.00617463,0.07131071531674608,0.5866337373111428
0.00617526,0.07096686234329194,0.5931996492867664
0.00617589,0.07096686234329194,0.6001111355768867
0.00617652,0.07165456829020023,0.6063314732379976
0.006177149999999999,0.07096686234329226,0.6132429595281178
0.00617778,0.07096686234329147,0.6205000201327541
0.00617841,0.06993530342292952,0.6284482293663922
0.00617904,0.06924759747602091,0.6346685670275101
0.00617967,0.06890374450256694,0.6422712019466417
0.0061803,0.06855989152911295,0.6484915396077499
0.006180929999999999,0.06924759747602091,0.6550574515833639
0.006181559999999999,0.06752833260875209,0.6609322149299665
0.00618219,0.06718447963529638,0.667498126905589
0.00618282,0.06649677368838684,0.6744096131957179
0.00618345,0.06512136179457151,0.6806299508568262
0.00618408,0.06512136179457151,0.6871958628324404
0.00618471,0.06443365584766354,0.6934162004935486
0.006185339999999999,0.06443365584766322,0.7010188354126801
0.00618597,0.06374594990075494,0.7068935987592918
0.0061866,0.06340209692730095,0.7124227877913879
0.00618723,0.06271439098039251,0.7189886997670136
0.00618786,0.06271439098039251,0.7255546117426269
0.00618849,0.06271439098039251,0.730392652145711
0.006189119999999999,0.06133897908657657,0.7379952870648433
0.006189749999999999,0.06065127313966828,0.7438700504114462
0.00619038,0.05961971421930523,0.7497448137580563
0.00619101,0.05927586124585046,0.7563107257336787
0.00619164,0.0585881552989428,0.7621854890802808
0.00619227,0.0585881552989428,0.7677146781123769
0.006192899999999999,0.05790044935203482,0.773243867144473
0.006193529999999999,0.05790044935203451,0.7791186304910751
0.00619416,0.05686889043167208,0.7846478195231791
0.00619479,0.05618118448476379,0.7901770085552827
0.00619542,0.05618118448476363,0.7957061975873787
0.00619605,0.05583733151130965,0.8008898123049688
0.00619668,0.05549347853785567,0.806073427022559
0.006197309999999999,0.05514962556440168,0.8119481903691608
0.00619794,0.05480577259094722,0.8174773794012674
0.00619857,0.05480577259094722,0.8233521427478696
0.0061992,0.05411806664403832,0.8281901831509613
0.00619983,0.05343036069713034,0.834064946497563
0.00620046,0.05274265475022237,0.8392485612151532
0.006201089999999999,0.05239880177676839,0.8440866016182373
0.006201719999999999,0.05171109582986057,0.8496157906503332
0.00620235,0.05102338988295164,0.8541082567389183
0.00620298,0.05033568393604274,0.8592918714565149
0.00620361,0.04964797798913508,0.8637843375450935
0.00620424,0.04964797798913508,0.8693135265771896
0.006204869999999999,0.04827256609531913,0.8738059926657678
0.006205499999999999,0.04792871312186468,0.87795288443984
0.00620613,0.04792871312186436,0.8834820734719424
0.00620676,0.04758486014841038,0.8879745395605205
0.00620739,0.04655330122804748,0.892467005649105
0.00620802,0.04586559528113951,0.8976506203666952
0.00620865,0.04483403636077707,0.9024886607697815
0.006209279999999999,0.04449018338732309,0.9066355525438536
0.00620991,0.04380247744041417,0.9114735929469435
0.00621054,0.04277091852005221,0.9152749104065097
0.00621117,0.04277091852005159,0.9197673764950925
0.0062118,0.04208321257314393,0.9228775453256473
0.00621243,0.04208321257314393,0.9273700114142254
0.006213059999999999,0.04105165365278197,0.9308257545592855
0.006213689999999999,0.04036394770587384,0.9353182206478631
0.00621432,0.03967624175896493,0.9391195381074351
0.00621495,0.03933238878551079,0.943612004196019
0.00621558,0.03933238878551063,0.9477588959700907
0.00621621,0.03898853581205663,0.9508690648006447
0.00621684,0.03864468283860265,0.9546703822602107
0.006217469999999999,0.03726927094478717,0.9581261254052711
0.0062181,0.03658156499787764,0.9615818685503358
0.00621873,0.03520615310406169,0.9646920373808898
0.00621936,0.0348623001306063,0.9684933548404632
0.00621999,0.03417459418369848,0.9729858209290411
0.00622062,0.0338307412102445,0.9767871383886071
0.006221249999999999,0.0338307412102445,0.9795517329046551
0.006221879999999999,0.03314303526333684,0.9823163274207032
0.00622251,0.03279918228988206,0.9854264962512612
0.00622314,0.03211147634297284,0.9888822393963255
0.00622377,0.03107991742261088,0.9916468339123737
0.0062244,0.03004835850224892,0.9951025770574339
0.006225029999999999,0.03004835850224892,0.9985583202024939
0.006225659999999999,0.02970450552879509,1.000977340404037
0.00622629,0.02901679958188649,1.003050786291076
0.00622692,0.02832909363497758,1.006852103750646
0.00622755,0.02764138768806976,1.0099622725812
0.00622818,0.02729753471461578,1.013072441411754
0.00622881,0.0266098287677078,1.014109164355272
0.006229439999999999,0.02626597579425366,1.01687375887132
0.00623007,0.02523441687389045,1.019292779072867
0.0062307,0.02420285795352849,1.021711799274409
0.00623133,0.02385900498007403,1.024821968104966
0.00623196,0.02351515200662036,1.026549839677496
0.00623259,0.02385900498007434,1.028623285564532
0.006233219999999999,0.02282744605971239,1.030696731451568
0.006233849999999999,0.02213974011280425,1.032424603024098
0.00623448,0.02179588713934949,1.033806900282124
0.00623511,0.02076432821898643,1.036225920483669
0.00623574,0.02007662227207783,1.037608217741693
0.00623637,0.01801350443135391,1.039336089314223
0.006236999999999999,0.01698194551099195,1.041755109515765
0.006237629999999999,0.01629423956408382,1.043482981088296
0.00623826,0.01526268064372077,1.044865278346322
0.00623889,0.01457497469681279,1.046938724233358
0.00623952,0.01285570982954161,1.048321021491384
