Module2/opampdata/Module2sine_2kHz_capa양단.csv

#Digilent WaveForms Oscilloscope Acquisition
#Device Name: Discovery2
#Serial Number: SN:210321AC1D4D
#Date Time: 2020-10-28 18:43:56.856
#Sample rate: 1.5873e+06Hz
#Samples: 8192
#Trigger: Source: Channel 1 Type: Edge Condition: Rising Level: 0 V Hyst.: Auto HoldOff: 0 s
#Channel 1: Range: 100 mV/div Offset: 0 V Attenuation: 1 X
#Channel 2: Range: 500 mV/div Offset: 0 V Attenuation: 1 X
#Wavegen Channel 1: Running
#Mode: Simple
#Type: Sine
#Frequency: 2 kHz
#Period: 500 us
#Amplitude: 1 V
#Offset: 0 V
#Symmetry: 50 %
#Phase: 0 ¡Æ
#Wavegen Channel 2: Running
#Mode: Simple
#Type: DC
#Offset: 3 V
#Power Supplies: ON
#Positive Supply: ON
#Voltage: 4 V
#Negative Supply: ON
#Voltage: -4 V

Time (s),Channel 1 (V),Channel 2 (V)
0.006009885000000001,0.01010488604190893,-1.062446891512275
0.006010515000000001,0.01044873901536339,-1.061410168568757
0.006011145000000001,0.01182415090917934,-1.061064594254251
0.006011775,0.01182415090917934,-1.059682296996227
0.006012405,0.01285570982954083,-1.059682296996227
0.006013035000000001,0.01354341577645005,-1.058645574052708
0.006013665000000001,0.01423112172335803,-1.057263276794684
0.006014295000000001,0.01491882767026694,-1.056572128165671
0.006014925000000001,0.01560653361717491,-1.055535405222152
0.006015555000000001,0.0159503865906289,-1.054153107964128
0.006016185,0.01629423956408288,-1.052770810706104
0.006016815000000001,0.01732579848444594,-1.052425236391596
0.006017445000000001,0.01801350443135391,-1.051042939133572
0.006018075000000001,0.01835735740480868,-1.048969493246534
0.006018705000000001,0.0190450633517165,-1.046896047359497
0.006019335000000001,0.01938891632517048,-1.044822601472461
0.006019965,0.01973276929862447,-1.043440304214437
0.006020595,0.02076432821898612,-1.042403581270919
0.006021225000000001,0.0211081811924412,-1.039984561069375
0.006021855000000001,0.02213974011280425,-1.037911115182337
0.006022485000000001,0.02282744605971223,-1.036874392238819
0.006023115000000001,0.0235151520066202,-1.035146520666289
0.006023745,0.02385900498007419,-1.033764223408265
0.006024375,0.02420285795352818,-1.030999628892217
0.006025005000000001,0.02489056390043677,-1.028235034376165
0.006025635000000001,0.02523441687389076,-1.025816014174623
0.006026265000000001,0.02626597579425397,-1.023742568287584
0.006026895000000001,0.02764138768807008,-1.021669122400547
0.006027525000000001,0.02798524066152406,-1.019250102199005
0.006028155,0.02832909363497805,-1.016485507682957
0.006028785000000001,0.02901679958188665,-1.014757636110423
0.006029415000000001,0.02936065255534064,-1.011301892965363
0.006030045000000001,0.02970450552879478,-1.009228447078324
0.006030675000000001,0.02970450552879509,-1.006463852562275
0.006031305000000001,0.03039221147570306,-1.003008109417215
0.006031935,0.03073606444915705,-1.000243514901167
0.006032565,0.0317676233695187,-0.9971333460706133
0.006033195000000001,0.03279918228988206,-0.9940231772400551
0.006033825000000001,0.03314303526333622,-0.9909130084094967
0.006034455000000001,0.03314303526333653,-0.9878028395789429
0.006035085000000001,0.0338307412102445,-0.9853838193774008
0.006035715000000001,0.03451844715715247,-0.9819280762323408
0.006036345,0.03555000607751427,-0.9791634817162924
0.006036975000000001,0.03658156499787764,-0.975016589942216
0.006037605000000001,0.03658156499787764,-0.9712152724826481
0.006038235000000001,0.03692541797133241,-0.968450677966596
0.006038865000000001,0.03761312391824038,-0.9653405091360415
0.006039495000000001,0.03830082986514835,-0.9615391916764755
0.006040125,0.03864468283860233,-0.9577378742169094
0.006040755,0.03898853581205632,-0.9532454081283316
0.006041385000000001,0.04002009473241908,-0.9497896649832658
0.006042015000000001,0.04070780067932736,-0.9459883475236939
0.006042645000000001,0.04070780067932767,-0.9414958814351163
0.006043275000000001,0.04139550662623565,-0.9380401382900562
0.006043905,0.04173935959968963,-0.9349299694595021
0.006044535,0.04208321257314362,-0.9307830776854304
0.006045165000000001,0.0434586244669605,-0.9255994629678342
0.006045795000000001,0.04380247744041448,-0.9214525711937621
0.006046425000000001,0.04449018338732324,-0.916614530790672
0.006047055000000001,0.04517788933423121,-0.9124676390166
0.006047685000000001,0.04517788933423121,-0.9083207472425279
0.006048315,0.0458655952811392,-0.9041738554684539
0.006048945000000001,0.04620944825459428,-0.8993358150653638
0.006049575000000001,0.04758486014841022,-0.8951889232912916
0.006050205000000001,0.04827256609531851,-0.890350882888202
0.006050835000000001,0.04827256609531851,-0.8865495654286355
0.006051465000000001,0.04827256609531851,-0.8820570993400574
0.006052095,0.04896027204222648,-0.8768734846224673
0.006052725,0.04999183096258828,-0.8716898699048771
0.006053355000000001,0.04999183096258922,-0.8671974038162923
0.006053985000000001,0.0513672428564061,-0.8613226404696833
0.006054615000000001,0.0517110958298601,-0.856830174381105
0.006055245000000001,0.05205494880331409,-0.8516465596635148
0.006055875,0.05239880177676807,-0.8474996678894428
0.006056505,0.05274265475022206,-0.8419704788573472
0.006057135000000001,0.05308650772367651,-0.8367868641397497
0.006057765000000001,0.0534303606971305,-0.8309121007931476
0.006058395000000001,0.05411806664403894,-0.8253829117610441
0.006059025000000001,0.05411806664403925,-0.8205448713579574
0.006059655000000001,0.05480577259094722,-0.8150156823258613
0.006060285,0.0554934785378552,-0.8105232162372831
0.006060915000000001,0.0565250374582181,-0.8043028785761674
0.006061545000000001,0.05686889043167208,-0.7984281152295654
0.006062175000000001,0.05721274340512685,-0.7928989261974617
0.006062805000000001,0.05790044935203482,-0.7873697371653657
0.006063435000000001,0.0585881552989428,-0.7821861224477755
0.006064065,0.05824430232548882,-0.7756202104721613
0.006064695,0.05858815529894249,-0.7697454471255589
0.006065325000000001,0.05961971421930523,-0.7642162580934549
0.006065955000000001,0.05996356719276,-0.7583414947468444
0.006066585000000001,0.06065127313966782,-0.7521211570857365
0.006067215000000001,0.0609951261131218,-0.7462463937391344
0.006067845000000001,0.0609951261131218,-0.7403716303925322
0.006068475,0.06202668503348329,-0.7348424413604359
0.006069105000000001,0.06168283206003009,-0.7279309550703076
0.006069735000000001,0.06237053800693837,-0.7220561917237027
0.006070365000000001,0.06271439098039283,-0.7158358540625868
0.006070995000000001,0.06305824395384665,-0.7103066650304901
0.006071625000000001,0.06305824395384665,-0.7037407530548759
0.006072255,0.06340209692730064,-0.6975204153937677
0.006072885,0.06408980287420846,-0.6913000777326597
0.006073515000000001,0.06408980287420908,-0.6843885914425307
0.006074145000000001,0.06443365584766417,-0.6781682537814138
0.006074775000000001,0.06546521476802565,-0.6716023418057998
0.006075405000000001,0.06546521476802565,-0.6653820041446916
0.006076035,0.06580906774147964,-0.6584705178545713
0.006076665,0.06580906774147979,-0.6512134572499454
0.006077295000000001,0.06615292071493395,-0.6446475452743217
0.006077925000000001,0.06684062666184191,-0.6377360589842015
0.006078555000000001,0.06787218558220481,-0.6304789983795659
0.006079185000000001,0.0682160385556588,-0.6239130864039517
0.006079815000000001,0.0682160385556588,-0.6170016001138315
0.006080445,0.06855989152911279,-0.6100901138237083
0.006081075000000001,0.06890374450256724,-0.6035242018480849
0.006081705000000001,0.06924759747602123,-0.5966127155579647
0.006082335000000001,0.06890374450256771,-0.589701229267835
0.006082965000000001,0.06959145044947553,-0.5827897429777147
0.006083595000000001,0.06993530342292952,-0.5755326823730885
0.006084225,0.07062300936983748,-0.5682756217684624
0.006084855,0.07131071531674546,-0.5610185611638362
0.006085485000000001,0.07165456829020023,-0.5534159262446939
0.006086115000000001,0.07096686234329226,-0.5461588656400588
0.006086745000000001,0.07131071531674624,-0.5399385279789504
0.006087375000000001,0.07165456829020023,-0.5330270416888302
0.006088005,0.07199842126365422,-0.525078832455192
0.006088635,0.07268612721056204,-0.5167850489070479
0.006089265000000001,0.07302998018401681,-0.5098735626169171
0.006089895000000001,0.0733738331574708,-0.5022709276977849
0.006090525000000001,0.07371768613092525,-0.4943227184641367
0.006091155000000001,0.07406153910437908,-0.4877568064885192
0.006091785000000001,0.07371768613092509,-0.480499745883893
0.006092415,0.07440539207783306,-0.4718603880212428
0.006093045000000001,0.0744053920778337,-0.464603327416606
0.006093675000000001,0.07509309802474166,-0.4570006924974738
0.006094305000000001,0.07543695099819613,-0.4500892062073435
0.006094935000000001,0.07578080397164995,-0.4424865712882112
0.006095565000000001,0.07578080397164995,-0.434538362054573
0.006096195,0.07578080397164995,-0.4258990041919228
0.006096825,0.07612465694510377,-0.4182963692727902
0.006097455000000001,0.07646850991855823,-0.4110393086681537
0.006098085000000001,0.07681236289201238,-0.4034366737490109
0.006098715000000001,0.07681236289201253,-0.3954884645153728
0.006099345000000001,0.07715621586546652,-0.3878858295962406
0.006099975000000001,0.07715621586546652,-0.3802831946771085
0.006100605,0.07715621586546652,-0.370952688185447
0.006101235000000001,0.07750006883892066,-0.3630044789517967
0.006101865000000001,0.0778439218123748,-0.3557474183471673
0.006102495000000001,0.07818777478582957,-0.3477992091135185
0.006103125000000001,0.0788754807327374,-0.3401965741943862
0.006103755000000001,0.07921933370619139,-0.332248364960748
0.006104385,0.0788754807327374,-0.3239545814126038
0.006105015,0.07887548073273724,-0.3160063721789654
0.006105645000000001,0.07921933370619139,-0.3080581629453164
0.006106275000000001,0.07921933370619139,-0.2997643793971615
0.006106905000000001,0.07921933370619139,-0.2921617444780292
0.006107535000000001,0.07921933370619139,-0.284213535244391
0.006108165,0.07956318667964538,-0.2762653260107528
0.006108795,0.07990703965309935,-0.267280393833597
0.006109425000000001,0.07990703965309967,-0.2589866102854409
0.006110055000000001,0.07990703965309967,-0.2510384010518027
0.006110685000000001,0.07990703965309967,-0.2427446175036473
0.006111315000000001,0.07990703965309967,-0.2344508339555031
0.006111945000000001,0.07990703965309967,-0.225811476092853
0.006112575,0.08025089262655366,-0.2171721182301988
0.006113205000000001,0.08025089262655397,-0.2092239089965498
0.006113835000000001,0.08059474560000796,-0.2019668483919236
0.006114465000000001,0.08059474560000796,-0.1933274905292619
0.006115095000000001,0.08059474560000811,-0.1850337069811177
0.006115725000000001,0.0809385985734621,-0.1767399234329735
0.006116355,0.08128245154691609,-0.1687917141993353
0.006116985,0.08093859857346242,-0.1598067820221795
0.006117615000000001,0.0809385985734621,-0.1518585727885295
0.006118245000000001,0.08128245154691656,-0.1432192149258682
0.006118875000000001,0.08162630452037038,-0.1352710056922294
0.006119505000000001,0.08162630452037038,-0.1259404992005672
0.006120135000000001,0.08162630452037038,-0.117646715652423
0.006120765,0.08128245154691656,-0.1090073577897729
0.006121395000000001,0.0809385985734621,-0.1014047228706294
0.006122025000000001,0.08128245154691609,-0.09311093932248521
0.006122655000000001,0.08128245154691656,-0.08378043283080679
0.006123285000000001,0.08162630452037038,-0.0747955006536512
0.006123915000000001,0.08162630452037038,-0.06719286573451902
0.006124545,0.08197015749382437,-0.05924465650088082
0.006125175000000001,0.08128245154691639,-0.05129644726723147
0.006125805000000001,0.08162630452037038,-0.04265708940458126
0.006126435000000001,0.08162630452037038,-0.03332658291290725
0.006127065000000001,0.0816263045203707,-0.02503279936476273
0.006127695000000001,0.08231401046727867,-0.01604786718760651
0.006128325,0.0816263045203707,-0.008099657953968319
0.006128955,0.08162630452037038,0.0005396999086815756
0.006129585000000001,0.08197015749382452,0.009524632085849739
0.006130215000000001,0.08197015749382421,0.01747284131949909
0.006130845000000001,0.08162630452037023,0.02576662486764345
0.006131475000000001,0.08128245154691624,0.03440598273029366
0.006132105000000001,0.08162630452037023,0.04304534059294387
0.006132735,0.08162630452037038,0.05168469845559408
0.006133365000000001,0.08128245154691624,0.05963290768924374
0.006133995000000001,0.08128245154691624,0.06792669123739171
0.006134625000000001,0.08128245154691656,0.07622047478554692
0.006135255000000001,0.08162630452037038,0.08416868401918558
0.006135885000000001,0.08162630452037038,0.0931536161963418
0.006136515,0.08128245154691639,0.10110182542998
0.006137145,0.08093859857346242,0.109395608978124
0.006137775000000001,0.0809385985734621,0.1187261154697981
0.006138405000000001,0.08059474560000796,0.1270198990179536
0.006139035000000001,0.08059474560000796,0.1353136825660978
0.006139665000000001,0.08059474560000796,0.143607466114242
0.006140295,0.08059474560000796,0.1519012496623862
0.006140925,0.08059474560000796,0.1601950332105304
0.006141555000000001,0.08025089262655381,0.1681432424441797
0.006142185000000001,0.07990703965309982,0.1767826003068299
0.006142815000000001,0.07990703965309967,0.1854219581694918
0.006143445000000001,0.07990703965309967,0.1937157417176359
0.006144075000000001,0.07956318667964568,0.2027006738947922
0.006144705,0.07956318667964553,0.2099577344994224
0.006145335000000001,0.07887548073273709,0.2185970923620837
0.006145965000000001,0.0785316277592831,0.2268908759102279
0.006146595000000001,0.07853162775928342,0.2341479365148655
0.006147225000000001,0.0788754807327374,0.2431328686920211
0.006147855000000001,0.07921933370619139,0.2507355036111533
0.006148485,0.0788754807327374,0.2586837128447915
0.006149115,0.07818777478582957,0.2676686450219472
0.006149745000000001,0.07750006883892066,0.2756168542555972
0.006150375000000001,0.07750006883892098,0.2835650634892465
0.006151005000000001,0.07784392181237496,0.2918588470373907
0.006151635000000001,0.07818777478582895,0.3001526305855349
0.006152265000000001,0.07750006883892098,0.3081008398191731
0.006152895,0.076812362892013,0.316740197681823
0.006153525000000001,0.07715621586546652,0.3246884069154727
0.006154155000000001,0.07715621586546652,0.3322910418346049
0.006154785000000001,0.07681236289201206,0.3405848253827645
0.006155415000000001,0.07646850991855823,0.34956975755992
0.006156045000000001,0.07646850991855823,0.3571723924790522
0.006156675,0.07612465694510424,0.3654661760271964
0.006157305000000001,0.07612465694510394,0.372377662317327
0.006157935000000001,0.07578080397164995,0.3799802972364592
0.006158565000000001,0.07509309802474166,0.3875829321556024
0.006159195000000001,0.07509309802474134,0.3958767157037464
0.006159825000000001,0.07440539207783338,0.4038249249373846
0.006160455,0.07440539207783338,0.4114275598565168
0.006161085,0.07440539207783338,0.4186846204611431
0.006161715000000001,0.07440539207783338,0.4262872553802854
0.006162345000000001,0.07406153910437892,0.4345810389284409
0.006162975000000001,0.07371768613092478,0.4428748224765851
0.006163605000000001,0.07302998018401681,0.4511686060247293
0.006164235000000001,0.07268612721056282,0.4573889436858374
0.006164865,0.07302998018401649,0.464991578604969
0.006165495000000001,0.07268612721056235,0.471903064895103
0.006166125000000001,0.07199842126365437,0.4801968484432472
0.006166755000000001,0.07199842126365374,0.4874539090478839
0.006167385000000001,0.07131071531674593,0.4954021182815221
0.006168015000000001,0.07096686234329194,0.5033503275151603
0.006168645,0.07131071531674593,0.5099162394907745
0.006169275,0.07062300936983842,0.5164821514663885
0.006169905000000001,0.07027915639638366,0.523739212071024
0.006170535000000001,0.07027915639638303,0.532378569933685
0.006171165000000001,0.06959145044947505,0.539981204852817
0.006171795000000001,0.06890374450256709,0.5468926911429371
0.006172425,0.0685598915291131,0.5534586031185513
0.006173055,0.06855989152911295,0.5614068123521889
0.006173685000000001,0.0682160385556588,0.5683182986423194
0.006174315000000001,0.06787218558220481,0.5759209335614516
0.006174945000000001,0.06752833260875005,0.5828324198515812
0.006175575000000001,0.06649677368838809,0.5890527575126894
0.006176205000000001,0.06580906774147979,0.5959642438028127
0.006176835,0.0661529207149338,0.6032213044074388
0.006177465000000001,0.06580906774147995,0.6101327906975685
0.006178095000000001,0.06615292071493395,0.6170442769876887
0.006178725000000001,0.06580906774147917,0.6249924862213365
0.006179355000000001,0.06512136179457136,0.6315583981969508
0.006179985000000001,0.06477750882111737,0.638469884487071
0.006180615,0.0640898028742094,0.6450357964626852
0.006181245,0.06374594990075526,0.6509105598092877
0.006181875000000001,0.0634020969273008,0.6574764717849101
0.006182505000000001,0.06305824395384634,0.6650791067040518
0.006183135000000001,0.06271439098039251,0.6716450186796656
0.006183765000000001,0.06271439098039251,0.6778653563407739
0.006184395000000001,0.06202668503348454,0.683740119687376
0.006185025,0.0616828320600304,0.6903060316629899
0.006185655000000001,0.06133897908657594,0.6972175179531191
0.006186285000000001,0.06133897908657594,0.7037834299287333
0.006186915000000001,0.06065127313966735,0.7093126189608406
0.006187545000000001,0.06030742016621304,0.715532956621949
0.006188175000000001,0.05927586124585109,0.7224444429120692
0.006188805,0.05893200827239711,0.7279736319441653
0.006189435,0.05858815529894312,0.7335028209762615
0.006190065000000001,0.0585881552989428,0.7400687329518837
0.006190695000000001,0.05790044935203388,0.7469802192420123
0.006191325000000001,0.0572127434051256,0.7528549825886148
0.006191955000000001,0.05583733151130965,0.759420894564229
0.006192585,0.05549347853785567,0.7639133606528071
0.006193215,0.05514962556440168,0.7694425496849028
0.006193845000000001,0.05446191961749308,0.7746261644025002
0.006194475000000001,0.05411806664403863,0.7801553534346052
0.006195105000000001,0.05377421367058449,0.7870668397247249
0.006195735000000001,0.05308650772367651,0.792941603071327
0.006196365000000001,0.05308650772367651,0.7995075150469412
0.006196995,0.05308650772367651,0.8046911297645319
0.006197625000000001,0.05239880177676792,0.809874744482131
0.006198255000000001,0.05171109582985994,0.8140216362562032
0.006198885000000001,0.05102338988295133,0.8188596766592944
0.006199515000000001,0.05067953690949734,0.8243888656913907
0.006200145000000001,0.05033568393604336,0.8302636290379929
0.006200775,0.0493041250156814,0.835792818070089
0.006201405,0.04861641906877327,0.8413220071021852
0.006202035000000001,0.04861641906877265,0.8461600475052765
0.006202665000000001,0.04792871312186436,0.8516892365373798
0.006203295000000001,0.0479287131218642,0.8568728512549695
0.006203925000000001,0.04758486014841022,0.8610197430290416
0.006204555,0.04655330122804827,0.8655122091176198
0.006205185,0.04586559528114013,0.8706958238352096
0.006205815000000001,0.04586559528113951,0.8758794385528067
0.006206445000000001,0.04552174230768553,0.8803719046413849
0.006207075000000001,0.0451778893342309,0.8855555193589817
0.006207705000000001,0.04449018338732293,0.8907391340765719
0.006208335000000001,0.04311477149350636,0.895231600165152
0.006208965,0.04242706554659838,0.8993784919392241
0.006209595000000001,0.04173935959968963,0.9042165323423141
0.006210225000000001,0.04139550662623565,0.9080178498018802
0.006210855000000001,0.0410516536527815,0.9121647415759586
0.006211485000000001,0.04105165365278119,0.9170027819790423
0.006212115000000001,0.04036394770587322,0.9211496737531144
0.006212745,0.03933238878551126,0.9246054168981745
0.006213375,0.03864468283860312,0.929443457301258
0.006214005000000001,0.03795697689169421,0.9335903490753364
0.006214635000000001,0.03761312391823944,0.93808281516392
0.006215265000000001,0.03692541797133162,0.9418841326234858
0.006215895000000001,0.03658156499787764,0.9449943014540398
0.006216525000000001,0.03623771202442366,0.9487956189136059
0.006217155,0.03520615310406201,0.9525969363731721
0.006217785000000001,0.03486230013060693,0.9570894024617557
0.006218415000000001,0.03451844715715294,0.9605451456068157
