Module2/opampdata/Module2square_2kHz.csv

#Digilent WaveForms Oscilloscope Acquisition
#Device Name: Discovery2
#Serial Number: SN:210321AC1D4D
#Date Time: 2020-10-28 18:39:40.758
#Sample rate: 1.5873e+06Hz
#Samples: 8192
#Trigger: Source: Channel 1 Type: Edge Condition: Rising Level: 0 V Hyst.: Auto HoldOff: 0 s
#Channel 1: Range: 100 mV/div Offset: 0 V Attenuation: 1 X
#Channel 2: Range: 500 mV/div Offset: 0 V Attenuation: 1 X
#Wavegen Channel 1: Running
#Mode: Simple
#Type: Square
#Frequency: 2 kHz
#Period: 500 us
#Amplitude: 1 V
#Offset: 0 V
#Symmetry: 50 %
#Phase: 0 ¡Æ
#Wavegen Channel 2: Running
#Mode: Simple
#Type: DC
#Offset: 3 V
#Power Supplies: ON
#Positive Supply: ON
#Voltage: 4 V
#Negative Supply: ON
#Voltage: -4 V

Time (s),Channel 1 (V),Channel 2 (V)
0.006009570000000001,0.008385621174638218,-1.064865911713819
0.0060102,0.008729474148092204,-1.064520337399313
0.00601083,0.009073327121546192,-1.064174763084807
0.00601146,0.009761033068454167,-1.064174763084807
0.006012089999999999,0.01010488604190831,-1.064520337399313
0.00601272,0.01113644496227105,-1.064865911713819
0.00601335,0.012511856856087,-1.064520337399313
0.00601398,0.01388726874990435,-1.064520337399313
0.00601461,0.01423112172335834,-1.064520337399313
0.00601524,0.01423112172335834,-1.064520337399313
0.00601587,0.014918827670266,-1.065211486028324
0.0060165,0.01526268064372124,-1.065211486028325
0.00601713,0.0162942395640832,-1.064865911713819
0.00601776,0.01766965145790008,-1.064865911713819
0.00601839,0.01801350443135407,-1.064865911713819
0.00601902,0.01835735740480806,-1.064865911713819
0.00601965,0.01870121037826204,-1.064865911713819
0.006020279999999999,0.0187012103782622,-1.064174763084807
0.00602091,0.01904506335171634,-1.065211486028325
0.006021540000000001,0.01973276929862557,-1.064520337399313
0.00602217,0.02076432821898752,-1.064520337399313
0.0060228,0.02179588713934949,-1.064174763084807
0.00602343,0.02248359308625746,-1.064174763084807
0.006024059999999999,0.02317129903316544,-1.064174763084807
0.00602469,0.02385900498007434,-1.064174763084807
0.00602532,0.02420285795352833,-1.064865911713819
0.00602595,0.02489056390043677,-1.064865911713819
0.00602658,0.02489056390043709,-1.065211486028325
0.00602721,0.02557826984734506,-1.064865911713819
0.00602784,0.02592212282079905,-1.064520337399313
0.00602847,0.02695368174116194,-1.064865911713819
0.0060291,0.02764138768806992,-1.064865911713819
0.006029730000000001,0.027985240661525,-1.065211486028325
0.00603036,0.02901679958188665,-1.064865911713819
0.00603099,0.02936065255534064,-1.064865911713819
0.00603162,0.03073606444915658,-1.064865911713819
0.006032249999999999,0.03107991742261104,-1.064174763084807
0.00603288,0.03142377039606549,-1.064520337399313
0.006033510000000001,0.03176762336951994,-1.065902634657337
0.00603414,0.03211147634297425,-1.065557060342831
0.00603477,0.03314303526333622,-1.064865911713819
0.0060354,0.03314303526333622,-1.064865911713819
0.00603603,0.03451844715715154,-1.064865911713819
0.00603666,0.03486230013060693,-1.065211486028325
0.00603729,0.03520615310406107,-1.065211486028325
0.00603792,0.03555000607751584,-1.063829188770301
0.00603855,0.03623771202442428,-1.064174763084807
0.00603918,0.03795697689169421,-1.064174763084807
0.00603981,0.03761312391824023,-1.064520337399313
0.006040439999999999,0.03898853581205539,-1.064865911713819
0.00604107,0.03898853581205663,-1.065557060342831
0.006041700000000001,0.0400200947324197,-1.065902634657337
0.00604233,0.04070780067932783,-1.065557060342831
0.00604296,0.04173935959968979,-1.064865911713819
0.00604359,0.04277091852005174,-1.065211486028325
0.006044219999999999,0.04345862446695987,-1.064865911713819
0.00604485,0.0434586244669605,-1.065557060342831
0.00604548,0.04449018338732245,-1.065211486028325
0.00604611,0.04449018338732324,-1.065557060342831
0.00604674,0.04517788933423121,-1.065211486028325
0.00604737,0.04655330122804717,-1.065211486028325
0.006048,0.04655330122804779,-1.065557060342831
0.00604863,0.04758486014841053,-1.065211486028325
0.00604926,0.04827256609531851,-1.065211486028325
0.00604989,0.04861641906877327,-1.065211486028325
0.00605052,0.04930412501568125,-1.064865911713819
0.00605115,0.04999183096258922,-1.064865911713819
0.00605178,0.05067953690949719,-1.064520337399313
0.006052409999999999,0.05171109582985901,-1.064520337399313
0.00605304,0.05274265475022237,-1.064865911713819
0.006053670000000001,0.05308650772367682,-1.064865911713818
0.0060543,0.05343036069713065,-1.064174763084807
0.00605493,0.05343036069713065,-1.064520337399313
0.00605556,0.05343036069713065,-1.064865911713819
0.006056189999999999,0.05446191961749215,-1.065557060342831
0.00605682,0.05514962556440137,-1.064865911713819
0.00605745,0.05583733151130934,-1.065211486028325
0.00605808,0.05652503745821825,-1.065211486028325
0.00605871,0.05721274340512622,-1.064520337399313
0.00605934,0.05721274340512622,-1.065211486028325
0.00605997,0.05893200827239616,-1.064865911713819
0.0060606,0.05961971421930539,-1.064865911713819
0.00606123,0.05996356719275937,-1.065211486028325
0.006061860000000001,0.06065127313966735,-1.065211486028325
0.00606249,0.06030742016621414,-1.064865911713819
0.00606312,0.06168283206003009,-1.065557060342831
0.00606375,0.06237053800693806,-1.065211486028325
0.006064379999999999,0.06305824395384603,-1.064865911713819
0.00606501,0.06305824395384665,-1.064174763084807
0.006065640000000001,0.06340209692730236,-1.065211486028325
0.00606627,0.06512136179457151,-1.065211486028325
0.0060669,0.06512136179457151,-1.064865911713819
0.00606753,0.06512136179457151,-1.065211486028325
0.00606816,0.06546521476802533,-1.065557060342831
0.00606879,0.06718447963529638,-1.065557060342831
0.00606942,0.06787218558220466,-1.065902634657337
0.00607005,0.06855989152911326,-1.065211486028325
0.00607068,0.06890374450256756,-1.064865911713819
0.00607131,0.06993530342292952,-1.064174763084807
0.00607194,0.0702791563963835,-1.064520337399313
0.006072569999999999,0.07096686234329132,-1.065211486028324
0.0060732,0.07131071531674608,-1.064174763084807
0.006073830000000001,0.07165456829020055,-1.064520337399313
0.00607446,0.07199842126365469,-1.064865911713819
0.00607509,0.07268612721056267,-1.065211486028325
0.00607572,0.07337383315747063,-1.064865911713819
0.006076349999999999,0.07440539207783244,-1.064865911713819
0.00607698,0.07474924505128752,-1.064520337399313
0.00607761,0.07612465694510347,-1.064520337399313
0.00607824,0.07681236289201269,-1.064520337399313
0.00607887,0.07750006883892066,-1.064520337399313
0.0060795,0.07784392181237465,-1.064174763084807
0.00608013,0.0778439218123748,-1.064520337399313
0.00608076,0.07853162775928325,-1.065557060342831
0.00608139,0.07887548073273724,-1.065211486028325
0.00608202,0.08025089262655413,-1.064174763084807
0.00608265,0.08059474560000843,-1.064174763084807
0.00608328,0.08162630452037038,-1.064174763084807
0.00608391,0.08162630452037038,-1.064520337399313
0.006084539999999999,0.08231401046727804,-1.064520337399313
0.00608517,0.08197015749382452,-1.064865911713819
0.006085800000000001,0.08265786344073406,-1.064865911713819
0.00608643,0.0840332753345497,-1.064865911713819
0.00608706,0.08472098128145768,-1.064865911713819
0.00608769,0.08540868722836564,-1.065211486028325
0.006088319999999999,0.08609639317527362,-1.065211486028325
0.00608895,0.08678409912218253,-1.064865911713819
0.00608958,0.0874718050690905,-1.065211486028325
0.00609021,0.08712795209563683,-1.064865911713819
0.00609084,0.08747180506909082,-1.064520337399313
0.00609147,0.08747180506909082,-1.064520337399313
0.0060921,0.08850336398945277,-1.065211486028325
0.00609273,0.08987877588326997,-1.064865911713819
0.00609336,0.09022262885672395,-1.064174763084807
0.006093990000000001,0.09159804075054054,-1.063829188770301
0.00609462,0.09159804075054101,-1.064174763084807
0.00609525,0.09262959967090297,-1.064520337399313
0.00609588,0.09331730561781093,-1.064865911713819
0.006096509999999999,0.09434886453817273,-1.065211486028325
0.00609714,0.09503657048508196,-1.064520337399313
0.006097770000000001,0.09538042345853735,-1.064174763084807
0.0060984,0.09675583535235267,-1.064174763084807
0.00609903,0.09675583535235267,-1.064520337399313
0.00609966,0.09778739427271464,-1.065211486028325
0.00610029,0.09847510021962277,-1.065211486028325
0.00610092,0.0984751002196234,-1.065211486028325
0.00610155,0.0984751002196234,-1.064520337399313
0.00610218,0.1001943650868951,-1.064865911713818
0.00610281,0.1012259240072572,-1.064174763084806
0.00610344,0.1026013359010731,-1.0638291887703
0.00610407,0.1029451888745271,-1.064865911713819
0.006104699999999999,0.1036328948214349,-1.065211486028325
0.00610533,0.1039767477948897,-1.064865911713819
0.006105960000000001,0.1046644537417986,-1.063829188770301
0.00610659,0.1053521596887064,-1.064174763084807
0.00610722,0.1056960126621604,-1.064174763084807
0.00610785,0.1067275715825224,-1.063829188770301
0.006108479999999999,0.1067275715825228,-1.0638291887703
0.00610911,0.1067275715825228,-1.064174763084807
0.00610974,0.1077591305028848,-1.064520337399313
0.00611037,0.108446836449794,-1.064865911713819
0.006111,0.109478395370156,-1.064865911713819
0.00611163,0.1105099542905179,-1.064865911713819
0.00611226,0.1115415132108804,-1.064520337399313
0.00611289,0.1118853661843351,-1.064174763084807
0.00611352,0.1122292191577891,-1.064865911713819
0.00611415,0.1122292191577891,-1.065211486028325
0.00611478,0.1122292191577894,-1.065211486028325
0.00611541,0.1129169251046974,-1.065211486028325
0.00611604,0.1139484840250594,-1.065211486028325
0.006116669999999999,0.1146361899719675,-1.064520337399314
0.0061173,0.1156677488923305,-1.064174763084807
0.006117930000000001,0.116011601865785,-1.063829188770301
0.00611856,0.1163554548392388,-1.064865911713819
0.00611919,0.1163554548392388,-1.064520337399313
0.00611982,0.1170431607861468,-1.064174763084807
0.00612045,0.1173870137596009,-1.063829188770301
0.00612108,0.1184185726799637,-1.064520337399313
0.00612171,0.1187624256534177,-1.064865911713819
0.00612234,0.1194501316003264,-1.064865911713819
0.00612297,0.1197939845737806,-1.064520337399313
0.0061236,0.1204816905206886,-1.064520337399313
0.00612423,0.1211693964675965,-1.064520337399313
0.00612486,0.1218571024145054,-1.064520337399313
0.00612549,0.1225448083614134,-1.0638291887703
0.006126120000000001,0.1232325143083226,-1.063829188770301
0.00612675,0.1242640732286843,-1.064174763084807
0.00612738,0.1246079262021383,-1.065211486028325
0.00612801,0.1246079262021383,-1.064520337399313
0.006128639999999999,0.1252956321490459,-1.064174763084807
0.00612927,0.1259833380959549,-1.0638291887703
0.006129900000000001,0.1342358094589159,0.2583381385310382
0.00613053,0.2019748452293381,1.082187304312989
0.00613116,0.2408302312296386,1.086334196087062
0.00613179,0.2446126139376325,1.084260750200025
0.00613242,0.2397986723092806,1.08045943274046
0.00613305,0.2315462009463768,1.078040412538914
0.00613368,0.2222621706631149,1.075621392337371
0.00613431,0.2126342874063905,1.073547946450333
0.00613494,0.2033502571231326,1.072511223506815
0.00613557,0.193722373866421,1.072165649192309
0.0061362,0.1854699025035254,1.071820074877803
0.006136829999999999,0.1768735781671759,1.070783351934285
0.00613746,0.1699965186980852,1.070092203305272
0.006138090000000001,0.1644948711228136,1.070092203305272
0.00613872,0.1586493705740959,1.070092203305272
0.00613935,0.1531477229988321,1.070437777619778
0.00613998,0.1473022224501144,1.070437777619778
0.006140609999999999,0.1421444278483043,1.069746628990766
0.00614124,0.138362045140304,1.069746628990766
0.00614187,0.1345796624323101,1.06940105467626
0.0061425,0.1314849856712197,1.068018757418235
0.00614313,0.1283903089101338,1.068018757418235
0.00614376,0.1256394851225019,1.068018757418235
0.00614439,0.1228886613348688,1.068018757418235
0.00614502,0.12151324944105,1.068018757418235
0.00614565,0.1194501316003261,1.068018757418235
0.00614628,0.1184185726799615,1.068364331732741
0.00614691,0.1160116018657839,1.068364331732741
0.00614754,0.114292336998514,1.068018757418235
0.00614817,0.1122292191577901,1.067673183103729
0.006148799999999999,0.1108538072639738,1.067673183103729
0.00614943,0.1101661013170643,1.067673183103729
0.006150060000000001,0.109478395370155,1.067327608789223
0.00615069,0.1084468364497929,1.067673183103729
0.00615132,0.107071424555977,1.067673183103729
0.00615195,0.106039865635615,1.067327608789223
0.00615258,0.1043206007683454,1.066290885845705
0.00615321,0.1032890418479814,1.066290885845704
0.00615384,0.1029451888745274,1.067327608789222
0.00615447,0.1026013359010725,1.066982034474716
0.0061551,0.1019136299541642,1.06663646016021
0.00615573,0.1005382180603483,1.06663646016021
0.00615636,0.09985051211344029,1.066290885845704
0.00615699,0.09881895319307692,1.06663646016021
0.00615762,0.09744354129926097,1.06663646016021
0.006158250000000001,0.09675583535235299,1.066982034474716
0.00615888,0.09709968832580634,1.066290885845704
0.00615951,0.09606812940544439,1.066290885845704
0.00616014,0.0957242764319904,1.066982034474716
0.006160769999999999,0.09538042345853642,1.066982034474716
0.0061614,0.09469271751162782,1.06663646016021
0.006162030000000001,0.09297345264435648,1.066636460160209
0.00616266,0.09228574669744867,1.065945311531198
0.00616329,0.09194189372399468,1.065254162902185
0.00616392,0.09125418777708671,1.065945311531198
0.00616455,0.09159804075054022,1.065945311531198
0.00616518,0.09091033480363192,1.065945311531198
0.00616581,0.09022262885672395,1.065599737216692
0.00616644,0.08884721696290644,1.065254162902185
0.00616707,0.08781565804254449,1.064908588587679
0.0061677,0.08678409912218253,1.064908588587679
0.00616833,0.08609639317527457,1.064908588587679
0.006168959999999999,0.08575254020182042,1.064908588587679
0.00616959,0.08506483425491182,1.065254162902185
0.006170220000000001,0.08472098128145705,1.064563014273173
0.00617085,0.08403327533454923,1.064563014273173
0.00617148,0.08368942236109524,1.064563014273173
0.00617211,0.08368942236109524,1.064908588587679
0.006172739999999999,0.08265786344073375,1.064217439958668
0.00617337,0.08197015749382452,1.064908588587679
0.006174,0.08093859857346257,1.064563014273173
0.00617463,0.08025089262655397,1.064563014273173
0.00617526,0.08059474560000796,1.064217439958667
0.00617589,0.07921933370619139,1.064908588587679
0.00617652,0.07853162775928342,1.065254162902185
0.00617715,0.07818777478582863,1.065599737216691
0.00617778,0.07750006883892066,1.065254162902185
0.00617841,0.07681236289201175,1.064908588587679
0.00617904,0.07612465694510362,1.064563014273173
0.00617967,0.07509309802474166,1.064563014273173
0.0061803,0.07474924505128767,1.064908588587679
0.006180929999999999,0.07474924505128752,1.064908588587679
0.00618156,0.07440539207783338,1.063871865644161
0.006182190000000001,0.07371768613092447,1.063871865644162
0.00618282,0.07302998018401619,1.064908588587679
0.00618345,0.07165456829020023,1.065254162902185
0.00618408,0.07062300936983827,1.064908588587679
0.00618471,0.06993530342293014,1.064217439958668
0.00618534,0.06959145044947537,1.063526291329655
0.00618597,0.06855989152911342,1.063871865644161
0.0061866,0.06890374450256646,1.064908588587679
0.00618723,0.06821603855565865,1.064563014273173
0.00618786,0.06787218558220466,1.064563014273173
0.00618849,0.06649677368838872,1.064563014273173
0.006189119999999999,0.06580906774148042,1.064217439958667
0.00618975,0.06443365584766322,1.064908588587679
0.006190380000000001,0.0644336558476629,1.064908588587679
0.00619101,0.06408980287420876,1.064217439958667
0.00619164,0.0634020969273008,1.064563014273173
0.00619227,0.06271439098039283,1.064217439958667
0.006192899999999999,0.06202668503348485,1.064217439958667
0.00619353,0.0609951261131218,1.064563014273173
0.006194160000000001,0.05996356719275875,1.063180717015149
0.00619479,0.05927586124585078,1.063871865644161
0.00619542,0.0585881552989428,1.064563014273173
0.00619605,0.0585881552989428,1.064563014273173
0.00619668,0.05824430232548897,1.064217439958667
0.00619731,0.05790044935203419,1.063871865644161
0.00619794,0.05721274340512622,1.063871865644161
0.00619857,0.056525037458217,1.063526291329655
0.0061992,0.05549347853785504,1.063526291329655
0.00619983,0.05446191961749308,1.064217439958667
0.00620046,0.05377421367058511,1.064563014273173
0.006201089999999999,0.0537742136705848,1.064908588587679
0.00620172,0.05274265475022237,1.063871865644161
0.006202350000000001,0.0523988017767676,1.063526291329655
0.00620298,0.05171109582985978,1.063871865644161
0.00620361,0.05136724285640579,1.064217439958667
0.00620424,0.05067953690949781,1.063871865644161
0.006204869999999999,0.04930412501568218,1.063180717015149
0.0062055,0.04861641906877265,1.063871865644161
0.00620613,0.0472410071749567,1.063871865644161
0.00620676,0.04724100717495608,1.063871865644161
0.00620739,0.04724100717495608,1.064217439958667
0.00620802,0.04655330122804779,1.064217439958667
0.00620865,0.04655330122804779,1.063871865644161
0.00620928,0.04552174230768537,1.064217439958667
0.00620991,0.04552174230768537,1.064217439958667
0.006210540000000001,0.04449018338732261,1.064563014273173
0.00621117,0.04414633041386862,1.064217439958667
0.0062118,0.04380247744041464,1.064217439958667
0.00621243,0.04173935959969072,1.064908588587679
0.006213059999999999,0.04105165365278213,1.064908588587679
0.00621369,0.04036394770587322,1.064908588587679
0.006214320000000001,0.04002009473241908,1.064908588587679
0.00621495,0.0400200947324186,1.064563014273173
0.00621558,0.03898853581205663,1.064563014273173
0.00621621,0.03795697689169468,1.064563014273173
0.00621684,0.03761312391824038,1.064217439958667
0.00621747,0.03658156499787764,1.063871865644161
0.0062181,0.03555000607751568,1.064908588587679
0.00621873,0.03520615310406076,1.064908588587679
0.00621936,0.03486230013060693,1.064563014273173
0.00621999,0.03486230013060693,1.064217439958667
0.00622062,0.03486230013060693,1.064217439958667
0.006221249999999999,0.03383074121024544,1.063871865644161
0.00622188,0.03348688823679036,1.063871865644161
0.006222510000000001,0.03245532931642698,1.063871865644161
0.00622314,0.03142377039606518,1.063526291329655
0.00622377,0.03073606444915721,1.063871865644161
0.0062244,0.02970450552879525,1.064563014273173
0.006225029999999999,0.02970450552879478,1.064908588587679
0.00622566,0.02901679958188649,1.064563014273173
0.006226290000000001,0.02867294660843204,1.064217439958667
0.00622692,0.02832909363497821,1.064217439958667
0.00622755,0.02832909363497821,1.063526291329655
0.00622818,0.02729753471461625,1.063526291329655
0.00622881,0.02660982876770811,1.064563014273172
0.00622944,0.02626597579425304,1.064217439958667
0.00623007,0.02557826984734506,1.063526291329655
0.0062307,0.02489056390043584,1.063180717015148
0.00623133,0.02385900498007403,1.063180717015148
0.00623196,0.02317129903316606,1.063180717015148
0.00623259,0.02282744605971207,1.063180717015148
0.006233219999999999,0.02213974011280425,1.062835142700643
0.00623385,0.02145203416589534,1.063871865644161
0.006234480000000001,0.01973276929862494,1.063526291329655
0.00623511,0.02007662227207815,1.063526291329655
0.00623574,0.0187012103782622,1.063526291329655
0.00623637,0.0187012103782622,1.064217439958667
0.006236999999999999,0.0176696514579007,1.063526291329655
0.00623763,0.01732579848444563,1.063871865644161
0.00623826,0.01629423956408366,1.063871865644161
0.00623889,0.01560653361717428,1.063871865644161
0.00623952,0.01423112172335834,1.063871865644161
0.00624015,0.01354341577645005,1.063526291329655
0.00624078,0.01285570982954208,1.063871865644161
0.00624141,0.01285570982954145,1.063526291329655
0.00624204,0.01216800388263348,1.063871865644161
0.006242670000000001,0.01079259198881691,1.063180717015148
0.0062433,0.0107925919888166,1.063180717015149
0.00624393,0.01010488604190862,1.063871865644161
0.00624456,0.01010488604190862,1.063871865644161
0.006245189999999999,0.008385621174639469,1.063871865644161
0.00624582,0.008041768201183762,1.063871865644161
0.006246450000000001,0.006666356307367191,1.064217439958667
0.00624708,0.006666356307367035,1.063871865644161
0.00624771,0.006322503333913048,1.064217439958667
