Module2/opampdata/Module2.2kHz.csv

#Digilent WaveForms Oscilloscope Acquisition
#Device Name: Discovery2
#Serial Number: SN:210321AC1D4D
#Date Time: 2020-10-28 18:32:53.722
#Sample rate: 400000Hz
#Samples: 8192
#Trigger: Source: Channel 1 Type: Edge Condition: Rising Level: 0 V Hyst.: Auto HoldOff: 0 s
#Channel 1: Range: 100 mV/div Offset: 0 V Attenuation: 1 X
#Channel 2: Range: 500 mV/div Offset: 0 V Attenuation: 1 X
#Wavegen Channel 1: Running
#Mode: Simple
#Type: Triangle
#Frequency: 2 kHz
#Period: 500 us
#Amplitude: 1 V
#Offset: 0 V
#Symmetry: 50 %
#Phase: 0 ¡Æ
#Wavegen Channel 2: Running
#Mode: Simple
#Type: DC
#Offset: 3 V
#Power Supplies: ON
#Positive Supply: ON
#Voltage: 4 V
#Negative Supply: ON
#Voltage: -4 V

Time (s),Channel 1 (V),Channel 2 (V)
-0.001489318181818182,0.01285570982954177,-0.8882774370011683
-0.001486818181818181,0.01595038659062905,-0.8678885524453046
-0.00148431818181818,0.01766965145790055,-0.8481908165184439
-0.001481818181818181,0.01938891632517048,-0.8278019319625894
-0.001479318181818181,0.02007662227207877,-0.8074130474067256
-0.001476818181818182,0.02317129903316606,-0.7880608857943804
-0.001474318181818181,0.02454671092698263,-0.7673264269240104
-0.001471818181818182,0.02729753471461453,-0.7479742653116739
-0.001469318181818181,0.02970450552879478,-0.7268942321267891
-0.00146681818181818,0.03107991742261182,-0.7068509218854223
-0.001464318181818181,0.03211147634297377,-0.6868076116440739
-0.00146181818181818,0.033143035263337,-0.6671098757172135
-0.001459318181818181,0.03486230013060693,-0.6474121397903709
-0.001456818181818181,0.03589385905096935,-0.6273688295490134
-0.001454318181818182,0.03830082986514835,-0.6069799449931496
-0.001451818181818181,0.04002009473241908,-0.5872822090662981
-0.001449318181818182,0.04139550662623502,-0.5672388988249497
-0.001446818181818181,0.04173935959968979,-0.5465044399545707
-0.00144431818181818,0.04311477149350698,-0.5268067040277097
-0.001441818181818181,0.04449018338732293,-0.5057266708428431
-0.00143931818181818,0.04483403636077754,-0.4867200835449947
-0.001436818181818181,0.04586559528113951,-0.4663311989891402
-0.001434318181818181,0.04792871312186436,-0.4462878887477826
-0.001431818181818182,0.04896027204222632,-0.4265901528209401
-0.001429318181818181,0.05033568393604336,-0.4065468425795736
-0.001426818181818182,0.05136724285640532,-0.3861579580237191
-0.001424318181818181,0.05102338988295164,-0.3661146477823522
-0.00142181818181818,0.05102338988295227,-0.3457257632264795
-0.001419318181818181,0.05239880177676823,-0.326028027299637
-0.001416818181818181,0.0537742136705848,-0.3056391427437732
-0.001414318181818182,0.05411806664403894,-0.2855958325024157
-0.001411818181818181,0.05514962556440137,-0.2658980965755642
-0.001409318181818182,0.05618118448476332,-0.2455092120197097
-0.001406818181818181,0.05514962556440137,-0.2254659017783429
-0.001404318181818182,0.05618118448476332,-0.2057681658515003
-0.001401818181818181,0.05686889043167208,-0.1853792812956276
-0.00139931818181818,0.05686889043167224,-0.1653359710542607
-0.001396818181818181,0.05721274340512622,-0.1449470864984063
-0.001394318181818181,0.05755659637858036,-0.1249037762570487
-0.001391818181818182,0.05790044935203451,-0.1052060403301972
-0.001389318181818181,0.05790044935203451,-0.08550830440334578
-0.001386818181818182,0.05858815529894249,-0.06477384553298529
-0.001384318181818181,0.05824430232548866,-0.04473053529161825
-0.00138181818181818,0.05824430232548882,-0.02503279936475755
-0.001379318181818181,0.0585881552989428,-0.004643914808903049
-0.00137681818181818,0.05927586124585062,0.01505382111795766
-0.001374318181818181,0.05824430232548866,0.03544270567381216
-0.001371818181818181,0.05893200827239695,0.05514044160066359
-0.001369318181818182,0.0585881552989428,0.0751837518420212
-0.001366818181818181,0.05824430232548866,0.09591821071239112
-0.001364318181818182,0.05790044935203466,0.1152703723247276
-0.001361818181818181,0.0585881552989428,0.1356592568806002
-0.00135931818181818,0.0572127434051256,0.1550114184929547
-0.001356818181818181,0.05583733151130965,0.1754003030488092
-0.00135431818181818,0.05549347853785567,0.1957891876046821
-0.001351818181818181,0.05583733151130965,0.2158324978460306
-0.001349318181818181,0.05514962556440137,0.2358758080873882
-0.001346818181818182,0.05411806664403941,0.2559191183287367
-0.001344318181818181,0.05411806664403894,0.2756168542555972
-0.001341818181818182,0.05239880177676901,0.2953145901824397
-0.001339318181818181,0.05171109582985994,0.3160490490528186
-0.00133681818181818,0.05033568393604367,0.3357467849796794
-0.001334318181818181,0.05102338988295164,0.3564812438500399
-0.001331818181818181,0.04999183096258922,0.3758334054623852
-0.001329318181818182,0.04896027204222679,0.396222290018249
-0.001326818181818181,0.04827256609531851,0.4162656002596066
-0.001324318181818182,0.04655330122804858,0.4359633361864491
-0.001321818181818181,0.04517788933423121,0.4563522207423218
-0.001319318181818182,0.04449018338732324,0.4763955309836703
-0.001316818181818181,0.04311477149350636,0.496438841225037
-0.00131431818181818,0.04139550662623502,0.5168277257809099
-0.001311818181818181,0.04002009473241908,0.5368710360222584
-0.001309318181818181,0.03933238878551079,0.5569143462636159
-0.001306818181818182,0.03795697689169421,0.5762665078759612
-0.001304318181818181,0.03692541797133178,0.5959642438028127
-0.001301818181818182,0.03623771202442381,0.6173898513021852
-0.001299318181818181,0.03314303526333622,0.6367420129145401
-0.00129681818181818,0.03176762336951916,0.6567853231559069
-0.001294318181818181,0.03073606444915721,0.6768286333972554
-0.00129181818181818,0.03004835850224767,0.6961807950096102
-0.001289318181818181,0.02729753471461578,0.7172608281944768
-0.001286818181818181,0.02557826984734506,0.7369585641213282
-0.001284318181818182,0.02420285795352849,0.7566563000481796
-0.001281818181818181,0.02145203416589534,0.7770451846040434
-0.001279318181818182,0.02042047524553338,0.7963973462163799
-0.001276818181818181,0.0187012103782622,0.8167862307722524
-0.00127431818181818,0.01595038659062812,0.8378662639571369
-0.001271818181818181,0.0138872687499042,0.8565272769404615
-0.00126931818181818,0.0118241509091784,0.8765705871818285
-0.001266818181818181,0.009761033068454479,0.8969594717376829
-0.001264318181818181,0.00769791522772962,0.9166572076645343
-0.001261818181818182,0.006666356307367191,0.9363549435913857
-0.001259318181818181,0.005290944413550618,0.9570894024617557
-0.001256818181818182,0.0008208557586487902,0.9771327127031042
-0.001254318181818181,-0.001242262082078101,0.9961393000009524
-0.00125181818181818,-0.004336938843167265,0.9888822393963139
-0.001249318181818181,-0.008463174524615105,0.9691845034694715
-0.001246818181818181,-0.01293326317951897,0.9487956189136076
-0.001244318181818182,-0.01602793994060625,0.9287523086722501
-0.001241818181818181,-0.01843491075478526,0.9080178498018802
-0.001239318181818182,-0.02118573454241715,0.8886656881895436
-0.001236818181818181,-0.02324885238314326,0.8686223779481773
-0.001234318181818182,-0.0249681172504132,0.8482334933923228
-0.001231818181818181,-0.02737508806459298,0.8281901831509559
-0.00122931818181818,-0.02978205887877229,0.8081468729095892
-0.001226818181818181,-0.03046976482568026,0.7881035626682407
-0.001224318181818181,-0.03287673563985927,0.7684058267413892
-0.001221818181818182,-0.03425214753367584,0.7480169421855255
-0.001219318181818181,-0.03597141240094655,0.7283192062586741
-0.001216818181818182,-0.03700297132130852,0.7079303217028197
-0.001214318181818181,-0.04044150105585041,0.6878870114614527
-0.00121181818181818,-0.04147305997621331,0.668189275534592
-0.001209318181818181,-0.04250461889657527,0.6478003909787375
-0.00120681818181818,-0.04422388376384646,0.6277570807373709
-0.001204318181818181,-0.04525544268420842,0.6080593448105285
-0.001201818181818181,-0.04663085457802499,0.5880160345691708
-0.001199318181818182,-0.04766241349838742,0.5679727243278132
-0.001196818181818181,-0.05006938431256643,0.5475838397719495
-0.001194318181818182,-0.05041323728602041,0.5275405295306009
-0.001191818181818181,-0.05213250215329128,0.5074972192892343
-0.00118931818181818,-0.05350791404710832,0.4874539090478674
-0.001186818181818181,-0.05453947296747028,0.4670650244920129
-0.00118431818181818,-0.0548833259409252,0.4473672885651523
-0.001181818181818181,-0.05660259080819514,0.4273239783238039
-0.001179318181818181,-0.05660259080819514,0.4072806680824463
-0.001176818181818182,-0.05763414972855757,0.3875829321555948
-0.001174318181818181,-0.05935341459582828,0.3668484732852249
-0.001171818181818182,-0.05969726756928227,0.3474963116728885
-0.001169318181818181,-0.06004112054273657,0.3267618528025097
-0.00116681818181818,-0.06107267946309947,0.3067185425611428
-0.001164318181818181,-0.06210423838346144,0.2863296580052883
-0.001161818181818181,-0.06176038541000729,0.2673230707074492
-0.001159318181818181,-0.06244809135691558,0.2472797604660916
-0.001156818181818181,-0.06382350325073215,0.2265453015957217
-0.001154318181818182,-0.06416735622418614,0.2068475656688792
-0.001151818181818181,-0.06382350325073215,0.1868042554275127
-0.001149318181818182,-0.0648550621710941,0.1671065195006702
-0.001146818181818181,-0.06485506217109457,0.1463720606302913
-0.00114431818181818,-0.065886621091457,0.1263287503889246
-0.001141818181818181,-0.065886621091457,0.1062854401475761
-0.001139318181818181,-0.0665743270383653,0.08589655559171232
-0.001136818181818182,-0.06554276811800286,0.06619881966486089
-0.001134318181818181,-0.06623047406491114,0.04615550942350329
-0.001131818181818182,-0.06623047406491114,0.0261121991821548
-0.001129318181818181,-0.065886621091457,0.006068888940788083
-0.001126818181818182,-0.065886621091457,-0.01466556992957242
-0.001124318181818181,-0.06623047406491114,-0.03436330585643329
-0.00112181818181818,-0.06588662109145668,-0.05475219041230601
-0.001119318181818181,-0.06519891514454872,-0.07444992633914849
-0.001116818181818181,-0.06554276811800286,-0.09483881089501225
-0.001114318181818182,-0.06485506217109457,-0.1148821211363699
-0.001111818181818181,-0.06416735622418629,-0.1352710056922336
-0.001109318181818182,-0.06451120919764028,-0.1546231673045701
-0.001106818181818181,-0.063479650277278,-0.1750120518604427
-0.00110431818181818,-0.06313579730382339,-0.1947097877873034
-0.001101818181818181,-0.06210423838346144,-0.2150986723431579
-0.00109931818181818,-0.06279194433036894,-0.2351419825845249
-0.001096818181818181,-0.06107267946309899,-0.2558764414548854
-0.001094318181818181,-0.06038497351619071,-0.2755741773817368
-0.001091818181818182,-0.06004112054273657,-0.2956174876230945
-0.001089318181818181,-0.05969726756928243,-0.3156607978644521
-0.001086818181818182,-0.05866570864892047,-0.3350129594767885
-0.001084318181818181,-0.05763414972855757,-0.3550562697181549
-0.00108181818181818,-0.0572902967551028,-0.3750995799595218
-0.001079318181818181,-0.05591488486128686,-0.3954884645153763
-0.001076818181818181,-0.05522717891437857,-0.415531774756743
-0.001074318181818181,-0.05522717891437857,-0.4355750849980915
-0.001071818181818181,-0.05350791404710785,-0.4556183952394491
-0.001069318181818182,-0.05178864917983792,-0.4756617054807976
-0.001066818181818181,-0.05144479620638299,-0.4953594414076581
-0.001064318181818182,-0.05041323728602104,-0.5160939002780186
-0.001061818181818181,-0.04766241349838742,-0.5361372105193857
-0.00105931818181818,-0.04766241349838694,-0.5554893721317404
-0.001056818181818181,-0.04663085457802499,-0.5762238310021008
-0.001054318181818181,-0.04456773673730013,-0.5959215669289523
-0.001051818181818182,-0.04250461889657527,-0.6166560257993222
-0.001049318181818181,-0.0411292070027587,-0.6360081874116675
-0.001046818181818182,-0.03940994213548877,-0.656051497653016
-0.001044318181818181,-0.03734682429476313,-0.6760948078943827
-0.001041818181818182,-0.03700297132130915,-0.6961381181357312
-0.001039318181818181,-0.03493985348058412,-0.7158358540625918
-0.00103681818181818,-0.03253288266640465,-0.7369158872474766
-0.001034318181818181,-0.0315013237460427,-0.7562680488598131
-0.001031818181818181,-0.03012591185222612,-0.7763113591011708
-0.001029318181818182,-0.02737508806459298,-0.7963546693425283
-0.001026818181818181,-0.02531197022386812,-0.8160524052693797
-0.001024318181818182,-0.02428041130350616,-0.8367868641397402
-0.001021818181818181,-0.02221729346278083,-0.856139025752095
-0.00101931818181818,-0.01946646967514722,-0.8761823359934616
-0.001016818181818181,-0.01843491075478526,-0.8962256462348102
-0.00101431818181818,-0.01534023399369687,-0.9162689564761769
-0.001011818181818181,-0.01293326317951897,-0.9363122667175253
-0.001009318181818181,-0.01087014533879411,-0.9567011512733892
-0.001006818181818182,-0.009494733444977536,-0.9763988872002406
-0.001004318181818181,-0.006400056683890248,-0.9954054744980797
-0.001001818181818182,-0.00296152694935038,-0.9891851368369715
-0.0009993181818181811,0.0004770027851926145,-0.9691418265956111
-0.0009968181818181803,0.004259385493189908,-0.9484073677252322
-0.0009943181818181813,0.008041768201183762,-0.9287096317983897
-0.0009918181818181805,0.01010488604190987,-0.9086663215570226
-0.0009893181818181815,0.01285570982954177,-0.8879318626866622
-0.0009868181818181807,0.01491882767026662,-0.8675429781307984
-0.0009843181818181817,0.01766965145789852,-0.84749966788945
-0.0009818181818181809,0.01904506335171634,-0.8274563576480832
-0.0009793181818181819,0.02110818119244027,-0.8077586217212408
-0.0009768181818181811,0.02420285795352849,-0.7873697371653681
-0.0009743181818181804,0.02454671092698373,-0.7673264269240013
-0.0009718181818181813,0.02695368174116163,-0.7472831166826528
-0.0009693181818181806,0.02936065255534064,-0.7272398064412953
-0.0009668181818181815,0.03004835850224892,-0.7068509218854314
-0.0009643181818181808,0.03176762336951963,-0.6868076116440739
-0.0009618181818181817,0.03383074121024356,-0.6674554500317373
-0.000959318181818181,0.03451844715715278,-0.6474121397903709
-0.0009568181818181819,0.0365815649978767,-0.6270232552345165
-0.0009543181818181812,0.03795697689169421,-0.6069799449931496
-0.0009518181818181804,0.03898853581205695,-0.587282209066289
-0.0009493181818181814,0.03967624175896493,-0.5672388988249406
-0.0009468181818181806,0.04173935959968979,-0.5461588656400644
-0.0009443181818181816,0.04311477149350636,-0.5268067040277192
-0.0009418181818181808,0.0434586244669605,-0.5064178194718554
-0.0009393181818181818,0.04586559528113841,-0.486374509230507
-0.000936818181818181,0.04689715420150194,-0.4670223476181526
-0.0009343181818181803,0.04724100717495655,-0.4466334630622799
-0.0009318181818181812,0.04827256609531851,-0.4269357271354374
-0.0009293181818181805,0.0503356839360432,-0.4068924168940705
-0.0009268181818181814,0.04999183096258922,-0.386503532338216
-0.0009243181818181807,0.0506795369094975,-0.3661146477823522
-0.0009218181818181816,0.05239880177676823,-0.3460713375409946
-0.0009193181818181809,0.05274265475022237,-0.326028027299637
-0.0009168181818181818,0.05308650772367635,-0.3066758656873006
-0.0009143181818181811,0.05480577259094722,-0.286286981131428
-0.0009118181818181803,0.05446191961749308,-0.2665892452045673
-0.0009093181818181813,0.05446191961749308,-0.2462003606487128
-0.0009068181818181805,0.05549347853785613,-0.2265026247218519
-0.0009043181818181815,0.05686889043167208,-0.2057681658514914
-0.0009018181818181807,0.05583733151130965,-0.18607042992464
-0.0008993181818181817,0.0572127434051256,-0.1660271196832915
-0.0008968181818181809,0.0585881552989428,-0.1459838094419247
-0.0008943181818181819,0.05755659637858083,-0.1255949248860703
-0.0008918181818181811,0.05755659637858036,-0.1055516146447034
-0.0008893181818181804,0.05858815529894296,-0.08516273008883082
-0.0008868181818181813,0.05893200827239695,-0.06581056847649434
-0.0008843181818181806,0.05790044935203451,-0.04542168392063058
-0.0008818181818181815,0.05893200827239695,-0.02468722505026065
-0.0008793181818181808,0.05927586124585109,-0.00533506343791538
-0.0008768181818181817,0.05790044935203513,0.01505382111793912
-0.000874318181818181,0.05824430232548866,0.03475155704479983
-0.0008718181818181819,0.05893200827239663,0.05479486728614831
-0.0008693181818181812,0.05790044935203451,0.0751837518420212
-0.0008668181818181804,0.05755659637858052,0.0948814877688819
-0.0008643181818181814,0.05790044935203451,0.1152703723247364
-0.0008618181818181806,0.05755659637858036,0.1356592568806002
-0.0008593181818181816,0.05652503745821794,0.1546658441784393
-0.0008568181818181808,0.05686889043167208,0.1754003030488092
-0.0008543181818181818,0.05686889043167208,0.1957891876046637
-0.000851818181818181,0.05480577259094722,0.2158324978460306
-0.0008493181818181803,0.05514962556440105,0.2355302337728911
-0.0008468181818181812,0.05446191961749308,0.2555735440142396
-0.0008443181818181805,0.05343036069713018,0.2756168542556064
-0.0008418181818181814,0.05239880177676823,0.296005738811461
-0.0008393181818181807,0.05239880177676823,0.3157034747383124
-0.0008368181818181816,0.05102338988295164,0.33574678497967
-0.0008343181818181809,0.04999183096258922,0.3561356695355338
-0.0008318181818181818,0.04930412501568125,0.3761789797768822
-0.0008293181818181811,0.04964797798913508,0.396222290018249
-0.0008268181818181803,0.04689715420150162,0.4159200259451095
-0.0008243181818181813,0.04620944825459365,0.435963336186458
-0.0008218181818181805,0.0462094482545924,0.4563522207423307
-0.0008193181818181815,0.0434586244669605,0.4760499566691732
-0.0008168181818181807,0.04277091852005221,0.4960932669105308
-0.0008143181818181817,0.04277091852005221,0.5164821514663853
-0.0008118181818181809,0.0410516536527815,0.5368710360222584
-0.0008093181818181819,0.03864468283860359,0.5569143462636068
-0.0008068181818181811,0.03898853581205663,0.5762665078759612
-0.0008043181818181803,0.03692541797133053,0.5973465410608459
-0.0008018181818181813,0.03417459418369864,0.6163531283586764
-0.0007993181818181806,0.03417459418369864,0.6360508642855278
-0.0007968181818181815,0.03314303526333622,0.6567853231558978
-0.0007943181818181808,0.03039221147570306,0.6768286333972554
-0.0007918181818181817,0.02867294660843313,0.6975630922676159
-0.000789318181818181,0.02798524066152406,0.7169152538799706
-0.0007868181818181819,0.02592212282080014,0.737304138435825
-0.0007843181818181812,0.02282744605971192,0.7566563000481796
-0.0007818181818181804,0.02213974011280254,0.7770451846040527
-0.0007793181818181814,0.01973276929862463,0.7974340691599072
-0.0007768181818181806,0.01732579848444563,0.8171318050867586
-0.0007743181818181816,0.0162942395640832,0.8371751153281162
-0.0007718181818181808,0.01457497469681248,0.8561817026259553
-0.0007693181818181818,0.01182415090918059,0.8776073101253278
-0.000766818181818181,0.01010488604190862,0.8962683231086706
-0.0007643181818181802,0.008385621174636343,0.9170027819790494
-0.0007618181818181812,0.004947091440096475,0.9367005179058919
-0.0007593181818181804,0.002883973599371147,0.9570894024617644
-0.0007568181818181814,0.001852414679009187,0.9764415640741009
-0.0007543181818181807,-0.001929968028986387,0.9961393000009524
-0.0007518181818181816,-0.005024644790073675,0.9895733880253352
-0.0007493181818181809,-0.008807027498069249,0.9695300777839776
-0.0007468181818181818,-0.01224555723260912,0.9487956189136171
-0.0007443181818181811,-0.0163717929140604,0.9290978829867562
-0.0007418181818181803,-0.01843491075478651,0.9083634241163773
-0.0007393181818181813,-0.0211857345424184,0.8886656881895348
-0.0007368181818181805,-0.02428041130350631,0.8686223779481679
-0.0007343181818181815,-0.02565582319732226,0.8478879190778074
-0.0007318181818181807,-0.02703123509113883,0.828535757465462
-0.0007293181818181817,-0.02978205887877073,0.8084924472241136
-0.0007268181818181809,-0.03184517671949684,0.7884491369827469
-0.0007243181818181819,-0.03253288266640481,0.7680602524268925
-0.0007218181818181811,-0.03459600050712998,0.7480169421855255
-0.0007193181818181803,-0.0370029713213093,0.7283192062586648
-0.0007168181818181813,-0.03769067726821727,0.7079303217028103
