Module2/opampdata/Module2tri_2kHz_capa양단.csv

#Digilent WaveForms Oscilloscope Acquisition
#Device Name: Discovery2
#Serial Number: SN:210321AC1D4D
#Date Time: 2020-10-28 18:42:39.134
#Sample rate: 1.5873e+06Hz
#Samples: 8192
#Trigger: Source: Channel 1 Type: Edge Condition: Rising Level: 0 V Hyst.: Auto HoldOff: 0 s
#Channel 1: Range: 100 mV/div Offset: 0 V Attenuation: 1 X
#Channel 2: Range: 500 mV/div Offset: 0 V Attenuation: 1 X
#Wavegen Channel 1: Running
#Mode: Simple
#Type: Triangle
#Frequency: 2 kHz
#Period: 500 us
#Amplitude: 1 V
#Offset: 0 V
#Symmetry: 50 %
#Phase: 0 ¡Æ
#Wavegen Channel 2: Running
#Mode: Simple
#Type: DC
#Offset: 3 V
#Power Supplies: ON
#Positive Supply: ON
#Voltage: 4 V
#Negative Supply: ON
#Voltage: -4 V

Time (s),Channel 1 (V),Channel 2 (V)
0.0060102,0.009761033068455417,-1.010956318650852
0.00601083,0.01079259198881706,-1.005427129618756
0.00601146,0.01113644496227105,-0.9998979405866598
0.006012089999999999,0.01182415090917902,-0.9943687515545637
0.006012719999999999,0.01285570982954083,-0.9888395625224675
0.00601335,0.01354341577645005,-0.9836559478048701
0.006013979999999999,0.01388726874990404,-0.978817907401786
0.00601461,0.01491882767026662,-0.9739798669986948
0.00601524,0.01491882767026662,-0.9681051036520926
0.00601587,0.0156065336171746,-0.9629214889345025
0.006016499999999999,0.01595038659062874,-0.9570467255879006
0.00601713,0.01663809253753734,-0.9515175365557943
0.00601776,0.01663809253753734,-0.9463339218382042
0.00601839,0.01766965145790008,-0.9404591584915949
0.00601902,0.01801350443135438,-0.9356211180885107
0.00601965,0.01904506335171634,-0.9304375033709206
0.006020279999999999,0.01938891632517033,-0.9252538886533304
0.006020909999999999,0.02007662227207815,-0.9190335509922227
0.00602154,0.02042047524553291,-0.9138499362746246
0.00602217,0.02076432821898737,-0.9086663215570271
0.0060228,0.02110818119244167,-0.9031371325249308
0.00602343,0.02213974011280363,-0.8972623691783287
0.006024059999999999,0.0228274460597116,-0.8913876058317265
0.006024689999999999,0.02351515200661958,-0.8862039911141361
0.00602532,0.02385900498007434,-0.8813659507110451
0.00602595,0.02420285795352833,-0.8754911873644429
0.00602658,0.02489056390043693,-0.8713442955903635
0.00602721,0.02523441687389107,-0.865123957929253
0.00602784,0.02557826984734506,-0.8602859175261689
0.006028469999999999,0.02626597579425304,-0.8544111541795668
0.0060291,0.02660982876770765,-0.8481908165184509
0.00602973,0.02695368174116163,-0.8430072018008606
0.00603036,0.02798524066152437,-0.8381691613977702
0.00603099,0.02832909363497836,-0.833676695309192
0.00603162,0.02867294660843235,-0.8288386549061079
0.006032249999999999,0.02936065255534032,-0.8229638915595058
0.006032879999999999,0.02936065255534064,-0.8177802768419152
0.00603351,0.03004835850224892,-0.8119055134953058
0.00603414,0.03073606444915783,-0.8056851758341901
0.00603477,0.03142377039606565,-0.8005015611166
0.0060354,0.03176762336951963,-0.7953179463990099
0.00603603,0.0324553293164276,-0.7904799059959258
0.006036659999999999,0.03279918228988175,-0.7852962912783357
0.00603729,0.03314303526333622,-0.77907595361722
0.00603792,0.03314303526333622,-0.7738923388996276
0.00603855,0.03383074121024481,-0.7690542984965353
0.00603918,0.0341745941836988,-0.7624883865209221
0.00603981,0.03451844715715278,-0.757995920432344
0.006040439999999999,0.03486230013060677,-0.7531578800292599
0.006041069999999999,0.03555000607751459,-0.7472831166826581
0.0060417,0.03555000607751521,-0.7420995019650604
0.00604233,0.03589385905096998,-0.7362247386184511
0.00604296,0.0365815649978778,-0.7313866982153664
0.00604359,0.03692541797133178,-0.7251663605542582
0.006044219999999999,0.03726927094478576,-0.7206738944656801
0.006044849999999999,0.03726927094478592,-0.7151447054335844
0.00604548,0.03795697689169421,-0.7103066650304931
0.00604611,0.03864468283860218,-0.7044319016838909
0.00604674,0.03898853581205679,-0.6985571383372812
0.00604737,0.03933238878551079,-0.693373523619691
0.006048,0.03967624175896477,-0.6878443345875949
0.006048629999999999,0.04070780067932689,-0.6830062941845082
0.00604926,0.04070780067932752,-0.677131530837899
0.00604989,0.0410516536527815,-0.6722934904348149
0.00605052,0.04139550662623596,-0.6674554500317236
0.00605115,0.04173935959968979,-0.6619262609996273
0.00605178,0.04173935959968979,-0.6560514976530251
0.006052409999999999,0.04277091852005174,-0.650867882935435
0.006053039999999999,0.04345862446695987,-0.645338693903339
0.00605367,0.04414633041386878,-0.6394639305567291
0.0060543,0.04414633041386941,-0.6342803158391326
0.00605493,0.04483403636077723,-0.6297878497505542
0.00605556,0.04517788933423121,-0.624604235032964
0.006056189999999999,0.04483403636077723,-0.6180383230573498
0.006056819999999999,0.04483403636077707,-0.6125091340252532
0.00605745,0.04586559528113951,-0.6080166679366681
0.00605808,0.04620944825459349,-0.6017963302755599
0.00605871,0.04655330122804779,-0.5966127155579621
0.00605934,0.04655330122804779,-0.591083526525864
0.00605997,0.04655330122804779,-0.5865910604372858
0.006060599999999999,0.04724100717495577,-0.5810618714051897
0.00606123,0.04792871312186436,-0.575532682373086
0.00606186,0.04792871312186436,-0.5700034933409899
0.00606249,0.04827256609531851,-0.5644743043088866
0.00606312,0.04827256609531882,-0.5592906895912965
0.00606375,0.04896027204222679,-0.5541070748737063
0.006064379999999999,0.04964797798913476,-0.5485778858416102
0.006065009999999999,0.04999183096258891,-0.543048696809514
0.00606564,0.04999183096258922,-0.5382106564064226
0.00606627,0.05033568393604398,-0.5326814673743187
0.0060669,0.0510233898829518,-0.5268067040277167
0.00606753,0.05136724285640579,-0.5212775149956206
0.00606816,0.05171109582985978,-0.5157483259635245
0.006068789999999999,0.0513672428564061,-0.51091028556044
0.00606942,0.05136724285640579,-0.5057266708428431
0.00607005,0.05205494880331409,-0.4998519074962383
0.00607068,0.05239880177676854,-0.4936315698351229
0.00607131,0.05274265475022237,-0.4887935294320388
0.00607194,0.05274265475022237,-0.4839554890289547
0.006072569999999999,0.05308650772367635,-0.4791174486258706
0.006073199999999999,0.05343036069713034,-0.4735882595937748
0.00607383,0.0537742136705848,-0.4680590705616711
0.00607446,0.05411806664403894,-0.4628754558440729
0.00607509,0.05411806664403925,-0.4566551181829651
0.00607572,0.05480577259094722,-0.451125929150869
0.006076349999999999,0.05446191961749324,-0.4462878887477849
0.006076979999999999,0.05446191961749308,-0.4414498483447007
0.00607761,0.05480577259094722,-0.4355750849980915
0.00607824,0.05514962556440121,-0.4297003216514894
0.00607887,0.05549347853785567,-0.4248622812483981
0.0060795,0.05583733151130965,-0.420024240845314
0.00608013,0.05583733151130965,-0.4151862004422299
0.006080759999999999,0.05583733151130965,-0.4096570114101316
0.00608139,0.05652503745821794,-0.4041278223780277
0.00608202,0.05652503745821794,-0.3982530590314256
0.00608265,0.05652503745821825,-0.3923782956848155
0.00608328,0.05686889043167224,-0.3865035323382138
0.00608391,0.05721274340512622,-0.3816654919351297
0.006084539999999999,0.0575565963785802,-0.3764818772175395
0.006085169999999999,0.05790044935203419,-0.3709526881854436
0.0060858,0.05824430232548866,-0.3654234991533399
0.00608643,0.05824430232548897,-0.360931033064755
0.00608706,0.05858815529894264,-0.3557474183471646
0.00608769,0.05824430232548866,-0.3498726550005624
0.006088319999999999,0.05893200827239663,-0.3450346145974784
0.006088949999999999,0.05961971421930461,-0.3391598512508767
0.00608958,0.05961971421930523,-0.3336306622187727
0.00609021,0.05961971421930523,-0.3281014731866765
0.00609084,0.05961971421930523,-0.3229178584690792
0.00609147,0.05961971421930539,-0.3177342437514868
0.0060921,0.05996356719275937,-0.3128962033484027
0.006092729999999999,0.05996356719275937,-0.3077125886308126
0.00609336,0.06030742016621368,-0.3025289739132151
0.00609399,0.06065127313966766,-0.296654210566613
0.00609462,0.06065127313966766,-0.291816170163521
0.00609525,0.06065127313966782,-0.2855958325024136
0.00609588,0.0609951261131218,-0.2811033664138355
0.006096509999999999,0.0609951261131218,-0.2759197516962453
0.006097139999999999,0.0609951261131218,-0.2696994140351377
0.00609777,0.06133897908657594,-0.2638246506885272
0.0060984,0.06202668503348423,-0.2582954616564242
0.00609903,0.06202668503348423,-0.2534574212533396
0.00609966,0.06202668503348423,-0.2475826579067374
0.00610029,0.06202668503348423,-0.2420534688746413
0.006100919999999999,0.06202668503348423,-0.2375610027860627
0.00610155,0.06237053800693837,-0.2327229623829723
0.00610218,0.06237053800693837,-0.2271937733508737
0.00610281,0.06237053800693868,-0.2220101586332758
0.00610344,0.06271439098039236,-0.2161353952866742
0.00610407,0.06237053800693837,-0.21129735488359
0.006104699999999999,0.06237053800693837,-0.2061137401659999
0.006105329999999999,0.06271439098039219,-0.1992022538758805
0.00610596,0.06271439098039251,-0.1936730648437756
0.00610659,0.06340209692730048,-0.1888350244406839
0.00610722,0.06305824395384665,-0.1829602610940823
0.00610785,0.06305824395384665,-0.1781222206909981
0.006108479999999999,0.06305824395384665,-0.172593031658902
0.006109109999999999,0.06340209692730048,-0.1674094169413117
0.00610974,0.06305824395384665,-0.1622258022237145
0.00611037,0.06340209692730064,-0.1563510388771124
0.006111,0.06374594990075494,-0.1515129984740209
0.00611163,0.06374594990075494,-0.1459838094419247
0.00611226,0.06374594990075494,-0.1404546204098286
0.006112889999999999,0.06374594990075494,-0.134579857063224
0.00611352,0.06408980287420908,-0.1300873909746385
0.00611415,0.06408980287420908,-0.1242126276280363
0.00611478,0.06374594990075494,-0.1190290129104394
0.00611541,0.06374594990075479,-0.1141909725073549
0.00611604,0.0634020969273008,-0.1083162091607527
0.006116669999999999,0.06374594990075479,-0.1038237430721746
0.006117299999999999,0.06374594990075494,-0.0986401283545848
0.00611793,0.06374594990075494,-0.0924197906934691
0.00611856,0.06443365584766322,-0.08654502734685988
0.00611919,0.06443365584766322,-0.08170698694377576
0.00611982,0.06443365584766322,-0.07686894654069165
0.00612045,0.06477750882111721,-0.07099418319408951
0.006121079999999999,0.06477750882111737,-0.06511941984748736
0.00612171,0.06408980287420908,-0.0602813794443957
0.00612234,0.06408980287420908,-0.05475219041229956
0.00612297,0.06443365584766354,-0.04956857569469986
0.0061236,0.06477750882111737,-0.04438496097710926
0.00612423,0.06477750882111737,-0.03816462331600111
0.006124859999999999,0.06477750882111737,-0.03298100859841098
0.00612549,0.06443365584766322,-0.02883411682433181
0.00612612,0.06443365584766322,-0.02261377916322366
0.00612675,0.06477750882111737,-0.01743016444562615
0.00612738,0.06477750882111737,-0.01190097541353017
0.00612801,0.06477750882111737,-0.006717360695940042
0.006128639999999999,0.06443365584766338,-0.001533745978349916
0.006129269999999999,0.06443365584766322,0.003995443053746061
0.0061299,0.06512136179457151,0.009870206400355904
0.00613053,0.06477750882111674,0.0153993954324599
0.00613116,0.06408980287420923,0.02127415877906188
0.00613179,0.06443365584766322,0.02680334781115801
0.00613242,0.06477750882111721,0.03164138821424213
0.006133049999999999,0.06477750882111737,0.03751615156084381
0.00613368,0.06443365584766322,0.04235419196393547
0.00613431,0.06408980287420908,0.04719223236702178
0.00613494,0.06408980287420908,0.05272142139912577
0.00613557,0.06408980287420893,0.05859618474572792
0.0061362,0.06374594990075494,0.06447094809233006
0.006136829999999999,0.06374594990075494,0.06827226555189615
0.006137459999999999,0.06408980287420876,0.07345588026948564
0.00613809,0.06443365584766322,0.07933064361609518
0.00613872,0.06408980287420876,0.08485983264819917
0.00613935,0.06374594990075526,0.09073459599480069
0.00613998,0.06443365584766322,0.09522706208337879
0.006140609999999999,0.06408980287420923,0.1007562511154749
0.006141239999999999,0.06374594990075526,0.1062854401475711
0.00614187,0.06374594990075494,0.1107779062361562
0.0061425,0.06374594990075494,0.1166526695827584
0.00614313,0.06374594990075479,0.1221818586148622
0.00614376,0.0634020969273008,0.1277110476469583
0.00614439,0.06305824395384681,0.1332402366790545
0.006145019999999999,0.06305824395384665,0.1391150000256591
0.00614565,0.06305824395384665,0.1446441890577625
0.00614628,0.06305824395384665,0.1491366551463406
0.00614691,0.06305824395384634,0.1536291212349258
0.00614754,0.06271439098039251,0.1591583102670221
0.00614817,0.06271439098039251,0.1650330736136242
0.006148799999999999,0.06237053800693853,0.1698711140167084
0.006149429999999999,0.06237053800693837,0.1760914516778159
0.00615006,0.06271439098039251,0.1819662150244263
0.00615069,0.06271439098039219,0.1874954040565294
0.00615132,0.06237053800693837,0.1923334444596137
0.00615195,0.06237053800693837,0.1975170591772038
0.00615258,0.06237053800693837,0.2027006738947939
0.006153209999999999,0.06168283206003071,0.2082298629268899
0.00615384,0.0609951261131218,0.2130679033299813
0.00615447,0.06133897908657578,0.2189426666765834
0.0061551,0.0609951261131218,0.2244718557086901
0.00615573,0.0609951261131218,0.2303466190552921
0.00615636,0.0609951261131218,0.2358758080873882
0.006156989999999999,0.06065127313966782,0.2410594228049783
0.00615762,0.0606512731396675,0.246243037522576
0.00615825,0.06030742016621352,0.2524633751836841
0.00615888,0.06065127313966735,0.2576469899012817
0.00615951,0.06030742016621336,0.2631761789333779
0.00616014,0.05996356719275937,0.2690509422799801
0.006160769999999999,0.05996356719275937,0.2731978340540521
0.006161399999999999,0.05927586124585171,0.2783814487716418
0.00616203,0.05927586124585109,0.2828739148602267
0.00616266,0.05927586124585078,0.288403103892331
0.00616329,0.05893200827239695,0.2946234415534386
0.00616392,0.05893200827239695,0.2998070562710288
0.00616455,0.05858815529894296,0.3049906709886189
0.006165179999999999,0.0585881552989428,0.3105198600207149
0.00616581,0.05893200827239679,0.3157034747383151
0.00616644,0.0585881552989428,0.3215782380849172
0.00616707,0.05790044935203419,0.3274530014315267
0.0061677,0.05755659637858052,0.3326366161491168
0.00616833,0.05790044935203451,0.337820230866707
0.006168959999999999,0.05721274340512653,0.3430038455842971
0.006169589999999999,0.05755659637858005,0.3481874603018872
0.00617022,0.05721274340512622,0.3540622236484968
0.00617085,0.05686889043167145,0.3602825613096118
0.00617148,0.05618118448476379,0.3647750273981902
0.00617211,0.05618118448476379,0.3699586421157804
0.006172739999999999,0.05549347853785582,0.3744511082043585
0.006173369999999999,0.05549347853785551,0.3796347229219483
0.006174,0.05549347853785551,0.3851639119540517
0.00617463,0.05549347853785551,0.3913842496151598
0.00617526,0.0554934785378552,0.3965678643327574
0.00617589,0.05480577259094722,0.4014059047358415
0.00617652,0.05446191961749308,0.4069350937679401
0.006177149999999999,0.0541180666440391,0.4121187084855302
0.00617778,0.05411806664403878,0.417647897517634
0.00617841,0.0537742136705848,0.4238682351787422
0.00617904,0.05377421367058417,0.4287062755818339
0.00617967,0.05308650772367635,0.4345810389284357
0.0061803,0.05274265475022237,0.4397646536460258
0.006180929999999999,0.05239880177676839,0.444948268363616
0.006181559999999999,0.05239880177676823,0.4497863087667002
0.00618219,0.05239880177676823,0.4553154977988033
0.00618282,0.05205494880331346,0.4608446868309076
0.00618345,0.05136724285640579,0.4670650244920151
0.00618408,0.05136724285640579,0.4719030648950992
0.00618471,0.05067953690949781,0.4767411052981833
0.006185339999999999,0.05033568393604367,0.482615868644785
0.00618597,0.0506795369094975,0.4884906319913952
0.0061866,0.05102338988295149,0.4940198210234913
0.00618723,0.04999183096258891,0.4985122871120787
0.00618786,0.04964797798913476,0.5036959018296691
0.00618849,0.04896027204222679,0.5092250908617652
0.006189119999999999,0.04861641906877281,0.5144087055793553
0.006189749999999999,0.04861641906877265,0.5199378946114512
0.00619038,0.04827256609531851,0.5251215093290487
0.00619101,0.04758486014840991,0.5303051240466459
0.00619164,0.04724100717495624,0.5354887387642363
0.00619227,0.04758486014841022,0.5413635021108385
0.006192899999999999,0.04689715420150225,0.5468926911429346
0.006193529999999999,0.04655330122804811,0.5524218801750308
0.00619416,0.04620944825459365,0.5582966435216407
0.00619479,0.04586559528113889,0.5634802582392381
0.00619542,0.04517788933423105,0.5690094472713341
0.00619605,0.04483403636077707,0.5741930619889242
0.00619668,0.04449018338732309,0.5797222510210204
0.006197309999999999,0.04449018338732293,0.5852514400531166
0.00619794,0.04449018338732277,0.590435054770716
0.00619857,0.04414633041386878,0.5949275208592941
0.0061992,0.04380247744041402,0.6001111355768913
0.00619983,0.0431147714935062,0.6052947502944817
0.00620046,0.04277091852005221,0.6108239393265777
0.006201089999999999,0.04242706554659823,0.6166987026731799
0.006201719999999999,0.04242706554659807,0.6215367430762645
0.00620235,0.04173935959968979,0.6267203577938614
0.00620298,0.04105165365278088,0.6319039725114586
0.00620361,0.04036394770587306,0.6370875872290487
0.00620424,0.04002009473241908,0.6422712019466389
0.006204869999999999,0.03967624175896509,0.648145965293241
0.006205499999999999,0.03898853581205726,0.6533295800108315
0.00620613,0.03830082986514835,0.6595499176719472
0.00620676,0.03830082986514835,0.6643879580750313
0.00620739,0.03795697689169405,0.6699171471071347
0.00620802,0.03761312391824007,0.6754463361392308
0.00620865,0.03692541797133178,0.680284376542317
0.006209279999999999,0.0365815649978778,0.6861591398889192
0.00620991,0.03623771202442318,0.6916883289210227
0.00621054,0.03555000607751521,0.6965263693241068
0.00621117,0.03555000607751459,0.7017099840417039
0.0062118,0.03486230013060677,0.7068935987592946
0.00621243,0.03451844715715278,0.7131139364204028
0.006213059999999999,0.03383074121024481,0.7182975511379929
0.006213689999999999,0.03348688823679067,0.7231355915410771
0.00621432,0.03314303526333622,0.7290103548876864
0.00621495,0.03279918228988206,0.7341939696052833
0.00621558,0.03279918228988206,0.7390320100083677
0.00621621,0.03279918228988206,0.7445611990404638
0.00621684,0.0317676233695201,0.750435962387066
0.006217469999999999,0.0314237703960658,0.7549284284756447
0.0062181,0.03073606444915721,0.7608031918222536
0.00621873,0.03004835850224923,0.7659868065398437
0.00621936,0.02970450552879447,0.7715159955719494
0.00621999,0.02936065255534064,0.7766996102895399
0.00622062,0.02936065255534064,0.782574373636142
0.006221249999999999,0.02901679958188665,0.7884491369827442
0.006221879999999999,0.02867294660843266,0.7936327517003346
0.00622251,0.02764138768806992,0.7988163664179319
0.00622314,0.0276413876880693,0.803999981135529
0.00622377,0.02695368174116148,0.8091835958531192
0.0062244,0.02660982876770749,0.8143672105707093
0.006225029999999999,0.0262659757942535,0.8202419739173115
0.006225659999999999,0.02557826984734568,0.825080014320396
0.00622629,0.02523441687389092,0.8313003519815114
0.00622692,0.02454671092698232,0.8371751153281199
0.00622755,0.02420285795352849,0.8413220071021928
0.00622818,0.02420285795352849,0.847196770448795
0.00622881,0.02317129903316653,0.8520348108518792
0.006229439999999999,0.02213974011280457,0.8572184255694691
0.00623007,0.02145203416589519,0.863438763230587
0.0062307,0.0211081811924412,0.8682768036336711
0.00623133,0.02076432821898643,0.8744971412947858
0.00623196,0.02007662227207846,0.8786440330688583
0.00623259,0.01938891632517048,0.8834820734719424
0.006233219999999999,0.01870121037826251,0.8893568368185445
0.006233849999999999,0.01835735740480837,0.894540451536135
0.00623448,0.01766965145789977,0.9000696405682383
0.00623511,0.017325798484445,0.9052532552858354
0.00623574,0.01663809253753719,0.9104368700034257
0.00623637,0.0162942395640832,0.9156204847210158
0.006236999999999999,0.01560653361717522,0.9218408223821239
0.006237629999999999,0.01560653361717491,0.9270244370997146
0.00623826,0.01491882767026662,0.932899200446324
0.00623889,0.01388726874990466,0.9377372408494081
