Module4/data/1203/ADC/100Hz_OP97F_custom_0.5V_Offset0.5_No_Fidback.csv

#Digilent WaveForms Oscilloscope Acquisition
#Device Name: Discovery2
#Serial Number: SN:210321AC1D4D
#Date Time: 2020-12-03 18:46:46.717
#Sample rate: 160000Hz
#Samples: 8192
#Trigger: Source: Channel 1 Type: Edge Condition: Rising Level: 0 V Hyst.: Auto HoldOff: 0 s
#Channel 1: Range: 1 V/div Offset: 0 V Attenuation: 1 X
#Channel 2: Range: 1 V/div Offset: 0 V Attenuation: 1 X
#Wavegen Channel 1: Running
#Mode: Simple
#Type: Custom1
#Frequency: 100 Hz
#Period: 10 ms
#Amplitude: 500 mV
#Offset: 500 mV
#Phase: 0 ¡Æ
#Wavegen Channel 2: Running
#Mode: Simple
#Type: DC
#Offset: 5 V
#Power Supplies: ON
#Positive Supply: ON
#Voltage: 1.6 V
#Negative Supply: ON
#Voltage: -5 V

Time (s),Channel 1 (V),Channel 2 (V)
0.0645125,-1.586118323642577,0.5750988619616979
0.06451875,-1.589882055382318,0.5713207685011117
0.064525,-1.589882055382318,0.5750988619616996
0.06453125,-1.589882055382318,0.5750988619616996
0.0645375,-1.586118323642575,0.5788769554222892
0.06454375,-1.589882055382318,0.5750988619616996
0.06455,-1.589882055382318,0.5750988619616996
0.06455625,-1.601173250601539,0.6053236096464026
0.06456249999999999,-1.623755641039987,0.6242140769493559
0.06456874999999999,-1.627519372779737,0.6242140769493645
0.06457499999999999,-1.627519372779739,0.6279921704099506
0.06458125000000001,-1.623755641039997,0.6242140769493645
0.06458749999999999,-1.623755641039997,0.6242140769493645
0.06459375000000001,-1.623755641040002,0.6317702638705334
0.06459999999999999,-1.627519372779734,0.6242140769493748
0.06460625,-1.627519372779739,0.6279921704099506
0.0646125,-1.627519372779743,0.6242140769493679
0.06461875,-1.631283104519478,0.627992170409954
0.064625,-1.627519372779739,0.627992170409954
0.06463125,-1.627519372779739,0.6279921704099524
0.0646375,-1.627519372779739,0.6242140769493645
0.06464375,-1.627519372779739,0.6242140769493645
0.06465,-1.627519372779739,0.6242140769493645
0.06465625,-1.638810567998966,0.6431045442523124
0.0646625,-1.64633803147845,0.6431045442523124
0.06466875,-1.650101763218192,0.6431045442523124
0.064675,-1.642574299738711,0.6468826377129004
0.06468125,-1.646338031478448,0.6431045442523141
0.0646875,-1.64633803147845,0.6431045442523124
0.06469374999999999,-1.64257429973871,0.6431045442523124
0.06469999999999999,-1.642574299738708,0.6468826377128987
0.06470624999999999,-1.642574299738708,0.6468826377129021
0.06471250000000001,-1.64633803147845,0.6431045442523124
0.06471874999999999,-1.64633803147845,0.6431045442523124
0.064725,-1.642574299738708,0.6431045442523159
0.06473124999999999,-1.642574299738708,0.646882637712897
0.0647375,-1.642574299738708,0.6468826377128987
0.06474375,-1.642574299738708,0.6431045442523124
0.06475,-1.642574299738703,0.6431045442523039
0.06475625,-1.631283104519474,0.6242140769493628
0.0647625,-1.616228177560516,0.6204359834887765
0.06476875,-1.623755641039994,0.6242140769493628
0.064775,-1.616228177560513,0.6204359834887748
0.06478125,-1.619991909300255,0.6204359834887748
0.0647875,-1.619991909300255,0.6204359834887748
0.06479375,-1.619991909300255,0.6242140769493645
0.0648,-1.619991909300255,0.6242140769493645
0.06480625,-1.619991909300255,0.6204359834887765
0.0648125,-1.623755641039995,0.6204359834887748
0.06481874999999999,-1.619991909300257,0.6204359834887748
0.06482499999999999,-1.616228177560516,0.6204359834887748
0.06483124999999999,-1.619991909300251,0.6204359834887748
0.06483749999999999,-1.619991909300255,0.6204359834887748
0.06484375000000001,-1.623755641039992,0.6242140769493594
0.06484999999999999,-1.61999190930026,0.6204359834887799
0.06485625,-1.608700714081018,0.6015455161858131
0.06486249999999999,-1.597409518861817,0.5864331423434891
0.06486875,-1.59364578712206,0.5864331423434684
0.064875,-1.593645787122062,0.5864331423434684
0.06488125,-1.597409518861802,0.5864331423434684
0.0648875,-1.597409518861802,0.5864331423434668
0.06489375,-1.597409518861802,0.5826550488828788
0.0649,-1.597409518861802,0.5826550488828788
0.06490625,-1.597409518861802,0.5864331423434684
0.0649125,-1.597409518861802,0.5864331423434684
0.06491875,-1.597409518861802,0.5864331423434684
0.064925,-1.597409518861802,0.5864331423434684
0.06493125,-1.597409518861802,0.5864331423434684
0.0649375,-1.597409518861802,0.5864331423434684
0.06494374999999999,-1.597409518861802,0.5864331423434684
0.06494999999999999,-1.597409518861802,0.5826550488828822
0.06495624999999999,-1.597409518861802,0.5826550488828788
0.06496250000000001,-1.589882055382318,0.5826550488828737
0.06496874999999999,-1.589882055382318,0.5788769554222927
0.064975,-1.59364578712206,0.5788769554222892
0.06498124999999999,-1.59364578712206,0.5788769554222892
0.0649875,-1.589882055382321,0.5788769554222892
0.06499375,-1.593645787122056,0.5788769554222892
0.065,-1.589882055382321,0.5788769554222892
0.06500625,-1.5974095188618,0.5788769554222892
0.0650125,-1.59364578712206,0.5788769554222892
0.06501875,-1.59364578712206,0.5788769554222892
0.065025,-1.59364578712206,0.5788769554222892
0.06503125,-1.59364578712206,0.5788769554222892
0.0650375,-1.59364578712206,0.5788769554222892
0.06504375,-1.59364578712206,0.5788769554222892
0.06505,-1.59364578712206,0.5826550488828771
0.06505625,-1.608700714081021,0.6053236096464061
0.0650625,-1.612464445820769,0.6128797965675922
0.06506874999999999,-1.612464445820771,0.6091017031070077
0.06507499999999999,-1.616228177560511,0.6091017031070061
0.06508124999999999,-1.612464445820774,0.6128797965675922
0.06508749999999999,-1.616228177560509,0.6128797965675956
0.06509375000000001,-1.616228177560513,0.6128797965675956
0.06509999999999999,-1.616228177560513,0.6128797965675956
0.06510625,-1.616228177560513,0.6128797965675956
0.06511249999999999,-1.616228177560513,0.6128797965675956
0.06511875,-1.616228177560513,0.6091017031070095
0.065125,-1.616228177560513,0.6128797965675939
0.06513125,-1.616228177560513,0.6091017031070077
0.0651375,-1.616228177560511,0.6128797965675939
0.06514375,-1.612464445820772,0.6091017031070077
0.06515,-1.616228177560513,0.6128797965675956
0.06515625,-1.64633803147845,0.6544388246340813
0.0651625,-1.68021161713613,0.6695511984764397
0.06516875,-1.68021161713613,0.6695511984764397
0.065175,-1.68021161713613,0.6695511984764397
0.06518125,-1.68021161713613,0.6695511984764397
0.0651875,-1.68021161713613,0.6695511984764397
0.06519374999999999,-1.68021161713613,0.6695511984764397
0.06519999999999999,-1.68021161713613,0.6695511984764397
0.06520624999999999,-1.68021161713613,0.6657731050158535
0.06521250000000001,-1.68021161713613,0.6695511984764397
0.06521874999999999,-1.68021161713613,0.6695511984764397
0.06522500000000001,-1.68021161713613,0.6695511984764397
0.06523124999999999,-1.68021161713613,0.6695511984764397
0.0652375,-1.676447885396391,0.6657731050158535
0.06524375,-1.68021161713613,0.6695511984764397
0.06525,-1.680211617136157,0.6695511984764604
0.06525625,-1.710321471054156,0.6922197592399842
0.0652625,-1.90603552152044,0.7073321330823341
0.06526875,-1.42427785883346,0.7035540396217461
0.065275,-0.9801575135440611,0.7035540396217461
0.06528125,-0.9237015374479542,0.7035540396217461
0.0652875,-0.9237015374479542,0.7035540396217461
0.06529375,-0.9237015374479542,0.7073321330823358
0.0653,-0.9237015374479542,0.6997759461611566
0.06530625,-0.9274652691876947,0.7073321330823323
0.0653125,-0.9274652691876963,0.7035540396217478
0.06531874999999999,-0.9274652691876963,0.7035540396217461
0.06532499999999999,-0.9274652691876963,0.7073321330823341
0.06533124999999999,-0.9312290009274352,0.7035540396217496
0.06533749999999999,-0.9312290009274387,0.7035540396217461
0.06534375000000001,-0.9312290009274387,0.7035540396217461
0.06534999999999999,-0.9312290009274387,0.7035540396217461
0.06535625,-0.9312290009274387,0.7035540396217427
0.06536249999999999,-0.9312290009274387,0.6997759461611617
0.06536875,-0.9349927326671773,0.6997759461611531
0.065375,-0.9312290009274421,0.6959978527005669
0.06538125,-0.9349927326671807,0.6959978527005686
0.0653875,-0.9349927326671807,0.6997759461611566
0.06539375,-0.9349927326671807,0.6997759461611566
0.0654,-0.9349927326671807,0.6997759461611566
0.06540625,-0.9349927326671807,0.6997759461611566
0.0654125,-0.9312290009274387,0.6959978527005669
0.06541875,-0.9387564644069228,0.6997759461611566
0.065425,-0.9349927326671807,0.6997759461611566
0.06543125,-0.9312290009274403,0.6997759461611566
0.0654375,-0.9312290009274387,0.6997759461611566
0.06544374999999999,-0.9349927326671791,0.6997759461611566
0.06544999999999999,-0.9312290009274403,0.7035540396217445
0.06545624999999999,-0.9349927326671773,0.6808854788582291
0.06546250000000001,-0.9538113913659584,0.6619950115552656
0.06546874999999999,-1.002739903982495,0.6657731050158466
0.06547500000000001,-1.059195880078796,0.6657731050158501
0.06548124999999999,-1.149525441832361,0.6657731050158501
0.0654875,-1.236091271846633,0.6657731050158466
0.06549375,-1.322657101860696,0.6619950115552605
0.0655,-1.401695468395288,0.661995011555264
0.06550625,-1.488261298409318,0.6657731050158466
0.0655125,-1.574827128423381,0.6582169180946725
0.06551875,-1.646338031478479,0.6619950115552622
0.065525,-1.710321471054099,0.6657731050158484
0.06553125,-1.781832374109168,0.6619950115552605
0.0655375,-1.849579545424527,0.6657731050158501
0.06554375,-1.917326716739886,0.6619950115552605
0.06555,-1.966255229356534,0.6657731050158501
0.06555625,-1.988837619794977,0.6468826377129107
0.0655625,-1.774304910629781,0.6393264507917263
0.06556875,-1.635046836259287,0.6355483573311349
0.06557499999999999,-1.638810567998964,0.6393264507917212
0.06558124999999999,-1.642574299738705,0.6393264507917229
0.06558749999999999,-1.638810567998969,0.6393264507917229
0.06559375000000001,-1.638810567998966,0.6393264507917229
0.06559999999999999,-1.638810567998966,0.6393264507917229
0.06560625,-1.635046836259227,0.6355483573311367
0.06561249999999999,-1.638810567998961,0.6393264507917178
0.06561875,-1.642574299738705,0.6393264507917229
0.065625,-1.638810567998969,0.6393264507917195
0.06563125,-1.642574299738708,0.6355483573311349
0.0656375,-1.642574299738708,0.6393264507917229
0.06564375,-1.642574299738706,0.6393264507917212
0.06565,-1.638810567998971,0.6355483573311383
0.06565625,-1.650101763218192,0.6468826377129021
0.0656625,-1.657629226697677,0.6544388246340813
0.06566875,-1.657629226697677,0.6544388246340813
0.065675,-1.657629226697677,0.6544388246340813
0.06568125,-1.657629226697677,0.6544388246340813
0.0656875,-1.657629226697677,0.6544388246340813
0.06569375,-1.653865494957936,0.6544388246340813
0.06569999999999999,-1.657629226697675,0.6582169180946692
0.06570624999999999,-1.657629226697677,0.6544388246340848
0.06571249999999999,-1.657629226697677,0.6544388246340813
0.06571874999999999,-1.653865494957938,0.6544388246340813
0.06572500000000001,-1.653865494957939,0.6544388246340813
0.06573124999999999,-1.657629226697673,0.6544388246340813
0.0657375,-1.657629226697677,0.6506607311734951
0.06574374999999999,-1.657629226697677,0.6544388246340762
0.06575,-1.653865494957965,0.6506607311735192
0.06575625,-1.687739080615699,0.6808854788582188
0.0657625,-1.875925667602589,0.7035540396217478
0.06576875,-1.582354591902587,0.7073321330823341
0.065775,-1.04037722137991,0.7035540396217461
0.06578125,-0.9274652691876963,0.7035540396217461
0.0657875,-0.9237015374479542,0.7073321330823358
0.06579375,-0.9199378057082122,0.7035540396217461
0.0658,-0.9274652691876963,0.7035540396217461
0.06580625,-0.9237015374479559,0.7035540396217461
0.0658125,-0.9312290009274352,0.7073321330823341
0.06581875,-0.927465269187698,0.7035540396217478
0.06582499999999999,-0.9274652691876963,0.7035540396217461
0.06583124999999999,-0.9274652691876963,0.6997759461611582
0.06583749999999999,-0.9312290009274352,0.7073321330823289
0.06584375000000001,-0.9312290009274438,0.7035540396217461
0.06584999999999999,-0.9349927326671773,0.7035540396217461
0.06585625000000001,-0.9387564644069331,0.7262226003853044
0.06586249999999999,-0.9500476596261339,0.7488911611487904
0.06586875,-0.9500476596261528,0.7526692546094076
0.065875,-0.9538113913658882,0.7488911611488214
0.06588125,-0.950047659626151,0.7488911611488214
0.0658875,-0.9538113913658917,0.7488911611488214
0.06589375,-0.9538113913658917,0.748891161148823
0.0659,-0.9538113913658917,0.7526692546094094
0.06590625,-0.9538113913658917,0.7488911611488214
0.0659125,-0.9538113913658917,0.7488911611488214
0.06591875,-0.9500476596261493,0.7451130676882318
0.065925,-0.9500476596261493,0.752669254609411
0.06593125,-0.9575751231056338,0.752669254609411
0.0659375,-0.9538113913658933,0.748891161148823
0.06594375,-0.950047659626151,0.7451130676882335
0.06594999999999999,-0.95381139136589,0.7488911611488197
0.06595624999999999,-0.9538113913658917,0.7602254415305851
0.06596249999999999,-0.9575751231056303,0.7640035349911763
0.06596874999999999,-0.9575751231056338,0.7640035349911798
0.06597500000000001,-0.9575751231056286,0.7640035349911849
0.06598124999999999,-0.9538113913658951,0.767781628451766
0.0659875,-0.9575751231056303,0.7677816284517694
0.06599374999999999,-0.9538113913658968,0.7677816284517694
0.066,-0.9575751231056338,0.7640035349911798
0.06600625,-0.9575751231056338,0.7640035349911832
0.0660125,-0.9575751231056321,0.7677816284517694
0.06601875,-0.9538113913658917,0.7677816284517694
0.066025,-0.9538113913658917,0.7677816284517678
0.06603125,-0.9538113913658917,0.7640035349911815
0.0660375,-0.9538113913658917,0.7677816284517694
0.06604375,-0.9538113913658917,0.7640035349911798
0.06605,-0.9575751231056338,0.7640035349911798
0.06605625,-0.9538113913658917,0.7488911611488214
0.0660625,-0.9462839278864107,0.7375568807670577
0.06606875,-0.9500476596261477,0.7413349742276405
0.06607499999999999,-0.9500476596261493,0.7375568807670543
0.06608124999999999,-0.9500476596261493,0.7375568807670526
0.06608749999999999,-0.9500476596261493,0.7413349742276387
0.06609375000000001,-0.9500476596261493,0.7413349742276371
0.06609999999999999,-0.9500476596261493,0.7375568807670561
0.06610625000000001,-0.9500476596261493,0.7375568807670526
0.06611249999999999,-0.9500476596261493,0.7375568807670526
0.06611875,-0.9462839278864107,0.7413349742276422
0.066125,-0.9500476596261493,0.7413349742276422
0.06613125,-0.9500476596261459,0.7413349742276422
0.0661375,-0.9462839278864089,0.7413349742276422
0.06614375,-0.9500476596261493,0.7413349742276405
0.06615,-0.9500476596261477,0.7375568807670475
0.06615625,-0.9462839278864021,0.7262226003852752
0.0661625,-0.9349927326671807,0.7073321330823358
0.06616875,-0.9387564644069228,0.7073321330823358
0.066175,-0.9349927326671807,0.7073321330823358
0.06618125,-0.9387564644069228,0.7073321330823358
0.0661875,-0.9387564644069228,0.7111102265429237
0.06619375,-0.9387564644069228,0.7073321330823374
0.06619999999999999,-0.9387564644069228,0.7073321330823358
0.06620624999999999,-0.9349927326671824,0.7111102265429237
0.06621249999999999,-0.9387564644069194,0.7111102265429253
0.06621874999999999,-0.9387564644069228,0.7111102265429253
0.06622500000000001,-0.9387564644069228,0.7111102265429202
0.06623124999999999,-0.9387564644069228,0.7073321330823392
0.0662375,-0.9349927326671842,0.7073321330823392
0.06624374999999999,-0.9387564644069177,0.7111102265429202
0.06625,-0.9425201961466617,0.7111102265429184
0.06625625,-0.9387564644069194,0.7035540396217461
0.0662625,-0.9349927326671824,0.7035540396217461
0.06626875,-0.9387564644069228,0.7035540396217461
0.066275,-0.9387564644069194,0.7035540396217461
0.06628125,-0.9312290009274403,0.7035540396217461
0.0662875,-0.9349927326671807,0.7035540396217461
0.06629375,-0.9387564644069228,0.7035540396217461
0.0663,-0.9349927326671807,0.7035540396217461
0.06630625,-0.9349927326671807,0.7035540396217461
0.0663125,-0.9349927326671807,0.7073321330823341
0.06631875,-0.9349927326671807,0.7035540396217478
0.066325,-0.9312290009274403,0.7073321330823341
0.06633124999999999,-0.9349927326671791,0.7035540396217478
0.06633749999999999,-0.9349927326671807,0.7035540396217461
0.06634374999999999,-0.9387564644069194,0.7035540396217461
0.06634999999999999,-0.9349927326671842,0.7035540396217461
0.06635625000000001,-0.9425201961466754,0.7375568807670526
0.06636249999999999,-0.9500476596261391,0.7375568807670526
0.06636875,-0.9500476596261459,0.7375568807670526
0.06637499999999999,-0.9462839278864124,0.7375568807670526
0.06638125,-0.9462839278864107,0.7375568807670526
0.0663875,-0.9500476596261493,0.7375568807670509
0.06639375,-0.9500476596261477,0.7337787873064646
0.0664,-0.9462839278864073,0.7375568807670526
0.06640625,-0.9462839278864073,0.7375568807670526
0.0664125,-0.9462839278864073,0.7375568807670526
0.06641875,-0.9500476596261493,0.7375568807670526
0.066425,-0.9500476596261493,0.7375568807670526
0.06643125,-0.9462839278864073,0.7375568807670526
0.0664375,-0.9500476596261477,0.7375568807670526
0.06644375,-0.9500476596261493,0.7337787873064646
0.06645,-0.9500476596261493,0.7375568807670509
0.06645624999999999,-0.95381139136589,0.7866720957546951
0.06646249999999999,-0.9575751231056303,0.7942282826758897
0.06646874999999999,-0.9575751231056338,0.7942282826758966
0.06647500000000001,-0.9575751231056338,0.7942282826758966
0.06648124999999999,-0.9575751231056338,0.7942282826758966
0.0664875,-0.9613388548453724,0.7904501892153071
0.06649374999999999,-0.9575751231056389,0.7904501892153071
0.0665,-0.9538113913658951,0.7904501892153105
0.06650625,-0.9575751231056372,0.7942282826758966
0.0665125,-0.9613388548453758,0.7942282826758966
0.06651875,-0.9613388548453742,0.7942282826758966
0.066525,-0.9575751231056338,0.7942282826758966
0.06653125,-0.9575751231056354,0.794228282675895
0.0665375,-0.9613388548453758,0.7904501892153071
0.06654375,-0.9575751231056338,0.7942282826758966
0.06655,-0.9613388548453758,0.7942282826758966
0.06655625,-0.9613388548453758,0.8206749369000239
0.0665625,-0.9613388548453758,0.8282311238211997
0.06656875,-0.9613388548453758,0.8244530303606151
0.066575,-0.9575751231056354,0.8282311238212015
0.06658124999999999,-0.9613388548453742,0.8282311238212031
0.06658749999999999,-0.9613388548453758,0.8282311238212031
0.06659374999999999,-0.9613388548453758,0.8282311238212031
0.06659999999999999,-0.9613388548453758,0.8244530303606169
0.06660625000000001,-0.9575751231056389,0.8282311238212031
0.06661249999999999,-0.9613388548453724,0.8282311238212031
0.06661875,-0.9613388548453724,0.8244530303606169
0.06662499999999999,-0.9575751231056389,0.828231123821198
0.06663125,-0.9613388548453724,0.8282311238211997
0.0666375,-0.9575751231056354,0.8244530303606151
0.06664375,-0.9613388548453742,0.8282311238212015
0.06665,-0.9575751231056338,0.8244530303606118
0.06665625,-0.9575751231056354,0.8206749369000239
0.0666625,-0.9613388548453758,0.8206749369000239
0.06666875,-0.9575751231056338,0.8168968434394343
0.066675,-0.9575751231056338,0.8168968434394343
0.06668125,-0.9575751231056338,0.8206749369000239
0.0666875,-0.9575751231056338,0.8168968434394343
0.06669375,-0.9613388548453742,0.8168968434394343
0.0667,-0.9613388548453758,0.8168968434394343
0.06670624999999999,-0.9613388548453758,0.8168968434394343
0.06671249999999999,-0.9613388548453758,0.8168968434394343
0.06671874999999999,-0.9613388548453758,0.8168968434394343
0.06672500000000001,-0.9651025865851131,0.8206749369000239
0.06673124999999999,-0.9613388548453793,0.8206749369000239
0.06673750000000001,-0.9613388548453758,0.8168968434394343
0.06674374999999999,-0.9613388548453758,0.8168968434394343
0.06675,-0.9613388548453758,0.8168968434394136
0.06675625,-0.9613388548453758,0.7942282826758829
0.0667625,-0.9613388548453742,0.7791159088335382
0.06676875,-0.9575751231056338,0.7791159088335399
0.066775,-0.9575751231056354,0.7828940022941262
0.06678125,-0.9613388548453758,0.7791159088335399
0.0667875,-0.9613388548453742,0.7828940022941262
0.06679375,-0.9575751231056338,0.7791159088335382
0.0668,-0.9575751231056338,0.7791159088335382
0.06680625,-0.9575751231056338,0.7791159088335382
0.0668125,-0.9538113913658917,0.7791159088335382
0.06681875,-0.9575751231056321,0.7791159088335382
0.066825,-0.9613388548453742,0.7753378153729503
0.06683124999999999,-0.9613388548453758,0.7828940022941244
