Module4/data/1203/ADC/10Hz_OP97F_custom_0.5V_Offset0.5_No_Fidback.csv

#Digilent WaveForms Oscilloscope Acquisition
#Device Name: Discovery2
#Serial Number: SN:210321AC1D4D
#Date Time: 2020-12-03 18:47:26.576
#Sample rate: 16000Hz
#Samples: 8192
#Trigger: Source: Channel 1 Type: Edge Condition: Rising Level: 0 V Hyst.: Auto HoldOff: 0 s
#Channel 1: Range: 1 V/div Offset: 0 V Attenuation: 1 X
#Channel 2: Range: 1 V/div Offset: 0 V Attenuation: 1 X
#Wavegen Channel 1: Running
#Mode: Simple
#Type: Custom1
#Frequency: 10 Hz
#Period: 100 ms
#Amplitude: 500 mV
#Offset: 500 mV
#Phase: 0 ¡Æ
#Wavegen Channel 2: Running
#Mode: Simple
#Type: DC
#Offset: 5 V
#Power Supplies: ON
#Positive Supply: ON
#Voltage: 1.6 V
#Negative Supply: ON
#Voltage: -5 V

Time (s),Channel 1 (V),Channel 2 (V)
-0.07468750000000002,-1.623755641039997,0.6204359834887748
-0.074625,-1.623755641039995,0.6204359834887748
-0.07456250000000003,-1.619991909300257,0.6204359834887748
-0.07450000000000001,-1.619991909300255,0.6204359834887748
-0.07443749999999999,-1.619991909300257,0.6204359834887748
-0.07437500000000002,-1.623755641039997,0.6204359834887748
-0.0743125,-1.619991909300255,0.6204359834887748
-0.07425000000000004,-1.623755641039995,0.6204359834887748
-0.07418750000000002,-1.623755641039997,0.6204359834887748
-0.074125,-1.623755641039995,0.6204359834887748
-0.07406250000000003,-1.619991909300257,0.6204359834887748
-0.07400000000000001,-1.619991909300255,0.6204359834887748
-0.07393749999999999,-1.59364578712206,0.5864331423434684
-0.07387500000000002,-1.59364578712206,0.5864331423434684
-0.0738125,-1.59364578712206,0.5864331423434684
-0.07375000000000004,-1.5974095188618,0.5864331423434684
-0.07368750000000002,-1.597409518861802,0.5864331423434684
-0.073625,-1.59364578712206,0.5864331423434684
-0.07356250000000003,-1.59364578712206,0.5864331423434684
-0.07350000000000001,-1.59364578712206,0.5864331423434684
-0.07343749999999999,-1.59364578712206,0.5864331423434684
-0.07337500000000002,-1.59364578712206,0.5864331423434684
-0.0733125,-1.59364578712206,0.5864331423434684
-0.07325000000000004,-1.5974095188618,0.5864331423434684
-0.07318750000000002,-1.597409518861802,0.5864331423434684
-0.073125,-1.597409518861802,0.5864331423434684
-0.07306250000000003,-1.597409518861802,0.5864331423434684
-0.07300000000000001,-1.601173250601544,0.5864331423434684
-0.07293749999999999,-1.597409518861802,0.5826550488828771
-0.07287500000000002,-1.597409518861802,0.5788769554222892
-0.0728125,-1.597409518861802,0.5788769554222892
-0.07275000000000004,-1.593645787122062,0.5788769554222892
-0.07268750000000002,-1.589882055382318,0.5788769554222892
-0.072625,-1.589882055382318,0.5788769554222892
-0.07256250000000003,-1.589882055382318,0.5788769554222892
-0.07250000000000001,-1.59364578712206,0.5788769554222892
-0.07243749999999999,-1.59364578712206,0.5788769554222892
-0.07237500000000002,-1.59364578712206,0.5788769554222892
-0.0723125,-1.589882055382318,0.5788769554222892
-0.07225000000000004,-1.593645787122058,0.5788769554222892
-0.07218750000000002,-1.589882055382318,0.5788769554222892
-0.07212499999999999,-1.589882055382319,0.5788769554222892
-0.07206250000000003,-1.593645787122058,0.5788769554222892
-0.07200000000000001,-1.597409518861802,0.5826550488828788
-0.07193749999999999,-1.616228177560513,0.6128797965675956
-0.07187500000000002,-1.616228177560513,0.6128797965675956
-0.0718125,-1.616228177560513,0.6128797965675956
-0.07175000000000004,-1.616228177560513,0.6128797965675956
-0.07168750000000002,-1.612464445820771,0.6128797965675956
-0.07162499999999999,-1.612464445820772,0.6128797965675956
-0.07156250000000003,-1.616228177560511,0.6128797965675956
-0.07150000000000001,-1.612464445820771,0.6128797965675956
-0.07143749999999999,-1.612464445820771,0.6128797965675956
-0.07137500000000002,-1.612464445820771,0.6128797965675956
-0.0713125,-1.612464445820771,0.6128797965675956
-0.07125000000000004,-1.616228177560511,0.6128797965675956
-0.07118750000000001,-1.616228177560513,0.6128797965675956
-0.07112499999999999,-1.616228177560504,0.6128797965675956
-0.07106250000000003,-1.59740951886181,0.6128797965675956
-0.07100000000000001,-1.556008469724638,0.6128797965675956
-0.07093749999999999,-1.623755641039739,0.6657731050158517
-0.07087500000000002,-1.05543214833893,0.6695511984764397
-0.0708125,-0.8898279517902747,0.6695511984764397
-0.07075000000000004,-0.9086466104889771,0.6657731050158517
-0.07068750000000001,-0.9274652691876963,0.6695511984764397
-0.07062499999999999,-0.9387564644069263,0.6657731050158517
-0.07056250000000003,-0.9462839278864038,0.6695511984764381
-0.07050000000000001,-0.9500476596261493,0.6657731050158501
-0.07043749999999999,-0.9538113913658933,0.6657731050158501
-0.07037500000000002,-0.9575751231056338,0.6657731050158501
-0.0703125,-0.9575751231056338,0.6657731050158501
-0.07025000000000003,-0.9575751231056338,0.6657731050158501
-0.07018750000000001,-0.9538113913658917,0.6657731050158501
-0.07012499999999999,-0.9538113913658917,0.6657731050158501
-0.07006250000000003,-0.9538113913658917,0.6657731050158501
-0.07000000000000001,-0.9538113913658917,0.6657731050158501
-0.06993749999999999,-0.9425201961466617,0.6959978527005704
-0.06987500000000002,-0.9349927326671807,0.7035540396217461
-0.0698125,-0.9349927326671807,0.7035540396217461
-0.06975000000000003,-0.9349927326671807,0.7035540396217461
-0.06968750000000001,-0.9349927326671807,0.7035540396217461
-0.06962499999999999,-0.9312290009274403,0.7035540396217461
-0.06956250000000003,-0.9349927326671791,0.7035540396217461
-0.06950000000000001,-0.9349927326671807,0.7035540396217461
-0.06943749999999999,-0.9349927326671824,0.7035540396217461
-0.06937500000000002,-0.9387564644069228,0.7035540396217461
-0.0693125,-0.9387564644069228,0.7035540396217461
-0.06925000000000003,-0.9387564644069228,0.7035540396217461
-0.06918750000000001,-0.9349927326671807,0.7035540396217461
-0.06912499999999999,-0.9349927326671807,0.7035540396217461
-0.06906250000000003,-0.9349927326671807,0.7035540396217461
-0.06900000000000001,-0.9274652691876963,0.7035540396217461
-0.06893749999999998,-0.8973554152697489,0.6997759461611566
-0.06887500000000002,-0.8747730248313061,0.6997759461611566
-0.0688125,-0.8521906343928531,0.6997759461611566
-0.06875000000000003,-0.8785367565710362,0.6997759461611566
-0.06868750000000001,-0.9011191470095012,0.6997759461611566
-0.06862500000000002,-0.9161740739684698,0.6997759461611566
-0.06856250000000003,-0.9237015374479542,0.6997759461611566
-0.06850000000000001,-0.9312290009274387,0.6997759461611566
-0.06843750000000001,-0.9349927326671807,0.6997759461611566
-0.06837500000000002,-0.9349927326671807,0.6997759461611566
-0.06831250000000003,-0.9349927326671807,0.6997759461611566
-0.06825000000000001,-0.9349927326671807,0.6997759461611566
-0.06818750000000001,-0.9349927326671807,0.6997759461611566
-0.06812500000000002,-0.9349927326671807,0.6997759461611566
-0.06806250000000003,-0.9349927326671807,0.6997759461611566
-0.068,-0.9312290009274387,0.6997759461611566
-0.06793750000000001,-1.198453954449132,0.6657731050158501
-0.06787500000000002,-1.860870740643753,0.6619950115552605
-0.06781250000000003,-2.01142001023344,0.6657731050158501
-0.06775,-2.01142001023344,0.6657731050158501
-0.06768750000000001,-1.860870740643753,0.6657731050158501
-0.06762500000000002,-1.668920421916903,0.6619950115552605
-0.06756250000000003,-1.672684153656645,0.6619950115552605
-0.0675,-1.672684153656645,0.6657731050158501
-0.06743750000000001,-1.672684153656645,0.6619950115552605
-0.06737500000000002,-1.672684153656645,0.6619950115552605
-0.06731250000000003,-1.672684153656645,0.6657731050158501
-0.06725,-1.672684153656645,0.6619950115552605
-0.06718750000000001,-1.672684153656645,0.6657731050158501
-0.06712500000000002,-1.672684153656645,0.6619950115552605
-0.06706250000000002,-1.672684153656645,0.6619950115552605
-0.067,-1.672684153656645,0.6657731050158501
-0.06693750000000001,-1.64633803147845,0.6468826377129021
-0.06687500000000002,-1.638810567998966,0.6393264507917229
-0.06681250000000002,-1.638810567998966,0.6393264507917229
-0.06675,-1.638810567998966,0.6393264507917229
-0.06668750000000001,-1.638810567998966,0.6393264507917229
-0.06662500000000002,-1.638810567998966,0.6393264507917229
-0.06656250000000002,-1.638810567998966,0.6393264507917229
-0.0665,-1.638810567998966,0.6393264507917229
-0.06643750000000001,-1.638810567998966,0.6393264507917229
-0.06637500000000002,-1.638810567998966,0.6393264507917229
-0.06631250000000002,-1.638810567998966,0.6393264507917229
-0.06625,-1.638810567998966,0.6393264507917229
-0.06618750000000001,-1.638810567998966,0.6393264507917229
-0.06612500000000002,-1.638810567998966,0.6393264507917229
-0.06606250000000002,-1.638810567998966,0.6393264507917229
-0.066,-1.642574299738708,0.6393264507917229
-0.06593750000000001,-1.661392958437419,0.6544388246340813
-0.06587500000000002,-1.661392958437419,0.6544388246340813
-0.06581250000000002,-1.657629226697677,0.6544388246340813
-0.06575,-1.657629226697677,0.6544388246340813
-0.06568750000000001,-1.657629226697677,0.6544388246340813
-0.06562500000000002,-1.657629226697677,0.6544388246340813
-0.06556250000000002,-1.657629226697677,0.6544388246340813
-0.0655,-1.657629226697677,0.6544388246340813
-0.06543750000000001,-1.657629226697677,0.6544388246340813
-0.06537500000000002,-1.657629226697677,0.6544388246340813
-0.06531250000000002,-1.657629226697677,0.6544388246340813
-0.06525,-1.657629226697677,0.6544388246340813
-0.06518750000000001,-1.661392958437419,0.6544388246340813
-0.06512500000000002,-1.657629226697677,0.6544388246340813
-0.06506250000000002,-1.657629226697677,0.6544388246340813
-0.065,-1.657629226697677,0.6544388246340813
-0.06493750000000001,-1.273728589243976,0.6959978527005669
-0.06487500000000002,-0.9312290009274387,0.7035540396217461
-0.06481250000000002,-0.9349927326671807,0.7035540396217461
-0.06475,-0.9349927326671807,0.7035540396217461
-0.06468750000000001,-0.9349927326671807,0.7035540396217461
-0.06462500000000002,-0.9349927326671807,0.7035540396217461
-0.06456250000000002,-0.9387564644069228,0.7035540396217461
-0.0645,-0.9387564644069228,0.7035540396217461
-0.06443750000000001,-0.9349927326671807,0.7035540396217461
-0.06437500000000002,-0.9349927326671807,0.7035540396217461
-0.06431250000000002,-0.9387564644069228,0.7035540396217461
-0.06425,-0.9349927326671807,0.7035540396217461
-0.06418750000000001,-0.9349927326671807,0.7035540396217461
-0.06412500000000002,-0.9349927326671807,0.7035540396217461
-0.06406250000000002,-0.9387564644069228,0.7035540396217461
-0.064,-0.9387564644069228,0.7035540396217461
-0.06393750000000001,-0.9500476596261493,0.733778787306463
-0.06387500000000002,-0.9462839278864073,0.7488911611488214
-0.06381250000000002,-0.9199378057082122,0.7488911611488214
-0.06375,-0.8935916835300168,0.7488911611488214
-0.06368750000000001,-0.8710092930915638,0.7488911611488214
-0.06362500000000001,-0.8860642200505326,0.7488911611488214
-0.06356250000000002,-0.9161740739684698,0.7488911611488214
-0.0635,-0.9274652691876963,0.7488911611488214
-0.06343750000000001,-0.9387564644069228,0.7488911611488214
-0.06337500000000001,-0.9462839278864073,0.7488911611488214
-0.06331250000000002,-0.9500476596261493,0.7488911611488214
-0.06325,-0.9538113913658917,0.7488911611488214
-0.06318750000000001,-0.9425201961466652,0.7488911611488214
-0.06312500000000001,-0.9161740739684698,0.7488911611488214
-0.06306250000000002,-0.8935916835300168,0.7488911611488214
-0.063,-0.8672455613518217,0.7488911611488214
-0.06293750000000001,-0.9011191470095012,0.7640035349911798
-0.06287500000000001,-0.9199378057082122,0.7640035349911798
-0.06281250000000002,-0.9312290009274387,0.7640035349911798
-0.06275,-0.9462839278864073,0.7640035349911798
-0.06268750000000001,-0.9500476596261493,0.7640035349911798
-0.06262500000000001,-0.9538113913658917,0.7640035349911798
-0.06256250000000002,-0.9538113913658917,0.7640035349911798
-0.0625,-0.9575751231056338,0.7640035349911798
-0.06243750000000001,-0.9575751231056338,0.7640035349911798
-0.06237500000000001,-0.9575751231056338,0.7640035349911798
-0.06231250000000002,-0.9538113913658917,0.7640035349911798
-0.06225,-0.9538113913658917,0.7640035349911798
-0.06218750000000001,-0.9538113913658917,0.7640035349911798
-0.06212500000000001,-0.9538113913658917,0.7640035349911798
-0.06206250000000002,-0.9538113913658917,0.7640035349911798
-0.062,-0.9538113913658917,0.7640035349911798
-0.06193750000000001,-0.9500476596261493,0.7451130676882318
-0.06187500000000001,-0.9462839278864073,0.7375568807670526
-0.06181250000000002,-0.9462839278864073,0.7375568807670526
-0.06175,-0.9500476596261493,0.7375568807670526
-0.06168750000000001,-0.9500476596261493,0.7375568807670526
-0.06162500000000001,-0.9462839278864073,0.7375568807670526
-0.06156250000000002,-0.9237015374479542,0.7375568807670526
-0.0615,-0.8973554152697591,0.7375568807670526
-0.06143750000000001,-0.8747730248313061,0.7375568807670526
-0.06137500000000001,-0.8747730248313061,0.7375568807670526
-0.06131250000000002,-0.9048828787492433,0.7375568807670526
-0.06125,-0.9237015374479542,0.7375568807670526
-0.06118750000000001,-0.9312290009274387,0.7375568807670526
-0.06112500000000001,-0.9387564644069228,0.7375568807670526
-0.06106250000000002,-0.9462839278864073,0.7375568807670526
-0.061,-0.9462839278864073,0.7375568807670526
-0.06093750000000001,-0.9425201961466652,0.7224445069246942
-0.06087500000000001,-0.9387564644069228,0.7073321330823358
-0.06081250000000002,-0.9349927326671807,0.7073321330823358
-0.06075000000000003,-0.9387564644069228,0.7073321330823358
-0.06068750000000001,-0.9387564644069228,0.7073321330823358
-0.06062500000000001,-0.9387564644069228,0.7073321330823358
-0.06056250000000002,-0.9387564644069228,0.7073321330823358
-0.06050000000000003,-0.9387564644069228,0.7073321330823358
-0.06043750000000001,-0.9387564644069228,0.7073321330823358
-0.06037500000000001,-0.9349927326671807,0.7073321330823358
-0.06031250000000002,-0.9349927326671807,0.7073321330823358
-0.06025000000000003,-0.9349927326671807,0.7073321330823358
-0.0601875,-0.9387564644069228,0.7111102265429253
-0.06012500000000001,-0.9349927326671807,0.7073321330823358
-0.06006250000000002,-0.9349927326671807,0.7073321330823358
-0.06000000000000003,-0.9387564644069228,0.7073321330823358
-0.0599375,-0.9349927326671807,0.7035540396217461
-0.05987500000000001,-0.9349927326671807,0.7035540396217461
-0.05981250000000002,-0.9349927326671807,0.7035540396217461
-0.05975000000000003,-0.9349927326671807,0.7035540396217461
-0.0596875,-0.9349927326671807,0.7035540396217461
-0.05962500000000001,-0.9349927326671807,0.7035540396217461
-0.05956250000000002,-0.9349927326671807,0.7035540396217461
-0.05950000000000003,-0.9349927326671807,0.7035540396217461
-0.0594375,-0.9349927326671807,0.7035540396217461
-0.05937500000000001,-0.9349927326671807,0.7035540396217461
-0.05931250000000002,-0.9349927326671807,0.7035540396217461
-0.05925000000000002,-0.9349927326671807,0.7035540396217461
-0.0591875,-0.9387564644069228,0.7035540396217461
-0.05912500000000001,-0.9349927326671807,0.7035540396217461
-0.05906250000000002,-0.9349927326671807,0.7035540396217461
-0.05900000000000002,-0.9387564644069228,0.7035540396217461
-0.0589375,-0.9500476596261493,0.7375568807670526
-0.05887500000000001,-0.9274652691876963,0.7375568807670526
-0.05881250000000002,-0.9048828787492433,0.7375568807670526
-0.05875000000000002,-0.8785367565710482,0.7375568807670526
-0.0586875,-0.8634818296120796,0.7375568807670526
-0.05862500000000001,-0.9011191470095012,0.733778787306463
-0.05856250000000002,-0.9237015374479542,0.733778787306463
-0.05850000000000002,-0.9312290009274387,0.7375568807670526
-0.0584375,-0.9387564644069228,0.7375568807670526
-0.05837500000000001,-0.9425201961466652,0.7375568807670526
-0.05831250000000002,-0.9462839278864073,0.7375568807670526
-0.05825000000000002,-0.9500476596261493,0.7375568807670526
-0.0581875,-0.9500476596261493,0.7375568807670526
-0.05812500000000001,-0.9500476596261493,0.7375568807670526
-0.05806250000000002,-0.9500476596261493,0.7375568807670526
-0.05800000000000002,-0.9500476596261493,0.7375568807670526
-0.0579375,-0.9575751231056338,0.7866720957547174
-0.05787500000000001,-0.9575751231056338,0.7904501892153071
-0.05781250000000002,-0.9613388548453758,0.7942282826758966
-0.05775000000000002,-0.9575751231056338,0.7942282826758966
-0.0576875,-0.9575751231056338,0.7942282826758966
-0.05762500000000001,-0.9575751231056338,0.7942282826758966
-0.05756250000000002,-0.9575751231056338,0.7942282826758966
-0.05750000000000002,-0.9575751231056338,0.7942282826758966
-0.0574375,-0.9575751231056338,0.7904501892153071
-0.05737500000000001,-0.9575751231056338,0.7942282826758966
-0.05731250000000002,-0.9575751231056338,0.7942282826758966
-0.05725000000000002,-0.9575751231056338,0.7942282826758966
-0.0571875,-0.9575751231056338,0.7942282826758966
-0.05712500000000001,-0.9575751231056338,0.7904501892153071
-0.05706250000000002,-0.9575751231056338,0.7904501892153071
-0.05700000000000002,-0.9575751231056338,0.7980063761364863
-0.0569375,-0.9575751231056338,0.8244530303606135
-0.05687500000000001,-0.9613388548453758,0.8244530303606135
-0.05681250000000002,-0.9613388548453758,0.8244530303606135
-0.05675000000000002,-0.9575751231056338,0.8244530303606135
-0.0566875,-0.9613388548453758,0.8282311238212031
-0.05662500000000001,-0.9613388548453758,0.8282311238212031
-0.05656250000000002,-0.9575751231056338,0.8282311238212031
-0.05650000000000002,-0.9613388548453758,0.8282311238212031
-0.0564375,-0.9575751231056338,0.8244530303606135
-0.05637500000000001,-0.9575751231056338,0.8282311238212031
-0.05631250000000002,-0.9613388548453758,0.8282311238212031
-0.05625000000000002,-0.9613388548453758,0.8244530303606135
-0.0561875,-0.9613388548453758,0.8282311238212031
-0.05612500000000001,-0.9613388548453758,0.8244530303606135
-0.05606250000000002,-0.9613388548453758,0.8244530303606135
-0.05600000000000002,-0.9613388548453758,0.8244530303606135
-0.0559375,-0.9613388548453758,0.8168968434394343
-0.05587500000000001,-0.9538113913658917,0.8168968434394343
-0.05581250000000001,-0.9312290009274387,0.8168968434394343
-0.05575000000000002,-0.9086466104889857,0.8168968434394343
-0.0556875,-0.8823004883107903,0.8168968434394343
-0.05562500000000001,-0.8898279517902747,0.8168968434394343
-0.05556250000000001,-0.9237015374479542,0.8168968434394343
-0.05550000000000002,-0.9387564644069228,0.8168968434394343
-0.0554375,-0.9500476596261493,0.8168968434394343
-0.05537500000000001,-0.9538113913658917,0.8168968434394343
-0.05531250000000001,-0.9575751231056338,0.8168968434394343
-0.05525000000000002,-0.9613388548453758,0.8168968434394343
-0.0551875,-0.9613388548453758,0.8168968434394343
-0.05512500000000001,-0.9613388548453758,0.8168968434394343
-0.05506250000000001,-0.9613388548453758,0.8168968434394343
-0.05500000000000002,-0.9575751231056338,0.8055625630576655
-0.0549375,-0.9575751231056338,0.7791159088335382
-0.05487500000000001,-0.9575751231056338,0.7791159088335382
-0.05481250000000001,-0.9575751231056338,0.7791159088335382
-0.05475000000000002,-0.9575751231056338,0.7791159088335382
-0.0546875,-0.9575751231056338,0.7791159088335382
-0.05462500000000001,-0.9575751231056338,0.7791159088335382
-0.05456250000000001,-0.9575751231056338,0.7791159088335382
-0.05450000000000002,-0.9575751231056338,0.7791159088335382
-0.0544375,-0.9613388548453758,0.7828940022941279
-0.05437500000000001,-0.9575751231056338,0.7791159088335382
-0.05431250000000001,-0.9575751231056338,0.7828940022941279
-0.05425000000000002,-0.9575751231056338,0.7791159088335382
-0.0541875,-0.9575751231056338,0.7828940022941279
-0.05412500000000001,-0.9575751231056338,0.7791159088335382
-0.05406250000000001,-0.9575751231056338,0.7828940022941279
-0.05400000000000002,-0.9349927326671807,0.7791159088335382
-0.0539375,-0.9086466104889857,0.7602254415305902
-0.05387500000000001,-0.8823004883107903,0.7602254415305902
-0.05381250000000001,-0.8785367565710482,0.7602254415305902
-0.05375000000000002,-0.9161740739684698,0.7602254415305902
-0.0536875,-0.9274652691876963,0.7602254415305902
