Module3/data/exp1/ZVN2110A/NMOS_VDS_vs_ID_stair_offset_1.7.csv

#Digilent WaveForms Oscilloscope Acquisition
#Device Name: Discovery2
#Serial Number: SN:210321AC1D4D
#Date Time: 2020-11-12 16:52:26.414
#Sample rate: 39016.8Hz
#Samples: 8192
#Trigger: Source: Channel 1 Type: Edge Condition: Rising Level: 0 V Hyst.: Auto HoldOff: 0 s
#Channel 1: Range: 1 V/div Offset: 0 V Attenuation: 1 X
#Channel 2: Range: 1 V/div Offset: 0 V Attenuation: 1 X
#Wavegen Channel 1: Running
#Mode: Simple
#Type: RampUp
#Frequency: 100 Hz
#Period: 10 ms
#Amplitude: 1.5 V
#Offset: 1.5 V
#Symmetry: 100 %
#Phase: 0 ¡Æ
#Wavegen Channel 2: Running
#Mode: Simple
#Type: stair_ZVN.txt.txt
#Frequency: 20 Hz
#Period: 50 ms
#Amplitude: 1.5 V
#Offset: 3.2 V
#Phase: 0 ¡Æ
#Power Supplies: ON
#Positive Supply: ON
#Voltage: 5 V
#Negative Supply: ON
#Voltage: -5 V

Time (s),Channel 1 (V),Channel 2 (V)
-0.10498048,0.009151525278054282,0.376404566580662
-0.10495485,0.009151525278054282,0.3840061715877781
-0.10492922,0.009151525278054282,0.3916077765948942
-0.10490359,0.009151525278054282,0.3992093816020102
-0.10487796,0.009151525278054282,0.4030101841055685
-0.10485233,0.009151525278054282,0.4144125916162417
-0.1048267,0.009151525278054282,0.4220141966233585
-0.10480107,0.009151525278054282,0.4258149991269214
-0.10477544,0.009151525278054282,0.4372174066375947
-0.10474981,0.009151525278054282,0.4448190116447108
-0.10472418,0.009151525278054282,0.4524206166518265
-0.10469855,0.009151525278054282,0.4562214191553849
-0.10467292,0.009151525278054322,0.467623826666059
-0.10464729,0.01293686316452849,0.471424629169617
-0.10462166,0.01293686316452864,0.479026234176733
-0.10459603,0.009151525278054812,0.486627839183849
-0.1045704,0.009151525278054282,0.4942294441909651
-0.10454477,0.009151525278054282,0.5018310491980811
-0.10451914,0.01293686316452864,0.5132334567087586
-0.10449351,0.01293686316452864,0.5170342592123175
-0.10446788,0.01293686316452864,0.524635864219434
-0.10444225,0.01293686316452864,0.5360382717301078
-0.10441662,0.01293686316452864,0.5436398767372237
-0.10439099,0.01293686316452864,0.5474406792407818
-0.10436536,0.01293686316452864,0.5550422842478977
-0.10433973,0.01293686316452864,0.5626438892550139
-0.1043141,0.01293686316452864,0.57024549426213
-0.10428847,0.01293686316452864,0.577847099269246
-0.10426284,0.01293686316452864,0.5854487042763621
-0.10423721,0.0167222010510021,0.5930503092834813
-0.10421158,0.01293686316452864,0.5968511117870401
-0.10418595,0.01293686316452864,0.6044527167941561
-0.10416032,0.01293686316452864,0.6120543218012723
-0.10413469,0.01293686316452864,0.6196559268083883
-0.10410906,0.01293686316452864,0.6272575318155044
-0.10408343,0.01293686316452864,0.6348591368226205
-0.1040578,0.01293686316452864,0.6424607418297366
-0.10403217,0.01293686316452864,0.6500623468368527
-0.10400654,0.01293686316452864,0.6576639518439686
-0.10398091,0.01293686316452864,0.6652655568510848
-0.10395528,0.01293686316452949,0.6728671618582049
-0.10392965,0.016722201051003,0.6804687668653218
-0.10390402,0.016722201051003,0.6918711743759949
-0.10387839,0.016722201051003,0.6956719768795532
-0.10385276,0.016722201051003,0.7032735818866693
-0.10382713,0.016722201051003,0.7108751868937854
-0.1038015,0.016722201051003,0.7146759893973434
-0.10377587,0.016722201051003,0.726078396908017
-0.10375024,0.02050753893747667,0.729879199411576
-0.10372461,0.01672220105100386,0.7412816069222488
-0.10369898,0.02050753893747636,0.7450824094258116
-0.10367335,0.0167222010510038,0.7526840144329277
-0.10364772,0.02050753893747735,0.7602856194400437
-0.10362209,0.02050753893747735,0.7678872244471598
-0.10359646,0.02050753893747735,0.7754888294542759
-0.10357083,0.02050753893747735,0.783090434461392
-0.1035452,0.02050753893747735,0.790692039468508
-0.10351957,0.02050753893747735,0.7982936444756241
-0.10349394,0.02050753893747735,0.8058952494827402
-0.10346831,0.02050753893747735,0.8134968544898563
-0.10344268,0.02050753893747735,0.8248992620005297
-0.10341705,0.02050753893747735,0.8287000645040925
-0.10339142,0.0205075389374781,0.8363016695112093
-0.10336579,0.02429287682395115,0.8477040770218823
-0.10334016,0.02050753893747735,0.8515048795254411
-0.10331453,0.02050753893747735,0.8629072870361149
-0.1032889,0.02050753893747735,0.8667080895396729
-0.10326327,0.02050753893747735,0.874309694546789
-0.10323764,0.02050753893747735,0.881911299553905
-0.10321201,0.02429287682395113,0.8895129045610211
-0.10318638,0.02429287682395171,0.8971145095681372
-0.10316075,0.02429287682395171,0.9047161145752532
-0.10313512,0.02429287682395171,0.9123177195823734
-0.10310949,0.02429287682395171,0.9199193245894896
-0.10308386,0.02429287682395171,0.9275209295966056
-0.10305823,0.02429287682395171,0.9351225346037213
-0.1030326,0.02429287682395171,0.9389233371072797
-0.10300697,0.02429287682395171,0.9503257446179537
-0.10298134,0.02429287682395171,0.95792734962507
-0.10295571,0.02429287682395171,0.9655289546321859
-0.10293008,0.02429287682395171,0.9731305596393021
-0.10290445,0.02429287682395171,0.9769313621428608
-0.10287882,0.02429287682395171,0.984532967149976
-0.10285319,0.02807821471042522,0.9959353746606543
-0.10282756,0.02429287682395237,1.00353697966777
-0.10280193,0.02807821471042607,1.011138584674886
-0.1027763,0.02807821471042607,1.018740189682003
-0.10275067,0.02807821471042607,1.026341794689119
-0.10272504,0.02807821471042607,1.033943399696235
-0.10269941,0.02807821471042607,1.041545004703351
-0.10267378,0.02807821471042607,1.049146609710467
-0.10264815,0.02807821471042607,1.056748214717583
-0.10262252,0.02807821471042607,1.060549017221142
-0.10259689,0.02807821471042607,1.068150622228261
-0.10257126,0.02807821471042607,1.075752227235376
-0.10254563,0.02807821471042607,1.079553029738936
-0.10252,0.02807821471042607,1.090955437249609
-0.10249437,0.02807821471042629,1.098557042256725
-0.10246874,0.03186355259690039,1.106158647263841
-0.10244311,0.02807821471042622,1.113760252270958
-0.10241748,0.03186355259690007,1.121361857278073
-0.10239185,0.0280782147104266,1.12896346228519
-0.10236622,0.02807821471042607,1.132764264788748
-0.10234059,0.03186355259689951,1.144166672299421
-0.10231496,0.02807821471042607,1.151768277306541
-0.10228933,0.02807821471042607,1.1555690798101
-0.1022637,0.02807821471042662,1.166971487320774
-0.10223807,0.03186355259690042,1.170772289824332
-0.10221244,0.03186355259690042,1.178373894831448
-0.10218681,0.03186355259690042,1.185975499838564
-0.10216118,0.03186355259690042,1.19357710484568
-0.10213555,0.03186355259690042,1.201178709852796
-0.10210992,0.03186355259690042,1.208780314859912
-0.10208429,0.03186355259690042,1.212581117363471
-0.10205866,0.03186355259690042,1.220182722370586
-0.10203303,0.03186355259690042,1.227784327377706
-0.1020074,0.03186355259690042,1.235385932384822
-0.10198177,0.03186355259690042,1.242987537391939
-0.10195614,0.03186355259690042,1.250589142399055
-0.10193051,0.03186355259690042,1.258190747406171
-0.10190488,0.03186355259690042,1.265792352413287
-0.10187925,0.03186355259690042,1.273393957420403
-0.10185362,0.03186355259690042,1.280995562427519
-0.10182799,0.03186355259690042,1.288597167434635
-0.10180236,0.03564889048337395,1.296198772441751
-0.10177673,0.03564889048337478,1.303800377448867
-0.1017511,0.03564889048337478,1.311401982455987
-0.10172547,0.03564889048337478,1.319003587463103
-0.10169984,0.03564889048337478,1.326605192470219
-0.10167421,0.03564889048337478,1.330405994973778
-0.10164858,0.03564889048337486,1.341808402484452
-0.10162295,0.03943422836984903,1.349410007491568
-0.10159732,0.03564889048337508,1.353210809995126
-0.10157169,0.03564889048337478,1.364613217505799
-0.10154606,0.03564889048337478,1.368414020009358
-0.10152043,0.03564889048337478,1.376015625016474
-0.1014948,0.03564889048337478,1.383617230023594
-0.10146917,0.03564889048337558,1.39121883503071
-0.10144354,0.03943422836984914,1.398820440037826
-0.10141791,0.03943422836984914,1.406422045044942
-0.10139228,0.03943422836984914,1.414023650052058
-0.10136665,0.03943422836984914,1.425426057562732
-0.10134102,0.03943422836984914,1.433027662569849
-0.10131539,0.03943422836984914,1.440629267576965
-0.10128976,0.04321956625632296,1.448230872584081
-0.10126413,0.0432195662563235,1.455832477591197
-0.1012385,0.0432195662563235,1.463434082598313
-0.10121287,0.04321956625632256,1.471035687605433
-0.10118724,0.03943422836984989,1.478637292612548
-0.10116161,0.04321956625632294,1.482438095116108
-0.10113598,0.03943422836984951,1.493840502626781
-0.10111035,0.0432195662563235,1.501442107633898
-0.10108472,0.0432195662563235,1.509043712641013
-0.10105909,0.0432195662563235,1.51664531764813
-0.10103346,0.03943422836984953,1.524246922655246
-0.10100783,0.03943422836984914,1.531848527662362
-0.1009822,0.04321956625632272,1.539450132669478
-0.10095657,0.0432195662563235,1.547051737676594
-0.10093094,0.0432195662563235,1.550852540180156
-0.10090531,0.0432195662563235,1.558454145187272
-0.10087968,0.0432195662563235,1.569856552697946
-0.10085405,0.0432195662563235,1.573657355201504
-0.10082842,0.0432195662563235,1.58125896020862
-0.10080279,0.0432195662563235,1.588860565215736
-0.10077716,0.0432195662563235,1.596462170222852
-0.10075153,0.0432195662563235,1.604063775229968
-0.1007259,0.0432195662563235,1.611665380237084
-0.10070027,0.0432195662563235,1.619266985244201
-0.10067464,0.0432195662563235,1.626868590251316
-0.10064901,0.0432195662563235,1.634470195258437
-0.10062338,0.04321956625632415,1.642071800265553
-0.10059775,0.04700490414279785,1.649673405272668
-0.10057212,0.04700490414279785,1.653474207776227
-0.10054649,0.04700490414279785,1.661075812783343
-0.10052086,0.04700490414279785,1.672478220294017
-0.10049523,0.04700490414279785,1.680079825301133
-0.1004696,0.04700490414279785,1.687681430308249
-0.10044397,0.04700490414279785,1.695283035315365
-0.10041834,0.04700490414279785,1.702884640322481
-0.10039271,0.04700490414279785,1.710486245329602
-0.10036708,0.04700490414279864,1.718087850336717
-0.10034145,0.05079024202927221,1.721888652840275
-0.10031582,0.05079024202927221,1.729490257847392
-0.10029019,0.05079024202927221,1.737091862854508
-0.10026456,0.05079024202927221,1.744693467861624
-0.10023893,0.05079024202927221,1.75229507286874
-0.1002133,0.05079024202927221,1.756095875372298
-0.10018767,0.05079024202927221,1.767498282882972
-0.10016204,0.05079024202927221,1.775099887890088
-0.10013641,0.05079024202927221,1.782701492897204
-0.10011078,0.05079024202927221,1.790303097904324
-0.10008515,0.05079024202927221,1.79790470291144
-0.10005952,0.05079024202927221,1.805506307918556
-0.10003389,0.05079024202927221,1.813107912925672
-0.10000826,0.05079024202927238,1.81690871542923
-0.09998263,0.05457557991574655,1.828311122939905
-0.099957,0.05079024202927242,1.832111925443463
-0.09993137000000001,0.05079024202927221,1.839713530450579
-0.09990574000000001,0.05079024202927221,1.847315135457695
-0.09988011000000001,0.05457557991574579,1.854916740464811
-0.09985448000000001,0.05079024202927318,1.862518345471927
-0.09982885,0.05457557991574657,1.870119950479046
-0.09980322,0.05457557991574657,1.873920752982605
-0.09977759,0.05457557991574657,1.885323160493279
-0.09975196,0.05457557991574657,1.892924765500395
-0.09972633,0.05457557991574644,1.900526370507511
-0.0997007,0.05079024202927227,1.908127975514627
-0.09967507,0.05457557991574631,1.915729580521744
-0.09964944000000001,0.05457557991574657,1.92333118552886
-0.09962381000000001,0.05457557991574657,1.930932790535975
-0.09959818000000001,0.0583609178022201,1.938534395543092
-0.09957255000000001,0.05457557991574759,1.946136000550208
-0.09954692,0.05836091780222009,1.953737605557328
-0.09952129,0.05457557991574657,1.961339210564444
-0.09949566,0.05457557991574657,1.96894081557156
-0.09947003,0.05457557991574657,1.976542420578676
-0.0994444,0.05457557991574657,1.984144025585792
-0.09941877,0.05457557991574657,1.991745630592908
-0.09939314,0.05457557991574657,1.999347235600024
-0.09936751000000001,0.05836091780222043,2.006948840607141
-0.09934188000000001,0.05836091780222093,2.014550445614256
-0.09931625000000001,0.05457557991574744,2.022152050621373
-0.09929062,0.05836091780222093,2.029753655628493
-0.09926499,0.05836091780222093,2.037355260635609
-0.09923936,0.05836091780222093,2.044956865642724
-0.09921373,0.05836091780222093,2.048757668146283
-0.0991881,0.05836091780222115,2.060160075656956
-0.09916247,0.06214625568869528,2.063960878160515
-0.09913684,0.06214625568869528,2.071562483167631
-0.09911121000000001,0.05836091780222128,2.079164088174747
-0.09908558000000001,0.05836091780222093,2.086765693181863
-0.09905995000000001,0.05836091780222093,2.094367298188979
-0.09903432000000001,0.06214625568869436,2.101968903196096
-0.09900869,0.05836091780222093,2.109570508203215
-0.09898306,0.05836091780222093,2.117172113210331
-0.09895743,0.05836091780222148,2.124773718217448
-0.0989318,0.06214625568869492,2.132375323224564
-0.09890617,0.0583609178022211,2.13997692823168
-0.09888054,0.06214625568869526,2.147578533238796
-0.09885491,0.06214625568869528,2.155180138245912
-0.09882928000000001,0.06214625568869528,2.162781743253028
-0.09880365000000001,0.06214625568869528,2.170383348260144
-0.09877802000000001,0.06214625568869528,2.17798495326726
-0.09875239000000001,0.06214625568869528,2.185586558274376
-0.09872676,0.06214625568869528,2.193188163281496
-0.09870113,0.06214625568869528,2.200789768288613
-0.0986755,0.06214625568869528,2.208391373295728
-0.09864987,0.06214625568869528,2.215992978302844
-0.09862424,0.0621462556886954,2.223594583309961
-0.09859861,0.06593159357516958,2.234996990820635
-0.09857298,0.06593159357516964,2.238797793324193
-0.09854735000000001,0.06593159357516964,2.246399398331309
-0.09852172000000001,0.06593159357516964,2.250200200834867
-0.09849609000000001,0.06593159357516964,2.257801805841983
-0.09847046000000001,0.0621462556886963,2.265403410849099
-0.09844483,0.06593159357516964,2.269204213352662
-0.0984192,0.06593159357516964,2.280606620863334
-0.09839357,0.06593159357516964,2.284407423366893
-0.09836794,0.06593159357516964,2.292009028374009
-0.09834231,0.06593159357516964,2.299610633381125
-0.09831668,0.06593159357516964,2.307212238388241
-0.09829105,0.06593159357516964,2.314813843395358
-0.09826542000000001,0.06593159357516964,2.322415448402473
-0.09823979000000001,0.06593159357516964,2.330017053409589
-0.09821416000000001,0.06593159357516964,2.333817855913148
-0.09818853,0.06593159357516964,2.345220263423825
-0.0981629,0.06593159357516964,2.349021065927384
-0.09813727,0.06593159357517024,2.360423473438058
-0.09811164,0.069716931461644,2.368025078445174
-0.09808601,0.069716931461644,2.37562668345229
-0.09806038,0.069716931461644,2.383228288459406
-0.09803475,0.069716931461644,2.390829893466522
-0.09800912000000001,0.069716931461644,2.398431498473638
-0.09798349000000001,0.069716931461644,2.406033103480754
-0.09795786000000001,0.069716931461644,2.413634708487871
-0.09793223000000001,0.069716931461644,2.421236313494986
-0.0979066,0.069716931461644,2.428837918502107
-0.09788097,0.069716931461644,2.436439523509223
-0.09785534,0.069716931461644,2.444041128516338
-0.09782971,0.06971693146164436,2.447841931019897
-0.09780408,0.07350226934811818,2.455443536027013
-0.09777845,0.06971693146164402,2.466845943537687
-0.09775282,0.069716931461644,2.474447548544803
-0.09772719000000001,0.069716931461644,2.482049153551919
-0.09770156000000001,0.069716931461644,2.485849956055478
-0.09767593000000001,0.069716931461644,2.497252363566151
-0.09765030000000001,0.07350226934811738,2.50105316606971
-0.09762467,0.07350226934811746,2.512455573580387
-0.09759904,0.069716931461644,2.516256376083945
-0.09757341,0.0697169314616445,2.523857981091061
-0.09754778,0.07350226934811835,2.531459586098177
-0.09752215,0.07350226934811847,2.539061191105294
-0.09749652,0.07728760723459265,2.54666279611241
-0.09747089,0.07350226934811861,2.554264401119526
-0.09744526000000001,0.07350226934811835,2.561866006126642
-0.09741963000000001,0.07350226934811835,2.569467611133758
-0.09739400000000001,0.07350226934811835,2.577069216140874
-0.09736837000000001,0.07350226934811835,2.58467082114799
-0.09734274,0.07350226934811835,2.59227242615511
-0.09731711,0.07350226934811899,2.599874031162226
-0.09729148,0.07728760723459271,2.607475636169343
-0.09726585,0.07728760723459271,2.615077241176458
-0.09724022,0.07728760723459265,2.622678846183574
-0.09721459,0.07350226934811847,2.626479648687133
-0.09718896,0.07728760723459241,2.637882056197806
-0.09716333000000001,0.07350226934811885,2.645483661204923
-0.09713770000000001,0.07728760723459202,2.653085266212039
-0.09711207000000001,0.07728760723459271,2.660686871219155
-0.09708644,0.07728760723459271,2.664487673722717
-0.09706081,0.07728760723459271,2.672089278729833
-0.09703518,0.07728760723459271,2.679690883736949
-0.09700955,0.07728760723459271,2.687292488744065
-0.09698392,0.07728760723459271,2.694894093751181
-0.09695829,0.07728760723459271,2.702495698758297
-0.09693266,0.07728760723459271,2.706296501261856
-0.09690703000000001,0.07728760723459271,2.717698908772529
-0.09688140000000001,0.08107294512106651,2.725300513779646
-0.09685577000000001,0.08107294512106707,2.732902118786761
-0.09683014000000001,0.08107294512106707,2.740503723793878
-0.09680451,0.08107294512106614,2.748105328800998
-0.09677888,0.07728760723459345,2.755706933808114
-0.09675325,0.08107294512106707,2.76330853881523
-0.09672762,0.08107294512106707,2.770910143822346
-0.09670199,0.08107294512106707,2.774710946325904
-0.09667636,0.08107294512106707,2.78231255133302
-0.09665073,0.08107294512106707,2.789914156340136
-0.09662510000000001,0.08107294512106707,2.797515761347252
-0.09659947000000001,0.08107294512106707,2.805117366354368
-0.09657384000000001,0.08107294512106707,2.808918168857927
-0.09654821000000001,0.08107294512106707,2.820320576368599
-0.09652258,0.08107294512106707,2.827922181375721
-0.09649695,0.08107294512106707,2.835523786382836
-0.09647132,0.08107294512106707,2.843125391389953
-0.09644569,0.08107294512106707,2.850726996397069
-0.09642006,0.08107294512106718,2.854527798900627
-0.09639443,0.08485828300754135,2.865930206411301
-0.0963688,0.08485828300754142,2.873531811418417
-0.09634317000000001,0.08485828300754142,2.881133416425533
-0.09631754000000001,0.08485828300754142,2.888735021432649
-0.09629191000000001,0.005366187391597486,0.2623804914744949
-0.09626628,-0.002204488381368791,-0.0302813013000618
-0.09624065,-0.002204488381368791,-0.003675683775158046
-0.09621502,-0.002204488381368791,0.0115275262390741
-0.09618939,-0.002204488381368791,0.02673073625330534
-0.09616376,-0.002204488381368791,0.03433234126042142
-0.09613813,-0.002204488381368791,0.04193394626753749
-0.0961125,-0.002204488381368791,0.04953555127465357
-0.09608687,-0.002204488381368791,0.05713715628176964
-0.09606124000000001,-0.002204488381368791,0.06473876128888571
-0.09603561000000001,-0.002204488381368791,0.0723403662960018
-0.09600998000000001,-0.002204488381368791,0.07994197130311786
-0.09598435,-0.002204488381368791,0.08754357631023806
-0.09595872,-0.002204488381368791,0.09514518131735412
-0.09593309,-0.002204488381368198,0.1027467863244702
-0.09590746,0.001580849505105164,0.1103483913315863
-0.09588183,-0.002204488381368791,0.1179499963387021
-0.0958562,-0.002204488381368791,0.1217507988422602
-0.09583057,-0.002204488381368791,0.1331532063529343
-0.09580494000000001,-0.002204488381368791,0.1369540088564927
-0.09577931000000001,0.001580849505105015,0.1445556138636084
-0.09575368000000001,0.001580849505105566,0.1521572188707245
-0.09572805000000001,0.001580849505105566,0.1597588238778406
-0.09570242,0.00158084950510464,0.171161231388519
-0.09567679,-0.002204488381368055,0.178762836395635
-0.09565116,0.001580849505105566,0.1863644414027511
-0.09562553,0.001580849505105566,0.1939660464098672
-0.0955999,0.001580849505105566,0.2015676514169833
-0.09557427,0.001580849505105566,0.2091692564240993
-0.09554864,0.001580849505105566,0.2167708614312154
-0.09552301000000001,0.001580849505105566,0.2243724664383315
-0.09549738000000001,0.001580849505105566,0.2319740714454476
