Module3/data/exp1/ZVN2110A/NMOS_VDS_vs_ID_stair_No_offset.csv

#Digilent WaveForms Oscilloscope Acquisition
#Device Name: Discovery2
#Serial Number: SN:210321AC1D4D
#Date Time: 2020-11-12 16:46:40.366
#Sample rate: 39016.8Hz
#Samples: 8192
#Trigger: Source: Channel 1 Type: Edge Condition: Rising Level: 0 V Hyst.: Auto HoldOff: 0 s
#Channel 1: Range: 1 V/div Offset: 0 V Attenuation: 1 X
#Channel 2: Range: 1 V/div Offset: 0 V Attenuation: 1 X
#Wavegen Channel 1: Running
#Mode: Simple
#Type: RampUp
#Frequency: 100 Hz
#Period: 10 ms
#Amplitude: 1.5 V
#Offset: 1.5 V
#Symmetry: 100 %
#Phase: 0 ¡Æ
#Wavegen Channel 2: Running
#Mode: Simple
#Type: stair_ZVN.txt.txt
#Frequency: 20 Hz
#Period: 50 ms
#Amplitude: 1.5 V
#Offset: 1.5 V
#Phase: 0 ¡Æ
#Power Supplies: ON
#Positive Supply: ON
#Voltage: 5 V
#Negative Supply: ON
#Voltage: -5 V

Time (s),Channel 1 (V),Channel 2 (V)
-0.10498048,2.178150134227861,-0.003675683775161388
-0.10495485,2.18572081000081,-0.003675683775161388
-0.10492922,2.193291485773758,-0.003675683775161388
-0.10490359,2.200862161546707,-0.003675683775161388
-0.10487796,2.212218175206129,-0.003675683775161388
-0.10485233,2.216003513092604,-0.003675683775161388
-0.1048267,2.223574188865551,-0.003675683775161388
-0.10480107,2.231144864638504,-0.00367568377516039
-0.10477544,2.238715540411452,0.0001251187283960337
-0.10474981,2.246286216184401,-0.003675683775161388
-0.10472418,2.253856891957349,-0.003675683775160964
-0.10469855,2.261427567730297,0.0001251187283968405
-0.10467292,2.268998243503245,0.0001251187283968
-0.10464729,2.276568919276194,-0.003675683775161237
-0.10462166,2.284139595049142,-0.003675683775161388
-0.10459603,2.287924932935617,-0.003675683775161388
-0.1045704,2.295495608708565,-0.003675683775161388
-0.10454477,2.303066284481513,-0.003675683775161388
-0.10451914,2.314422298140939,-0.003675683775161388
-0.10449351,2.321992973913888,-0.003675683775161388
-0.10446788,2.325778311800363,-0.003675683775161388
-0.10444225,2.337134325459785,-0.003675683775161388
-0.10441662,2.344705001232733,-0.003675683775161388
-0.10439099,2.352275677005681,-0.003675683775161388
-0.10436536,2.35984635277863,-0.003675683775161388
-0.10433973,2.367417028551578,-0.003675683775161388
-0.1043141,2.374987704324526,-0.003675683775161388
-0.10428847,2.382558380097475,-0.003675683775161388
-0.10426284,2.393914393756897,-0.003675683775161388
-0.10423721,2.397699731643376,-0.003675683775161388
-0.10421158,2.409055745302798,-0.003675683775161388
-0.10418595,2.416626421075746,-0.003675683775161388
-0.10416032,2.424197096848695,-0.003675683775161388
-0.10413469,2.431767772621643,-0.003675683775161523
-0.10410906,2.439338448394591,-0.00747648627871956
-0.10408343,2.44690912416754,0.0001251187283963442
-0.1040578,2.454479799940488,-0.003675683775160949
-0.10403217,2.46583581359991,0.00012511872839621
-0.10400654,2.469621151486386,-0.003675683775160566
-0.10398091,2.477191827259333,-0.003675683775161388
-0.10395528,2.48854784091876,-0.003675683775161388
-0.10392965,2.496118516691707,-0.003675683775161388
-0.10390402,2.499903854578182,-0.003675683775160918
-0.10387839,2.50747453035113,0.0001251187283968405
-0.10385276,2.515045206124079,0.0001251187283967535
-0.10382713,2.522615881897027,-0.003675683775161284
-0.1038015,2.53397189555645,-0.003675683775161388
-0.10377587,2.537757233442925,-0.003675683775161388
-0.10375024,2.545327909215872,-0.003675683775161388
-0.10372461,2.556683922875294,0.0001251187283959695
-0.10369898,2.564254598648247,-0.003675683775160392
-0.10367335,2.571825274421196,0.0001251187283960362
-0.10364772,2.579395950194144,-0.003675683775160775
-0.10362209,2.586966625967092,0.0001251187283964193
-0.10359646,2.594537301740041,-0.003675683775161388
-0.10357083,2.602107977512989,-0.00367568377516135
-0.1035452,2.609678653285937,0.0001251187283966869
-0.10351957,2.617249329058886,-0.003675683775161044
-0.10349394,2.624820004831834,-0.003675683775161388
-0.10346831,2.632390680604782,-0.003675683775161388
-0.10344268,2.639961356377731,-0.003675683775161388
-0.10341705,2.647532032150683,-0.003675683775161388
-0.10339142,2.655102707923631,-0.003675683775161388
-0.10336579,2.662673383696579,-0.003675683775161388
-0.10334016,2.666458721583054,-0.003675683775161388
-0.10331453,2.674029397356002,-0.003675683775161388
-0.1032889,2.68160007312895,-0.003675683775161388
-0.10326327,2.692956086788373,-0.003675683775161388
-0.10323764,2.700526762561321,-0.003675683775161388
-0.10321201,2.70809743833427,-0.003675683775161388
-0.10318638,2.715668114107218,-0.003675683775161388
-0.10316075,2.723238789880166,-0.003675683775161388
-0.10313512,2.730809465653119,-0.003675683775161388
-0.10310949,2.738380141426067,-0.003675683775161388
-0.10308386,2.745950817199015,-0.003675683775161388
-0.10305823,2.753521492971964,-0.003675683775161388
-0.1030326,2.761092168744912,-0.003675683775161388
-0.10300697,2.76866284451786,-0.003675683775161388
-0.10298134,2.776233520290809,-0.003675683775161388
-0.10295571,2.783804196063757,-0.003675683775161388
-0.10293008,2.791374871836705,-0.007476486278718983
-0.10290445,2.798945547609654,-0.003675683775162213
-0.10287882,2.810301561269076,-0.003675683775161388
-0.10285319,2.814086899155555,-0.003675683775161388
-0.10282756,2.825442912814977,-0.003675683775161388
-0.10280193,2.833013588587926,-0.003675683775161388
-0.1027763,2.840584264360874,-0.003675683775161388
-0.10275067,2.848154940133822,-0.003675683775161388
-0.10272504,2.855725615906771,-0.003675683775161388
-0.10269941,2.863296291679719,-0.003675683775161388
-0.10267378,2.870866967452667,-0.003675683775161388
-0.10264815,2.878437643225616,-0.003675683775161388
-0.10262252,2.886008318998564,-0.003675683775161388
-0.10259689,2.893578994771516,-0.003675683775161388
-0.10257126,2.901149670544465,-0.003675683775161388
-0.10254563,2.908720346317413,-0.003675683775161388
-0.10252,2.916291022090361,-0.003675683775161388
-0.10249437,2.92386169786331,-0.003675683775161388
-0.10246874,2.935217711522732,-0.003675683775161388
-0.10244311,2.942788387295681,-0.003675683775161388
-0.10241748,2.946573725182155,-0.003675683775161388
-0.10239185,2.954144400955103,-0.003675683775161388
-0.10236622,2.965500414614525,-0.003675683775161388
-0.10234059,2.969285752501001,-0.003675683775161388
-0.10231496,2.976856428273952,-0.003675683775161388
-0.10228933,2.984427104046901,-0.003675683775161388
-0.1022637,2.995783117706322,-0.003675683775161388
-0.10223807,2.999568455592541,-0.003675683775161018
-0.10221244,0.3763293002660475,0.0001251187283970194
-0.10218681,-0.03627252935963663,0.003925921231955056
-0.10216118,-0.02113117781374139,0.01152752623907112
-0.10213555,-0.009775164154318689,0.01912913124618719
-0.10210992,-0.005989826267843733,0.02673073625330326
-0.10208429,0.001580849505104015,0.03433234126041933
-0.10205866,0.001580849505105566,0.03813314376397815
-0.10203303,0.001580849505105566,0.04953555127465471
-0.1020074,0.001580849505105566,0.05333635377821416
-0.10198177,0.001580849505105566,0.06473876128888724
-0.10195614,0.001580849505105566,0.06853956379244559
-0.10193051,0.001580849505105696,0.07614116879956168
-0.10190488,0.005366187391579863,0.08374277380667774
-0.10187925,0.001580849505105818,0.09134437881379383
-0.10185362,0.005366187391579481,0.09894598382090988
-0.10182799,0.005366187391579924,0.106547588828026
-0.10180236,0.005366187391579924,0.114149193835142
-0.10177673,0.005366187391579924,0.1179499963387009
-0.1017511,0.005366187391579924,0.1293524038493775
-0.10172547,0.005366187391580578,0.1331532063529361
-0.10169984,0.009151525278054282,0.1407548113600522
-0.10167421,0.009151525278054282,0.1483564163671683
-0.10164858,0.009151525278054282,0.1559580213742844
-0.10162295,0.009151525278054282,0.1635596263814004
-0.10159732,0.009151525278054282,0.1711612313885165
-0.10157169,0.009151525278054282,0.1787628363956326
-0.10154606,0.009151525278054282,0.1825636388991911
-0.10152043,0.009151525278054282,0.1939660464098638
-0.1014948,0.009151525278054282,0.2015676514169849
-0.10146917,0.009151525278055078,0.2091692564241002
-0.10144354,0.01293686316452864,0.2129700589276595
-0.10141791,0.01293686316452864,0.2243724664383327
-0.10139228,0.01293686316452864,0.2281732689418912
-0.10136665,0.01293686316452864,0.2395756764525653
-0.10134102,0.01293686316452864,0.2433764789561233
-0.10131539,0.01293686316452864,0.2509780839632392
-0.10128976,0.01293686316452864,0.2585796889703553
-0.10126413,0.01672220105100227,0.2661812939774714
-0.1012385,0.016722201051003,0.2737828989845875
-0.10121287,0.01672220105100206,0.2775837014881494
-0.10118724,0.01293686316452938,0.2851853064952655
-0.10116161,0.01672220105100355,0.2927869115023815
-0.10113598,0.02050753893747698,0.3003885165094973
-0.10111035,0.01672220105100317,0.3041893190130555
-0.10108472,0.02050753893747734,0.3117909240201715
-0.10105909,0.0167222010510032,0.3193925290272877
-0.10103346,0.02050753893747696,0.3231933315308458
-0.10100783,0.02050753893747735,0.3345957390415192
-0.1009822,0.02050753893747735,0.3383965415450784
-0.10095657,0.02050753893747735,0.3459981465521937
-0.10093094,0.02429287682395171,0.3574005540628712
-0.10090531,0.02429287682395171,0.3612013565664299
-0.10087968,0.02429287682395171,0.368802961573546
-0.10085405,0.02429287682395171,0.3764045665806621
-0.10082842,0.02429287682395171,0.384006171587778
-0.10080279,0.02429287682395171,0.3878069740913361
-0.10077716,0.02807821471042581,0.3954085790984521
-0.10075153,0.02807821471042607,0.4030101841055682
-0.1007259,0.02807821471042607,0.4106117891126842
-0.10070027,0.02807821471042607,0.4182133941198003
-0.10067464,0.02807821471042607,0.4258149991269163
-0.10064901,0.02807821471042607,0.4334166041340357
-0.10062338,0.02807821471042607,0.4372174066375945
-0.10059775,0.02807821471042607,0.4448190116447105
-0.10057212,0.02807821471042634,0.4524206166518266
-0.10054649,0.03186355259690042,0.4600222216589426
-0.10052086,0.03186355259690042,0.4676238266660587
-0.10049523,0.03186355259690042,0.4752254316731748
-0.1004696,0.03186355259690042,0.4828270366802909
-0.10044397,0.03186355259690042,0.4904286416874069
-0.10041834,0.03186355259690042,0.498030246694523
-0.10039271,0.03564889048337478,0.5056318517016433
-0.10036708,0.03564889048337478,0.5132334567087592
-0.10034145,0.03564889048337478,0.5208350617158747
-0.10031582,0.03564889048337478,0.5246358642194331
-0.10029019,0.03564889048337478,0.5322374692265492
-0.10026456,0.03564889048337478,0.5398390742336654
-0.10023893,0.03564889048337478,0.5474406792407814
-0.1002133,0.03564889048337478,0.5550422842478975
-0.10018767,0.03564889048337478,0.5626438892550135
-0.10016204,0.03564889048337478,0.5702454942621297
-0.10013641,0.03564889048337478,0.5778470992692457
-0.10011078,0.03943422836984914,0.5854487042763649
-0.10008515,0.03943422836984914,0.5892495067799237
-0.10005952,0.03943422836984914,0.5968511117870398
-0.10003389,0.0394342283698495,0.6044527167941559
-0.10000826,0.0432195662563235,0.6120543218012718
-0.09998263,0.0432195662563235,0.6158551243048298
-0.099957,0.0432195662563235,0.6272575318155038
-0.09993137000000001,0.0432195662563235,0.6348591368226202
-0.09990574000000001,0.0432195662563235,0.6386599393261787
-0.09988011000000001,0.0432195662563235,0.6462615443332941
-0.09985448000000001,0.04700490414279688,0.6576639518439674
-0.09982885,0.04321956625632439,0.6614647543475304
-0.09980322,0.04700490414279785,0.6690663593546464
-0.09977759,0.04700490414279785,0.6766679643617625
-0.09975196,0.04700490414279817,0.6842695693688786
-0.09972633,0.05079024202927221,0.6918711743759947
-0.0997007,0.05079024202927221,0.6994727793831107
-0.09967507,0.04700490414279811,0.7070743843902267
-0.09964944000000001,0.05079024202927176,0.7108751868937851
-0.09962381000000001,0.05079024202927221,0.7184767919009006
-0.09959818000000001,0.05079024202927221,0.7260783969080168
-0.09957255000000001,0.05457557991574555,0.7336800019151329
-0.09954692,0.05457557991574657,0.7374808044186948
-0.09952129,0.05457557991574657,0.7450824094258109
-0.09949566,0.05457557991574657,0.752684014432927
-0.09947003,0.05457557991574684,0.760285619440043
-0.0994444,0.05836091780222085,0.7678872244471591
-0.09941877,0.05457557991574668,0.7754888294542752
-0.09939314,0.05457557991574657,0.7830904344613913
-0.09936751000000001,0.05836091780222043,0.7906920394685073
-0.09934188000000001,0.05836091780222093,0.7982936444756235
-0.09931625000000001,0.05836091780222093,0.8020944469791821
-0.09929062,0.05836091780222093,0.8096960519863015
-0.09926499,0.05836091780222093,0.8172976569934175
-0.09923936,0.05836091780222093,0.8248992620005337
-0.09921373,0.05836091780222093,0.8325008670076492
-0.0991881,0.05836091780222093,0.8363016695112075
-0.09916247,0.05836091780222095,0.8439032745183237
-0.09913684,0.06214625568869512,0.8553056820289978
-0.09911121000000001,0.06214625568869528,0.8591064845325561
-0.09908558000000001,0.06214625568869528,0.8667080895396718
-0.09905995000000001,0.06214625568869528,0.874309694546788
-0.09903432000000001,0.06593159357516871,0.8819112995539039
-0.09900869,0.06593159357516964,0.885712102057466
-0.09898306,0.06593159357516964,0.8933137070645819
-0.09895743,0.06593159357516964,0.9009153120716981
-0.0989318,0.06593159357516964,0.9085169170788142
-0.09890617,0.06593159357516964,0.9161185220859303
-0.09888054,0.06593159357516964,0.9237201270930463
-0.09885491,0.06971693146164379,0.9313217321001623
-0.09882928000000001,0.069716931461644,0.9389233371072785
-0.09880365000000001,0.069716931461644,0.9465249421143945
-0.09877802000000001,0.069716931461644,0.9541265471215106
-0.09875239000000001,0.069716931461644,0.9579273496250694
-0.09872676,0.07350226934811835,0.9655289546321886
-0.09870113,0.07350226934811835,0.9731305596393047
-0.0986755,0.07350226934811835,0.9807321646464208
-0.09864987,0.07350226934811835,0.9883337696535369
-0.09862424,0.07350226934811835,0.9959353746606529
-0.09859861,0.07350226934811835,1.003536979667769
-0.09857298,0.07728760723459245,1.011138584674885
-0.09854735000000001,0.07728760723459271,1.014939387178443
-0.09852172000000001,0.07728760723459271,1.022540992185559
-0.09849609000000001,0.08107294512106623,1.030142597192675
-0.09847046000000001,0.07728760723459374,1.037744202199791
-0.09844483,0.07728760723459271,1.045345807206911
-0.0984192,0.07728760723459337,1.049146609710469
-0.09839357,0.08107294512106707,1.056748214717585
-0.09836794,0.08107294512106707,1.064349819724701
-0.09834231,0.08107294512106714,1.071951424731817
-0.09831668,0.08485828300754131,1.079553029738934
-0.09829105,0.08107294512106737,1.083353832242492
-0.09826542000000001,0.08107294512106707,1.090955437249607
-0.09823979000000001,0.08485828300754072,1.098557042256723
-0.09821416000000001,0.08485828300754142,1.10615864726384
-0.09818853,0.08485828300754142,1.11376025227096
-0.0981629,0.08485828300754221,1.121361857278076
-0.09813727,0.08864362089401578,1.128963462285191
-0.09811164,0.08864362089401578,1.13276426478875
-0.09808601,0.08864362089401601,1.140365869795866
-0.09806038,0.09242895878049011,1.147967474802982
-0.09803475,0.08864362089401595,1.155569079810098
-0.09800912000000001,0.09242895878048978,1.163170684817214
-0.09798349000000001,0.09242895878049014,1.17077228982433
-0.09795786000000001,0.09242895878049014,1.174573092327889
-0.09793223000000001,0.09242895878049014,1.182174697335004
-0.0979066,0.09242895878049014,1.189776302342123
-0.09788097,0.09242895878049014,1.193577104845682
-0.09785534,0.09242895878049069,1.201178709852798
-0.09782971,0.0962142966669645,1.204979512356356
-0.09780408,0.0962142966669645,1.212581117363472
-0.09777845,0.0962142966669645,1.220182722370588
-0.09775282,0.0962142966669645,1.227784327377704
-0.09772719000000001,0.09999963455343845,1.23538593238482
-0.09770156000000001,0.09999963455343885,1.242987537391936
-0.09767593000000001,0.09999963455343885,1.246788339895495
-0.09765030000000001,0.09999963455343885,1.25438994490261
-0.09762467,0.09999963455343974,1.261991549909731
-0.09759904,0.1037849724399132,1.269593154916846
-0.09757341,0.1037849724399127,1.277194759923963
-0.09754778,0.09999963455343916,1.284796364931079
-0.09752215,0.1037849724399132,1.292397969938195
-0.09749652,0.1037849724399132,1.299999574945311
-0.09747089,0.1037849724399132,1.307601179952427
-0.09744526000000001,0.1037849724399132,1.311401982455985
-0.09741963000000001,0.1037849724399132,1.319003587463101
-0.09739400000000001,0.1075703103263867,1.322804389966659
-0.09736837000000001,0.1075703103263876,1.334206797477332
-0.09734274,0.1075703103263876,1.338007599980895
-0.09731711,0.1075703103263882,1.345609204988011
-0.09729148,0.1113556482128619,1.353210809995127
-0.09726585,0.1113556482128619,1.357011612498685
-0.09724022,0.1113556482128619,1.368414020009359
-0.09721459,0.1113556482128619,1.372214822512917
-0.09718896,0.1113556482128619,1.379816427520033
-0.09716333000000001,0.1151409860993358,1.387418032527149
-0.09713770000000001,0.1151409860993363,1.395019637534265
-0.09711207000000001,0.1151409860993363,1.402621242541381
-0.09708644,0.1151409860993372,1.410222847548501
-0.09706081,0.1189263239858106,1.417824452555617
-0.09703518,0.1189263239858106,1.421625255059175
-0.09700955,0.1189263239858106,1.429226860066292
-0.09698392,0.1189263239858109,1.436828465073408
-0.09695829,0.122711661872285,1.444430070080524
-0.09693266,0.122711661872285,1.45203167508764
-0.09690703000000001,0.122711661872285,1.459633280094756
-0.09688140000000001,0.122711661872285,1.467234885101872
-0.09685577000000001,0.122711661872285,1.474836490108988
-0.09683014000000001,0.1264969997587584,1.478637292612547
-0.09680451,0.1264969997587594,1.486238897619666
-0.09677888,0.1264969997587594,1.493840502626781
-0.09675325,0.1264969997587594,1.49764130513034
-0.09672762,0.1264969997587594,1.509043712641014
-0.09670199,0.1264969997587595,1.512844515144572
-0.09667636,0.1302823376452337,1.520446120151688
-0.09665073,0.1302823376452337,1.528047725158804
-0.09662510000000001,0.1302823376452337,1.53564933016592
-0.09659947000000001,0.1340676755317075,1.543250935173036
-0.09657384000000001,0.1340676755317081,1.547051737676595
-0.09654821000000001,0.1340676755317081,1.55465334268371
-0.09652258,0.1340676755317081,1.558454145187273
-0.09649695,0.1340676755317088,1.569856552697946
-0.09647132,0.1378530134181824,1.573657355201505
-0.09644569,0.1378530134181824,1.58125896020862
-0.09642006,0.1378530134181825,1.588860565215737
-0.09639443,0.1416383513046567,1.592661367719294
-0.0963688,0.1416383513046568,1.600262972726411
-0.09634317000000001,0.1416383513046568,1.607864577733527
-0.09631754000000001,0.1416383513046568,1.615466182740642
-0.09629191000000001,0.1416383513046568,1.623067787747759
-0.09626628,0.1416383513046578,1.62686859025132
-0.09624065,0.1454236891911311,1.634470195258437
-0.09621502,0.1454236891911311,1.642071800265552
-0.09618939,0.1454236891911311,1.645872602769111
-0.09616376,0.1454236891911314,1.657275010279785
-0.09613813,0.1492090270776055,1.661075812783343
-0.0961125,0.1492090270776055,1.668677417790459
-0.09608687,0.1492090270776055,1.680079825301133
-0.09606124000000001,0.1529943649640794,1.683880627804692
-0.09603561000000001,0.1529943649640799,1.691482232811807
-0.09600998000000001,0.1567797028505533,1.699083837818923
-0.09598435,0.1567797028505542,1.702884640322485
-0.09595872,0.1567797028505542,1.710486245329601
-0.09593309,0.1567797028505542,1.714287047833159
-0.09590746,0.1567797028505546,1.721888652840275
-0.09588183,0.1605650407370286,1.729490257847391
-0.0958562,0.1605650407370286,1.733291060350949
-0.09583057,0.1605650407370286,1.740892665358065
-0.09580494000000001,0.1605650407370286,1.744693467861623
-0.09577931000000001,0.1643503786235024,1.752295072868739
-0.09575368000000001,0.1643503786235029,1.759896677875855
-0.09572805000000001,0.1643503786235029,1.767498282882971
-0.09570242,0.1643503786235039,1.77509988789009
-0.09567679,0.1681357165099773,1.778900690393649
-0.09565116,0.1681357165099778,1.786502295400765
-0.09562553,0.1719210543964516,1.794103900407881
-0.0955999,0.1719210543964516,1.801705505414997
-0.09557427,0.1719210543964516,1.805506307918555
