Module3/data/exp1/ZVN2110A/NMOS_ID_vs_VDS_XY_plot_100Ohm.csv

#Digilent WaveForms Oscilloscope Acquisition
#Device Name: Discovery2
#Serial Number: SN:210321AC1D4D
#Date Time: 2020-11-12 16:32:06.056
#Sample rate: 202429Hz
#Samples: 8192
#Trigger: Source: Channel 1 Type: Edge Condition: Rising Level: 0 V Hyst.: Auto HoldOff: 0 s
#Channel 1: Range: 1 V/div Offset: 0 V Attenuation: 1 X
#Channel 2: Range: 2 V/div Offset: 0 V Attenuation: 1 X
#Wavegen Channel 1: Running
#Mode: Simple
#Type: Triangle
#Frequency: 100 Hz
#Period: 10 ms
#Amplitude: 1.25 V
#Offset: 1.25 V
#Symmetry: 50 %
#Phase: 0 ¡Æ
#Power Supplies: ON
#Positive Supply: ON
#Voltage: 5 V
#Negative Supply: ON
#Voltage: -5 V

Time (s),Channel 1 (V),Channel 2 (V)
-0.02023424,0.3536172729472208,-0.01507809128583607
-0.0202293,0.3536172729472208,-0.015078091285836
-0.02022436,0.357402610833694,-0.01127728878227899
-0.02021942,0.3574026108336957,-0.01127728878227784
-0.02021448,0.364973286606642,-0.01127728878227784
-0.02020954,0.3611879487201701,-0.01507809128583553
-0.0202046,0.3649732866066432,-0.01127728878227852
-0.02019966,0.3687586244931182,-0.007476486278720392
-0.02019472,0.3687586244931182,-0.0112772887822774
-0.02018978,0.3725439623795936,-0.01127728878227784
-0.02018484,0.3763293002660667,-0.01127728878227784
-0.0201799,0.3763293002660681,-0.01127728878227909
-0.02017496,0.3801146381525413,-0.01507809128583604
-0.02017002,0.3838999760390145,-0.01127728878227903
-0.02016508,0.3838999760390157,-0.007476486278719616
-0.02016014,0.3838999760390157,-0.007476486278719616
-0.0201552,0.387685313925491,-0.01127728878227784
-0.02015026,0.3952559896984373,-0.01127728878227784
-0.02014532,0.3952559896984394,-0.01127728878227784
-0.02014038,0.3990413275849126,-0.01127728878227784
-0.02013544,0.399041327584914,-0.01507809128583413
-0.0201305,0.4028266654713872,-0.007476486278720107
-0.02012556,0.4066120033578618,-0.01127728878227664
-0.02012062,0.4066120033578618,-0.007476486278719626
-0.02011568,0.4141826791308081,-0.01127728878227662
-0.02011074,0.4103973412443364,-0.01127728878227784
-0.0201058,0.4141826791308095,-0.01127728878227784
-0.02010086,0.4179680170172853,-0.01507809128583561
-0.02009592,0.4217533549037584,-0.0112772887822786
-0.02009098,0.4217533549037592,-0.01127728878227784
-0.02008604,0.4217533549037592,-0.01127728878227784
-0.0200811,0.4255386927902354,-0.01127728878227784
-0.02007616,0.4331093685631817,-0.01127728878227784
-0.02007122,0.4331093685631834,-0.01507809128583607
-0.02006628,0.4368947064496566,-0.01507809128583607
-0.02006134,0.4368947064496567,-0.01127728878227911
-0.0200564,0.440680044336131,-0.01507809128583589
-0.02005146,0.440680044336131,-0.01127728878227888
-0.02004652,0.4444653822226058,-0.01127728878227784
-0.02004158,0.448250720109079,-0.01127728878227784
-0.02003664,0.4520360579955541,-0.01507809128583542
-0.0200317,0.4520360579955541,-0.01127728878227841
-0.02002676,0.4558213958820284,-0.01127728878227873
-0.02002182,0.4558213958820284,-0.01507809128583575
-0.02001688,0.4596067337685039,-0.01507809128583607
-0.02001194,0.463392071654977,-0.01507809128583607
-0.020007,0.4633920716549771,-0.01127728878227915
-0.02000206,0.4671774095414516,-0.01127728878227799
-0.01999712,0.4709627474279248,-0.015078091285835
-0.01999218,0.4709627474279259,-0.01127728878227784
-0.01998724,0.4709627474279259,-0.01127728878227784
-0.0199823,0.4785334232008746,-0.01127728878227846
-0.01997736,0.4785334232008746,-0.01507809128583547
-0.01997242,0.4823187610873498,-0.01127728878227869
-0.01996748,0.4861040989738229,-0.01507809128583571
-0.01996254,0.4861040989738243,-0.01507809128583499
-0.0199576,0.4898894368602975,-0.01127728878227798
-0.01995266,0.4898894368603002,-0.01127728878227784
-0.01994772,0.4974601126332464,-0.01127728878227784
-0.01994278,0.4974601126332464,-0.01127728878227784
-0.01993784,0.497460112633247,-0.01127728878227818
-0.0199329,0.5050307884061933,-0.0150780912858352
-0.01992796,0.5050307884061956,-0.0150780912858355
-0.01992302,0.5088161262926688,-0.01127728878227849
-0.01991808,0.5088161262926703,-0.01127728878227784
-0.01991314,0.5126014641791433,-0.01127728878227784
-0.0199082,0.5163868020656182,-0.01507809128583607
-0.01990326,0.5163868020656182,-0.01507809128583607
-0.01989832,0.5201721399520938,-0.01507809128583479
-0.01989338,0.5239574778385669,-0.01127728878227784
-0.01988844,0.5277428157250401,-0.01127728878227784
-0.0198835,0.5277428157250416,-0.01127728878227784
-0.01987856,0.5315281536115147,-0.01127728878227784
-0.01987362,0.5353134914979893,-0.01507809128583607
-0.01986868,0.5315281536115163,-0.01507809128583607
-0.01986374,0.5353134914979907,-0.01127728878227784
-0.0198588,0.5390988293844639,-0.01127728878227784
-0.01985386,0.5428841672709407,-0.01507809128583507
-0.01984892,0.5504548430438869,-0.01127728878227806
-0.01984398,0.5466695051574142,-0.01127728878227784
-0.01983904,0.5504548430438874,-0.01127728878227784
-0.0198341,0.5542401809303605,-0.01127728878227784
-0.01982916,0.558025518816836,-0.0112772887822781
-0.01982422,0.558025518816836,-0.01507809128583511
-0.01981928,0.5618108567033109,-0.01507809128583607
-0.01981434,0.5655961945897841,-0.01507809128583607
-0.0198094,0.5618108567033119,-0.01127728878227784
-0.01980446,0.5693815324762581,-0.01127728878227784
-0.01979952,0.5693815324762601,-0.01507809128583511
-0.01979458,0.5731668703627333,-0.0112772887822781
-0.01978964,0.5769522082492079,-0.01507809128583607
-0.0197847,0.5769522082492079,-0.01507809128583607
-0.01977976,0.580737546135681,-0.01127728878227908
-0.01977482,0.5807375461356824,-0.01127728878227784
-0.01976988,0.5845228840221556,-0.01127728878227784
-0.01976494,0.584522884022157,-0.01127728878227784
-0.01976,0.5883082219086302,-0.01127728878227784
-0.01975506,0.595878897681579,-0.01507809128583539
-0.01975012,0.5920935597951058,-0.01127728878227838
-0.01974518,0.5920935597951061,-0.01127728878227877
-0.01974024,0.5958788976815793,-0.01507809128583578
-0.0197353,0.6034495734545294,-0.01507809128583607
-0.01973036,0.6072349113410026,-0.01507809128583607
-0.01972542,0.6072349113410027,-0.01127728878227912
-0.01972048,0.607234911341003,-0.01127728878227784
-0.01971554,0.6148055871139493,-0.01127728878227784
-0.0197106,0.6110202492274779,-0.01507809128583607
-0.01970566,0.6185909250004242,-0.01507809128583607
-0.01970072,0.6185909250004265,-0.01507809128583543
-0.01969578,0.6223762628868996,-0.01127728878227842
-0.01969084,0.6223762628869011,-0.01127728878227696
-0.0196859,0.6261616007733741,-0.007476486278719951
-0.01968096,0.62994693865985,-0.01127728878227896
-0.01967602,0.6337322765463231,-0.01507809128583597
-0.01967108,0.6337322765463232,-0.01127728878227916
-0.01966614,0.6375176144327975,-0.01127728878227784
-0.0196612,0.6375176144327975,-0.01127728878227784
-0.01965626,0.6413029523192723,-0.0150780912858357
-0.01965132,0.6450882902057454,-0.01127728878227869
-0.01964638,0.6450882902057463,-0.01507809128583547
-0.01964144,0.6450882902057463,-0.01127728878227846
-0.0196365,0.6526589659786959,-0.01127728878227784
-0.01963156,0.6564443038651691,-0.01127728878227784
-0.01962662,0.6564443038651694,-0.01507809128583607
-0.01962168,0.6564443038651694,-0.01507809128583607
-0.01961674,0.6602296417516437,-0.007476486278720927
-0.0196118,0.6602296417516438,-0.01127728878227784
-0.01960686,0.664014979638117,-0.01127728878227784
-0.01960192,0.6678003175245928,-0.007476486278720276
-0.01959698,0.6715856554110659,-0.0150780912858343
-0.01959204,0.6753709932975411,-0.01507809128583607
-0.0195871,0.6753709932975411,-0.01507809128583607
-0.01958216,0.6791563311840163,-0.01127728878227784
-0.01957722,0.6829416690704894,-0.01127728878227784
-0.01957228,0.6829416690704908,-0.01127728878227992
-0.01956734,0.686727006956964,-0.01887889378939394
-0.0195624,0.6905123448434398,-0.01127728878227784
-0.01955746,0.6942976827299129,-0.01127728878227784
-0.01955252,0.6942976827299129,-0.01127728878227784
-0.01954758,0.6905123448434392,-0.01507809128583607
-0.01954264,0.6980830206163854,-0.01507809128583607
-0.0195377,0.6980830206163878,-0.01507809128583555
-0.01953276,0.701868358502861,-0.01127728878227854
-0.01952782,0.7056536963893359,-0.01127728878227784
-0.01952288,0.7056536963893359,-0.01127728878227784
-0.01951794,0.7056536963893379,-0.01127728878227784
-0.019513,0.7132243721622843,-0.01127728878227784
-0.01950806,0.7170097100487591,-0.01127728878227907
-0.01950312,0.7170097100487591,-0.01507809128583606
-0.01949818,0.7207950479352322,-0.01127728878227905
-0.01949324,0.7170097100487596,-0.01507809128583582
-0.0194883,0.7245803858217059,-0.01127728878227881
-0.01948336,0.7283657237081822,-0.01507809128583559
-0.01947842,0.7283657237081822,-0.01127728878227858
-0.01947348,0.7359363994811302,-0.01507809128583535
-0.01946854,0.7321510615946569,-0.01127728878227834
-0.0194636,0.7397217373676053,-0.01507809128583512
-0.01945866,0.7397217373676053,-0.01127728878227811
-0.01945372,0.7435070752540796,-0.01127728878227784
-0.01944878,0.7435070752540796,-0.01127728878227784
-0.01944384,0.7472924131405527,-0.01127728878227784
-0.0194389,0.7510777510270286,-0.01127728878227784
-0.01943396,0.7548630889135016,-0.01127728878227784
-0.01942902,0.7510777510270292,-0.01127728878227784
-0.01942408,0.7586484267999755,-0.01127728878227784
-0.01941914,0.7586484267999783,-0.0150780912858354
-0.0194142,0.7662191025729246,-0.01127728878227838
-0.01940926,0.7662191025729248,-0.01507809128583516
-0.01940432,0.7624337646864517,-0.01127728878227815
-0.01939938,0.7700044404594024,-0.01507809128583607
-0.01939444,0.7775751162323487,-0.01507809128583607
-0.0193895,0.7775751162323488,-0.01507809128583607
-0.01938456,0.777575116232349,-0.01127728878227768
-0.01937962,0.7813604541188222,-0.007476486278720665
-0.01937468,0.7813604541188239,-0.01507809128583567
-0.01936974,0.7889311298917702,-0.01127728878227866
-0.0193648,0.7889311298917725,-0.01507809128583607
-0.01935986,0.7927164677782457,-0.01507809128583607
-0.01935492,0.7927164677782471,-0.01127728878227784
-0.01934998,0.7965018056647203,-0.01127728878227784
-0.01934504,0.7965018056647217,-0.01127728878227784
-0.0193401,0.8002871435511948,-0.01127728878227784
-0.01933516,0.8002871435511949,-0.01127728878227784
-0.01933022,0.8040724814376695,-0.01127728878227784
-0.01932528,0.8116431572106158,-0.01127728878227784
-0.01932034,0.8116431572106186,-0.01127728878227821
-0.0193154,0.8192138329835651,-0.01507809128583522
-0.01931046,0.8154284950970929,-0.01507809128583548
-0.01930552,0.8192138329835661,-0.01127728878227846
-0.01930058,0.822999170870041,-0.01507809128583524
-0.01929564,0.822999170870041,-0.01127728878227823
-0.0192907,0.8267845087565154,-0.01127728878227891
-0.01928576,0.8267845087565154,-0.01507809128583592
-0.01928082,0.8267845087565168,-0.01507809128583477
-0.01927588,0.8305698466429899,-0.01127728878227793
-0.01927094,0.834355184529463,-0.01507809128583494
-0.019266,0.8381405224159385,-0.01127728878227784
-0.01926106,0.8381405224159385,-0.01127728878227784
-0.01925612,0.8419258603024135,-0.01507809128583607
-0.01925118,0.8457111981888865,-0.01507809128583607
-0.01924624,0.8457111981888872,-0.01507809128583607
-0.0192413,0.8457111981888872,-0.01507809128583607
-0.01923636,0.8494965360753616,-0.01127728878227887
-0.01923142,0.8494965360753616,-0.01507809128583588
-0.01922648,0.8570672118483103,-0.01507809128583607
-0.01922154,0.8570672118483103,-0.01507809128583603
-0.0192166,0.8608525497347834,-0.01127728878227902
-0.01921166,0.860852549734785,-0.01507809128583607
-0.01920672,0.8646378876212581,-0.01507809128583607
-0.01920178,0.8684232255077339,-0.01127728878227836
-0.01919684,0.872208563394207,-0.01507809128583537
-0.0191919,0.8722085633942085,-0.01127728878227784
-0.01918696,0.8759939012806817,-0.01127728878227784
-0.01918202,0.8759939012806831,-0.01507809128583509
-0.01917708,0.8797792391671562,-0.01127728878227808
-0.01917214,0.883564577053632,-0.01507809128583485
-0.0191672,0.8873499149401052,-0.01127728878227784
-0.01916226,0.8911352528265782,-0.01127728878227784
-0.01915732,0.8873499149401056,-0.01507809128583607
-0.01915238,0.8949205907130519,-0.01507809128583607
-0.01914744,0.8987059285995282,-0.01127728878227784
-0.0191425,0.8987059285995282,-0.01127728878227784
-0.01913756,0.9024912664860025,-0.01127728878227784
-0.01913262,0.9024912664860025,-0.01127728878227784
-0.01912768,0.9062766043724778,-0.01507809128583607
-0.01912274,0.9100619422589511,-0.01507809128583607
-0.0191178,0.9138472801454256,-0.01127728878227903
-0.01911286,0.9138472801454256,-0.01507809128583604
-0.01910792,0.9138472801454256,-0.01507809128583607
-0.01910298,0.9176326180319004,-0.01507809128583587
-0.01909804,0.9252032938048467,-0.01127728878227886
-0.0190931,0.9252032938048482,-0.01127728878227828
-0.01908816,0.9214179559183752,-0.01507809128583529
-0.01908322,0.92520329380485,-0.01507809128583607
-0.01907828,0.9327739695777963,-0.01507809128583607
-0.01907334,0.9327739695777983,-0.01507809128583607
-0.0190684,0.9365593074642714,-0.01507809128583607
-0.01906346,0.9365593074642717,-0.01127728878227899
-0.01905852,0.9365593074642717,-0.015078091285836
-0.01905358,0.9403446453507448,-0.01127728878227914
-0.01904864,0.9479153211236948,-0.01127728878227784
-0.0190437,0.9479153211236948,-0.01127728878227784
-0.01903876,0.9517006590101692,-0.01127728878227784
-0.01903382,0.9517006590101692,-0.01127728878227784
-0.01902888,0.9517006590101704,-0.01507809128583607
-0.01902394,0.9592713347831168,-0.01507809128583607
-0.019019,0.959271334783118,-0.01127728878227784
-0.01901406,0.959271334783118,-0.01127728878227784
-0.01900912,0.9630566726695934,-0.01127728878227894
-0.01900418,0.9668420105560666,-0.01507809128583596
-0.01899924,0.9706273484425397,-0.01507809128583607
-0.0189943,0.9744126863290153,-0.01507809128583595
-0.01898936,0.9744126863290153,-0.01127728878227894
-0.01898442,0.9781980242154901,-0.01127728878227784
-0.01897948,0.9819833621019632,-0.01127728878227784
-0.01897454,0.9857686999884379,-0.01507809128583548
-0.0189696,0.9819833621019648,-0.01127728878227847
-0.01896466,0.9857686999884392,-0.01127728878227784
-0.01895972,0.9895540378749124,-0.01127728878227784
-0.01895478,0.9933393757613872,-0.01127728878227784
-0.01894984,0.9933393757613872,-0.01127728878227784
-0.0189449,1.000910051534337,-0.01127728878227784
-0.01893996,1.00469538942081,-0.01127728878227784
-0.01893502,1.00469538942081,-0.01127728878227784
-0.01893008,1.008480727307285,-0.01127728878227784
-0.01892514,1.012266065193758,-0.01127728878227784
-0.0189202,1.012266065193759,-0.01127728878227839
-0.01891526,1.012266065193759,-0.01507809128583541
-0.01891032,1.019836740966709,-0.01127728878227863
-0.01890538,1.023622078853182,-0.01507809128583564
-0.01890044,1.027407416739655,-0.01127728878227784
-0.0188955,1.023622078853182,-0.01127728878227784
-0.01889056,1.027407416739658,-0.0112772887822791
-0.01888562,1.031192754626131,-0.01507809128583604
-0.01888068,1.034978092512604,-0.01127728878227902
-0.01887574,1.034978092512605,-0.01127728878227784
-0.0188708,1.034978092512605,-0.01127728878227784
-0.01886586,1.03876343039908,-0.01127728878227784
-0.01886092,1.042548768285553,-0.01127728878227784
-0.01885598,1.046334106172029,-0.01127728878227784
-0.01885104,1.050119444058502,-0.01127728878227784
-0.0188461,1.050119444058502,-0.01127728878227784
-0.01884116,1.050119444058502,-0.01127728878227784
-0.01883622,1.053904781944979,-0.01127728878227784
-0.01883128,1.061475457717926,-0.01127728878227784
-0.01882634,1.057690119831452,-0.01127728878227784
-0.0188214,1.0652607956044,-0.01507809128583584
-0.01881646,1.0652607956044,-0.01127728878227883
-0.01881152,1.0652607956044,-0.01127728878227784
-0.01880658,1.069046133490874,-0.01127728878227784
-0.01880164,1.072831471377349,-0.01127728878227855
-0.0187967,1.072831471377349,-0.01507809128583556
-0.01879176,1.07283147137735,-0.01507809128583607
-0.01878682,1.080402147150297,-0.01507809128583607
-0.01878188,1.080402147150298,-0.01127728878227784
-0.01877694,1.084187485036772,-0.01127728878227784
-0.018772,1.084187485036772,-0.01507809128583481
-0.01876706,1.09175816080972,-0.01127728878227804
-0.01876212,1.087972822923247,-0.01507809128583505
-0.01875718,1.095543498696195,-0.01127728878227784
-0.01875224,1.095543498696195,-0.01127728878227784
-0.0187473,1.095543498696195,-0.01127728878227851
-0.01874236,1.099328836582669,-0.01507809128583552
-0.01873742,1.106899512355618,-0.01127728878227874
-0.01873248,1.106899512355618,-0.01507809128583575
-0.01872754,1.106899512355618,-0.01127728878227784
-0.0187226,1.106899512355618,-0.01127728878227784
-0.01871766,1.114470188128564,-0.0188788937893917
-0.01871272,1.114470188128567,-0.01507809128583607
-0.01870778,1.122040863901513,-0.01507809128583607
-0.01870284,1.118255526015041,-0.01507809128583607
-0.0186979,1.122040863901514,-0.01507809128583607
-0.01869296,1.12582620178799,-0.01127728878227784
-0.01868802,1.129611539674463,-0.01127728878227784
-0.01868308,1.133396877560938,-0.01127728878227784
-0.01867814,1.133396877560938,-0.01127728878227784
-0.0186732,1.137182215447414,-0.01507809128583498
-0.01866826,1.140967553333887,-0.01127728878227797
-0.01866332,1.140967553333888,-0.01507809128583607
-0.01865838,1.144752891220362,-0.01507809128583596
-0.01865344,1.144752891220362,-0.01127728878227895
-0.0186485,1.144752891220362,-0.01127728878227784
-0.01864356,1.152323566993308,-0.01127728878227784
-0.01863862,1.156108904879785,-0.01127728878227843
-0.01863368,1.156108904879785,-0.01507809128583544
-0.01862874,1.159894242766259,-0.01507809128583607
-0.0186238,1.159894242766259,-0.01507809128583607
-0.01861886,1.167464918539208,-0.01127728878227784
-0.01861392,1.167464918539208,-0.01127728878227784
-0.01860898,1.171250256425682,-0.01127728878227913
-0.01860404,1.171250256425682,-0.015078091285836
-0.0185991,1.175035594312155,-0.01127728878227899
-0.01859416,1.175035594312157,-0.01507809128583607
-0.01858922,1.182606270085103,-0.01507809128583607
-0.01858428,1.182606270085105,-0.01127728878227838
-0.01857934,1.186391607971579,-0.0150780912858354
-0.0185744,1.18639160797158,-0.01887889378939275
-0.01856946,1.190176945858053,-0.01127728878227873
-0.01856452,1.193962283744528,-0.01127728878227784
-0.01855958,1.193962283744528,-0.01127728878227784
-0.01855464,1.197747621631002,-0.007476486278720862
-0.0185497,1.197747621631002,-0.01127728878227787
-0.01854476,1.205318297403949,-0.01507809128583489
-0.01853982,1.209103635290425,-0.01127728878227784
-0.01853488,1.209103635290425,-0.01127728878227784
-0.01852994,1.212888973176899,-0.01127728878227784
-0.018525,1.209103635290426,-0.01127728878227784
-0.01852006,1.212888973176901,-0.01507809128583534
-0.01851512,1.216674311063374,-0.01127728878227833
-0.01851018,1.216674311063376,-0.01127728878227784
-0.01850524,1.224244986836323,-0.01127728878227784
-0.0185003,1.224244986836324,-0.01127728878227784
-0.01849536,1.228030324722797,-0.01127728878227784
-0.01849042,1.23181566260927,-0.01507809128583485
-0.01848548,1.231815662609272,-0.01127728878227784
-0.01848054,1.235601000495745,-0.01127728878227784
-0.0184756,1.235601000495747,-0.007476486278719616
-0.01847066,1.23938633838222,-0.007476486278719616
-0.01846572,1.239386338382221,-0.01127728878227854
-0.01846078,1.243171676268694,-0.01507809128583555
-0.01845584,1.250742352041643,-0.01127728878227784
-0.0184509,1.250742352041643,-0.01127728878227784
-0.01844596,1.254527689928118,-0.007476486278719616
-0.01844102,1.254527689928118,-0.007476486278719616
-0.01843608,1.258313027814591,-0.01507809128583354
-0.01843114,1.258313027814592,-0.007476486278719799
-0.0184262,1.262098365701065,-0.01127728878227681
-0.01842126,1.265883703587541,-0.007476486278719616
-0.01841632,1.265883703587541,-0.007476486278719616
-0.01841138,1.269669041474015,-0.01127728878227719
-0.01840644,1.269669041474015,-0.007476486278720179
-0.0184015,1.277239717246964,-0.007476486278719616
-0.01839656,1.277239717246964,-0.007476486278719616
-0.01839162,1.281025055133438,-0.01127728878227672
-0.01838668,1.281025055133438,-0.007476486278719709
-0.01838174,1.281025055133438,-0.01127728878227654
