Module4/data/1203/ADC/feedback/100Hz_OP97F_tri_0.5V_Offset0.5_Feedback.csv

#Digilent WaveForms Oscilloscope Acquisition
#Device Name: Discovery2
#Serial Number: SN:210321AC1D4D
#Date Time: 2020-12-03 18:54:55.030
#Sample rate: 80000Hz
#Samples: 8192
#Trigger: Source: Channel 1 Type: Edge Condition: Rising Level: 0 V Hyst.: Auto HoldOff: 0 s
#Channel 1: Range: 1 V/div Offset: 0 V Attenuation: 1 X
#Channel 2: Range: 1 V/div Offset: 0 V Attenuation: 1 X
#Wavegen Channel 1: Running
#Mode: Simple
#Type: Triangle
#Frequency: 100 Hz
#Period: 10 ms
#Amplitude: 500 mV
#Offset: 500 mV
#Symmetry: 50 %
#Phase: 0 ¡Æ
#Wavegen Channel 2: Running
#Mode: Simple
#Type: DC
#Offset: 5 V
#Power Supplies: ON
#Positive Supply: ON
#Voltage: 1.6 V
#Negative Supply: ON
#Voltage: -5 V

Time (s),Channel 1 (V),Channel 2 (V)
0.02178749999999999,-1.932381643698855,0.4201970300775258
0.0218,-1.932381643698855,0.4164189366169345
0.0218125,-1.932381643698855,0.4126408431563466
0.021825,-1.928617911959112,0.4126408431563466
0.0218375,-1.932381643698855,0.408862749695757
0.02184999999999999,-1.932381643698855,0.408862749695757
0.0218625,-1.932381643698855,0.4050846562351657
0.021875,-1.932381643698855,0.4013065627745778
0.0218875,-1.936145375438597,0.4013065627745778
0.0219,-1.932381643698855,0.3975284693139882
0.02191249999999999,-1.939909107178339,0.3975284693139882
0.021925,-1.947436570657828,0.3937503758533969
0.0219375,-1.95872776587705,0.389972282392809
0.02195,-2.278644963755134,0.389972282392809
0.0219625,-2.508232599879406,0.389972282392809
0.02197499999999999,-2.455540355523016,0.3824160954716298
0.0219875,-2.459304087262754,0.3824160954716298
0.022,-2.451776623783274,0.3824160954716298
0.0220125,-2.451776623783274,0.3786380020110402
0.022025,-2.451776623783274,0.3786380020110402
0.02203749999999999,-2.448012892043531,0.3748599085504506
0.02205,-2.44801289204353,0.3710818150898593
0.0220625,-2.444249160303789,0.3673037216292714
0.022075,-2.444249160303789,0.3673037216292714
0.0220875,-2.444249160303789,0.3635256281686818
0.02209999999999999,-2.444249160303789,0.3635256281686818
0.0221125,-2.444249160303789,0.3597475347080905
0.022125,-2.444249160303789,0.3559694412475026
0.0221375,-2.448012892043531,0.3559694412475026
0.02215,-2.451776623783274,0.352191347786913
0.02216249999999999,-2.448012892043531,0.3484132543263234
0.022175,-2.448012892043533,0.3446351608657338
0.0221875,-2.451776623783274,0.3446351608657338
0.0222,-2.448012892043531,0.3408570674051442
0.0222125,-2.448012892043531,0.3370789739445545
0.02222499999999999,-2.448012892043531,0.3333008804839649
0.02223749999999999,-2.448012892043531,0.3333008804839649
0.02225,-2.448012892043531,0.3295227870233753
0.0222625,-2.444249160303789,0.3257446935627857
0.022275,-2.448012892043531,0.3257446935627857
0.02228749999999999,-2.444249160303789,0.3219666001021961
0.02229999999999999,-2.444249160303789,0.3181885066416082
0.0223125,-2.448012892043531,0.3181885066416065
0.022325,-2.448012892043531,0.3144104131810169
0.0223375,-2.448012892043531,0.3144104131810169
0.02234999999999999,-2.448012892043531,0.3106323197204273
0.02236249999999999,-2.444249160303791,0.3068542262598394
0.022375,-2.448012892043531,0.3030761327992481
0.0223875,-2.448012892043531,0.3030761327992481
0.0224,-2.448012892043531,0.2992980393386585
0.02241249999999999,-2.444249160303789,0.2992980393386585
0.02242499999999999,-2.44801289204353,0.2955199458780706
0.0224375,-2.448012892043531,0.2955199458780689
0.02245,-2.448012892043531,0.2917418524174793
0.0224625,-2.444249160303789,0.2917418524174793
0.02247499999999999,-2.444249160303789,0.2879637589568897
0.02248749999999999,-2.440485428564049,0.2879637589568897
0.0225,-2.440485428564047,0.2879637589568897
0.0225125,-2.444249160303789,0.2841856654963001
0.022525,-2.444249160303789,0.2804075720357105
0.0225375,-2.444249160303789,0.2766294785751209
0.02254999999999999,-2.444249160303789,0.2766294785751209
0.0225625,-2.448012892043531,0.2728513851145313
0.022575,-2.444249160303789,0.2690732916539417
0.0225875,-2.444249160303789,0.2690732916539417
0.0226,-2.440485428564047,0.2652951981933521
0.02261249999999999,-2.440485428564047,0.2615171047327642
0.022625,-2.440485428564047,0.2615171047327625
0.0226375,-2.440485428564047,0.2577390112721729
0.02265,-2.436721696824305,0.2577390112721729
0.0226625,-2.436721696824305,0.2539609178115833
0.02267499999999999,-2.436721696824305,0.2539609178115833
0.0226875,-2.436721696824305,0.2464047308904041
0.0227,-2.432957965084563,0.2464047308904041
0.0227125,-2.432957965084563,0.2426266374298145
0.022725,-2.436721696824305,0.2426266374298145
0.02273749999999999,-2.436721696824305,0.2388485439692266
0.02275,-2.432957965084563,0.2350704505086353
0.0227625,-2.436721696824305,0.2350704505086353
0.022775,-2.436721696824305,0.2312923570480457
0.0227875,-2.440485428564047,0.2275142635874561
0.02279999999999999,-2.455540355523009,0.2237361701268682
0.0228125,-2.598562161633218,0.2275142635874561
0.022825,-3.005045189525372,0.2199580766662768
0.0228375,-2.843204724716459,0.2161799832056872
0.02285,-2.846968456456201,0.2161799832056872
0.02286249999999999,-2.83944099297672,0.2124018897450994
0.022875,-2.839440992976717,0.2124018897450976
0.0228875,-2.835677261236975,0.2048457028239184
0.0229,-2.835677261236975,0.2010676093633288
0.0229125,-2.82814979775749,0.2010676093633288
0.02292499999999999,-2.831913529497232,0.2010676093633288
0.0229375,-2.824386066017748,0.1972895159027392
0.02295,-2.824386066017748,0.1935114224421496
0.0229625,-2.820622334278006,0.18973332898156
0.022975,-2.820622334278006,0.18973332898156
0.02298749999999999,-2.820622334278006,0.1859552355209704
0.023,-2.816858602538264,0.1821771420603808
0.0230125,-2.816858602538264,0.1821771420603808
0.023025,-2.816858602538264,0.1783990485997912
0.0230375,-2.813094870798522,0.1783990485997912
0.02304999999999999,-2.809331139058779,0.1746209551392016
0.0230625,-2.809331139058779,0.170842861678612
0.023075,-2.809331139058779,0.1632866747574328
0.0230875,-2.805567407319037,0.1670647682180224
0.0231,-2.801803675579295,0.1595085812968432
0.02311249999999999,-2.801803675579295,0.1595085812968432
0.023125,-2.798039943839553,0.1557304878362536
0.0231375,-2.798039943839553,0.1557304878362536
0.02315,-2.794276212099811,0.151952394375664
0.0231625,-2.794276212099811,0.151952394375664
0.02317499999999999,-2.790512480360069,0.1481743009150744
0.0231875,-2.786748748620326,0.144396207454483
0.0232,-2.786748748620326,0.1406181139938951
0.0232125,-2.782985016880584,0.1406181139938951
0.023225,-2.782985016880584,0.1368400205333055
0.02323749999999999,-2.782985016880584,0.1368400205333055
0.02325,-2.782985016880586,0.1330619270727159
0.0232625,-2.786748748620326,0.1330619270727159
0.023275,-2.779221285140842,0.1292838336121263
0.0232875,-2.7754575534011,0.1255057401515368
0.02329999999999999,-2.779221285140842,0.1217276466909471
0.0233125,-2.77922128514084,0.1179495532303575
0.023325,-2.7754575534011,0.1179495532303575
0.0233375,-2.771693821661358,0.1141714597697679
0.02335,-2.767930089921616,0.1141714597697679
0.02336249999999999,-2.764166358181873,0.1103933663091783
0.023375,-2.764166358181872,0.1103933663091766
0.0233875,-2.760402626442131,0.1066152728485887
0.0234,-2.756638894702389,0.1028371793879991
0.0234125,-2.752875162962647,0.1028371793879991
0.02342499999999999,-2.752875162962647,0.09905908592740952
0.0234375,-2.749111431222905,0.09905908592740779
0.02345,-2.749111431222905,0.09528099246681991
0.0234625,-2.749111431222905,0.09150289900623031
0.023475,-2.745347699483163,0.09150289900623031
0.02348749999999999,-2.745347699483163,0.0877248055456407
0.0235,-2.745347699483159,0.08772480554563726
0.0235125,-2.737820236003678,0.08016861862446149
0.023525,-2.737820236003678,0.08016861862446149
0.0235375,-2.734056504263936,0.07639052516387189
0.02354999999999999,-2.734056504263936,0.07639052516387189
0.0235625,-2.726529040784452,0.06883433824269268
0.023575,-2.726529040784452,0.06883433824269268
0.0235875,-2.72276530904471,0.06883433824269268
0.0236,-2.726529040784452,0.06505624478210308
0.02361249999999999,-2.719001577304967,0.06505624478210308
0.023625,-2.719001577304967,0.05750005786092387
0.0236375,-2.719001577304967,0.05750005786092387
0.02365,-2.719001577304967,0.05372196440033427
0.0236625,-2.715237845565225,0.05372196440033427
0.02367499999999999,-2.715237845565225,0.04994387093974467
0.0236875,-2.711474113825483,0.04616577747915334
0.0237,-2.711474113825483,0.04238768401856546
0.0237125,-2.707710382085741,0.04238768401856546
0.023725,-2.703946650345999,0.03860959055797585
0.02373749999999999,-2.700182918606257,0.03860959055797585
0.02375,-2.696419186866514,0.03483149709738453
0.0237625,-2.696419186866514,0.03105340363679665
0.023775,-2.692655455126772,0.03105340363679665
0.0237875,-2.68889172338703,0.02349721671561744
0.02379999999999999,-2.68889172338703,0.02349721671561744
0.02381249999999999,-2.68512799164729,0.02349721671561744
0.023825,-2.681364259907546,0.01971912325502783
0.0238375,-2.681364259907546,0.01971912325502783
0.02385,-2.685127991647288,0.01971912325502783
0.02386249999999999,-2.68889172338703,0.02349721671561744
0.02387499999999999,-2.69265545512677,0.02349721671561744
0.0238875,-2.696419186866514,0.02727531017620704
0.0239,-2.696419186866514,0.02727531017620704
0.0239125,-2.700182918606257,0.03483149709738625
0.02392499999999999,-2.696419186866514,0.03483149709738625
0.02393749999999999,-2.700182918606255,0.03483149709738625
0.02395,-2.703946650345999,0.03860959055797585
0.0239625,-2.703946650345999,0.04238768401856546
0.023975,-2.707710382085741,0.04238768401856546
0.02398749999999999,-2.707710382085741,0.04616577747915506
0.02399999999999999,-2.711474113825481,0.04994387093974294
0.0240125,-2.711474113825483,0.04994387093974467
0.024025,-2.715237845565225,0.05372196440033427
0.0240375,-2.719001577304967,0.05750005786092387
0.02404999999999999,-2.719001577304967,0.06127815132151348
0.02406249999999999,-2.722765309044708,0.06505624478210136
0.024075,-2.726529040784452,0.06505624478210308
0.0240875,-2.730292772524194,0.06883433824269268
0.0241,-2.734056504263936,0.06883433824269268
0.0241125,-2.737820236003678,0.07261243170328228
0.02412499999999999,-2.737820236003678,0.07261243170328228
0.0241375,-2.74158396774342,0.07639052516387189
0.02415,-2.737820236003678,0.08016861862446149
0.0241625,-2.74158396774342,0.0839467120850511
0.024175,-2.745347699483163,0.0839467120850511
0.02418749999999999,-2.745347699483163,0.08772480554563898
0.0242,-2.745347699483163,0.09150289900623031
0.0242125,-2.749111431222905,0.09150289900623031
0.024225,-2.749111431222905,0.09528099246681991
0.0242375,-2.752875162962647,0.09905908592740952
0.02424999999999999,-2.756638894702387,0.1028371793879974
0.0242625,-2.756638894702389,0.1028371793879991
0.024275,-2.756638894702389,0.1066152728485887
0.0242875,-2.760402626442131,0.1103933663091783
0.0243,-2.764166358181873,0.1103933663091783
0.02431249999999999,-2.764166358181873,0.1141714597697662
0.024325,-2.764166358181873,0.1141714597697679
0.0243375,-2.767930089921616,0.1179495532303575
0.02435,-2.771693821661358,0.1179495532303575
0.0243625,-2.771693821661358,0.1179495532303575
0.02437499999999999,-2.771693821661358,0.1255057401515333
0.0243875,-2.7754575534011,0.1255057401515368
0.0244,-2.7754575534011,0.1292838336121263
0.0244125,-2.779221285140842,0.1292838336121263
0.024425,-2.779221285140842,0.1330619270727159
0.02443749999999999,-2.779221285140842,0.1368400205333038
0.02445,-2.782985016880584,0.1368400205333055
0.0244625,-2.786748748620326,0.1406181139938951
0.024475,-2.786748748620326,0.1406181139938951
0.0244875,-2.790512480360069,0.1443962074544848
0.02449999999999999,-2.786748748620326,0.1481743009150744
0.0245125,-2.790512480360069,0.151952394375664
0.024525,-2.798039943839553,0.1557304878362536
0.0245375,-2.794276212099811,0.1557304878362536
0.02455,-2.798039943839553,0.1595085812968432
0.02456249999999999,-2.798039943839553,0.1595085812968432
0.024575,-2.798039943839553,0.1632866747574328
0.0245875,-2.801803675579295,0.1632866747574328
0.0246,-2.801803675579295,0.170842861678612
0.0246125,-2.801803675579295,0.170842861678612
0.02462499999999999,-2.805567407319037,0.1746209551392016
0.0246375,-2.809331139058778,0.1746209551392033
0.02465,-2.805567407319037,0.1783990485997912
0.0246625,-2.809331139058779,0.1821771420603808
0.024675,-2.813094870798522,0.1859552355209704
0.02468749999999999,-2.816858602538264,0.1859552355209704
0.0247,-2.820622334278008,0.18973332898156
0.0247125,-2.824386066017748,0.18973332898156
0.024725,-2.82814979775749,0.1935114224421496
0.0247375,-2.82814979775749,0.1972895159027392
0.02474999999999999,-2.831913529497232,0.1972895159027392
0.0247625,-2.831913529497234,0.2010676093633305
0.024775,-2.835677261236975,0.2048457028239184
0.0247875,-2.835677261236975,0.208623796284508
0.0248,-2.839440992976717,0.2124018897450976
0.02481249999999999,-2.843204724716459,0.2124018897450976
0.024825,-2.843204724716459,0.2161799832056872
0.0248375,-2.843204724716459,0.2161799832056872
0.02485,-2.846968456456201,0.2199580766662768
0.0248625,-2.846968456456201,0.2237361701268664
0.02487499999999999,-2.850732188195943,0.2237361701268664
0.0248875,-2.854495919935684,0.2275142635874578
0.0249,-2.850732188195943,0.2312923570480457
0.0249125,-2.854495919935685,0.2350704505086353
0.024925,-2.854495919935685,0.2350704505086353
0.02493749999999999,-2.858259651675428,0.2388485439692249
0.02495,-2.85825965167543,0.2388485439692283
0.0249625,-2.86202338341517,0.2464047308904041
0.024975,-2.86202338341517,0.2464047308904041
0.0249875,-2.865787115154912,0.2501828243509937
0.02499999999999999,-2.865787115154912,0.2501828243509937
0.0250125,-2.865787115154914,0.2539609178115833
0.025025,-2.869550846894654,0.2539609178115833
0.0250375,-2.873314578634396,0.2577390112721729
0.02505,-2.873314578634396,0.2615171047327625
0.02506249999999999,-2.880842042113881,0.2615171047327625
0.025075,-2.877078310374142,0.2652951981933538
0.0250875,-2.884605773853623,0.2690732916539417
0.0251,-2.884605773853623,0.2690732916539417
0.0251125,-2.884605773853623,0.2728513851145313
0.02512499999999999,-2.888369505593365,0.2728513851145313
0.0251375,-2.892133237333177,0.2766294785751209
0.02515,-3.046446238662536,0.2766294785751209
0.0251625,-3.189468044772738,0.2841856654963001
0.025175,-3.200759239991965,0.2841856654963001
0.02518749999999999,-3.155594459115059,0.2841856654963001
0.0252,-2.527051258578072,0.2879637589568914
0.0252125,-2.429194233344821,0.2917418524174793
0.025225,-2.432957965084563,0.2955199458780689
0.0252375,-2.436721696824305,0.2955199458780689
0.02524999999999999,-2.436721696824305,0.2992980393386585
0.0252625,-2.436721696824308,0.2992980393386602
0.025275,-2.444249160303789,0.3030761327992481
0.0252875,-2.444249160303789,0.3030761327992481
0.0253,-2.444249160303789,0.3068542262598377
0.02531249999999999,-2.448012892043531,0.3106323197204273
0.025325,-2.448012892043531,0.310632319720429
0.0253375,-2.448012892043531,0.3144104131810169
0.02535,-2.451776623783274,0.3181885066416065
0.0253625,-2.451776623783274,0.3181885066416065
0.02537499999999999,-2.451776623783274,0.3219666001021961
0.02538749999999999,-2.451776623783274,0.325744693562784
0.0254,-2.451776623783274,0.3295227870233753
0.0254125,-2.451776623783274,0.3333008804839649
0.025425,-2.451776623783274,0.3295227870233753
0.02543749999999999,-2.451776623783274,0.3333008804839649
0.02544999999999999,-2.451776623783274,0.3333008804839649
0.0254625,-2.451776623783274,0.3408570674051442
0.025475,-2.451776623783274,0.3408570674051442
0.0254875,-2.451776623783274,0.3446351608657338
0.02549999999999999,-2.451776623783274,0.3446351608657338
0.02551249999999999,-2.451776623783274,0.3484132543263216
0.025525,-2.451776623783274,0.352191347786913
0.0255375,-2.448012892043531,0.3559694412475026
0.02555,-2.448012892043531,0.3559694412475026
0.02556249999999999,-2.448012892043531,0.3597475347080922
0.02557499999999999,-2.448012892043531,0.3635256281686801
0.0255875,-2.448012892043531,0.3635256281686818
0.0256,-2.448012892043531,0.3673037216292714
0.0256125,-2.444249160303789,0.371081815089861
0.025625,-2.448012892043531,0.371081815089861
0.02563749999999999,-2.448012892043531,0.3748599085504489
0.02565,-2.444249160303789,0.3786380020110402
0.0256625,-2.448012892043531,0.3748599085504506
0.025675,-2.451776623783274,0.3824160954716298
0.0256875,-2.451776623783274,0.3824160954716298
0.02569999999999999,-2.451776623783274,0.3824160954716298
0.0257125,-2.455540355523016,0.3861941889322194
0.025725,-2.448012892043531,0.389972282392809
0.0257375,-2.448012892043531,0.389972282392809
0.02575,-2.451776623783274,0.3937503758533986
0.02576249999999999,-2.448012892043533,0.3975284693139865
0.025775,-2.448012892043531,0.3975284693139882
0.0257875,-2.451776623783274,0.4050846562351674
0.0258,-2.451776623783274,0.4050846562351674
0.0258125,-2.451776623783274,0.4050846562351674
0.02582499999999999,-2.448012892043533,0.4088627496957553
0.0258375,-2.455540355523016,0.4126408431563466
0.02585,-2.451776623783274,0.4164189366169362
0.0258625,-2.451776623783274,0.4201970300775258
0.025875,-2.451776623783274,0.4239751235381155
0.02588749999999999,-2.455540355523014,0.4239751235381155
0.0259,-2.455540355523016,0.4239751235381155
0.0259125,-2.455540355523016,0.4277532169987051
0.025925,-2.455540355523016,0.4315313104592947
0.0259375,-2.459304087262758,0.4315313104592947
0.02594999999999999,-2.455540355523018,0.4353094039198825
0.0259625,-2.459304087262758,0.4390874973804739
0.025975,-2.459304087262758,0.4390874973804739
0.0259875,-2.459304087262758,0.4428655908410635
0.026,-2.459304087262758,0.4466436843016531
0.02601249999999999,-2.459304087262758,0.4466436843016531
0.026025,-2.459304087262758,0.4504217777622427
0.0260375,-2.4630678190025,0.4541998712228323
0.02605,-2.459304087262758,0.4541998712228323
0.0260625,-2.4630678190025,0.4579779646834219
0.02607499999999999,-2.466831550742242,0.4617560581440115
0.0260875,-2.466831550742242,0.4655341516046011
0.0261,-2.466831550742242,0.4693122450651907
0.0261125,-2.466831550742242,0.4693122450651907
0.026125,-2.470595282481984,0.4730903385257803
0.02613749999999999,-2.474359014221727,0.4730903385257803
0.02615,-2.51576006335889,0.4768684319863699
0.0261625,-2.662545601208835,0.4806465254469595
0.026175,-2.72276530904471,0.4806465254469595
0.0261875,-2.760402626442131,0.4844246189075491
0.02619999999999999,-2.786748748620326,0.4882027123681387
0.0262125,-2.794276212099805,0.4919808058287283
0.026225,-2.782985016880584,0.4919808058287283
0.0262375,-2.169496743302611,0.4957588992893179
0.02625,-1.913562985000144,0.4957588992893179
0.02626249999999999,-1.917326716739886,0.4995369927499075
0.026275,-1.917326716739888,0.4995369927499093
0.0262875,-1.921090448479628,0.5033150862104971
0.0263,-1.921090448479628,0.5070931796710867
0.0263125,-1.92485418021937,0.5070931796710867
0.02632499999999999,-1.928617911959112,0.5108712731316764
0.0263375,-1.928617911959114,0.5108712731316798
0.02635,-1.932381643698855,0.5184274600528556
0.0263625,-1.932381643698855,0.5184274600528556
0.026375,-1.932381643698855,0.5222055535134451
0.02638749999999999,-1.932381643698855,0.5259836469740348
0.0264,-1.932381643698855,0.5259836469740364
0.0264125,-1.932381643698855,0.5297617404346243
0.026425,-1.932381643698855,0.533539833895214
0.0264375,-1.932381643698855,0.5373179273558035
0.02644999999999999,-1.939909107178339,0.5410960208163932
0.0264625,-1.936145375438597,0.5410960208163949
0.026475,-1.936145375438597,0.5448741142769827
0.0264875,-1.939909107178339,0.5448741142769827
0.0265,-1.943672838918081,0.5486522077375724
0.02651249999999999,-1.943672838918081,0.5486522077375724
0.026525,-1.947436570657822,0.5524303011981636
0.0265375,-1.943672838918081,0.5562083946587516
0.02655,-1.943672838918081,0.5599864881193412
0.0265625,-1.943672838918081,0.5599864881193412
0.02657499999999999,-1.943672838918081,0.5637645815799308
0.0265875,-1.943672838918083,0.5637645815799325
0.0266,-1.947436570657823,0.5675426750405204
0.0266125,-1.947436570657823,0.57132076850111
0.026625,-1.951200302397565,0.5750988619616996
