Module4/data/1203/ADC/feedback/100Hz_OP97F_sine_0.5V_Offset0.5_Feedback.csv

#Digilent WaveForms Oscilloscope Acquisition
#Device Name: Discovery2
#Serial Number: SN:210321AC1D4D
#Date Time: 2020-12-03 18:52:36.817
#Sample rate: 160000Hz
#Samples: 8192
#Trigger: Source: Channel 1 Type: Edge Condition: Rising Level: 0 V Hyst.: Auto HoldOff: 0 s
#Channel 1: Range: 1 V/div Offset: 0 V Attenuation: 1 X
#Channel 2: Range: 1 V/div Offset: 0 V Attenuation: 1 X
#Wavegen Channel 1: Running
#Mode: Simple
#Type: Sine
#Frequency: 100 Hz
#Period: 10 ms
#Amplitude: 500 mV
#Offset: 500 mV
#Symmetry: 50 %
#Phase: 0 ¡Æ
#Wavegen Channel 2: Running
#Mode: Simple
#Type: DC
#Offset: 5 V
#Power Supplies: ON
#Positive Supply: ON
#Voltage: 1.6 V
#Negative Supply: ON
#Voltage: -5 V

Time (s),Channel 1 (V),Channel 2 (V)
0.15855625,-2.011420010233433,0.6053236096464164
0.1585625,-2.015183741973181,0.6053236096464181
0.15856875,-2.011420010233449,0.6091017031069975
0.158575,-2.018947473712925,0.6128797965675956
0.15858125,-2.022711205452667,0.6166578900281853
0.1585875,-2.022711205452667,0.6166578900281853
0.15859375,-2.026474937192416,0.6166578900281922
0.1586,-2.030238668932149,0.6204359834887732
0.15860625,-2.034002400671893,0.6204359834887817
0.1586125,-2.034002400671893,0.6242140769493628
0.15861875,-2.034002400671903,0.6242140769493645
0.158625,-2.041529864151371,0.6242140769493645
0.15863125,-2.045293595891125,0.6279921704099591
0.1586375,-2.049057327630858,0.6317702638705402
0.15864375,-2.049057327630869,0.6317702638705437
0.15865,-2.056584791110336,0.6317702638705437
0.15865625,-2.060348522850092,0.6393264507917229
0.1586625,-2.064112254589825,0.6393264507917229
0.15866875,-2.071639718069317,0.6431045442523124
0.158675,-2.075403449809051,0.6431045442523124
0.15868125,-2.233480182878324,0.6468826377129021
0.1586875,-2.444249160303406,0.6468826377129021
0.15869375,-2.4630678190025,0.6506607311734917
0.1587,-2.350155866809105,0.6506607311735002
0.15870625,-1.853343277164269,0.6544388246340813
0.1587125,-1.303838443163162,0.6544388246340813
0.15871875,-1.164580368791516,0.6582169180946692
0.158725,-1.160816637051704,0.6582169180946709
0.15873125,-1.15705290531197,0.6582169180946709
0.1587375,-1.160816637051711,0.6657731050158432
0.15874375,-1.160816637051711,0.661995011555264
0.15875,-1.164580368791453,0.6657731050158501
0.15875625,-1.164580368791453,0.6657731050158501
0.1587625,-1.164580368791463,0.6657731050158552
0.15876875,-1.172107832270927,0.6695511984764346
0.158775,-1.172107832270937,0.6771073853976189
0.15878125,-1.172107832270937,0.6771073853976189
0.1587875,-1.17210783227094,0.6771073853976189
0.15879375,-1.175871564010672,0.6771073853976189
0.1588,-1.175871564010681,0.6808854788582068
0.15880625,-1.179635295750415,0.6771073853976258
0.1588125,-1.179635295750421,0.6846635723187982
0.15881875,-1.179635295750421,0.6846635723188067
0.158825,-1.179635295750421,0.6884416657793877
0.15883125,-1.179635295750421,0.6884416657793877
0.1588375,-1.179635295750421,0.6884416657793877
0.15884375,-1.183399027490164,0.6922197592399842
0.15885,-1.183399027490164,0.6959978527005652
0.15885625,-1.183399027490164,0.6997759461611566
0.1588625,-1.183399027490164,0.6997759461611566
0.15886875,-1.187162759229906,0.6997759461611617
0.158875,-1.187162759229906,0.7035540396217427
0.15888125,-1.187162759229906,0.7035540396217461
0.1588875,-1.187162759229906,0.7035540396217461
0.15889375,-1.187162759229909,0.7073321330823358
0.1589,-1.190926490969643,0.7073321330823358
0.15890625,-1.18339902749017,0.7073321330823392
0.1589125,-1.190926490969638,0.7111102265429202
0.15891875,-1.187162759229909,0.714888320003515
0.158925,-1.194690222709376,0.714888320003515
0.15893125,-1.19092649096965,0.7148883200035167
0.1589375,-1.194690222709383,0.7186664134640977
0.15894375,-1.19469022270939,0.7186664134641045
0.15895,-1.190926490969657,0.7186664134641045
0.15895625,-1.19469022270939,0.7224445069246942
0.1589625,-1.19469022270939,0.7224445069246942
0.15896875,-1.19469022270939,0.7224445069246942
0.158975,-1.19469022270939,0.7262226003852906
0.15898125,-1.19469022270939,0.7300006938458717
0.1589875,-1.198453954449132,0.7300006938458734
0.15899375,-1.198453954449132,0.7300006938458734
0.159,-1.1946902227094,0.733778787306463
0.15900625,-1.202217686188868,0.733778787306463
0.1590125,-1.198453954449132,0.7375568807670526
0.15901875,-1.198453954449132,0.7375568807670526
0.159025,-1.198453954449136,0.7413349742276456
0.15903125,-1.202217686188869,0.7451130676882267
0.1590375,-1.202217686188878,0.7451130676882284
0.15904375,-1.205981417928611,0.7413349742276473
0.15905,-1.202217686188874,0.7451130676882335
0.15905625,-1.202217686188874,0.7488911611488145
0.1590625,-1.202217686188874,0.7526692546094094
0.15906875,-1.202217686188874,0.7488911611488283
0.159075,-1.198453954449132,0.7564473480700006
0.15908125,-1.198453954449149,0.7564473480700091
0.1590875,-1.205981417928617,0.7602254415305902
0.15909375,-1.202217686188883,0.7602254415305902
0.1591,-1.202217686188874,0.7602254415305902
0.15910625,-1.202217686188881,0.7640035349911867
0.1591125,-1.205981417928615,0.7677816284517678
0.15911875,-1.205981417928611,0.7677816284517694
0.159125,-1.202217686188878,0.7677816284517694
0.15913125,-1.209745149668354,0.771559721912359
0.1591375,-1.20598141792862,0.771559721912359
0.15914375,-1.202217686188878,0.7753378153729487
0.15915,-1.205981417928611,0.7753378153729487
0.15915625,-1.205981417928617,0.7791159088335348
0.1591625,-1.205981417928617,0.7753378153729538
0.15916875,-1.205981417928617,0.7791159088335399
0.159175,-1.205981417928617,0.782894002294121
0.15918125,-1.209745149668359,0.7791159088335416
0.1591875,-1.209745149668359,0.7866720957547036
0.15919375,-1.205981417928617,0.7866720957547174
0.1592,-1.209745149668359,0.786672095754726
0.15920625,-1.209745149668359,0.7904501892153071
0.1592125,-1.209745149668359,0.7904501892153071
0.15921875,-1.209745149668359,0.7904501892153071
0.159225,-1.213508881408094,0.7942282826758966
0.15923125,-1.209745149668361,0.7942282826758966
0.1592375,-1.209745149668359,0.7980063761364794
0.15924375,-1.209745149668359,0.7942282826758983
0.15925,-1.209745149668359,0.8017844695970758
0.15925625,-1.209745149668359,0.8017844695970758
0.1592625,-1.209745149668364,0.8017844695970809
0.15926875,-1.213508881408098,0.8055625630576621
0.159275,-1.209745149668359,0.8055625630576689
0.15928125,-1.209745149668359,0.8093406565182499
0.1592875,-1.209745149668359,0.809340656518255
0.15929375,-1.209745149668359,0.809340656518255
0.1593,-1.209745149668361,0.8093406565182567
0.15930625,-1.213508881408094,0.8131187499788378
0.1593125,-1.209745149668361,0.8131187499788464
0.15931875,-1.213508881408092,0.8168968434394343
0.159325,-1.209745149668359,0.8168968434394343
0.15933125,-1.213508881408092,0.8168968434394343
0.1593375,-1.213508881408101,0.8244530303606135
0.15934375,-1.209745149668359,0.8244530303606135
0.15935,-1.209745149668359,0.8244530303606135
0.15935625,-1.213508881408101,0.8244530303606203
0.1593625,-1.213508881408101,0.8282311238212015
0.15936875,-1.213508881408101,0.8320092172817927
0.159375,-1.213508881408101,0.8320092172817927
0.15938125,-1.209745149668359,0.8320092172817927
0.1593875,-1.209745149668359,0.8320092172817927
0.15939375,-1.205981417928622,0.8395654042029668
0.1594,-1.209745149668354,0.8357873107423874
0.15940625,-1.209745149668362,0.8357873107423858
0.1594125,-1.213508881408096,0.8395654042029668
0.15941875,-1.20598141792862,0.843343497663565
0.159425,-1.209745149668352,0.8471215911241442
0.15943125,-1.209745149668359,0.8471215911241494
0.1594375,-1.209745149668359,0.8433434976635684
0.15944375,-1.213508881408101,0.8508996845847407
0.15945,-1.213508881408101,0.8508996845847407
0.15945625,-1.217272613147843,0.8546777780453303
0.1594625,-1.213508881408084,0.8508996845847407
0.15946875,-1.205981417928617,0.8508996845847407
0.159475,-1.209745149668345,0.85845587150592
0.15948125,-1.202217686188878,0.85845587150592
0.1594875,-1.205981417928603,0.85845587150592
0.15949375,-1.198453954449136,0.85845587150592
0.1595,-1.198453954449127,0.8584558715059251
0.15950625,-1.194690222709393,0.8622339649665061
0.1595125,-1.194690222709385,0.8660120584270992
0.15951875,-1.190926490969651,0.8660120584270992
0.159525,-1.190926490969645,0.8697901518876887
0.15953125,-1.187162759229911,0.8697901518876887
0.1595375,-1.187162759229906,0.8735682453482784
0.15954375,-1.187162759229906,0.8735682453482784
0.15955,-1.187162759229904,0.8735682453482784
0.15955625,-1.18339902749017,0.8735682453482784
0.1595625,-1.179635295750421,0.87356824534828
0.15956875,-1.179635295750421,0.877346338808861
0.159575,-1.179635295750421,0.8773463388088679
0.15958125,-1.179635295750413,0.8773463388088851
0.1595875,-1.175871564010679,0.8849025257300471
0.15959375,-1.175871564010679,0.8811244322694661
0.1596,-1.175871564010679,0.8811244322694576
0.15960625,-1.172107832270937,0.8811244322694576
0.1596125,-1.172107832270937,0.8811244322694576
0.15961875,-1.172107832270937,0.884902525730054
0.159625,-1.172107832270937,0.8886806191906333
0.15963125,-1.172107832270937,0.8886806191906368
0.1596375,-1.172107832270937,0.8886806191906368
0.15964375,-1.168344100531231,0.8886806191906471
0.15965,-1.194690222709354,0.8962368061118057
0.15965625,-1.22856380836708,0.896236806111816
0.1596625,-1.239855003586281,0.896236806111816
0.15966875,-1.251146198805536,0.896236806111816
0.159675,-1.266201125764464,0.896236806111816
0.15968125,-1.273728589243977,0.9000148995724055
0.1596875,-1.277492320983711,0.9000148995724055
0.15969375,-1.296310979682432,0.9000148995724072
0.1597,-1.303838443161904,0.9037929930330038
0.15970625,-1.300074711422171,0.9075710864935848
0.1597125,-1.296310979682437,0.9075710864935848
0.15971875,-1.292547247942686,0.9075710864935848
0.159725,-1.300074711422185,0.903792993033009
0.15973125,-1.307602174901652,0.911349179954171
0.1597375,-1.315129638381153,0.9113491799541744
0.15974375,-1.322657101860621,0.9113491799541744
0.15975,-1.330184565340108,0.9113491799541744
0.15975625,-1.330184565340108,0.9113491799541744
0.1597625,-1.337712028819608,0.9151272734147691
0.15976875,-1.349003224038809,0.9189053668753502
0.159775,-1.356530687518296,0.9189053668753536
0.15978125,-1.349003224038829,0.9189053668753536
0.1597875,-1.360294419258052,0.9189053668753536
0.15979375,-1.367821882737519,0.9189053668753536
0.1598,-1.371585614477275,0.9226834603359415
0.15980625,-1.379113077956742,0.9189053668753605
0.1598125,-1.386640541436244,0.9226834603359432
0.15981875,-1.394168004915711,0.9226834603359432
0.159825,-1.397931736655467,0.9264615537965328
0.15983125,-1.405459200134934,0.9264615537965328
0.1598375,-1.409222931874694,0.9264615537965328
0.15984375,-1.42051412709392,0.9264615537965414
0.15985,-1.42051412709392,0.9302396472571207
0.15985625,-1.428041590573418,0.9302396472571293
0.1598625,-1.435569054052885,0.9340177407177104
0.15986875,-1.443096517532373,0.9302396472571293
0.159875,-1.443096517532373,0.9340177407177104
0.15988125,-1.454387712751605,0.9340177407177171
0.1598875,-1.458151444491338,0.9377958341782981
0.15989375,-1.465678907970836,0.9377958341782965
0.1599,-1.473206371450304,0.9340177407177155
0.15990625,-1.47697010319006,0.937795834178305
0.1599125,-1.484497566669527,0.9415739276388861
0.15991875,-1.488261298409282,0.9415739276388913
0.159925,-1.492025030149016,0.9415739276388913
0.15993125,-1.503316225368249,0.9453520210994791
0.1599375,-1.507079957107983,0.9415739276388981
0.15994375,-1.510843688847734,0.9453520210994808
0.15995,-1.514607420587467,0.9453520210994808
0.15995625,-1.522134884066959,0.9453520210994808
0.1599625,-1.525898615806701,0.9453520210994808
0.15996875,-1.525898615806701,0.9453520210994808
0.159975,-1.533426079286168,0.9491301145600619
0.15998125,-1.533426079286185,0.9491301145600705
0.1599875,-1.537189811025927,0.9491301145600773
0.15999375,-1.537189811025927,0.9529082080206583
0.16,-1.53342607928618,0.95290820802066
0.16000625,-1.529662347546446,0.95290820802066
0.1600125,-1.164580368790595,0.9566863014812497
0.16001875,-0.5360371682550827,0.9566863014812497
0.160025,-0.1709551894994799,0.9566863014812497
0.16003125,-0.1257904086226766,0.9566863014812497
0.1600375,-0.1220266768828763,0.9566863014812497
0.16004375,-0.1257904086226099,0.9566863014812497
0.16005,-0.1257904086226219,0.9566863014812531
0.16005625,-0.1333178721020856,0.9604643949418323
0.1600625,-0.1295541403623589,0.9604643949418392
0.16006875,-0.1333178721020925,0.9604643949418392
0.160075,-0.1333178721021027,0.9604643949418409
0.16008125,-0.1408453355815837,0.9642424884024289
0.1600875,-0.1408453355815837,0.9642424884024289
0.16009375,-0.1408453355815837,0.9642424884024289
0.1601,-0.1408453355815837,0.9680205818630184
0.16010625,-0.1408453355815905,0.9680205818630184
0.1601125,-0.1446090673213241,0.9680205818630184
0.16011875,-0.1483727990610612,0.9680205818630253
0.160125,-0.1446090673213276,0.9717986753236063
0.16013125,-0.1446090673213258,0.971798675323608
0.1601375,-0.1446090673213258,0.971798675323608
0.16014375,-0.1446090673213258,0.9755767687841976
0.16015,-0.1446090673213258,0.9755767687841976
0.16015625,-0.1446090673213258,0.9717986753236114
0.1601625,-0.1446090673213258,0.9755767687841925
0.16016875,-0.1408453355815871,0.9755767687842011
0.160175,-0.1446090673213207,0.9793548622447821
0.16018125,-0.1446090673213276,0.9793548622447872
0.1601875,-0.1483727990610612,0.9793548622447872
0.16019375,-0.1446090673213258,0.9793548622447872
0.1602,-0.1446090673213258,0.9793548622447872
0.16020625,-0.1446090673213258,0.9793548622447872
0.1602125,-0.1446090673213258,0.9831329557053683
0.16021875,-0.1446090673213258,0.9793548622447872
0.160225,-0.148372799061068,0.98313295570537
0.16023125,-0.148372799061068,0.9793548622447888
0.1602375,-0.144609067321319,0.9793548622448009
0.16024375,-0.1408453355815854,0.986911049165963
0.16025,-0.1446090673213327,0.9869110491659664
0.16025625,-0.1483727990610646,0.9869110491659664
0.1602625,-0.1446090673213258,0.9869110491659715
0.16026875,-0.1446090673213258,0.9906891426265526
0.160275,-0.148372799061068,0.9869110491659664
0.16028125,-0.148372799061068,0.9869110491659664
0.1602875,-0.1446090673213258,0.9869110491659664
0.16029375,-0.1446090673213258,0.9869110491659664
0.1603,-0.148372799061068,0.9906891426265595
0.16030625,-0.148372799061068,0.9944672360871387
0.1603125,-0.1446090673213258,0.9906891426265561
0.16031875,-0.1446090673213258,0.9906891426265561
0.160325,-0.148372799061068,0.9906891426265577
0.16033125,-0.148372799061068,0.9944672360871371
0.1603375,-0.148372799061068,0.9944672360871456
0.16034375,-0.1483727990610595,0.9944672360871456
0.16035,-0.1446090673213258,0.9944672360871456
0.16035625,-0.1483727990610595,0.9944672360871456
0.1603625,-0.148372799061068,0.9944672360871456
0.16036875,-0.1446090673213327,0.9944672360871456
0.160375,-0.1483727990610663,0.9944672360871456
0.16038125,-0.1483727990610629,0.9944672360871507
0.1603875,-0.1446090673213292,0.9982453295477318
0.16039375,-0.148372799061068,0.9982453295477353
0.1604,-0.148372799061068,0.9982453295477353
0.16040625,-0.1483727990610646,1.002023423008322
0.1604125,-0.144609067321331,0.9982453295477404
0.16041875,-0.1446090673213258,1.002023423008325
0.160425,-0.1446090673213258,1.002023423008325
0.16043125,-0.148372799061068,0.9982453295477369
0.1604375,-0.148372799061068,1.002023423008318
0.16044375,-0.1483727990610663,1.002023423008327
0.16045,-0.1446090673213327,1.005801516468908
0.16045625,-0.1446090673213258,1.002023423008325
0.1604625,-0.1446090673213258,1.002023423008334
0.16046875,-0.1446090673213258,1.005801516468914
0.160475,-0.1446090673213258,1.002023423008334
0.16048125,-0.1483727990610663,1.002023423008325
0.1604875,-0.148372799061068,1.005801516468914
0.16049375,-0.148372799061068,1.005801516468914
0.1605,-0.148372799061068,1.005801516468914
0.16050625,-0.148372799061068,1.005801516468914
0.1605125,-0.1446090673213258,1.00580151646892
0.16051875,-0.1446090673213258,1.009579609929501
0.160525,-0.1483727990610629,1.002023423008335
0.16053125,-0.1446090673213292,1.009579609929497
0.1605375,-0.1446090673213292,1.005801516468914
0.16054375,-0.1483727990610629,1.005801516468914
0.16055,-0.148372799061068,1.002023423008332
0.16055625,-0.148372799061068,1.009579609929494
0.1605625,-0.1446090673213258,1.005801516468916
0.16056875,-0.1446090673213258,1.009579609929497
0.160575,-0.148372799061068,1.009579609929504
0.16058125,-0.148372799061068,1.009579609929504
0.1605875,-0.148372799061068,1.009579609929504
0.16059375,-0.1446090673213344,1.009579609929504
0.1606,-0.1446090673213258,1.005801516468914
0.16060625,-0.148372799061068,1.009579609929504
0.1606125,-0.148372799061068,1.009579609929504
0.16061875,-0.1483727990610612,1.009579609929511
0.160625,-0.1446090673213276,1.013357703390092
0.16063125,-0.144609067321331,1.013357703390088
0.1606375,-0.1483727990610646,1.009579609929507
0.16064375,-0.1483727990610629,1.013357703390088
0.16065,-0.1446090673213292,1.009579609929507
0.16065625,-0.1446090673213258,1.013357703390094
0.1606625,-0.1446090673213258,1.013357703390094
0.16066875,-0.1483727990610646,1.013357703390094
0.160675,-0.144609067321331,1.013357703390094
0.16068125,-0.1446090673213258,1.009579609929504
0.1606875,-0.1446090673213258,1.009579609929504
0.16069375,-0.1446090673213258,1.013357703390092
0.1607,-0.1446090673213258,1.009579609929511
0.16070625,-0.148372799061068,1.013357703390094
0.1607125,-0.1446090673213344,1.013357703390094
0.16071875,-0.148372799061068,1.013357703390094
0.160725,-0.148372799061068,1.013357703390094
0.16073125,-0.148372799061068,1.013357703390094
0.1607375,-0.1446090673213327,1.013357703390087
0.16074375,-0.1483727990610663,1.009579609929506
0.16075,-0.1483727990610612,1.009579609929511
0.16075625,-0.1446090673213276,1.013357703390092
0.1607625,-0.144609067321331,1.009579609929504
0.16076875,-0.1483727990610646,1.009579609929504
0.160775,-0.1483727990610629,1.009579609929504
0.16078125,-0.1446090673213292,1.009579609929504
0.1607875,-0.148372799061068,1.01335770339009
0.16079375,-0.148372799061068,1.009579609929509
0.1608,-0.148372799061068,1.005801516468918
0.16080625,-0.148372799061068,1.009579609929499
0.1608125,-0.148372799061068,1.013357703390092
0.16081875,-0.148372799061068,1.009579609929511
0.160825,-0.1446090673213276,1.009579609929504
0.16083125,-0.1483727990610612,1.009579609929504
0.1608375,-0.148372799061068,1.009579609929504
0.16084375,-0.1446090673213344,1.009579609929504
0.16085,-0.148372799061068,1.009579609929504
0.16085625,-0.1446090673213344,1.013357703390085
0.1608625,-0.1483727990610663,1.009579609929506
0.16086875,-0.148372799061068,1.009579609929511
0.160875,-0.148372799061068,1.013357703390092
0.16088125,-0.148372799061068,1.009579609929499
0.1608875,-0.148372799061068,1.005801516468918
0.16089375,-0.144609067321331,1.009579609929509
0.1609,-0.1483727990610646,1.01335770339009
0.16090625,-0.1483727990610646,1.009579609929504
0.1609125,-0.144609067321331,1.009579609929504
0.16091875,-0.148372799061068,1.002023423008328
0.160925,-0.148372799061068,1.005801516468909
0.16093125,-0.1483727990610646,1.009579609929501
0.1609375,-0.1446090673213327,1.005801516468921
0.16094375,-0.1446090673213258,1.005801516468914
0.16095,-0.1446090673213258,1.005801516468914
0.16095625,-0.1483727990610663,1.005801516468914
0.1609625,-0.1446090673213258,1.005801516468914
0.16096875,-0.1446090673213258,1.005801516468914
0.160975,-0.1483727990610595,1.005801516468914
0.16098125,-0.148372799061068,1.005801516468914
0.1609875,-0.1446090673213258,1.009579609929497
0.16099375,-0.1446090673213258,1.005801516468916
0.161,-0.1446090673213327,1.005801516468914
0.16100625,-0.1483727990610663,1.005801516468914
0.1610125,-0.1483727990610629,1.005801516468914
0.16101875,-0.1446090673213292,1.005801516468914
0.161025,-0.1483727990610629,1.005801516468914
0.16103125,-0.1446090673213292,1.005801516468914
0.1610375,-0.148372799061068,1.002023423008325
0.16104375,-0.148372799061068,1.002023423008325
0.16105,-0.148372799061068,1.002023423008325
0.16105625,-0.148372799061068,1.002023423008325
0.1610625,-0.1446090673213258,1.002023423008323
