Module4/data/1203/ADC/feedback/10Hz_OP97F_tri_0.5V_Offset0.5_Feedback.csv

#Digilent WaveForms Oscilloscope Acquisition
#Device Name: Discovery2
#Serial Number: SN:210321AC1D4D
#Date Time: 2020-12-03 18:54:13.873
#Sample rate: 16000Hz
#Samples: 8192
#Trigger: Source: Channel 1 Type: Edge Condition: Rising Level: 0 V Hyst.: Auto HoldOff: 0 s
#Channel 1: Range: 1 V/div Offset: 0 V Attenuation: 1 X
#Channel 2: Range: 1 V/div Offset: 0 V Attenuation: 1 X
#Wavegen Channel 1: Running
#Mode: Simple
#Type: Triangle
#Frequency: 10 Hz
#Period: 100 ms
#Amplitude: 500 mV
#Offset: 500 mV
#Symmetry: 50 %
#Phase: 0 ¡Æ
#Wavegen Channel 2: Running
#Mode: Simple
#Type: DC
#Offset: 5 V
#Power Supplies: ON
#Positive Supply: ON
#Voltage: 1.6 V
#Negative Supply: ON
#Voltage: -5 V

Time (s),Channel 1 (V),Channel 2 (V)
-0.066,-1.198453954449132,0.8471215911241511
-0.06593749999999998,-1.198453954449132,0.8471215911241511
-0.06587500000000002,-1.198453954449132,0.8471215911241511
-0.0658125,-1.179635295750421,0.8508996845847407
-0.06574999999999998,-1.15705290531196,0.8508996845847407
-0.06568750000000001,-1.138234246613258,0.8508996845847407
-0.06562499999999999,-1.126943051394031,0.8508996845847407
-0.06556250000000002,-1.157052905311955,0.8546777780453286
-0.0655,-1.172107832270937,0.8546777780453303
-0.06543749999999998,-1.183399027490169,0.854677778045332
-0.06537500000000002,-1.194690222709385,0.8584558715059183
-0.0653125,-1.19469022270939,0.85845587150592
-0.06524999999999997,-1.198453954449134,0.8622339649665095
-0.06518750000000001,-1.202217686188874,0.8622339649665095
-0.06512499999999999,-1.198453954449132,0.8622339649665095
-0.06506250000000002,-1.198453954449132,0.8622339649665095
-0.065,-1.198453954449132,0.8660120584270992
-0.06493749999999998,-1.202217686188874,0.8660120584270992
-0.06487500000000002,-1.202217686188874,0.8660120584270992
-0.0648125,-1.183399027490164,0.8697901518876887
-0.06474999999999997,-1.164580368791444,0.8697901518876887
-0.06468750000000001,-1.145761710092742,0.8697901518876887
-0.06462499999999999,-1.130706783133773,0.8697901518876887
-0.06456250000000002,-1.164580368791438,0.8735682453482767
-0.0645,-1.179635295750421,0.8735682453482784
-0.06443749999999998,-1.194690222709392,0.8773463388088679
-0.06437500000000002,-1.198453954449131,0.8773463388088679
-0.06431249999999999,-1.202217686188874,0.8773463388088679
-0.06424999999999997,-1.205981417928617,0.8811244322694576
-0.06418750000000001,-1.205981417928617,0.8811244322694576
-0.06412499999999999,-1.205981417928617,0.8811244322694576
-0.06406250000000002,-1.209745149668357,0.8849025257300455
-0.064,-1.209745149668359,0.8849025257300471
-0.06393749999999998,-1.213508881408101,0.8849025257300471
-0.06387500000000002,-1.213508881408101,0.8849025257300471
-0.06381249999999999,-1.213508881408101,0.8886806191906368
-0.06374999999999997,-1.213508881408103,0.8886806191906368
-0.06368750000000001,-1.217272613147843,0.8886806191906368
-0.06362499999999999,-1.213508881408101,0.8924587126512263
-0.06356250000000002,-1.217272613147841,0.8924587126512263
-0.0635,-1.213508881408101,0.8924587126512263
-0.06343749999999998,-1.198453954449148,0.896236806111816
-0.06337500000000001,-1.232327540106797,0.896236806111816
-0.06331249999999999,-1.258673662285007,0.896236806111816
-0.06324999999999997,-1.281256052723448,0.9000148995724055
-0.06318750000000001,-1.254909930545265,0.9000148995724055
-0.06312499999999999,-1.251146198805523,0.9037929930329952
-0.06306250000000002,-1.254909930545263,0.9000148995724072
-0.063,-1.254909930545265,0.9037929930329952
-0.06293749999999998,-1.262437394024752,0.9075710864935848
-0.06287500000000001,-1.26996485750423,0.9075710864935848
-0.06281249999999999,-1.273728589243976,0.9075710864935848
-0.06274999999999997,-1.281256052723463,0.9113491799541744
-0.06268750000000001,-1.288783516202944,0.9113491799541744
-0.06262499999999999,-1.300074711422171,0.9113491799541744
-0.06256250000000002,-1.307602174901652,0.9151272734147623
-0.0625,-1.311365906641397,0.915127273414764
-0.06243749999999998,-1.322657101860633,0.9151272734147656
-0.06237500000000001,-1.341475760559326,0.918905366875352
-0.06231249999999999,-1.36782188273753,0.9189053668753536
-0.06224999999999997,-1.394168004915703,0.9189053668753536
-0.06218750000000001,-1.345239492299077,0.9189053668753536
-0.06212499999999999,-0.148372799061068,0.9226834603359432
-0.06206250000000002,-0.1408453355815871,0.9226834603359432
-0.062,-0.1446090673213258,0.9226834603359432
-0.06193749999999998,-0.1446090673213258,0.9264615537965328
-0.06187500000000001,-0.1446090673213258,0.9264615537965328
-0.06181249999999999,-0.1446090673213258,0.9302396472571224
-0.06174999999999997,-0.1446090673213258,0.9302396472571224
-0.06168750000000001,-0.1446090673213258,0.9302396472571224
-0.06162499999999999,-0.1446090673213258,0.934017740717712
-0.06156250000000002,-0.1446090673213258,0.934017740717712
-0.0615,-0.1446090673213258,0.934017740717712
-0.06143749999999998,-0.1446090673213258,0.9377958341783016
-0.06137500000000001,-0.1446090673213258,0.9377958341783016
-0.06131249999999999,-0.1446090673213258,0.9377958341783016
-0.06124999999999997,-0.1446090673213258,0.9377958341783033
-0.06118750000000001,-0.1446090673213258,0.9415739276388913
-0.06112499999999998,-0.1446090673213258,0.9415739276388913
-0.06106250000000002,-0.1446090673213258,0.9453520210994791
-0.061,-0.1446090673213258,0.9453520210994808
-0.06093749999999998,-0.1446090673213258,0.9453520210994825
-0.06087500000000001,-0.1446090673213258,0.9491301145600688
-0.06081249999999999,-0.1446090673213258,0.9491301145600705
-0.06074999999999997,-0.1446090673213258,0.9491301145600721
-0.06068750000000001,-0.1446090673213258,0.95290820802066
-0.06062499999999998,-0.1446090673213258,0.95290820802066
-0.06056250000000002,-0.1446090673213258,0.95290820802066
-0.0605,-0.1446090673213258,0.9566863014812497
-0.06043749999999998,-0.1446090673213258,0.9566863014812497
-0.06037500000000001,-0.1446090673213258,0.9566863014812497
-0.06031249999999999,-0.1446090673213258,0.9604643949418392
-0.06024999999999997,-0.1446090673213258,0.9604643949418392
-0.0601875,-0.1446090673213258,0.9604643949418392
-0.06012499999999998,-0.1446090673213258,0.9642424884024289
-0.06006250000000002,-0.1446090673213258,0.9642424884024289
-0.06,-0.1446090673213258,0.9642424884024289
-0.0599375,-0.1446090673213258,0.9642424884024289
-0.05987500000000001,-0.1446090673213258,0.9680205818630184
-0.05981249999999999,-0.1446090673213258,0.9680205818630184
-0.05975,-0.1446090673213258,0.971798675323608
-0.0596875,-0.1446090673213258,0.971798675323608
-0.05962500000000001,-0.1446090673213258,0.971798675323608
-0.05956249999999999,-0.1446090673213258,0.9755767687841976
-0.0595,-0.1446090673213258,0.9755767687841976
-0.0594375,-0.1446090673213258,0.9755767687841976
-0.05937500000000001,-0.1446090673213258,0.9793548622447872
-0.05931249999999999,-0.1446090673213258,0.9793548622447872
-0.05925,-0.1446090673213258,0.9793548622447872
-0.0591875,-0.1446090673213258,0.9793548622447872
-0.05912500000000001,-0.1446090673213258,0.9831329557053768
-0.05906249999999999,-0.1446090673213258,0.9831329557053768
-0.059,-0.1446090673213258,0.9831329557053768
-0.0589375,-0.1446090673213258,0.9869110491659664
-0.05887500000000001,-0.1446090673213258,0.9869110491659664
-0.05881249999999999,-0.1446090673213258,0.9906891426265561
-0.05875,-0.148372799061068,0.9906891426265561
-0.0586875,-0.148372799061068,0.9906891426265561
-0.05862500000000001,-0.148372799061068,0.9906891426265561
-0.05856249999999999,-0.1446090673213258,0.9944672360871456
-0.0585,-0.1446090673213258,0.9944672360871456
-0.0584375,-0.148372799061068,0.9944672360871456
-0.05837500000000001,-0.1446090673213258,0.9944672360871456
-0.05831249999999999,-0.148372799061068,0.9982453295477353
-0.05825,-0.148372799061068,1.002023423008325
-0.0581875,-0.148372799061068,1.002023423008325
-0.05812500000000001,-0.1446090673213258,1.002023423008325
-0.05806249999999999,-0.148372799061068,1.005801516468914
-0.058,-0.148372799061068,1.005801516468914
-0.0579375,-0.148372799061068,1.005801516468914
-0.05787500000000001,-0.148372799061068,1.009579609929504
-0.05781249999999999,-0.148372799061068,1.009579609929504
-0.05775,-0.1446090673213258,1.013357703390094
-0.0576875,-0.148372799061068,1.013357703390094
-0.05762500000000001,-0.148372799061068,1.009579609929504
-0.05756249999999999,-0.148372799061068,1.005801516468914
-0.0575,-0.148372799061068,1.005801516468914
-0.0574375,-0.148372799061068,1.005801516468914
-0.05737500000000001,-0.148372799061068,1.005801516468914
-0.05731249999999999,-0.148372799061068,1.002023423008325
-0.05725,-0.148372799061068,1.002023423008325
-0.0571875,-0.148372799061068,1.002023423008325
-0.05712500000000001,-0.148372799061068,1.002023423008325
-0.05706249999999999,-0.148372799061068,0.9982453295477353
-0.057,-0.148372799061068,0.9982453295477353
-0.0569375,-0.148372799061068,0.9982453295477353
-0.05687500000000001,-0.148372799061068,0.9982453295477353
-0.05681249999999999,-0.1446090673213258,0.9944672360871456
-0.05674999999999999,-0.148372799061068,0.9944672360871456
-0.0566875,-0.1446090673213258,0.9906891426265561
-0.05662500000000001,-0.1446090673213258,0.9906891426265561
-0.05656249999999999,-0.1446090673213258,0.9869110491659664
-0.05649999999999999,-0.148372799061068,0.9869110491659664
-0.0564375,-0.148372799061068,0.9869110491659664
-0.05637500000000001,-0.1446090673213258,0.9869110491659664
-0.05631249999999999,-0.1446090673213258,0.9831329557053768
-0.05624999999999999,-0.1446090673213258,0.9831329557053768
-0.0561875,-0.1446090673213258,0.9793548622447872
-0.05612500000000001,-0.1446090673213258,0.9793548622447872
-0.05606249999999999,-0.1446090673213258,0.9793548622447872
-0.05599999999999999,-0.1446090673213258,0.9755767687841976
-0.0559375,-0.1446090673213258,0.9755767687841976
-0.05587500000000001,-0.1446090673213258,0.9755767687841976
-0.05581249999999999,-0.1446090673213258,0.9755767687841976
-0.05574999999999999,-0.1446090673213258,0.971798675323608
-0.0556875,-0.1446090673213258,0.971798675323608
-0.05562500000000001,-0.1446090673213258,0.9680205818630184
-0.05556249999999999,-0.1446090673213258,0.9680205818630184
-0.05549999999999999,-0.1446090673213258,0.9642424884024289
-0.0554375,-0.1446090673213258,0.9642424884024289
-0.05537500000000001,-0.1446090673213258,0.9642424884024289
-0.05531249999999999,-0.1446090673213258,0.9642424884024289
-0.05524999999999999,-0.1446090673213258,0.9642424884024289
-0.0551875,-0.1446090673213258,0.9604643949418392
-0.05512500000000001,-0.1446090673213258,0.9604643949418392
-0.05506249999999999,-0.1446090673213258,0.9604643949418392
-0.05499999999999999,-0.1446090673213258,0.9566863014812497
-0.0549375,-0.1446090673213258,0.9566863014812497
-0.05487500000000001,-0.1446090673213258,0.95290820802066
-0.05481249999999999,-0.1446090673213258,0.95290820802066
-0.05474999999999999,-0.1446090673213258,0.95290820802066
-0.0546875,-0.1446090673213258,0.95290820802066
-0.05462500000000001,-0.1446090673213258,0.9491301145600705
-0.05456249999999999,-0.1446090673213258,0.9491301145600705
-0.05449999999999999,-0.1446090673213258,0.9453520210994808
-0.0544375,-0.1446090673213258,0.9453520210994808
-0.05437500000000001,-0.1446090673213258,0.9453520210994808
-0.05431249999999999,-0.1446090673213258,0.9453520210994808
-0.05424999999999999,-0.1446090673213258,0.9415739276388913
-0.0541875,-0.1446090673213258,0.9415739276388913
-0.05412500000000001,-0.1446090673213258,0.9377958341783016
-0.05406249999999999,-0.1446090673213258,0.9377958341783016
-0.05399999999999999,-0.1446090673213258,0.9377958341783016
-0.0539375,-0.1446090673213258,0.934017740717712
-0.05387500000000001,-0.1446090673213258,0.934017740717712
-0.05381249999999999,-0.1446090673213258,0.934017740717712
-0.05374999999999999,-0.1446090673213258,0.9302396472571224
-0.0536875,-0.1446090673213258,0.9302396472571224
-0.05362500000000001,-0.1446090673213258,0.9302396472571224
-0.05356249999999999,-0.1446090673213258,0.9302396472571224
-0.05349999999999999,-0.1408453355815837,0.9264615537965328
-0.0534375,-0.1446090673213258,0.9264615537965328
-0.05337500000000001,-0.1446090673213258,0.9226834603359432
-0.05331249999999998,-0.1446090673213258,0.9226834603359432
-0.05324999999999999,-0.1446090673213258,0.9189053668753536
-0.0531875,-0.1446090673213258,0.9189053668753536
-0.05312500000000001,-0.1446090673213258,0.9189053668753536
-0.05306249999999998,-0.1408453355815837,0.9189053668753536
-0.05299999999999999,-0.1446090673213258,0.915127273414764
-0.0529375,-0.1446090673213258,0.915127273414764
-0.05287500000000001,-0.1446090673213258,0.915127273414764
-0.05281249999999998,-0.1446090673213258,0.9113491799541744
-0.05274999999999999,-0.1446090673213258,0.9113491799541744
-0.0526875,-0.1446090673213258,0.9075710864935848
-0.05262500000000001,-0.1446090673213258,0.9075710864935848
-0.05256249999999998,-0.1446090673213258,0.9075710864935848
-0.05249999999999999,-0.1446090673213258,0.9075710864935848
-0.0524375,-0.1446090673213258,0.9075710864935848
-0.052375,-0.1446090673213258,0.9037929930329952
-0.05231249999999998,-0.1446090673213258,0.9037929930329952
-0.05224999999999999,-0.1408453355815837,0.9000148995724055
-0.0521875,-0.1446090673213258,0.9000148995724055
-0.052125,-0.1446090673213258,0.9000148995724055
-0.05206250000000001,-0.1446090673213258,0.896236806111816
-0.05199999999999999,-0.1446090673213258,0.896236806111816
-0.0519375,-0.1446090673213258,0.8924587126512263
-0.051875,-0.1446090673213258,0.8924587126512263
-0.05181250000000001,-0.1446090673213258,0.8924587126512263
-0.05174999999999999,-0.1446090673213258,0.8886806191906368
-0.0516875,-0.1446090673213258,0.8886806191906368
-0.051625,-0.1446090673213258,0.8886806191906368
-0.05156250000000001,-0.1446090673213258,0.8849025257300471
-0.05149999999999999,-0.1446090673213258,0.8849025257300471
-0.0514375,-0.1446090673213258,0.8849025257300471
-0.051375,-0.1446090673213258,0.8849025257300471
-0.05131250000000001,-0.1408453355815837,0.8811244322694576
-0.05124999999999999,-0.1408453355815837,0.8811244322694576
-0.0511875,-0.1408453355815837,0.8773463388088679
-0.051125,-0.1408453355815837,0.8773463388088679
-0.05106250000000001,-0.1446090673213258,0.8773463388088679
-0.05099999999999999,-0.1408453355815837,0.8773463388088679
-0.0509375,-0.1408453355815837,0.8735682453482784
-0.050875,-0.1408453355815837,0.8735682453482784
-0.05081250000000001,-0.1446090673213258,0.8697901518876887
-0.05074999999999999,-0.1408453355815837,0.8697901518876887
-0.0506875,-0.1446090673213258,0.8697901518876887
-0.050625,-0.1408453355815837,0.8697901518876887
-0.05056250000000001,-0.1408453355815837,0.8660120584270992
-0.05049999999999999,-0.1408453355815837,0.8660120584270992
-0.0504375,-0.1408453355815837,0.8660120584270992
-0.050375,-0.1446090673213258,0.8622339649665095
-0.05031250000000001,-0.1408453355815837,0.8622339649665095
-0.05024999999999999,-0.1408453355815837,0.8622339649665095
-0.0501875,-0.1446090673213258,0.8622339649665095
-0.050125,-0.1446090673213258,0.85845587150592
-0.05006250000000001,-0.1408453355815837,0.85845587150592
-0.04999999999999999,-0.1408453355815837,0.8546777780453303
-0.0499375,-0.1408453355815837,0.8546777780453303
-0.049875,-0.1408453355815837,0.8546777780453303
-0.04981250000000001,-0.1408453355815837,0.8546777780453303
-0.04974999999999999,-0.1408453355815837,0.8508996845847407
-0.0496875,-0.1408453355815837,0.8508996845847407
-0.049625,-0.1408453355815837,0.8508996845847407
-0.04956250000000001,-0.1408453355815837,0.8471215911241511
-0.04949999999999999,-0.1408453355815837,0.8471215911241511
-0.0494375,-0.1408453355815837,0.8471215911241511
-0.049375,-0.1408453355815837,0.8471215911241511
-0.04931250000000001,-0.1408453355815837,0.8433434976635615
-0.04924999999999999,-0.1408453355815837,0.8433434976635615
-0.0491875,-0.1408453355815837,0.8395654042029719
-0.049125,-0.1408453355815837,0.8395654042029719
-0.04906250000000001,-0.1408453355815837,0.8395654042029719
-0.04899999999999999,-0.1408453355815837,0.8357873107423823
-0.04893749999999999,-0.1408453355815837,0.8357873107423823
-0.048875,-0.1408453355815837,0.8320092172817927
-0.04881250000000001,-0.1408453355815837,0.8320092172817927
-0.04874999999999999,-0.1408453355815837,0.8320092172817927
-0.04868749999999999,-0.1408453355815837,0.8320092172817927
-0.048625,-0.1370816038418415,0.8320092172817927
-0.04856250000000001,-0.1408453355815837,0.8282311238212031
-0.04849999999999999,-0.1408453355815837,0.8282311238212031
-0.04843749999999999,-0.1446090673213258,0.8244530303606135
-0.048375,-0.1446090673213258,0.8244530303606135
-0.04831250000000001,-0.1408453355815837,0.8244530303606135
-0.04824999999999999,-0.1408453355815837,0.8206749369000239
-0.04818749999999999,-0.1408453355815837,0.8206749369000239
-0.048125,-0.1408453355815837,0.8206749369000239
-0.04806250000000001,-0.1408453355815837,0.8168968434394343
-0.04799999999999999,-0.1408453355815837,0.8168968434394343
-0.04793749999999999,-0.1408453355815837,0.8168968434394343
-0.047875,-0.1408453355815837,0.8131187499788447
-0.04781250000000001,-0.1408453355815837,0.8131187499788447
-0.04774999999999999,-0.1408453355815837,0.8131187499788447
-0.04768749999999999,-0.1408453355815837,0.809340656518255
-0.047625,-0.1408453355815837,0.809340656518255
-0.04756250000000001,-0.1408453355815837,0.8055625630576655
-0.04749999999999999,-0.1446090673213258,0.8055625630576655
-0.04743749999999999,-0.1408453355815837,0.8055625630576655
-0.047375,-0.1408453355815837,0.8055625630576655
-0.04731250000000001,-0.1408453355815837,0.8017844695970758
-0.04724999999999999,-0.1408453355815837,0.8017844695970758
-0.04718749999999999,-0.1408453355815837,0.7980063761364863
-0.047125,-0.1408453355815837,0.7980063761364863
-0.04706250000000001,-0.1408453355815837,0.7980063761364863
-0.04699999999999999,-0.1408453355815837,0.7942282826758966
-0.04693749999999999,-0.1408453355815837,0.7942282826758966
-0.046875,-0.1408453355815837,0.7942282826758966
-0.04681250000000001,-0.1408453355815837,0.7942282826758966
-0.04674999999999999,-0.1408453355815837,0.7942282826758966
-0.04668749999999999,-0.1408453355815837,0.7904501892153071
-0.046625,-0.1446090673213258,0.7904501892153071
-0.04656250000000001,-0.1446090673213258,0.7866720957547174
-0.04649999999999999,-0.1408453355815837,0.7866720957547174
-0.04643749999999999,-0.1408453355815837,0.7866720957547174
-0.046375,-0.1408453355815837,0.7828940022941279
-0.04631250000000001,-0.1408453355815837,0.7828940022941279
-0.04624999999999999,-0.1408453355815837,0.7828940022941279
-0.04618749999999999,-0.1408453355815837,0.7791159088335382
-0.046125,-0.1408453355815837,0.7791159088335382
-0.04606250000000001,-0.1408453355815837,0.7791159088335382
-0.04599999999999999,-0.1408453355815837,0.7753378153729487
-0.04593749999999999,-0.1408453355815837,0.7753378153729487
-0.045875,-0.1408453355815837,0.7753378153729487
-0.04581250000000001,-0.1408453355815837,0.771559721912359
-0.04574999999999999,-0.1408453355815837,0.771559721912359
-0.04568749999999999,-0.1408453355815837,0.771559721912359
-0.045625,-0.1408453355815837,0.771559721912359
-0.04556250000000001,-0.1408453355815837,0.7677816284517694
-0.04549999999999998,-0.1408453355815837,0.7677816284517694
-0.04543749999999999,-0.1408453355815837,0.7640035349911798
-0.045375,-0.1408453355815837,0.7640035349911798
-0.04531250000000001,-0.1408453355815837,0.7640035349911798
-0.04524999999999998,-0.1408453355815837,0.7602254415305902
-0.04518749999999999,-0.1446090673213258,0.7602254415305902
-0.045125,-0.1446090673213258,0.7564473480700006
-0.04506250000000001,-0.1446090673213258,0.7564473480700006
-0.04499999999999998,-0.1446090673213258,0.752669254609411
-0.04493749999999999,-0.1446090673213258,0.752669254609411
-0.044875,-0.1446090673213258,0.752669254609411
-0.04481250000000001,-0.1446090673213258,0.7488911611488214
-0.04474999999999998,-0.1446090673213258,0.7488911611488214
-0.04468749999999999,-0.1446090673213258,0.7488911611488214
-0.044625,-0.1446090673213258,0.7488911611488214
