Module4/data/1203/ADC/feedback/10Hz_OP97F_custom_0.5V_Offset0.5_Feedback.csv

#Digilent WaveForms Oscilloscope Acquisition
#Device Name: Discovery2
#Serial Number: SN:210321AC1D4D
#Date Time: 2020-12-03 18:50:58.013
#Sample rate: 16000Hz
#Samples: 8192
#Trigger: Source: Channel 1 Type: Edge Condition: Rising Level: 0 V Hyst.: Auto HoldOff: 0 s
#Channel 1: Range: 1 V/div Offset: 0 V Attenuation: 1 X
#Channel 2: Range: 1 V/div Offset: 0 V Attenuation: 1 X
#Wavegen Channel 1: Running
#Mode: Simple
#Type: Custom1
#Frequency: 10 Hz
#Period: 100 ms
#Amplitude: 500 mV
#Offset: 500 mV
#Phase: 0 ¡Æ
#Wavegen Channel 2: Running
#Mode: Simple
#Type: DC
#Offset: 5 V
#Power Supplies: ON
#Positive Supply: ON
#Voltage: 1.6 V
#Negative Supply: ON
#Voltage: -5 V

Time (s),Channel 1 (V),Channel 2 (V)
-0.07600000000000001,-2.51576006335889,0.3937503758533986
-0.07593749999999999,-2.515760063358892,0.3937503758533986
-0.07587500000000003,-2.519523795098631,0.3937503758533986
-0.0758125,-2.51576006335889,0.3937503758533986
-0.07574999999999998,-2.51576006335889,0.3937503758533986
-0.07568750000000002,-2.51576006335889,0.3937503758533986
-0.075625,-2.51576006335889,0.3937503758533986
-0.07556250000000003,-2.51576006335889,0.3937503758533986
-0.07550000000000001,-2.511996331619148,0.3975284693139882
-0.07543749999999999,-2.519523795098633,0.4390874973804739
-0.07537500000000003,-2.519523795098633,0.4390874973804739
-0.0753125,-2.519523795098633,0.4390874973804739
-0.07524999999999998,-2.519523795098633,0.4390874973804739
-0.07518750000000002,-2.519523795098633,0.4390874973804739
-0.075125,-2.519523795098633,0.4390874973804739
-0.07506250000000003,-2.523287526838373,0.4390874973804739
-0.07500000000000001,-2.519523795098633,0.4390874973804739
-0.07493749999999999,-2.519523795098633,0.4390874973804739
-0.07487500000000002,-2.519523795098633,0.4390874973804739
-0.0748125,-2.519523795098633,0.4390874973804739
-0.07474999999999998,-2.519523795098633,0.4390874973804739
-0.07468750000000002,-2.519523795098633,0.4390874973804739
-0.074625,-2.519523795098633,0.4390874973804739
-0.07456250000000003,-2.519523795098633,0.4390874973804739
-0.07450000000000001,-2.54963364901657,0.4541998712228323
-0.07443749999999999,-2.606089625112416,0.4919808058287301
-0.07437500000000002,-1.977546424576047,0.4957588992893162
-0.0743125,-1.981310156315503,0.4957588992893179
-0.07424999999999998,-1.981310156315503,0.4919808058287301
-0.07418750000000002,-1.981310156315503,0.4957588992893179
-0.074125,-1.981310156315503,0.4957588992893179
-0.07406250000000003,-1.985073888055243,0.4957588992893179
-0.07400000000000001,-1.981310156315503,0.4957588992893179
-0.07393749999999999,-1.981310156315503,0.4919808058287301
-0.07387500000000002,-1.981310156315503,0.4957588992893162
-0.0738125,-1.981310156315503,0.4957588992893179
-0.07374999999999998,-1.981310156315503,0.4957588992893179
-0.07368750000000002,-1.981310156315503,0.4957588992893179
-0.073625,-1.981310156315503,0.4919808058287283
-0.07356250000000003,-1.977546424575763,0.4919808058287283
-0.07350000000000001,-1.981310156315503,0.4957588992893179
-0.07343749999999999,-1.985073888055245,0.5146493665922676
-0.07337500000000002,-1.985073888055245,0.5184274600528539
-0.0733125,-1.985073888055245,0.5184274600528556
-0.07324999999999998,-1.985073888055245,0.5184274600528556
-0.07318750000000002,-1.985073888055245,0.5184274600528556
-0.073125,-1.985073888055245,0.5184274600528556
-0.07306250000000003,-1.985073888055245,0.5184274600528556
-0.07300000000000001,-1.988837619794987,0.5184274600528556
-0.07293749999999999,-1.985073888055243,0.5184274600528556
-0.07287500000000002,-1.981310156315505,0.5184274600528556
-0.0728125,-1.981310156315503,0.5184274600528556
-0.07274999999999998,-1.981310156315503,0.5184274600528556
-0.07268750000000002,-1.981310156315503,0.5184274600528556
-0.072625,-1.985073888055245,0.5184274600528556
-0.07256250000000003,-1.985073888055245,0.5146493665922676
-0.07250000000000001,-1.985073888055245,0.5146493665922659
-0.07243749999999999,-1.981310156315503,0.4957588992893179
-0.07237500000000002,-1.981310156315503,0.4957588992893179
-0.0723125,-1.981310156315503,0.4957588992893179
-0.07224999999999998,-1.977546424575763,0.4957588992893179
-0.07218750000000002,-1.981310156315503,0.4957588992893179
-0.07212499999999999,-1.981310156315503,0.4957588992893179
-0.07206250000000003,-1.981310156315503,0.4957588992893179
-0.07200000000000001,-1.985073888055245,0.4957588992893179
-0.07193749999999999,-1.981310156315503,0.4957588992893179
-0.07187500000000002,-1.981310156315503,0.4957588992893179
-0.0718125,-1.977546424575761,0.4957588992893179
-0.07174999999999998,-1.977546424575763,0.4957588992893179
-0.07168750000000002,-1.981310156315503,0.4957588992893179
-0.07162499999999999,-1.981310156315503,0.4957588992893179
-0.07156250000000003,-1.981310156315503,0.4957588992893179
-0.07150000000000001,-1.981310156315503,0.4844246189075491
-0.07143749999999999,-1.981310156315503,0.4579779646834219
-0.07137500000000002,-1.981310156315503,0.4579779646834219
-0.0713125,-1.981310156315503,0.4617560581440115
-0.07124999999999998,-1.981310156315503,0.4617560581440098
-0.07118750000000001,-1.981310156315503,0.4579779646834219
-0.07112499999999999,-1.981310156315503,0.4579779646834219
-0.07106250000000003,-1.981310156315503,0.4579779646834219
-0.07100000000000001,-1.981310156315503,0.4579779646834219
-0.07093749999999999,-1.985073888055243,0.4579779646834219
-0.07087500000000002,-1.981310156315505,0.4579779646834219
-0.0708125,-1.977546424575761,0.4579779646834219
-0.07074999999999998,-1.977546424575761,0.4579779646834236
-0.07068750000000001,-1.977546424575761,0.4617560581440115
-0.07062499999999999,-1.981310156315503,0.4617560581440115
-0.07056250000000003,-1.985073888055243,0.4579779646834236
-0.07050000000000001,-1.985073888055245,0.4579779646834219
-0.07043749999999999,-1.981310156315503,0.4466436843016531
-0.07037500000000002,-1.981310156315503,0.4466436843016531
-0.0703125,-1.981310156315503,0.4466436843016531
-0.07024999999999998,-1.981310156315503,0.4466436843016531
-0.07018750000000001,-1.981310156315503,0.4466436843016531
-0.07012499999999999,-1.981310156315503,0.4504217777622427
-0.07006250000000003,-1.981310156315503,0.4466436843016548
-0.07000000000000001,-1.981310156315503,0.4504217777622427
-0.06993750000000001,-1.981310156315503,0.4466436843016531
-0.06987500000000002,-1.981310156315503,0.4466436843016531
-0.0698125,-1.981310156315503,0.4466436843016531
-0.06975000000000001,-1.985073888055245,0.4466436843016531
-0.06968750000000001,-1.981310156315503,0.4466436843016531
-0.06962500000000002,-1.981310156315503,0.4466436843016531
-0.0695625,-1.981310156315503,0.4466436843016531
-0.06950000000000001,-1.981310156315503,0.4579779646834219
-0.06943750000000001,-1.981310156315503,0.4768684319863699
-0.06937500000000002,-1.981310156315503,0.4768684319863699
-0.0693125,-1.981310156315503,0.4806465254469595
-0.06925000000000001,-1.977546424575761,0.4768684319863699
-0.06918750000000001,-1.977546424575761,0.4768684319863699
-0.06912500000000002,-1.981310156315503,0.4768684319863699
-0.0690625,-1.95872776587705,0.4768684319863699
-0.06900000000000001,-1.909799253260402,0.4768684319863699
-0.06893750000000001,-1.860870740643753,0.4768684319863699
-0.06887500000000002,-1.826997154986074,0.4768684319863699
-0.0688125,-1.898508058041175,0.4768684319863699
-0.06875000000000001,-1.932381643698855,0.4768684319863699
-0.06868750000000001,-1.947436570657823,0.4768684319863699
-0.06862500000000002,-1.95872776587705,0.4768684319863699
-0.0685625,-1.970018961096276,0.4768684319863699
-0.06850000000000001,-1.985073888055245,0.5108712731316764
-0.06843750000000001,-1.988837619794987,0.533539833895214
-0.06837500000000002,-1.992601351534729,0.533539833895214
-0.0683125,-1.988837619794987,0.533539833895214
-0.06825000000000001,-1.988837619794987,0.533539833895214
-0.06818750000000001,-1.988837619794987,0.533539833895214
-0.06812500000000002,-1.988837619794987,0.533539833895214
-0.0680625,-1.992601351534729,0.533539833895214
-0.068,-1.988837619794987,0.533539833895214
-0.06793750000000001,-1.988837619794987,0.533539833895214
-0.06787500000000002,-1.992601351534729,0.533539833895214
-0.0678125,-1.992601351534729,0.533539833895214
-0.06775,-1.988837619794987,0.533539833895214
-0.06768750000000001,-1.988837619794987,0.533539833895214
-0.06762500000000002,-1.988837619794987,0.533539833895214
-0.0675625,-1.988837619794987,0.533539833895214
-0.0675,-1.996365083274471,0.5486522077375724
-0.06743750000000001,-2.007656278493698,0.5750988619616996
-0.06737500000000002,-2.01142001023344,0.57132076850111
-0.0673125,-2.007656278493698,0.5750988619616996
-0.06725,-2.003892546753956,0.5750988619616996
-0.06718750000000001,-2.003892546753956,0.57132076850111
-0.06712500000000002,-2.007656278493698,0.5750988619616996
-0.0670625,-2.007656278493698,0.5750988619616996
-0.067,-2.007656278493698,0.5750988619616996
-0.06693750000000001,-2.007656278493698,0.5750988619616996
-0.06687500000000002,-2.007656278493698,0.5750988619616996
-0.0668125,-2.01142001023344,0.5750988619616996
-0.06675,-2.007656278493698,0.5750988619616996
-0.06668750000000001,-1.992601351534729,0.5750988619616996
-0.06662500000000002,-1.947436570657823,0.5750988619616996
-0.0665625,-1.898508058041175,0.5750988619616996
-0.0665,-1.857107008904011,0.5750988619616996
-0.06643750000000001,-1.921090448479628,0.5750988619616996
-0.06637500000000002,-1.947436570657823,0.57132076850111
-0.0663125,-1.973782692836018,0.57132076850111
-0.06625,-1.996365083274471,0.57132076850111
-0.06618750000000001,-2.003892546753956,0.57132076850111
-0.06612500000000002,-2.003892546753956,0.57132076850111
-0.0660625,-2.003892546753956,0.57132076850111
-0.066,-2.007656278493698,0.57132076850111
-0.06593750000000001,-2.007656278493698,0.57132076850111
-0.06587500000000002,-2.007656278493698,0.57132076850111
-0.0658125,-2.007656278493698,0.57132076850111
-0.06575,-2.007656278493698,0.5750988619616996
-0.06568750000000001,-2.007656278493698,0.57132076850111
-0.06562500000000002,-2.007656278493698,0.5750988619616996
-0.0655625,-2.007656278493698,0.57132076850111
-0.0655,-2.003892546753956,0.5562083946587516
-0.06543750000000001,-1.988837619794987,0.5373179273558035
-0.06537500000000002,-1.992601351534729,0.5373179273558035
-0.0653125,-1.992601351534729,0.5373179273558035
-0.06525,-1.992601351534729,0.5410960208163932
-0.06518750000000001,-1.988837619794987,0.5410960208163932
-0.06512500000000002,-1.992601351534729,0.5373179273558035
-0.0650625,-1.988837619794987,0.5373179273558035
-0.065,-1.992601351534729,0.5373179273558035
-0.06493750000000001,-1.992601351534729,0.5373179273558035
-0.06487500000000002,-1.992601351534729,0.5373179273558035
-0.0648125,-1.992601351534729,0.5410960208163932
-0.06475,-1.988837619794987,0.5373179273558035
-0.06468750000000001,-1.988837619794987,0.5373179273558035
-0.06462500000000002,-1.988837619794987,0.5373179273558035
-0.06456249999999999,-1.988837619794987,0.5373179273558035
-0.0645,-1.988837619794987,0.5297617404346243
-0.06443750000000001,-1.985073888055245,0.5108712731316764
-0.06437500000000002,-1.981310156315503,0.5108712731316764
-0.06431249999999999,-1.985073888055245,0.5108712731316764
-0.06425,-1.985073888055245,0.5108712731316764
-0.06418750000000001,-1.985073888055245,0.5108712731316764
-0.06412500000000002,-1.985073888055245,0.5108712731316764
-0.06406249999999999,-1.988837619794987,0.5108712731316764
-0.064,-1.985073888055245,0.5108712731316764
-0.06393750000000001,-1.985073888055245,0.5108712731316764
-0.06387500000000002,-1.985073888055245,0.5108712731316764
-0.06381249999999999,-1.981310156315503,0.5108712731316764
-0.06375,-1.981310156315503,0.5108712731316764
-0.06368750000000001,-1.981310156315503,0.5108712731316764
-0.06362500000000001,-1.981310156315503,0.5108712731316764
-0.06356249999999999,-1.985073888055245,0.5108712731316764
-0.0635,-1.985073888055245,0.5146493665922659
-0.06343750000000001,-1.985073888055245,0.5222055535134451
-0.06337500000000001,-1.985073888055245,0.5259836469740348
-0.06331249999999999,-1.985073888055245,0.5259836469740348
-0.06325,-1.985073888055245,0.5222055535134451
-0.06318750000000001,-1.985073888055245,0.5222055535134451
-0.06312500000000001,-1.988837619794987,0.5222055535134451
-0.06306249999999999,-1.985073888055245,0.5222055535134451
-0.063,-1.988837619794987,0.5222055535134451
-0.06293750000000001,-1.992601351534729,0.5222055535134451
-0.06287500000000001,-1.988837619794987,0.5222055535134451
-0.06281249999999999,-1.988837619794987,0.5222055535134451
-0.06275,-1.988837619794987,0.5222055535134451
-0.06268750000000001,-1.988837619794987,0.5222055535134451
-0.06262500000000001,-1.988837619794987,0.5222055535134451
-0.06256249999999999,-1.988837619794987,0.5222055535134451
-0.0625,-1.996365083274471,0.5448741142769827
-0.06243750000000001,-2.007656278493698,0.57132076850111
-0.06237500000000001,-2.003892546753956,0.57132076850111
-0.06231249999999999,-2.003892546753956,0.57132076850111
-0.06225,-2.003892546753956,0.57132076850111
-0.06218750000000001,-2.003892546753956,0.57132076850111
-0.06212500000000001,-2.003892546753956,0.57132076850111
-0.06206250000000002,-2.003892546753956,0.57132076850111
-0.062,-2.007656278493698,0.57132076850111
-0.06193750000000001,-2.007656278493698,0.57132076850111
-0.06187500000000001,-2.007656278493698,0.57132076850111
-0.06181250000000002,-2.007656278493698,0.57132076850111
-0.06175,-2.007656278493698,0.57132076850111
-0.06168750000000001,-2.007656278493698,0.57132076850111
-0.06162500000000001,-2.007656278493698,0.57132076850111
-0.06156250000000002,-2.007656278493698,0.57132076850111
-0.0615,-2.022711205452667,0.5864331423434684
-0.06143750000000001,-2.060348522850088,0.6204359834887748
-0.06137500000000001,-2.060348522850088,0.6204359834887748
-0.06131250000000002,-2.060348522850088,0.6204359834887748
-0.06125,-2.056584791110346,0.6242140769493645
-0.06118750000000001,-2.056584791110346,0.6242140769493645
-0.06112500000000001,-2.056584791110346,0.6204359834887748
-0.06106250000000002,-2.056584791110346,0.6204359834887748
-0.061,-2.056584791110346,0.6242140769493645
-0.06093750000000001,-2.060348522850088,0.6242140769493645
-0.06087500000000001,-2.060348522850088,0.6242140769493645
-0.06081250000000002,-2.060348522850088,0.6204359834887748
-0.06075,-2.060348522850088,0.6204359834887748
-0.06068750000000001,-2.064112254589831,0.6242140769493645
-0.06062500000000001,-2.060348522850088,0.6204359834887748
-0.06056250000000002,-2.060348522850088,0.6204359834887748
-0.0605,-2.064112254589831,0.6242140769493645
-0.06043750000000001,-2.316282281152556,0.6393264507917229
-0.06037500000000001,-2.470595282481984,0.6393264507917229
-0.06031250000000002,-2.470595282481984,0.6393264507917229
-0.06025,-2.470595282481984,0.6431045442523124
-0.0601875,-2.470595282481984,0.6431045442523124
-0.06012500000000001,-2.4630678190025,0.6393264507917229
-0.06006250000000002,-2.4630678190025,0.6393264507917229
-0.06,-2.466831550742242,0.6431045442523124
-0.0599375,-2.4630678190025,0.6393264507917229
-0.05987500000000001,-2.470595282481984,0.6393264507917229
-0.05981250000000002,-2.470595282481984,0.6431045442523124
-0.05975,-2.470595282481984,0.6431045442523124
-0.0596875,-2.466831550742242,0.6431045442523124
-0.05962500000000001,-2.466831550742242,0.6431045442523124
-0.05956250000000002,-2.470595282481984,0.6431045442523124
-0.0595,-2.357683330289719,0.6355483573311332
-0.0594375,-2.049057327630862,0.6204359834887748
-0.05937500000000001,-2.049057327630862,0.6166578900281853
-0.05931250000000002,-2.049057327630862,0.6166578900281853
-0.05925,-2.049057327630862,0.6204359834887748
-0.0591875,-2.049057327630862,0.6166578900281853
-0.05912500000000001,-2.052821059370604,0.6166578900281853
-0.05906250000000002,-2.052821059370604,0.6166578900281853
-0.059,-2.049057327630862,0.6166578900281853
-0.0589375,-2.052821059370604,0.6166578900281853
-0.05887500000000001,-2.049057327630862,0.6204359834887748
-0.05881250000000002,-2.052821059370604,0.6204359834887748
-0.05875,-2.052821059370604,0.6204359834887748
-0.0586875,-2.052821059370604,0.6166578900281853
-0.05862500000000001,-2.052821059370604,0.6166578900281853
-0.05856250000000002,-2.052821059370604,0.6204359834887748
-0.0585,-2.04529359589112,0.6128797965675956
-0.0584375,-2.015183741973182,0.5826550488828788
-0.05837500000000001,-2.015183741973182,0.5826550488828788
-0.05831250000000002,-2.015183741973182,0.5826550488828788
-0.05825,-2.01142001023344,0.5826550488828788
-0.0581875,-2.01142001023344,0.5864331423434684
-0.05812500000000001,-2.01142001023344,0.5826550488828788
-0.05806250000000002,-2.01142001023344,0.5826550488828788
-0.058,-2.015183741973182,0.5826550488828788
-0.0579375,-2.015183741973182,0.5826550488828788
-0.05787500000000001,-2.01142001023344,0.5826550488828788
-0.05781250000000002,-2.01142001023344,0.5864331423434684
-0.05775,-2.01142001023344,0.5826550488828788
-0.0576875,-2.01142001023344,0.5826550488828788
-0.05762500000000001,-2.007656278493698,0.5826550488828788
-0.05756250000000002,-2.01142001023344,0.5826550488828788
-0.0575,-2.01142001023344,0.5826550488828788
-0.0574375,-2.007656278493698,0.5750988619616996
-0.05737500000000001,-2.007656278493698,0.5750988619616996
-0.05731250000000002,-2.007656278493698,0.5750988619616996
-0.05725,-2.007656278493698,0.5750988619616996
-0.0571875,-2.007656278493698,0.5750988619616996
-0.05712500000000001,-2.01142001023344,0.5750988619616996
-0.05706250000000002,-2.01142001023344,0.5750988619616996
-0.057,-2.007656278493698,0.5750988619616996
-0.0569375,-2.007656278493698,0.5750988619616996
-0.05687500000000001,-2.007656278493698,0.5750988619616996
-0.05681250000000002,-2.007656278493698,0.5750988619616996
-0.05674999999999999,-2.003892546753956,0.5750988619616996
-0.0566875,-2.007656278493698,0.5750988619616996
-0.05662500000000001,-2.007656278493698,0.5750988619616996
-0.05656250000000002,-2.007656278493698,0.5750988619616996
-0.05649999999999999,-2.015183741973182,0.5864331423434684
-0.0564375,-2.037766132411635,0.6091017031070061
-0.05637500000000001,-2.037766132411635,0.6091017031070061
-0.05631250000000002,-2.037766132411635,0.6091017031070061
-0.05624999999999999,-2.037766132411635,0.6091017031070061
-0.0561875,-2.037766132411635,0.6053236096464164
-0.05612500000000001,-2.034002400671893,0.6091017031070061
-0.05606250000000002,-2.037766132411635,0.6091017031070061
-0.05599999999999999,-2.037766132411635,0.6091017031070061
-0.0559375,-2.037766132411635,0.6091017031070061
-0.05587500000000001,-2.037766132411635,0.6091017031070061
-0.05581250000000001,-2.037766132411635,0.6091017031070061
-0.05574999999999999,-2.041529864151378,0.6091017031070061
-0.0556875,-2.041529864151378,0.6053236096464164
-0.05562500000000001,-2.037766132411635,0.6053236096464164
-0.05556250000000001,-2.037766132411635,0.6091017031070061
-0.05549999999999999,-2.060348522850088,0.6204359834887748
-0.0554375,-1.371585614477272,0.6657731050158501
-0.05537500000000001,-1.175871564010679,0.6657731050158501
-0.05531250000000001,-1.179635295750421,0.6657731050158501
-0.05524999999999999,-1.183399027490164,0.6657731050158501
-0.0551875,-1.183399027490164,0.6657731050158501
-0.05512500000000001,-1.179635295750421,0.6657731050158501
-0.05506250000000001,-1.179635295750421,0.6657731050158501
-0.05499999999999999,-1.179635295750421,0.6657731050158501
-0.0549375,-1.183399027490164,0.6657731050158501
-0.05487500000000001,-1.183399027490164,0.6657731050158501
-0.05481250000000001,-1.183399027490164,0.6619950115552605
-0.05474999999999999,-1.179635295750421,0.6619950115552605
-0.0546875,-1.183399027490164,0.6657731050158501
-0.05462500000000001,-1.172107832270937,0.6657731050158501
-0.05456250000000001,-1.149525441832484,0.6657731050158501
-0.05449999999999999,-1.130706783133773,0.6771073853976189
-0.0544375,-1.119415587914547,0.7035540396217461
-0.05437500000000001,-1.138234246613258,0.7035540396217461
-0.05431250000000001,-1.164580368791453,0.6997759461611566
-0.05425000000000002,-1.172107832270937,0.6997759461611566
