Module4/data/1203/ADC/feedback/10Hz_OP97F_sine_0.5V_Offset0.5_Feedback.csv

#Digilent WaveForms Oscilloscope Acquisition
#Device Name: Discovery2
#Serial Number: SN:210321AC1D4D
#Date Time: 2020-12-03 18:53:10.799
#Sample rate: 16000Hz
#Samples: 8192
#Trigger: Source: Channel 1 Type: Edge Condition: Rising Level: 0 V Hyst.: Auto HoldOff: 0 s
#Channel 1: Range: 1 V/div Offset: 0 V Attenuation: 1 X
#Channel 2: Range: 1 V/div Offset: 0 V Attenuation: 1 X
#Wavegen Channel 1: Running
#Mode: Simple
#Type: Sine
#Frequency: 10 Hz
#Period: 100 ms
#Amplitude: 500 mV
#Offset: 500 mV
#Symmetry: 50 %
#Phase: 0 ¡Æ
#Wavegen Channel 2: Running
#Mode: Simple
#Type: DC
#Offset: 5 V
#Power Supplies: ON
#Positive Supply: ON
#Voltage: 1.6 V
#Negative Supply: ON
#Voltage: -5 V

Time (s),Channel 1 (V),Channel 2 (V)
-0.06537500000000002,-2.752875162962647,0.04994387093974467
-0.0653125,-2.752875162962647,0.05372196440033427
-0.06525000000000003,-2.752875162962647,0.05372196440033427
-0.06518750000000001,-2.749111431222905,0.05372196440033427
-0.06512499999999999,-2.752875162962645,0.05372196440033427
-0.06506250000000002,-2.749111431222905,0.05372196440033427
-0.065,-2.749111431222905,0.05750005786092387
-0.06493750000000004,-2.749111431222905,0.05372196440033599
-0.06487500000000002,-2.756638894702389,0.05750005786092387
-0.0648125,-2.756638894702391,0.05750005786092387
-0.06475000000000003,-2.760402626442129,0.05750005786092387
-0.06468750000000001,-2.756638894702389,0.05750005786092387
-0.06462499999999999,-2.760402626442128,0.05750005786092559
-0.06456250000000002,-2.752875162962647,0.06127815132151348
-0.0645,-2.752875162962647,0.06127815132151348
-0.06443750000000004,-2.760402626442128,0.06127815132151348
-0.06437500000000002,-2.764166358181873,0.06127815132151348
-0.06431249999999999,-2.760402626442131,0.06505624478210308
-0.06425000000000003,-2.760402626442131,0.06505624478210308
-0.06418750000000001,-2.760402626442131,0.06505624478210308
-0.06412499999999999,-2.760402626442133,0.0650562447821048
-0.06406250000000002,-2.764166358181873,0.06883433824269268
-0.064,-2.767930089921616,0.06883433824269268
-0.06393750000000004,-2.764166358181875,0.06883433824269268
-0.06387500000000002,-2.764166358181873,0.07261243170328228
-0.06381249999999999,-2.764166358181873,0.07261243170328228
-0.06375000000000003,-2.764166358181873,0.07261243170328228
-0.06368750000000001,-2.767930089921616,0.07261243170328228
-0.06362499999999999,-2.771693821661358,0.07261243170328401
-0.06356250000000002,-2.771693821661358,0.07639052516387189
-0.0635,-2.7754575534011,0.07639052516387189
-0.06343750000000004,-2.771693821661359,0.07639052516387189
-0.06337500000000001,-2.771693821661358,0.07639052516387189
-0.06331249999999999,-2.771693821661359,0.07639052516387361
-0.06325000000000003,-2.775457553401098,0.08016861862445977
-0.06318750000000001,-2.779221285140842,0.08016861862446149
-0.06312499999999999,-2.7754575534011,0.08016861862446149
-0.06306250000000002,-2.7754575534011,0.08016861862446149
-0.063,-2.779221285140842,0.0839467120850511
-0.06293750000000004,-2.779221285140842,0.0839467120850511
-0.06287500000000001,-2.782985016880584,0.0839467120850511
-0.06281249999999999,-2.786748748620325,0.08394671208505282
-0.06275000000000003,-2.782985016880586,0.08772480554563898
-0.06268750000000001,-2.782985016880584,0.0877248055456407
-0.06262499999999999,-2.782985016880586,0.08772480554564242
-0.06256250000000002,-2.786748748620326,0.09150289900623031
-0.0625,-2.786748748620326,0.09150289900623031
-0.06243750000000003,-2.782985016880586,0.09150289900623031
-0.06237500000000001,-2.779221285140842,0.09150289900623031
-0.06231249999999999,-2.782985016880586,0.09528099246681991
-0.06225000000000003,-2.786748748620325,0.09528099246681991
-0.06218750000000001,-2.786748748620326,0.09528099246681991
-0.06212499999999999,-2.790512480360069,0.09528099246682163
-0.06206250000000002,-2.790512480360069,0.09905908592740952
-0.062,-2.790512480360069,0.09905908592740952
-0.06193750000000003,-2.790512480360069,0.09905908592740952
-0.06187500000000001,-2.794276212099811,0.1028371793879991
-0.06181249999999999,-2.798039943839553,0.1028371793880008
-0.06175000000000003,-2.798039943839553,0.106615272848587
-0.06168750000000001,-2.798039943839553,0.1066152728485887
-0.06162499999999999,-2.801803675579295,0.1066152728485887
-0.06156250000000002,-2.801803675579295,0.1066152728485887
-0.0615,-2.798039943839553,0.1066152728485887
-0.06143750000000003,-2.798039943839553,0.1066152728485887
-0.06137500000000001,-2.801803675579295,0.1103933663091783
-0.06131249999999999,-2.801803675579295,0.1103933663091783
-0.06125000000000003,-2.801803675579295,0.1103933663091783
-0.06118750000000001,-2.801803675579295,0.1141714597697679
-0.06112499999999998,-2.805567407319037,0.1141714597697679
-0.06106250000000002,-2.805567407319037,0.1141714597697679
-0.061,-2.805567407319037,0.1141714597697679
-0.06093750000000003,-2.805567407319037,0.1179495532303558
-0.06087500000000001,-2.809331139058779,0.1179495532303575
-0.06081249999999999,-2.809331139058779,0.1179495532303575
-0.06075000000000003,-2.809331139058779,0.1179495532303575
-0.06068750000000001,-2.809331139058779,0.1217276466909471
-0.06062499999999998,-2.81309487079852,0.1217276466909471
-0.06056250000000002,-2.809331139058779,0.1217276466909471
-0.0605,-2.809331139058779,0.1255057401515368
-0.06043750000000003,-2.81309487079852,0.1255057401515368
-0.06037500000000001,-2.813094870798522,0.1255057401515368
-0.06031249999999999,-2.816858602538265,0.1292838336121263
-0.06025000000000003,-2.820622334278004,0.1292838336121263
-0.0601875,-2.820622334278006,0.1292838336121263
-0.06012499999999998,-2.824386066017746,0.1292838336121281
-0.06006250000000002,-2.820622334278006,0.1330619270727159
-0.06,-2.816858602538264,0.1330619270727159
-0.05993750000000003,-2.820622334278004,0.1368400205333038
-0.05987500000000001,-2.820622334278006,0.1368400205333055
-0.05981249999999999,-2.82438606601775,0.1368400205333073
-0.05975000000000003,-2.82814979775749,0.1406181139938951
-0.0596875,-2.824386066017748,0.1406181139938951
-0.05962499999999998,-2.831913529497232,0.1443962074544848
-0.05956250000000002,-2.831913529497232,0.1443962074544848
-0.0595,-2.82814979775749,0.1443962074544848
-0.05943750000000003,-2.82814979775749,0.1443962074544848
-0.05937500000000001,-2.831913529497232,0.1481743009150744
-0.05931250000000002,-2.831913529497232,0.1481743009150744
-0.05925000000000002,-2.835677261236975,0.151952394375664
-0.0591875,-2.835677261236975,0.151952394375664
-0.05912500000000001,-2.835677261236975,0.151952394375664
-0.05906250000000002,-2.843204724716459,0.1557304878362536
-0.05900000000000002,-2.843204724716459,0.1557304878362536
-0.0589375,-2.843204724716459,0.1557304878362536
-0.05887500000000001,-2.839440992976717,0.1595085812968432
-0.05881250000000002,-2.839440992976717,0.1595085812968432
-0.05875000000000002,-2.843204724716459,0.1595085812968432
-0.0586875,-2.843204724716459,0.1632866747574328
-0.05862500000000001,-2.843204724716459,0.1632866747574328
-0.05856250000000002,-2.843204724716459,0.1670647682180224
-0.05850000000000002,-2.846968456456201,0.1670647682180224
-0.0584375,-2.850732188195943,0.170842861678612
-0.05837500000000001,-2.846968456456201,0.170842861678612
-0.05831250000000002,-2.846968456456201,0.170842861678612
-0.05825000000000002,-2.850732188195943,0.170842861678612
-0.0581875,-2.854495919935685,0.1746209551392016
-0.05812500000000001,-2.854495919935685,0.1746209551392016
-0.05806250000000002,-2.854495919935685,0.1783990485997912
-0.05800000000000002,-2.854495919935685,0.1783990485997912
-0.0579375,-2.858259651675428,0.1821771420603808
-0.05787500000000001,-2.858259651675428,0.1821771420603808
-0.05781250000000002,-2.854495919935685,0.1821771420603808
-0.05775000000000002,-2.858259651675428,0.1859552355209704
-0.0576875,-2.858259651675428,0.1859552355209704
-0.05762500000000001,-2.858259651675428,0.18973332898156
-0.05756250000000002,-2.858259651675428,0.18973332898156
-0.05750000000000002,-2.86202338341517,0.1935114224421496
-0.0574375,-2.86202338341517,0.1935114224421496
-0.05737500000000001,-2.865787115154912,0.1935114224421496
-0.05731250000000002,-2.865787115154912,0.1972895159027392
-0.05725000000000002,-2.869550846894654,0.1972895159027392
-0.0571875,-2.869550846894654,0.2010676093633288
-0.05712500000000001,-2.873314578634396,0.2010676093633288
-0.05706250000000002,-2.869550846894654,0.2048457028239184
-0.05700000000000002,-2.865787115154912,0.2048457028239184
-0.0569375,-2.869550846894654,0.2048457028239184
-0.05687500000000001,-2.877078310374138,0.208623796284508
-0.05681250000000002,-2.877078310374138,0.208623796284508
-0.05675000000000002,-2.877078310374138,0.2124018897450976
-0.0566875,-2.877078310374138,0.2124018897450976
-0.05662500000000001,-2.873314578634396,0.2124018897450976
-0.05656250000000002,-2.877078310374138,0.2161799832056872
-0.05650000000000002,-2.877078310374138,0.2161799832056872
-0.0564375,-2.880842042113881,0.2199580766662768
-0.05637500000000001,-2.884605773853623,0.2199580766662768
-0.05631250000000002,-2.884605773853623,0.2199580766662768
-0.05625000000000002,-2.888369505593365,0.2199580766662768
-0.0561875,-2.884605773853623,0.2237361701268664
-0.05612500000000001,-2.884605773853623,0.2237361701268664
-0.05606250000000002,-2.884605773853623,0.2275142635874561
-0.05600000000000002,-2.884605773853623,0.2275142635874561
-0.0559375,-2.888369505593365,0.2312923570480457
-0.05587500000000001,-2.888369505593365,0.2312923570480457
-0.05581250000000001,-2.884605773853623,0.2350704505086353
-0.05575000000000002,-2.892133237333107,0.2350704505086353
-0.0556875,-2.895896969072849,0.2350704505086353
-0.05562500000000001,-2.899660700812591,0.2388485439692249
-0.05556250000000001,-2.895896969072849,0.2388485439692249
-0.05550000000000002,-2.895896969072849,0.2426266374298145
-0.0554375,-2.903424432552334,0.2426266374298145
-0.05537500000000001,-2.899660700812591,0.2464047308904041
-0.05531250000000001,-2.899660700812591,0.2464047308904041
-0.05525000000000002,-2.899660700812591,0.2501828243509937
-0.0551875,-2.899660700812591,0.2501828243509937
-0.05512500000000001,-2.903424432552334,0.2539609178115833
-0.05506250000000001,-2.907188164292076,0.2539609178115833
-0.05500000000000002,-2.910951896031818,0.2539609178115833
-0.0549375,-2.910951896031818,0.2577390112721729
-0.05487500000000001,-2.907188164292076,0.2577390112721729
-0.05481250000000001,-2.907188164292076,0.2615171047327625
-0.05475000000000002,-2.910951896031818,0.2615171047327625
-0.0546875,-2.91471562777156,0.2652951981933521
-0.05462500000000001,-2.91471562777156,0.2652951981933521
-0.05456250000000001,-2.910951896031818,0.2690732916539417
-0.05450000000000002,-2.910951896031818,0.2690732916539417
-0.0544375,-2.91471562777156,0.2690732916539417
-0.05437500000000001,-2.922243091251044,0.2728513851145313
-0.05431250000000001,-2.986226530826661,0.2728513851145313
-0.05425000000000002,-3.072792360840731,0.2766294785751209
-0.0541875,-3.129248336936863,0.2766294785751209
-0.05412500000000001,-3.196995508252222,0.2804075720357105
-0.05406250000000001,-3.234632825649644,0.2804075720357105
-0.05400000000000002,-3.238396557389386,0.2841856654963001
-0.0539375,-2.624908283811414,0.2841856654963001
-0.05387500000000001,-2.474359014221727,0.2841856654963001
-0.05381250000000001,-2.478122745961469,0.2879637589568897
-0.05375000000000002,-2.474359014221727,0.2879637589568897
-0.0536875,-2.474359014221727,0.2917418524174793
-0.05362500000000001,-2.474359014221727,0.2917418524174793
-0.05356250000000001,-2.470595282481984,0.2955199458780689
-0.05350000000000002,-2.474359014221727,0.2955199458780689
-0.0534375,-2.474359014221727,0.2955199458780689
-0.05337500000000001,-2.474359014221727,0.2992980393386585
-0.05331250000000001,-2.478122745961469,0.2992980393386585
-0.05325000000000002,-2.478122745961469,0.2992980393386585
-0.0531875,-2.478122745961469,0.3030761327992481
-0.05312500000000001,-2.474359014221727,0.3030761327992481
-0.05306250000000001,-2.474359014221727,0.3068542262598377
-0.05300000000000002,-2.474359014221727,0.3068542262598377
-0.0529375,-2.474359014221727,0.3106323197204273
-0.05287500000000001,-2.478122745961469,0.3106323197204273
-0.05281250000000001,-2.474359014221727,0.3106323197204273
-0.05275000000000002,-2.478122745961469,0.3144104131810169
-0.0526875,-2.478122745961469,0.3144104131810169
-0.05262500000000001,-2.478122745961469,0.3181885066416065
-0.05256250000000001,-2.478122745961469,0.3219666001021961
-0.05250000000000002,-2.478122745961469,0.3219666001021961
-0.0524375,-2.478122745961469,0.3257446935627857
-0.052375,-2.481886477701211,0.3257446935627857
-0.05231250000000001,-2.481886477701211,0.3257446935627857
-0.05225000000000002,-2.478122745961469,0.3295227870233753
-0.0521875,-2.478122745961469,0.3295227870233753
-0.052125,-2.481886477701211,0.3333008804839649
-0.05206250000000001,-2.481886477701211,0.3333008804839649
-0.05200000000000002,-2.478122745961469,0.3370789739445545
-0.0519375,-2.478122745961469,0.3408570674051442
-0.051875,-2.478122745961469,0.3408570674051442
-0.05181250000000001,-2.481886477701211,0.3446351608657338
-0.05175000000000002,-2.481886477701211,0.3446351608657338
-0.0516875,-2.481886477701211,0.3446351608657338
-0.051625,-2.481886477701211,0.3484132543263234
-0.05156250000000001,-2.481886477701211,0.352191347786913
-0.05150000000000002,-2.481886477701211,0.352191347786913
-0.05143750000000002,-2.481886477701211,0.352191347786913
-0.051375,-2.481886477701211,0.3559694412475026
-0.05131250000000001,-2.481886477701211,0.3559694412475026
-0.05125000000000002,-2.478122745961469,0.3597475347080922
-0.05118750000000002,-2.478122745961469,0.3635256281686818
-0.051125,-2.481886477701211,0.3635256281686818
-0.05106250000000001,-2.481886477701211,0.3673037216292714
-0.05100000000000002,-2.481886477701211,0.3673037216292714
-0.05093750000000002,-2.485650209440953,0.3673037216292714
-0.050875,-2.481886477701211,0.371081815089861
-0.05081250000000001,-2.481886477701211,0.371081815089861
-0.05075000000000002,-2.478122745961469,0.3748599085504506
-0.05068750000000002,-2.478122745961469,0.3786380020110402
-0.050625,-2.481886477701211,0.3786380020110402
-0.05056250000000001,-2.481886477701211,0.3786380020110402
-0.05050000000000002,-2.481886477701211,0.3824160954716298
-0.05043750000000002,-2.481886477701211,0.3824160954716298
-0.050375,-2.481886477701211,0.3861941889322194
-0.05031250000000001,-2.481886477701211,0.3861941889322194
-0.05025000000000002,-2.478122745961469,0.3861941889322194
-0.05018750000000002,-2.481886477701211,0.389972282392809
-0.050125,-2.478122745961469,0.3937503758533986
-0.05006250000000001,-2.481886477701211,0.3937503758533986
-0.05000000000000002,-2.481886477701211,0.3975284693139882
-0.04993750000000002,-2.481886477701211,0.3975284693139882
-0.049875,-2.481886477701211,0.3975284693139882
-0.04981250000000001,-2.481886477701211,0.4013065627745778
-0.04975000000000002,-2.485650209440953,0.4013065627745778
-0.04968750000000002,-2.481886477701211,0.4050846562351674
-0.049625,-2.481886477701211,0.4050846562351674
-0.04956250000000001,-2.481886477701211,0.408862749695757
-0.04950000000000002,-2.481886477701211,0.4126408431563466
-0.04943750000000002,-2.481886477701211,0.4126408431563466
-0.049375,-2.481886477701211,0.4164189366169362
-0.04931250000000001,-2.481886477701211,0.4164189366169362
-0.04925000000000002,-2.481886477701211,0.4201970300775258
-0.04918750000000002,-2.485650209440953,0.4201970300775258
-0.049125,-2.485650209440953,0.4201970300775258
-0.04906250000000001,-2.485650209440953,0.4239751235381155
-0.04900000000000002,-2.481886477701211,0.4277532169987051
-0.04893750000000002,-2.481886477701211,0.4277532169987051
-0.048875,-2.481886477701211,0.4315313104592947
-0.04881250000000001,-2.481886477701211,0.4315313104592947
-0.04875000000000002,-2.485650209440953,0.4353094039198843
-0.04868750000000002,-2.485650209440953,0.4353094039198843
-0.048625,-2.485650209440953,0.4390874973804739
-0.04856250000000001,-2.489413941180695,0.4390874973804739
-0.04850000000000002,-2.489413941180695,0.4428655908410635
-0.04843750000000002,-2.485650209440953,0.4466436843016531
-0.048375,-2.485650209440953,0.4466436843016531
-0.04831250000000001,-2.485650209440953,0.4466436843016531
-0.04825000000000002,-2.489413941180695,0.4504217777622427
-0.04818750000000002,-2.493177672920437,0.4541998712228323
-0.048125,-2.493177672920437,0.4541998712228323
-0.04806250000000001,-2.493177672920437,0.4579779646834219
-0.04800000000000001,-2.489413941180695,0.4617560581440115
-0.04793750000000002,-2.493177672920437,0.4617560581440115
-0.047875,-2.493177672920437,0.4617560581440115
-0.04781250000000001,-2.493177672920437,0.4655341516046011
-0.04775000000000001,-2.493177672920437,0.4655341516046011
-0.04768750000000002,-2.49694140466018,0.4693122450651907
-0.047625,-2.500705136399922,0.4693122450651907
-0.04756250000000001,-2.508232599879406,0.4730903385257803
-0.04750000000000001,-2.579743502934507,0.4730903385257803
-0.04743750000000002,-2.621144552071671,0.4768684319863699
-0.047375,-2.658781869469093,0.4768684319863699
-0.04731250000000001,-2.703946650345999,0.4806465254469595
-0.04725000000000001,-2.737820236003678,0.4806465254469595
-0.04718750000000002,-2.767930089921616,0.4844246189075491
-0.047125,-2.801803675579295,0.4844246189075491
-0.04706250000000001,-2.82814979775749,0.4882027123681387
-0.04700000000000001,-2.564688575975539,0.4882027123681387
-0.04693750000000002,-1.947436570657823,0.4919808058287283
-0.046875,-1.954964034137308,0.4919808058287283
-0.04681250000000001,-1.954964034137308,0.4957588992893179
-0.04675000000000001,-1.954964034137308,0.4957588992893179
-0.04668750000000002,-1.954964034137308,0.4995369927499075
-0.046625,-1.954964034137308,0.4995369927499075
-0.04656250000000001,-1.954964034137308,0.5033150862104971
-0.04650000000000001,-1.954964034137308,0.5033150862104971
-0.04643750000000002,-1.954964034137308,0.5070931796710867
-0.046375,-1.954964034137308,0.5070931796710867
-0.04631250000000001,-1.954964034137308,0.5108712731316764
-0.04625000000000001,-1.954964034137308,0.5146493665922659
-0.04618750000000002,-1.95872776587705,0.5184274600528556
-0.046125,-1.95872776587705,0.5184274600528556
-0.04606250000000001,-1.95872776587705,0.5222055535134451
-0.04600000000000001,-1.954964034137308,0.5259836469740348
-0.04593750000000002,-1.954964034137308,0.5259836469740348
-0.045875,-1.95872776587705,0.5297617404346243
-0.04581250000000001,-1.962491497616792,0.5297617404346243
-0.04575000000000001,-1.95872776587705,0.5297617404346243
-0.04568750000000002,-1.95872776587705,0.533539833895214
-0.045625,-1.962491497616792,0.533539833895214
-0.04556250000000001,-1.962491497616792,0.5373179273558035
-0.04550000000000001,-1.962491497616792,0.5373179273558035
-0.04543750000000002,-1.95872776587705,0.5410960208163932
-0.045375,-1.962491497616792,0.5448741142769827
-0.04531250000000001,-1.962491497616792,0.5448741142769827
-0.04525000000000001,-1.966255229356534,0.5486522077375724
-0.04518750000000002,-1.966255229356534,0.5486522077375724
-0.045125,-1.966255229356534,0.5486522077375724
-0.04506250000000001,-1.970018961096276,0.5524303011981619
-0.04500000000000001,-1.973782692836018,0.5562083946587516
-0.04493750000000002,-1.973782692836018,0.5562083946587516
-0.044875,-1.970018961096276,0.5562083946587516
-0.04481250000000001,-1.973782692836018,0.5599864881193412
-0.04475000000000001,-1.970018961096276,0.5637645815799308
-0.04468750000000002,-1.973782692836018,0.5637645815799308
-0.044625,-1.973782692836018,0.5675426750405204
-0.0445625,-1.973782692836018,0.5675426750405204
-0.04450000000000001,-1.973782692836018,0.57132076850111
-0.04443750000000002,-1.977546424575761,0.57132076850111
-0.044375,-1.977546424575761,0.5750988619616996
-0.0443125,-1.981310156315503,0.5750988619616996
-0.04425000000000001,-1.981310156315503,0.5788769554222892
-0.04418750000000002,-1.981310156315503,0.5788769554222892
-0.044125,-1.981310156315503,0.5826550488828788
-0.0440625,-1.985073888055245,0.5826550488828788
