Module3/data/exp1/2N3904/2000.11.12.exp_3-1-2_1kOhm_I_E_V_BE.csv

#Digilent WaveForms Oscilloscope Acquisition
#Device Name: Discovery2
#Serial Number: SN:210321AC1D4D
#Date Time: 2020-11-12 16:22:13.522
#Sample rate: 202429Hz
#Samples: 8192
#Trigger: Source: Channel 1 Type: Edge Condition: Rising Level: 0 V Hyst.: Auto HoldOff: 0 s
#Channel 1: Range: 1 V/div Offset: 0 V Attenuation: 1 X
#Channel 2: Range: 200 mV/div Offset: 0 V Attenuation: 1 X
#Wavegen Channel 1: Running
#Mode: Simple
#Type: Triangle
#Frequency: 100 Hz
#Period: 10 ms
#Amplitude: 2 V
#Offset: -2 V
#Symmetry: 50 %
#Phase: 0 ¡Æ
#Power Supplies: ON
#Positive Supply: ON
#Voltage: 5 V
#Negative Supply: ON
#Voltage: -5 V

Time (s),Channel 1 (V),Channel 2 (V)
-0.02023424,0.9403446453507448,0.6664614039620704
-0.0202293,0.9365593074642716,0.6664614039620704
-0.02022436,0.9327739695777986,0.6661158296475643
-0.02021942,0.9252032938048487,0.6661158296475642
-0.02021448,0.9252032938048487,0.6657702553330582
-0.02020954,0.9214179559183738,0.6654246810185519
-0.0202046,0.9176326180319007,0.6654246810185519
-0.02019966,0.913847280145424,0.665770255333058
-0.02019472,0.9062766043724778,0.6650791067040459
-0.02018978,0.9024912664860025,0.6650791067040458
-0.02018484,0.9024912664860025,0.6650791067040458
-0.0201799,0.8949205907130539,0.6650791067040457
-0.02017496,0.8949205907130537,0.6647335323895396
-0.02017002,0.8873499149401075,0.6650791067040457
-0.02016508,0.8835645770536306,0.6643879580750335
-0.02016014,0.8797792391671574,0.6640423837605274
-0.0201552,0.8759939012806821,0.6643879580750335
-0.02015026,0.8759939012806821,0.6643879580750335
-0.02014532,0.8722085633942063,0.6643879580750334
-0.02014038,0.86463788762126,0.6640423837605273
-0.02013544,0.8608525497347836,0.6636968094460212
-0.0201305,0.8570672118483105,0.6636968094460212
-0.02012556,0.8532818739618347,0.6636968094460211
-0.02012062,0.8494965360753616,0.6633512351315149
-0.02011568,0.8419258603024153,0.6633512351315149
-0.02011074,0.8381405224159385,0.6633512351315149
-0.0201058,0.8381405224159385,0.6630056608170088
-0.02010086,0.8305698466429894,0.6630056608170087
-0.02009592,0.8267845087565162,0.6626600865025027
-0.02009098,0.822999170870041,0.6626600865025025
-0.02008604,0.822999170870041,0.6623145121879964
-0.0200811,0.8192138329835649,0.6626600865025025
-0.02007616,0.8116431572106185,0.6623145121879964
-0.02007122,0.8078578193241437,0.6623145121879964
-0.02006628,0.8078578193241437,0.6623145121879964
-0.02006134,0.8002871435511975,0.6616233635589843
-0.0200564,0.7965018056647204,0.6616233635589841
-0.02005146,0.7927164677782472,0.6616233635589841
-0.02004652,0.7889311298917714,0.661277789244478
-0.02004158,0.7851457920052983,0.661277789244478
-0.02003664,0.7775751162323488,0.6612777892444779
-0.0200317,0.7775751162323488,0.6605866406154657
-0.02002676,0.7737897783458727,0.6605866406154656
-0.02002182,0.7662191025729264,0.6605866406154656
-0.02001688,0.7662191025729235,0.6605866406154656
-0.02001194,0.7586484267999772,0.6605866406154656
-0.020007,0.754863088913504,0.6602410663009596
-0.02000206,0.7510777510270282,0.6598954919864533
-0.01999712,0.7472924131405551,0.6602410663009594
-0.01999218,0.7435070752540792,0.6598954919864533
-0.01998724,0.7397217373676062,0.6595499176719473
-0.0199823,0.7397217373676034,0.6592043433574409
-0.01997736,0.728365723708184,0.6592043433574409
-0.01997242,0.7283657237081813,0.6592043433574408
-0.01996748,0.7245803858217081,0.6588587690429348
-0.01996254,0.7207950479352323,0.6585131947284286
-0.0199576,0.7170097100487592,0.6585131947284286
-0.01995266,0.709439034275809,0.6585131947284286
-0.01994772,0.7056536963893359,0.6585131947284286
-0.01994278,0.7056536963893359,0.6585131947284286
-0.01993784,0.7018683585028613,0.6574764717849101
-0.0199329,0.6980830206163882,0.6578220460994162
-0.01992796,0.6942976827299123,0.6574764717849101
-0.01992302,0.6905123448434393,0.6574764717849101
-0.01991808,0.682941669070489,0.657130897470404
-0.01991314,0.679156331184016,0.657130897470404
-0.0199082,0.6791563311840134,0.6571308974704038
-0.01990326,0.6715856554110671,0.6564397488413917
-0.01989832,0.6678003175245912,0.6564397488413917
-0.01989338,0.664014979638118,0.6564397488413917
-0.01988844,0.6602296417516448,0.6564397488413917
-0.0198835,0.6564443038651691,0.6560941745268855
-0.01987856,0.6526589659786959,0.6557486002123795
-0.01987362,0.64887362809222,0.6557486002123794
-0.01986868,0.645088290205747,0.6554030258978732
-0.01986374,0.6413029523192711,0.655403025897873
-0.0198588,0.637517614432798,0.6550574515833669
-0.01985386,0.6299469386598489,0.6550574515833668
-0.01984892,0.6299469386598489,0.6547118772688608
-0.01984398,0.6261616007733732,0.6547118772688607
-0.01983904,0.6223762628869002,0.6543663029543546
-0.0198341,0.618590925000427,0.6543663029543546
-0.01982916,0.6148055871139512,0.6536751543253423
-0.01982422,0.6110202492274781,0.6536751543253423
-0.01981928,0.6072349113410023,0.6540207286398484
-0.01981434,0.6034495734545291,0.6533295800108363
-0.0198094,0.5958788976815796,0.65298400569633
-0.01980446,0.5958788976815796,0.65298400569633
-0.01979952,0.58830822190863,0.6529840056963298
-0.01979458,0.5845228840221568,0.6522928570673177
-0.01978964,0.5807375461356822,0.6526384313818236
-0.0197847,0.5807375461356822,0.6519472827528114
-0.01977976,0.5769522082492091,0.6519472827528114
-0.01977482,0.5731668703627331,0.6519472827528114
-0.01976988,0.5655961945897868,0.6519472827528114
-0.01976494,0.5655961945897844,0.6512561341237991
-0.01976,0.5618108567033112,0.6509105598092931
-0.01975506,0.5542401809303611,0.650910559809293
-0.01975012,0.5504548430438879,0.650910559809293
-0.01974518,0.5466695051574121,0.6505649854947867
-0.01974024,0.542884167270939,0.6502194111802807
-0.0197353,0.5390988293844632,0.6502194111802806
-0.01973036,0.53531349149799,0.6498738368657745
-0.01972542,0.5277428157250438,0.6498738368657745
-0.01972048,0.5239574778385666,0.6495282625512683
-0.01971554,0.5201721399520935,0.6495282625512683
-0.0197106,0.5163868020656177,0.6491826882367622
-0.01970566,0.5126014641791445,0.6488371139222561
-0.01970072,0.5126014641791424,0.6488371139222558
-0.01969578,0.5050307884061962,0.6484915396077499
-0.01969084,0.5050307884061924,0.6484915396077497
-0.0196859,0.493674774746773,0.6481459652932436
-0.01968096,0.4936747747467709,0.6478003909787374
-0.01967602,0.4898894368602977,0.6474548166642313
-0.01967108,0.4861040989738246,0.6471092423497252
-0.01966614,0.4823187610873487,0.6471092423497251
-0.0196612,0.4747480853144024,0.6471092423497251
-0.01965626,0.4747480853143998,0.6464180937207128
-0.01965132,0.4709627474279267,0.6460725194062068
-0.01964638,0.4671774095414509,0.6460725194062067
-0.01964144,0.4633920716549778,0.6457269450917006
-0.0196365,0.4558213958820276,0.6457269450917005
-0.01963156,0.4520360579955545,0.6457269450917005
-0.01962662,0.4482507201090797,0.6453813707771942
-0.01962168,0.4482507201090797,0.6446902221481821
-0.01961674,0.444465382222604,0.6446902221481819
-0.0196118,0.4406800443361308,0.6443446478336758
-0.01960686,0.4331093685631845,0.6443446478336758
-0.01960192,0.4293240306767079,0.6439990735191696
-0.01959698,0.4293240306767079,0.6436534992046636
-0.01959204,0.4255386927902325,0.6436534992046635
-0.0195871,0.4179680170172861,0.6433079248901574
-0.01958216,0.4141826791308097,0.6433079248901572
-0.01957722,0.4103973412443365,0.6429623505756512
-0.01957228,0.4103973412443341,0.6426167762611449
-0.01956734,0.4028266654713878,0.6422712019466389
-0.0195624,0.3990413275849118,0.6419256276321327
-0.01955746,0.3952559896984386,0.6419256276321327
-0.01955252,0.3876853139254923,0.6415800533176266
-0.01954758,0.3838999760390154,0.6412344790031204
-0.01954264,0.3801146381525422,0.6408889046886143
-0.0195377,0.3763293002660664,0.640543330374108
-0.01953276,0.3725439623795933,0.6401977560596019
-0.01952782,0.3725439623795918,0.6401977560596017
-0.01952288,0.3687586244931186,0.6398521817450957
-0.01951794,0.3649732866066419,0.6395066074305893
-0.019513,0.3574026108336956,0.6388154588015772
-0.01950806,0.3536172729472208,0.6388154588015771
-0.01950312,0.3536172729472208,0.638469884487071
-0.01949818,0.3498319350607477,0.638124310172565
-0.01949324,0.3460465971742716,0.6381243101725649
-0.0194883,0.3384759214013253,0.6377787358580588
-0.01948336,0.3346905835148495,0.6370875872290463
-0.01947842,0.3384759214013227,0.6367420129145404
-0.01947348,0.3271199077419003,0.636396438600034
-0.01946854,0.3271199077419003,0.636396438600034
-0.0194636,0.323334569855425,0.6360508642855277
-0.01945866,0.3195492319689519,0.6357052899710217
-0.01945372,0.3157638940824761,0.6353597156565154
-0.01944878,0.3119785561960028,0.6350141413420094
-0.01944384,0.3044078804230567,0.6346685670275033
-0.0194389,0.3044078804230539,0.6343229927129971
-0.01943396,0.3006225425365808,0.633631844083985
-0.01942902,0.296837204650105,0.6332862697694785
-0.01942408,0.2930518667636319,0.6332862697694785
-0.01941914,0.289266528877156,0.6325951211404661
-0.0194142,0.2854811909906829,0.63224954682596
-0.01940926,0.2854811909906805,0.6322495468259599
-0.01940432,0.2779105152177342,0.6319039725114539
-0.01939938,0.2703398394447849,0.6312128238824415
-0.01939444,0.2703398394447849,0.6308672495679354
-0.0193895,0.2665545015583118,0.6305216752534293
-0.01938456,0.2627691636718359,0.6301761009389231
-0.01937962,0.2551984878988896,0.629830526624417
-0.01937468,0.2551984878988867,0.6291393779954045
-0.01936974,0.2476278121259404,0.6291393779954045
-0.0193648,0.2438424742394631,0.6284482293663921
-0.01935986,0.2362717984665169,0.6281026550518861
-0.01935492,0.2362717984665157,0.6274115064228736
-0.01934998,0.2362717984665157,0.6270659321083676
-0.01934504,0.2287011226935648,0.6267203577938611
-0.0193401,0.2211304469206185,0.6260292091648491
-0.01933516,0.2173451090341453,0.625338060535837
-0.01933022,0.2173451090341438,0.6253380605358367
-0.01932528,0.2135597711476707,0.6243013375923185
-0.01932034,0.2097744332611945,0.6239557632778121
-0.0193154,0.2022037574882482,0.623610188963306
-0.01931046,0.198418419601771,0.6229190403342936
-0.01930552,0.1908477438288246,0.6225734660197875
-0.01930058,0.1870624059423491,0.622227891705281
-0.01929564,0.1870624059423491,0.6211911687617628
-0.0192907,0.1794917301694003,0.6208455944472564
-0.01928576,0.1794917301694003,0.6201544458182443
-0.01928082,0.1757063922829247,0.6194632971892317
-0.01927588,0.1719210543964516,0.6187721485602196
-0.01927094,0.1681357165099784,0.6184265742457136
-0.019266,0.1643503786235026,0.6184265742457133
-0.01926106,0.1605650407370295,0.617044276987689
-0.01925612,0.1529943649640793,0.6163531283586763
-0.01925118,0.1492090270776062,0.6156619797296642
-0.01924624,0.1454236891911304,0.6149708311006516
-0.0192413,0.1416383513046572,0.6142796824716396
-0.01923636,0.1378530134181824,0.6135885338426268
-0.01923142,0.1378530134181824,0.6125518108991086
-0.01922648,0.1302823376452312,0.6118606622700959
-0.01922154,0.122711661872285,0.6108239393265777
-0.0192166,0.1189263239858118,0.6101327906975657
-0.01921166,0.1151409860993363,0.609441642068553
-0.01920672,0.1151409860993363,0.6084049191250348
-0.01920178,0.1075703103263871,0.6073681961815161
-0.01919684,0.1037849724399139,0.606677047552504
-0.0191919,0.09999963455343885,0.6056403246089851
-0.01918696,0.09999963455343885,0.6046036016654669
-0.01918202,0.09621429666696352,0.603566878721948
-0.01917708,0.09242895878049037,0.6025301557784299
-0.01917214,0.0848582830075402,0.6011478585204046
-0.0191672,0.08107294512106707,0.5994199869478744
-0.01916226,0.08107294512106707,0.5994199869478744
-0.01915732,0.07350226934811811,0.5976921153753434
-0.01915238,0.06971693146164497,0.5963098181173192
-0.01914744,0.06593159357516917,0.5949275208592939
-0.0191425,0.06214625568869601,0.5931996492867637
-0.01913756,0.05836091780222022,0.5914717777142322
-0.01913262,0.05457557991574707,0.5897439061417019
-0.01912768,0.04700490414279785,0.5887071831981827
-0.01912274,0.04700490414279785,0.5869793116256524
-0.0191178,0.03943422836984914,0.5842147171096024
-0.01911286,0.03943422836984914,0.5821412712225661
-0.01910792,0.03186355259690292,0.5800678253355297
-0.01910298,0.02807821471042587,0.5769576565049734
-0.01909804,0.02429287682395272,0.5738474876744188
-0.0190931,0.02429287682395084,0.5714284674728743
-0.01908816,0.01672220105100455,0.5669360013842957
-0.01908322,0.01293686316452797,0.5624435352957137
-0.01907828,0.009151525278054826,0.5572599205781229
-0.01907334,0.005366187391579022,0.5531130288040457
-0.0190684,0.001580849505105876,0.5430913736833701
-0.01906346,0.001580849505102157,0.5289228267886124
-0.01905852,-0.009775164154317279,0.5147542798938641
-0.01905358,-0.005989826267844436,0.4819247200157892
-0.01904864,-0.009775164154317346,0.4494407344521992
-0.0190437,-0.005989826267844201,0.4677561731210201
-0.01903876,-0.002204488381368397,0.5036959018296699
-0.01903382,0.001580849505104747,0.5368710360222512
-0.01902888,0.009151525278054908,0.5524218801750367
-0.01902394,0.01293686316452805,0.5576054948926276
-0.019019,0.01672220105100472,0.562789109610222
-0.01901406,0.02429287682395101,0.5683182986423189
-0.01900912,0.02807821471042607,0.5721196161018879
-0.01900418,0.02807821471042607,0.5745386363034303
-0.01899924,0.0318635525968991,0.5773032308194788
-0.0189943,0.03564889048337502,0.5807589739645415
-0.01898936,0.04321956625632131,0.5828324198515779
-0.01898442,0.04321956625632421,0.5849058657386156
-0.01897948,0.05079024202927049,0.5876704602546641
-0.01897454,0.05079024202927338,0.5890527575126895
-0.0189696,0.05836091780221968,0.5900894804562077
-0.01896466,0.06593159357517046,0.5921629263432453
-0.01895972,0.06971693146164361,0.5942363722302816
-0.01895478,0.07350226934811835,0.5952730951738008
-0.01894984,0.07350226934811835,0.5970009667463311
-0.0189449,0.08107294512106836,0.5987288383188623
-0.01893996,0.0848582830075415,0.5994199869478744
-0.01893502,0.08864362089401465,0.6004567098913924
-0.01893008,0.09242895878049044,0.6018390071494176
-0.01892514,0.0962142966669636,0.6032213044074418
-0.0189202,0.0999996345534394,0.6035668787219485
-0.01891526,0.1037849724399125,0.6049491759799728
-0.01891032,0.103784972439914,0.6056403246089856
-0.01890538,0.1075703103263871,0.6070226218670098
-0.01890044,0.1113556482128629,0.6077137704960226
-0.0188955,0.1151409860993361,0.6087504934395408
-0.01889056,0.122711661872285,0.6097872163830595
-0.01888562,0.1227116618722851,0.6104783650120716
-0.01888068,0.1302823376452313,0.6111695136410837
-0.01887574,0.1340676755317083,0.6125518108991086
-0.0188708,0.1378530134181815,0.6132429595281207
-0.01886586,0.1416383513046573,0.6139341081571333
-0.01886092,0.1454236891911304,0.6146252567861455
-0.01885598,0.1492090270776062,0.6153164054151581
-0.01885104,0.1529943649640794,0.6160075540441702
-0.0188461,0.1605650407370295,0.6170442769876889
-0.01884116,0.1643503786235027,0.6177354256167011
-0.01883622,0.1681357165099773,0.6184265742457136
-0.01883128,0.1681357165099773,0.6187721485602196
-0.01882634,0.1719210543964504,0.6194632971892317
-0.0188214,0.1832770680558749,0.6201544458182443
-0.01881646,0.1870624059423481,0.6205000201327503
-0.01881152,0.1870624059423495,0.6211911687617627
-0.01880658,0.1908477438288227,0.6215367430762688
-0.01880164,0.1984184196017721,0.6222278917052814
-0.0187967,0.1984184196017721,0.6225734660197874
-0.01879176,0.2022037574882484,0.6232646146488
-0.01878682,0.2097744332611947,0.6243013375923181
-0.01878188,0.2097744332611964,0.6246469119068245
-0.01877694,0.2135597711476695,0.6249924862213305
-0.018772,0.2211304469206158,0.6253380605358366
-0.01876706,0.2249157848070927,0.625683634850343
-0.01876212,0.2249157848070927,0.626374783479355
-0.01875718,0.2287011226935674,0.6270659321083676
-0.01875224,0.2324864605800406,0.6274115064228736
-0.0187473,0.2362717984665171,0.62775708073738
-0.01874236,0.2438424742394633,0.6284482293663921
-0.01873742,0.2514131500124132,0.6287938036808985
-0.01873248,0.2514131500124132,0.6291393779954045
-0.01872754,0.2551984878988886,0.629484952309911
-0.0187226,0.2589838257853617,0.6301761009389231
-0.01871766,0.266554501558308,0.6305216752534291
-0.01871272,0.2665545015583107,0.6308672495679354
-0.01870778,0.2703398394447838,0.6312128238824415
-0.01870284,0.2741251773312601,0.6315583981969477
-0.0186979,0.2816958531042063,0.6319039725114538
-0.01869296,0.2854811909906824,0.631903972511454
-0.01868802,0.2854811909906824,0.63224954682596
-0.01868308,0.2892665288771575,0.6329406954549724
-0.01867814,0.2930518667636308,0.6332862697694785
-0.0186732,0.3006225425365798,0.6336318440839849
-0.01866826,0.3006225425365798,0.6339774183984909
-0.01866332,0.3044078804230555,0.6339774183984911
-0.01865838,0.3081932183095286,0.6346685670275032
-0.01865344,0.3119785561960017,0.6346685670275032
-0.0186485,0.3195492319689516,0.6353597156565155
-0.01864356,0.3195492319689516,0.6357052899710216
-0.01863862,0.3233345698554265,0.6360508642855278
-0.01863368,0.3271199077418997,0.6363964386000339
-0.01862874,0.3309052456283771,0.6367420129145402
-0.0186238,0.3422612592877965,0.6367420129145402
-0.01861886,0.3384759214013244,0.6374331615435527
-0.01861392,0.3422612592877975,0.6377787358580587
-0.01860898,0.3498319350607477,0.6377787358580589
-0.01860404,0.353617272947221,0.638469884487071
-0.0185991,0.3611879487201672,0.638469884487071
-0.01859416,0.3574026108336954,0.6388154588015772
-0.01858922,0.3611879487201686,0.6391610331160833
-0.01858428,0.3649732866066449,0.6395066074305895
-0.01857934,0.3725439623795913,0.6398521817450956
-0.0185744,0.3725439623795934,0.6401977560596019
-0.01856946,0.3763293002660665,0.640543330374108
-0.01856452,0.3838999760390157,0.6408889046886141
-0.01855958,0.3838999760390157,0.6408889046886141
-0.01855464,0.3914706518119656,0.6412344790031205
-0.0185497,0.3952559896984387,0.6415800533176265
-0.01854476,0.3952559896984387,0.6419256276321326
-0.01853982,0.4028266654713877,0.6422712019466389
-0.01853488,0.4066120033578609,0.6426167762611449
-0.01852994,0.4103973412443371,0.642616776261145
-0.018525,0.4179680170172834,0.6429623505756511
-0.01852006,0.4179680170172856,0.6429623505756513
-0.01851512,0.4217533549037587,0.6436534992046634
-0.01851018,0.4255386927902345,0.6436534992046636
-0.01850524,0.4293240306767077,0.6439990735191696
-0.0185003,0.4368947064496554,0.6443446478336758
-0.01849536,0.4331093685631823,0.6443446478336758
-0.01849042,0.4406800443361286,0.6446902221481819
-0.01848548,0.4444653822226058,0.6446902221481821
-0.01848054,0.4520360579955521,0.645035796462688
-0.0184756,0.4520360579955545,0.6453813707771944
-0.01847066,0.4558213958820276,0.6457269450917004
-0.01846572,0.4633920716549771,0.6457269450917006
-0.01846078,0.4633920716549771,0.6460725194062067
-0.01845584,0.4709627474279268,0.6464180937207128
-0.0184509,0.4747480853143999,0.6464180937207128
-0.01844596,0.4747480853144014,0.6467636680352191
-0.01844102,0.4785334232008745,0.6471092423497251
-0.01843608,0.4861040989738207,0.6474548166642312
-0.01843114,0.4898894368602978,0.6474548166642313
-0.0184262,0.493674774746771,0.6478003909787374
-0.01842126,0.4974601126332464,0.6478003909787375
-0.01841632,0.4974601126332464,0.6478003909787375
-0.01841138,0.5050307884061958,0.6481459652932438
-0.01840644,0.5088161262926689,0.6484915396077499
-0.0184015,0.5126014641791447,0.648837113922256
-0.01839656,0.5163868020656178,0.648837113922256
-0.01839162,0.5201721399520937,0.6491826882367623
-0.01838668,0.5239574778385667,0.6495282625512683
-0.01838174,0.5315281536115131,0.6498738368657744
-0.0183768,0.53531349149799,0.6498738368657745
-0.01837186,0.5390988293844632,0.6502194111802806
-0.01836692,0.5428841672709387,0.6505649854947868
-0.01836198,0.5428841672709387,0.6509105598092929
-0.01835704,0.5504548430438886,0.6509105598092931
-0.0183521,0.5580255188168348,0.6512561341237991
-0.01834716,0.5580255188168377,0.6512561341237992
-0.01834222,0.5655961945897841,0.6516017084383053
-0.01833728,0.565596194589788,0.6519472827528114
-0.01833234,0.5769522082492075,0.6519472827528114
-0.0183274,0.5731668703627348,0.6522928570673178
-0.01832246,0.5769522082492081,0.6526384313818239
