Module3/data/exp1/2N3904/exp_0.6_1.6_.._4.6_tri_0_5V_100kOhm_100Ohm_IB_VCE.csv

#Digilent WaveForms Oscilloscope Acquisition
#Device Name: Discovery2
#Serial Number: SN:210321AC1D4D
#Date Time: 2020-11-05 17:49:49.335
#Sample rate: 75872.5Hz
#Samples: 8192
#Trigger: Source: Channel 1 Type: Edge Condition: Rising Level: 0 V Hyst.: Auto HoldOff: 0 s
#Channel 1: Range: 1.35 V/div Offset: 0 V Attenuation: 1 X
#Channel 2: Range: 155 mV/div Offset: 0 V Attenuation: 1 X
#Wavegen Channel 1: Running
#Mode: Simple
#Type: Triangle
#Frequency: 200 Hz
#Period: 5 ms
#Amplitude: 2.5 V
#Offset: 2.5 V
#Symmetry: 50 %
#Phase: 90 ¡Æ
#Wavegen Channel 2: Running
#Mode: Simple
#Type: stair.txt
#Frequency: 40 Hz
#Period: 25 ms
#Amplitude: 2 V
#Offset: 2.6 V
#Phase: 0 ¡Æ

Time (s),Channel 1 (V),Channel 2 (V)
-0.03621864,0.1227116618722807,0.5824868455370722
-0.03620546,0.09621429666697112,0.5824868455370722
-0.03619228,0.06971693146164755,0.58179569690806
-0.0361791,0.04321956625632398,0.5817956969080599
-0.03616592,0.01672220105100079,0.5817956969080598
-0.03615274,-0.005989826267850395,0.5811045482790476
-0.03613956,-0.04005786724610562,0.5811045482790476
-0.03612638,-0.06276989456495663,0.5814501225935537
-0.0361132,-0.08926725977027988,0.5804133996500352
-0.03610002,-0.1157646249756034,0.5811045482790476
-0.03608684,-0.1422619901809131,0.5811045482790476
-0.03607366,-0.1649740174997628,0.5800678253355291
-0.03606048,-0.1952567205915601,0.5804133996500352
-0.0360473,-0.2217540857968837,0.5804133996500351
-0.03603412,-0.2482514510022066,0.5793766767065167
-0.03602094,-0.2709634783210434,0.5793766767065167
-0.03600776,-0.2974608435263661,0.5790311023920105
-0.03599458,-0.3239582087316896,0.5779943794484921
-0.0359814,-0.3466702360505389,0.5776488051339858
-0.03596822,-0.3731676012558615,0.5766120821904671
-0.03595504,-0.3958796285746983,0.5752297849324429
-0.03594186,-0.4223769937800212,0.5728107647308996
-0.03592868,-0.4450890210988699,0.5700461702148499
-0.0359155,-0.4640157105312446,0.565553704126269
-0.03590232,-0.4867277378500814,0.5596789407796666
-0.03588914,-0.5018690893959823,0.5524218801750366
-0.03587596,-0.5170104409418815,0.542745799368863
-0.03586278,-0.5245811167148315,0.5303051240466395
-0.0358496,-0.5359371303742549,0.5168277257808972
-0.03583642,-0.5435078061472005,0.5019680302571382
-0.03582324,-0.5510784819201502,0.4867627604188652
-0.03581006,-0.5548638198066251,0.4698296190080612
-0.03579688,-0.5586491576931006,0.4532420519117633
-0.0357837,-0.5662198334660462,0.4359633361864621
-0.03577052,-0.566219833466048,0.4179934718321396
-0.03575734,-0.5737905092389968,0.4000236074778169
-0.03574416,-0.5737905092389972,0.3820537431234942
-0.03573098,-0.5775758471254711,0.3640838787691713
-0.0357178,-0.5775758471254711,0.34507729147134
-0.03570462,-0.5813611850119452,0.3271074271170171
-0.03569144,-0.5851465228984198,0.3077552655046697
-0.03567826,-0.5851465228984198,0.2887486782068284
-0.03566508,-0.5851465228984198,0.2697420909089971
-0.0356519,-0.5851465228984198,0.251081077925662
-0.03563872,-0.588931860784894,0.2324200649423268
-0.03562554,-0.5927171986713685,0.2134134776444856
-0.03561236,-0.5927171986713685,0.1950980389756566
-0.03559918,-0.5927171986713685,0.1760914516778253
-0.035586,-0.5927171986713685,0.1577760130089962
-0.03557282,-0.5927171986713686,0.1391150000256612
-0.03555964,-0.5965025365578429,0.1207995613568324
-0.03554646,-0.5965025365578429,0.1031752713170252
-0.03553328,-0.6002878744443166,0.08589655559171484
-0.0355201,-0.6002878744443172,0.06896341418091072
-0.03550692,-0.6040732123307913,0.05306699571362533
-0.03549374,-0.6002878744443172,0.03820730018985884
-0.03548056,-0.6002878744443172,0.02507547623862995
-0.03546738,-0.6040732123307913,0.01332594954541867
-0.0354542,-0.6040732123307915,0.004341017368257131
-0.03544102,-0.6002878744443172,-0.001533745978347844
-0.03542784,-0.6002878744443182,-0.003607191865383597
-0.03541466,-0.604073212330791,0.000194125594182662
-0.03540148,-0.6002878744443173,0.007105611884306276
-0.0353883,-0.6040732123307914,0.01712726700498625
-0.03537512,-0.6002878744443172,0.02922236801270383
-0.03536194,-0.6002878744443172,0.0433909149074508
-0.03534876,-0.6002878744443172,0.05894175906022973
-0.03533558,-0.6002878744443172,0.07518375184202133
-0.0353224,-0.6002878744443172,0.09211689325282543
-0.03530922,-0.6002878744443163,0.1093956089781359
-0.03529604,-0.5965025365578436,0.1273654733324491
-0.03528286,-0.5965025365578429,0.1453353376867718
-0.03526968,-0.5927171986713685,0.1636507763556007
-0.0352565,-0.5927171986713685,0.1826573636534419
-0.03524332,-0.5927171986713685,0.2009728023222611
-0.03523014,-0.5889318607848946,0.2199793896201023
-0.03521696,-0.5927171986713685,0.2386404026034374
-0.03520378,-0.5851465228984203,0.2576469899012787
-0.0351906,-0.5889318607848932,0.2763080028846138
-0.03517742,-0.5851465228984205,0.2949690158679391
-0.03516424,-0.5813611850119457,0.3143211774802864
-0.03515106,-0.5775758471254711,0.3333277647781277
-0.03513788,-0.5775758471254704,0.3516432034469565
-0.0351247,-0.5737905092389977,0.3699586421157758
-0.03511152,-0.5737905092389968,0.3882740807846047
-0.03509834,-0.5700051713525225,0.4062439451389275
-0.03508516,-0.5662198334660477,0.4242138094932502
-0.03507198,-0.562434495579572,0.4421836738475726
-0.0350588,-0.5548638198066264,0.4591168152583678
-0.03504562,-0.551078481920151,0.4760499566691718
-0.03503244,-0.547293144033676,0.4926375237654697
-0.03501926,-0.5397224682607265,0.5078427936037425
-0.03500608,-0.5321517924877808,0.5220113404984896
-0.0349929,-0.5207957788283574,0.5358343130787379
-0.03497972,-0.5056544272824588,0.5468926911429368
-0.03496654,-0.498083751509508,0.5562231976346041
-0.03495336,-0.4791570620771333,0.563134683924728
-0.03494018,-0.4564450347582965,0.5679727243278122
-0.034927,-0.4337330074394476,0.5721196161018868
-0.03491382,-0.4110209801205988,0.5748842106179366
-0.03490064,-0.3845236149152758,0.5759209335614552
-0.03488746,-0.3618115875964261,0.5776488051339861
-0.03487428,-0.3353142223911165,0.5783399537629981
-0.0348611,-0.3088168571857929,0.5786855280775044
-0.03484792,-0.2861048298669436,0.5793766767065167
-0.03483474,-0.2596074646616201,0.5793766767065168
-0.03482156,-0.2331100994563105,0.5800678253355289
-0.03480838,-0.2066127342509869,0.580067825335529
-0.0347952,-0.1801153690456634,0.580067825335529
-0.03478202,-0.1536180038403393,0.5804133996500354
-0.03476884,-0.1233353007485437,0.5811045482790475
-0.03475566,-0.1044086113161797,0.5807589739645415
-0.03474248,-0.07412590822438327,0.5807589739645413
-0.0347293,-0.05141388090553362,0.5807589739645413
-0.03471612,-0.0211311778137366,0.5811045482790477
-0.03470294,0.001580849505100216,0.5814501225935536
-0.03468976,0.02807821471042288,0.5814501225935537
-0.03467658,0.0583609178022208,0.5814501225935537
-0.0346634,0.08107294512107042,0.5821412712225661
-0.03465022,0.1113556482128671,0.5821412712225661
-0.03463704,0.1340676755317039,0.5821412712225661
-0.03462386,0.1643503786235009,0.5817956969080599
-0.03461068,0.1870624059423503,0.5824868455370722
-0.0345975,0.2135597711476739,0.5824868455370722
-0.03458432,0.2400571363529835,0.5824868455370722
-0.03457114,0.2665545015583071,0.5828324198515784
-0.03455796,0.2968372046501049,0.5824868455370722
-0.03454478,0.3195492319689542,0.5828324198515784
-0.0345316,0.3460465971742769,0.5831779941660844
-0.03451842,0.3687586244931137,0.5828324198515785
-0.03450524,0.3952559896984366,0.5831779941660845
-0.03449206,0.4217533549037601,0.5831779941660845
-0.03447888,0.4482507201090837,0.5835235684805907
-0.0344657,0.4747480853143933,0.5831779941660846
-0.03445252,0.5050307884061906,0.5835235684805907
-0.03443934,0.5277428157250406,0.5838691427950968
-0.03442616,0.558025518816838,0.5838691427950968
-0.03441298,0.5807375461356875,0.5835235684805908
-0.0343998,0.6072349113409972,0.5842147171096029
-0.03438662,0.6337322765463208,0.5838691427950968
-0.03437344,0.6602296417516442,0.5845602914241093
-0.03436026,0.6867270069569679,0.584214717109603
-0.03434708,0.7132243721622905,0.5838691427950971
-0.0343339,0.7359363994811273,0.5845602914241091
-0.03432072,0.7662191025729244,0.584214717109603
-0.03430754,0.7927164677782479,0.584214717109603
-0.03429436,0.8154284950970974,0.5845602914241093
-0.03428118,0.841925860302407,0.5845602914241093
-0.034268,0.8684232255077305,0.5852514400531215
-0.03425482,0.8949205907130541,0.5845602914241093
-0.03424164,0.9214179559183777,0.5849058657386154
-0.03422846,0.9479153211237011,0.5852514400531215
-0.03421528,0.9744126863290108,0.5845602914241094
-0.0342021,1.000910051534334,0.5852514400531216
-0.03418892,1.031192754626132,0.5852514400531216
-0.03417574,1.053904781944982,0.5852514400531217
-0.03416256,1.084187485036765,0.5855970143676276
-0.03414938,1.110684850242089,0.5855970143676277
-0.0341362,1.137182215447413,0.5859425886821339
-0.03412302,1.159894242766262,0.5855970143676277
-0.03410984,1.19017694585806,0.5855970143676277
-0.03409666,1.216674311063369,0.5855970143676277
-0.03408348,1.243171676268693,0.5859425886821339
-0.0340703,1.265883703587542,0.58628816299664
-0.03405712,1.292381068792866,0.58628816299664
-0.03404394,1.318878433998175,0.58628816299664
-0.03403076,1.345375799203499,0.58628816299664
-0.03401758,1.368087826522348,0.58628816299664
-0.0340044,1.398370529614146,0.58628816299664
-0.03399122,1.424867894819469,0.5862881629966401
-0.03397804,1.447579922138306,0.5866337373111461
-0.03396486,1.474077287343628,0.5866337373111462
-0.03395168,1.504359990435426,0.5866337373111462
-0.0339385,1.530857355640749,0.5866337373111462
-0.03392532,1.553569382959586,0.5866337373111462
-0.03391214,1.583852086051383,0.5869793116256523
-0.03389896,1.606564113370232,0.5869793116256523
-0.03388578,1.63684681646203,0.5869793116256523
-0.0338726,1.65955884378088,0.5869793116256523
-0.03385942,1.689841546872662,0.5869793116256523
-0.03384624,1.712553574191513,0.5869793116256523
-0.03383306,1.739050939396836,0.5873248859401585
-0.03381988,1.769333642488633,0.5873248859401585
-0.0338067,1.792045669807483,0.5869793116256524
-0.03379352,1.818543035012793,0.5873248859401585
-0.03378034,1.845040400218116,0.5876704602546647
-0.03376716,1.87153776542344,0.5873248859401585
-0.03375398,1.898035130628764,0.5876704602546647
-0.0337408,1.924532495834073,0.5876704602546647
-0.03372762,1.951029861039397,0.5876704602546647
-0.03371444,1.981312564131195,0.5880160345691708
-0.03370126,2.007809929336517,0.5876704602546649
-0.03368808,2.030521956655368,0.5883616088836768
-0.0336749,2.060804659747151,0.5873248859401587
-0.03366172,2.083516687066001,0.5883616088836769
-0.03364854,2.113799390157799,0.5883616088836771
-0.03363536,2.140296755363122,0.588016034569171
-0.03362218,2.166794120568432,0.5883616088836769
-0.033609,2.193291485773755,0.5883616088836771
-0.03359582,2.219788850979079,0.5883616088836771
-0.03358264,2.242500878297928,0.5887071831981832
-0.03356946,2.268998243503251,0.5887071831981832
-0.03355628,2.291710270822088,0.5887071831981832
-0.0335431,2.321992973913884,0.5883616088836771
-0.03352992,2.344705001232734,0.5887071831981832
-0.03351674,2.371202366438058,0.5887071831981832
-0.03350356,2.401485069529841,0.5887071831981832
-0.03349038,2.424197096848691,0.5890527575126894
-0.0334772,2.454479799940489,0.5887071831981832
-0.03346402,2.480977165145812,0.5890527575126894
-0.03345084,2.507474530351135,0.5887071831981833
-0.03343766,2.530186557669972,0.5890527575126893
-0.03342448,2.556683922875294,0.5890527575126894
-0.0334113,2.586966625967092,0.5890527575126894
-0.03339812,2.609678653285942,0.5893983318271955
-0.03338494,2.636176018491251,0.5890527575126895
-0.03337176,2.662673383696575,0.5893983318271955
-0.03335858,2.689170748901898,0.5890527575126894
-0.0333454,2.715668114107222,0.5897439061417016
-0.03333222,2.742165479312546,0.5890527575126895
-0.03331904,2.768662844517855,0.5893983318271954
-0.03330586,2.791374871836704,0.5897439061417017
-0.03329268,2.821657574928502,0.5893983318271955
-0.0332795,2.848154940133826,0.5893983318271955
-0.03326632,2.874652305339148,0.5897439061417017
-0.03325314,2.897364332657985,0.5897439061417017
-0.03323996,2.927647035749782,0.5897439061417017
-0.03322678,2.954144400955106,0.5897439061417017
-0.0332136,2.980641766160429,0.5900894804562078
-0.03320042,3.003353793479266,0.5897439061417018
-0.03318724,3.033636496571062,0.5900894804562079
-0.03317406,3.060133861776387,0.5900894804562079
-0.03316088,3.08663122698171,0.5897439061417018
-0.0331477,3.113128592187033,0.5904350547707139
-0.03313452,3.139625957392343,0.590089480456208
-0.03312134,3.169908660484141,0.590435054770714
-0.03310816,3.19262068780299,0.5897439061417018
-0.03309498,3.219118053008313,0.5907806290852201
-0.0330818,3.24183008032715,0.5904350547707141
-0.03306862,3.268327445532473,0.5900894804562079
-0.03305544,3.294824810737796,0.5907806290852202
-0.03304226,3.32132217594312,0.590435054770714
-0.03302908,3.347819541148444,0.5907806290852201
-0.0330159,3.374316906353753,0.5904350547707141
-0.03300272,3.400814271559077,0.590435054770714
-0.03298954,3.4273116367644,0.5907806290852202
-0.03297636,3.453809001969724,0.5904350547707141
-0.03296318,3.480306367175033,0.5907806290852201
-0.03295,3.506803732380357,0.5911262033997263
-0.03293682,3.53330109758568,0.5911262033997263
-0.03292364,3.537086435472152,0.590435054770714
-0.03291046,3.506803732380355,0.590435054770714
-0.03289728,3.480306367175045,0.590435054770714
-0.0328841,3.453809001969721,0.5900894804562079
-0.03287092,3.423526298877924,0.590435054770714
-0.03285774,3.400814271559074,0.590435054770714
-0.03284456,3.370531568467292,0.590435054770714
-0.03283138,3.344034203261967,0.590435054770714
-0.0328182,3.317536838056643,0.5900894804562079
-0.03280502,3.29103947285132,0.5904350547707139
-0.03279184,3.264542107645996,0.5897439061417018
-0.03277866,3.238044742440686,0.5904350547707139
-0.03276548,3.215332715121837,0.5900894804562079
-0.0327523,3.188835349916514,0.5897439061417017
-0.03273912,3.162337984711191,0.5900894804562079
-0.03272594,3.139625957392341,0.5897439061417017
-0.03271276,3.113128592187031,0.5897439061417017
-0.03269958,3.082845889095234,0.5900894804562079
-0.0326864,3.472735691402126,0.3022260764725495
-0.03267322,3.949688265097857,-0.001879320292853596
-0.03266004,3.930761575665492,-0.001188171663841549
-0.03264686,3.904264210460171,-0.0008425973493352668
-0.03263368,3.870196169481898,-0.0004970230348290646
-0.0326205,3.843698804276574,-0.0004970230348290213
-0.03260732,3.813416101184777,-0.0001514487203229824
-0.03259414,3.786918735979467,-0.000497023034829006
-0.03258096,3.760421370774143,-0.0001514487203229179
-0.03256778,3.730138667682346,-0.0001514487203228991
-0.0325546,3.707426640363496,-0.0001514487203229602
-0.03254142,3.680929275158187,-0.0004970230348289837
-0.03252824,3.654431909952863,-0.0001514487203229401
-0.03251506,3.624149206861065,-0.0004970230348290637
-0.03250188,3.597651841655742,-0.000151448720322938
-0.0324887,3.571154476450419,-0.0004970230348289857
-0.03247552,3.548442449131582,-0.0001514487203229623
-0.03246234,3.518159746039786,-0.0001514487203228991
-0.03244916,3.495447718720936,-0.0004970230348290646
-0.03243598,3.468950353515612,-0.0004970230348290079
-0.0324228,3.442452988310303,-0.0001514487203229845
-0.03240962,3.415955623104979,-0.0004970230348290193
-0.03239644,3.389458257899656,-0.0001514487203229046
-0.03238326,3.362960892694332,-0.0001514487203228991
-0.03237008,3.336463527489008,-0.0001514487203228991
-0.0323569,3.306180824397225,-0.0001514487203228991
-0.03234372,3.283468797078375,-0.000497023034829037
-0.03233054,3.256971431873052,-0.0001514487203229115
-0.03231736,3.226688728781254,-0.0004970230348290124
-0.03230418,3.203976701462417,-0.0001514487203229888
-0.032291,3.177479336257095,-0.0001514487203228991
-0.03227782,3.154767308938246,-0.0001514487203228991
-0.03226464,3.128269943732922,-0.0001514487203228991
-0.03225146,3.097987240641125,-0.0001514487203229692
-0.03223828,3.071489875435815,-0.0004970230348289926
-0.0322251,3.044992510230491,-0.0004970230348290646
-0.03221192,3.018495145025168,-0.0004970230348290646
-0.03219874,2.991997779819844,-0.0004970230348290167
-0.03218556,2.965500414614521,-0.0001514487203229869
-0.03217238,2.939003049409211,-0.0004970230348290104
-0.0321592,2.916291022090361,-0.0004970230348290646
-0.03214602,2.886008318998564,-0.0004970230348290389
-0.03213284,2.85951095379324,-0.0001514487203229647
-0.03211966,2.833013588587931,-0.0004970230348289883
-0.03210648,2.802730885496133,-0.0001514487203229356
-0.0320933,2.780018858177283,-0.0001514487203228991
-0.03208012,2.753521492971961,-0.0001514487203228991
-0.03206694,2.73080946565311,-0.0001514487203228991
-0.03205376,2.700526762561327,-0.0001514487203228991
-0.03204058,2.674029397356003,-0.0001514487203228991
-0.0320274,2.64753203215068,-0.0001514487203228991
-0.03201422,2.62482000483183,-0.0001514487203229604
-0.03200104,2.598322639626521,-0.0004970230348289839
-0.03198786,2.568039936534723,-0.00015144872032294
-0.03197468,2.541542571329399,-0.0001514487203228991
-0.0319615,2.51883054401055,-0.0001514487203228991
-0.03194832,2.492333178805227,-0.0001514487203228991
-0.03193514,2.465835813599917,-0.0001514487203228991
-0.03192196,2.439338448394593,-0.0001514487203228991
-0.03190878,2.409055745302796,-0.0001514487203228991
-0.0318956,2.386343717983946,-0.0001514487203228991
-0.03188242,2.356061014892163,-0.0001514487203228991
-0.03186924,2.333348987573313,-0.0001514487203228991
-0.03185606,2.303066284481515,-0.0001514487203228991
-0.03184288,2.276568919276192,-0.0001514487203228991
-0.0318297,2.253856891957343,-0.0001514487203228991
-0.03181652,2.227359526752033,-0.0001514487203228991
-0.03180334,2.200862161546709,-0.0001514487203228991
-0.03179016,2.174364796341386,-0.0001514487203228991
-0.03177698,2.147867431136062,-0.0001514487203228467
-0.0317638,2.121370065930752,0.0001941255941831768
-0.03175062,2.094872700725429,-0.0001514487203228495
-0.03173744,2.068375335520106,-0.0001514487203228991
-0.03172426,2.041877970314782,-0.0001514487203228991
-0.03171108,2.015380605109457,-0.0001514487203229693
-0.0316979,1.985097902017675,-0.0004970230348289929
-0.03168472,1.962385874698825,-0.000151448720322931
-0.03167154,1.932103171607027,-0.0004970230348290646
-0.03165836,1.909391144288177,-0.0004970230348290646
-0.03164517999999999,1.879108441196381,-0.0004970230348290646
-0.031632,1.856396413877544,-0.0004970230348290646
-0.03161882,1.826113710785747,-0.0001514487203229133
-0.03160564,1.803401683466898,-0.0004970230348290387
-0.03159246,1.776904318261573,-0.0001514487203228991
-0.03157928,1.746621615169791,-0.0001514487203228991
-0.0315661,1.723909587850941,-0.0001514487203228991
-0.03155292,1.697412222645617,-0.0004970230348290609
-0.03153974,1.670914857440294,-0.0001514487203228991
-0.03152656,1.64441749223497,-0.0001514487203228991
-0.03151338,1.617920127029661,-0.0001514487203228991
-0.0315002,1.587637423937863,-0.0001514487203228991
-0.03148702,1.561140058732539,-0.0001514487203228991
-0.03147384,1.53842803141369,-0.0001514487203228991
-0.03146066,1.51193066620838,-0.0001514487203228991
-0.03144748,1.485433301003057,-0.0001514487203228991
-0.0314343,1.458935935797733,-0.0001514487203228991
-0.03142112,1.428653232705936,-0.0001514487203228991
-0.03140794,1.405941205387086,-0.00015144872032282
-0.03139476,1.379443840181777,0.0001941255941832036
-0.03138158,1.349161137089979,-0.0001514487203228762
-0.0313684,1.326449109771129,0.0001941255941832494
-0.03135522,1.296166406679332,-0.0001514487203228422
-0.03134204,1.273454379360495,0.0001941255941831814
-0.03132886,1.250742352041646,0.0001941255941832664
-0.03131568,1.224244986836323,0.0001941255941832664
-0.0313025,1.193962283744525,0.0001941255941832317
-0.03128932,1.167464918539203,-0.0001514487203228991
-0.03127614,1.144752891220366,-0.0001514487203228991
-0.03126296,1.114470188128569,0.0001941255941832391
-0.03124978,1.087972822923245,-0.0001514487203228991
-0.0312366,1.061475457717928,-0.0001514487203228991
-0.03122342,1.034978092512605,-0.0001514487203228991
-0.03121024,1.008480727307282,-0.0001514487203228991
