Module3/data/exp1/2N3904/exp_sameasabove_IB_IC.csv

#Digilent WaveForms Oscilloscope Acquisition
#Device Name: Discovery2
#Serial Number: SN:210321AC1D4D
#Date Time: 2020-11-05 18:09:09.192
#Sample rate: 136986Hz
#Samples: 8192
#Trigger: Source: Channel 1 Type: Edge Condition: Rising Level: 0 V Hyst.: Auto HoldOff: 0 s
#Channel 1: Range: 1 V/div Offset: 0 V Attenuation: 1 X
#Channel 2: Range: 200 mV/div Offset: 0 V Attenuation: 1 X
#Wavegen Channel 1: Running
#Mode: Simple
#Type: Triangle
#Frequency: 200 Hz
#Period: 5 ms
#Amplitude: 2.5 V
#Offset: 2.5 V
#Symmetry: 50 %
#Phase: 90 ¡Æ
#Wavegen Channel 2: Running
#Mode: Simple
#Type: stair.txt
#Frequency: 40 Hz
#Period: 25 ms
#Amplitude: 2 V
#Offset: 2.6 V
#Phase: 0 ¡Æ

Time (s),Channel 1 (V),Channel 2 (V)
-0.0092637,0.05457557991574657,0.0001941255941833008
-0.0092564,0.05457557991574657,-0.0001514487203228654
-0.0092491,0.05457557991574657,0.0001941255941832334
-0.0092418,0.05457557991574657,-0.0001514487203228668
-0.0092345,0.05457557991574657,-0.0001514487203228991
-0.0092272,0.05457557991574657,-0.0001514487203228991
-0.0092199,0.05457557991574657,-0.0001514487203228991
-0.0092126,0.05457557991574657,-0.0004970230348290351
-0.0092053,0.05457557991574657,-0.000151448720322928
-0.009198,0.05836091780222062,-0.0001514487203228991
-0.0091907,0.05457557991574687,-0.0001514487203228991
-0.0091834,0.05457557991574657,-0.0004970230348290378
-0.0091761,0.05457557991574657,-0.0001514487203229252
-0.0091688,0.05079024202927249,-0.0001514487203228991
-0.0091615,0.05079024202927221,-0.0001514487203228991
-0.009154199999999999,0.0545755799157463,-0.0004970230348290406
-0.009146899999999999,0.05836091780222067,-0.0001514487203229225
-0.009139599999999999,0.05457557991574682,-0.0001514487203228991
-0.009132299999999999,0.05457557991574657,-0.0001514487203228991
-0.009124999999999999,0.05457557991574657,-0.0004970230348290434
-0.009117699999999999,0.05079024202927243,-0.0001514487203229197
-0.009110399999999999,0.05457557991574635,-0.0001514487203228991
-0.009103099999999999,0.05457557991574657,-0.0001514487203228991
-0.009095799999999999,0.05457557991574657,-0.0001514487203228991
-0.009088499999999999,0.0507902420292724,-0.0001514487203228991
-0.009081199999999999,0.05457557991574638,-0.0001514487203228991
-0.009073899999999999,0.05079024202927239,-0.0001514487203228991
-0.009066599999999999,0.05457557991574639,-0.0001514487203228991
-0.009059299999999999,0.05457557991574657,-0.0001514487203228991
-0.009051999999999999,0.05457557991574657,-0.0001514487203228991
-0.009044699999999999,0.05079024202927236,-0.0001514487203228991
-0.009037399999999999,0.05079024202927221,-0.0001514487203228991
-0.009030099999999999,0.05457557991574644,0.0001941255941832541
-0.009022799999999999,0.05079024202927233,-0.0001514487203228876
-0.009015499999999999,0.05079024202927221,-0.0001514487203228991
-0.009008199999999999,0.05457557991574646,-0.0001514487203228991
-0.009000899999999999,0.05457557991574657,-0.0001514487203228991
-0.008993599999999999,0.05457557991574657,-0.0001514487203228991
-0.008986299999999999,0.05457557991574657,-0.0001514487203228991
-0.008978999999999999,0.05457557991574657,0.000194125594183259
-0.008971699999999999,0.05457557991574657,-0.0001514487203228924
-0.008964399999999999,0.05457557991574657,-0.0004970230348290586
-0.008957099999999999,0.05457557991574657,-0.0001514487203229045
-0.008949799999999999,0.05457557991574657,-0.0001514487203228991
-0.008942499999999999,0.05457557991574657,0.0001941255941832624
-0.008935199999999999,0.05836091780222089,-0.0001514487203228958
-0.008927899999999999,0.0545755799157466,-0.0001514487203228991
-0.008920599999999999,0.05836091780222091,0.0001941255941832645
-0.008913299999999999,0.05457557991574658,0.0001941255941832664
-0.008905999999999999,0.05457557991574657,-0.0001514487203228986
-0.008898699999999999,0.05079024202927221,-0.000151448720322899
-0.008891399999999999,0.05457557991574657,0.0001941255941832656
-0.008884099999999999,0.05457557991574655,-0.0001514487203228991
-0.008876799999999999,0.05079024202927224,-0.0001514487203228991
-0.008869499999999999,0.05457557991574657,-0.0001514487203228991
-0.008862199999999999,0.05457557991574657,-0.0001514487203228991
-0.008854899999999999,0.05457557991574652,-0.0001514487203228991
-0.008847599999999999,0.05079024202927226,-0.0001514487203228991
-0.008840299999999999,0.05457557991574657,-0.0001514487203228935
-0.008832999999999999,0.0545755799157465,0.00019412559418326
-0.008825699999999999,0.05079024202927229,-0.0001514487203228991
-0.008818399999999999,0.05457557991574657,-0.0001514487203228991
-0.008811099999999999,0.05457557991574657,-0.0001514487203228907
-0.008803799999999999,0.05457557991574657,0.0001941255941832573
-0.008796499999999999,0.05457557991574668,-0.0001514487203228991
-0.008789199999999999,0.0583609178022207,-0.0001514487203228886
-0.008781899999999999,0.05079024202927233,0.0001941255941832664
-0.008774599999999999,0.05457557991574657,0.0001941255941832664
-0.008767299999999999,0.05457557991574657,0.0001941255941832538
-0.008759999999999999,0.05457557991574657,-0.0001514487203228859
-0.008752699999999999,0.05457557991574657,0.0001941255941832664
-0.008745399999999999,0.05457557991574673,0.0001941255941832664
-0.008738099999999999,0.05836091780222059,0.0001941255941832664
-0.008730799999999999,0.05079024202927238,0.0001941255941832664
-0.008723499999999999,0.05457557991574675,0.0001941255941832664
-0.008716199999999999,0.05836091780222074,0.000194125594183249
-0.008708899999999999,0.05457557991574637,-0.0001514487203228991
-0.008701599999999999,0.05079024202927242,-0.0001514487203228803
-0.008694299999999999,0.05457557991574657,0.0001941255941832469
-0.008686999999999999,0.05457557991574635,-0.0001514487203228789
-0.008679699999999999,0.05079024202927221,0.0001941255941832664
-0.008672399999999999,0.05079024202927244,0.0001941255941832664
-0.008665099999999998,0.05457557991574657,0.0001941255941832664
-0.008657799999999998,0.05457557991574657,0.0001941255941832664
-0.008650499999999998,0.05457557991574657,0.0001941255941832664
-0.008643199999999998,0.05457557991574657,0.0001941255941832664
-0.008635899999999998,0.05457557991574657,0.0001941255941832664
-0.008628599999999998,0.05457557991574713,0.0001941255941832407
-0.008621299999999998,0.0621462556886947,-0.0001514487203228991
-0.008613999999999998,0.05457557991574627,-0.0001514487203228991
-0.008606699999999998,0.05079024202927251,-0.0001514487203228991
-0.008599399999999998,0.05457557991574657,-0.0001514487203228991
-0.008592099999999998,0.05457557991574657,-0.0001514487203228991
-0.008584799999999998,0.05457557991574657,-0.0001514487203228693
-0.008577499999999998,0.05457557991574657,0.0001941255941832664
-0.008570199999999998,0.05457557991574657,0.0001941255941832352
-0.008562899999999998,0.05457557991574622,-0.0001514487203228991
-0.008555599999999998,0.05079024202927256,-0.0001514487203228339
-0.008548299999999998,0.0545755799157462,0.0005396999086893986
-0.008540999999999998,0.05079024202927258,0.0001941255941832664
-0.008533699999999998,0.05457557991574695,0.0001941255941832664
-0.008526399999999998,0.05836091780222054,0.0001941255941832664
-0.008519099999999998,0.05457557991574657,0.0001941255941832664
-0.008511799999999998,0.05457557991574657,0.0001941255941832664
-0.008504499999999998,0.05457557991574657,0.0001941255941832289
-0.008497199999999998,0.05457557991574657,-0.000151448720322861
-0.008489899999999998,0.05457557991574657,0.0001941255941832664
-0.008482599999999998,0.05457557991574657,0.0001941255941832664
-0.008475299999999998,0.05457557991574657,0.0001941255941832664
-0.008467999999999998,0.05457557991574702,0.0001941255941833073
-0.0084607,0.05836091780222048,0.0005396999086893913
-0.0084534,0.06214625568869484,-0.0001514487203228193
-0.0084461,0.06593159357516921,-0.0001514487203228991
-0.0084388,0.0735022693481175,0.0001941255941832279
-0.0084315,0.08107294512106623,0.0001941255941832664
-0.0084242,0.08864362089401497,-0.000151448720322862
-0.0084169,0.0962142966669637,-0.0001514487203228991
-0.0084096,0.1037849724399124,-0.0001514487203228991
-0.0084023,0.1075703103263872,-0.0001514487203228991
-0.008395,0.09242895878049165,-0.0001514487203228991
-0.0083877,0.08485828300754215,-0.0001514487203228991
-0.0083804,0.07728760723459344,-0.0001514487203228991
-0.0083731,0.0697169314616447,0.0001941255941832341
-0.0083658,0.06214625568869597,-0.0001514487203228675
-0.0083585,0.06214625568869528,0.0001941255941832355
-0.0083512,0.05457557991574723,-0.0001514487203228689
-0.0083439,0.05457557991574657,0.0001941255941832369
-0.0083366,0.05079024202927253,-0.0001514487203228703
-0.0083293,0.05079024202927221,-0.0001514487203228991
-0.008322,0.05079024202927221,0.0001941255941832389
-0.0083147,0.04700490414279814,0.0001941255941832664
-0.0083074,0.05079024202927192,-0.000151448720322873
-0.008300099999999999,0.05079024202927221,-0.0001514487203228991
-0.008292799999999999,0.05079024202927221,0.0005396999086893825
-0.008285499999999999,0.04700490414279811,-0.0001514487203228511
-0.008278199999999999,0.05079024202927195,-0.0001514487203228991
-0.008270899999999999,0.0470049041427981,-0.0001514487203228991
-0.008263599999999999,0.04700490414279785,-0.0001514487203228991
-0.008256299999999999,0.04700490414279785,-0.0001514487203228991
-0.008248999999999999,0.05079024202927199,-0.0001514487203228991
-0.008241699999999999,0.05079024202927221,0.0001941255941832465
-0.008234399999999999,0.05079024202927221,0.0001941255941832664
-0.008227099999999999,0.05079024202927221,-0.0001514487203228807
-0.008219799999999999,0.04700490414279804,-0.0001514487203228991
-0.008212499999999999,0.05079024202927202,0.0001941255941832493
-0.008205199999999999,0.05457557991574639,0.0001941255941832664
-0.008197899999999999,0.05079024202927238,-0.0001514487203228834
-0.008190599999999999,0.04700490414279802,-0.0004970230348290496
-0.008183299999999999,0.05079024202927205,0.0001941255941832377
-0.008175999999999999,0.047004904142798,0.0001941255941832664
-0.008168699999999999,0.04700490414279785,-0.0001514487203228862
-0.008161399999999999,0.05079024202927208,-0.0001514487203228991
-0.008154099999999999,0.05079024202927221,0.0001941255941832548
-0.008146799999999999,0.04700490414279797,-0.0001514487203228882
-0.008139499999999999,0.0507902420292721,-0.0001514487203228991
-0.008132199999999999,0.05079024202927221,-0.0001514487203228991
-0.008124899999999999,0.05079024202927221,0.0001941255941832576
-0.008117599999999999,0.05079024202927221,-0.000151448720322891
-0.008110299999999999,0.05457557991574648,-0.0001514487203228991
-0.008102999999999999,0.05079024202927229,0.0001941255941832597
-0.008095699999999999,0.05079024202927221,0.0001941255941832664
-0.008088399999999999,0.05079024202927221,-0.0001514487203228938
-0.008081099999999999,0.05079024202927221,-0.0001514487203228991
-0.008073799999999999,0.05457557991574653,-0.0001514487203228991
-0.008066499999999999,0.05079024202927224,0.0001941255941832631
-0.008059199999999999,0.05079024202927221,-0.0001514487203228965
-0.008051899999999999,0.04700490414279787,-0.0001514487203228991
-0.008044599999999999,0.04700490414279785,-0.0001514487203228991
-0.008037299999999999,0.0507902420292722,-0.0001514487203228991
-0.008029999999999999,0.04700490414279785,-0.0001514487203228991
-0.008022699999999999,0.05079024202927221,-0.0001514487203228991
-0.008015399999999999,0.05079024202927222,-0.0001514487203228976
-0.008008099999999999,0.05457557991574654,0.0001941255941832642
-0.008000799999999999,0.05079024202927217,-0.0001514487203229021
-0.007993499999999999,0.04700490414279789,-0.0004970230348290646
-0.007986199999999999,0.05079024202927221,-0.0004970230348290603
-0.007978899999999999,0.05079024202927215,-0.0001514487203228991
-0.007971599999999999,0.04700490414279791,-0.0001514487203229048
-0.007964299999999999,0.05079024202927221,-0.0004970230348290582
-0.007956999999999999,0.05079024202927221,-0.0001514487203228991
-0.007949699999999999,0.05079024202927221,-0.0001514487203228991
-0.007942399999999999,0.05079024202927221,-0.0001514487203228991
-0.007935099999999999,0.05079024202927221,-0.0001514487203228991
-0.007927799999999999,0.05079024202927221,-0.0001514487203228991
-0.007920499999999999,0.05079024202927209,-0.0001514487203228991
-0.007913199999999999,0.04700490414279797,-0.0001514487203228991
-0.007905899999999999,0.05079024202927221,-0.0001514487203228991
-0.007898599999999999,0.05079024202927221,-0.0001514487203228991
-0.007891299999999999,0.05079024202927221,-0.0001514487203229124
-0.007883999999999999,0.05079024202927221,-0.0004970230348290506
-0.007876699999999999,0.05079024202927205,-0.0001514487203228991
-0.007869399999999999,0.04700490414279802,-0.0001514487203228991
-0.007862099999999999,0.05079024202927204,-0.0001514487203228831
-0.007854799999999999,0.04700490414279785,0.0001941255941832497
-0.007847499999999999,0.04700490414279804,-0.0001514487203228991
-0.007840199999999999,0.05079024202927221,-0.0001514487203228991
-0.007832899999999999,0.05079024202927221,-0.0001514487203228991
-0.007825599999999999,0.05079024202927242,-0.0001514487203228991
-0.007818299999999999,0.05457557991574635,-0.0001514487203228991
-0.007810999999999999,0.05079024202927243,-0.0001514487203228991
-0.007803699999999999,0.04700490414279807,-0.0001514487203228991
-0.007796399999999999,0.050790242029272,-0.0001514487203228991
-0.007789099999999999,0.05079024202927221,-0.0001514487203228991
-0.007781799999999999,0.05079024202927221,-0.0001514487203228991
-0.007774499999999999,0.05079024202927221,-0.0001514487203228991
-0.007767199999999999,0.04700490414279802,-0.0001514487203228991
-0.007759899999999999,0.04700490414279785,-0.0001514487203228991
-0.007752599999999999,0.05079024202927205,-0.0001514487203228991
-0.007745299999999999,0.05079024202927221,-0.0004970230348290506
-0.007737999999999999,0.05079024202927221,-0.0004970230348290646
-0.007730699999999999,0.05079024202927221,-0.0001514487203229117
-0.007723399999999999,0.05079024202927221,0.0001941255941832545
-0.007716099999999999,0.05079024202927221,-0.0001514487203228879
-0.007708799999999999,0.05079024202927221,-0.0004970230348290541
-0.007701499999999999,0.04700490414279796,-0.0004970230348290646
-0.007694199999999999,0.05457557991574637,-0.0001514487203229083
-0.007686899999999999,0.0507902420292723,-0.0001514487203228991
-0.007679599999999999,0.05079024202927221,-0.0001514487203228991
-0.007672299999999999,0.05079024202927221,-0.0001514487203228991
-0.007664999999999999,0.04700490414279792,-0.0001514487203228991
-0.007657699999999999,0.04700490414279785,-0.0001514487203228991
-0.007650399999999999,0.05079024202927215,-0.0001514487203228991
-0.007643099999999999,0.0470049041427979,-0.0001514487203228991
-0.007635799999999999,0.04700490414279785,-0.0001514487203228991
-0.007628499999999999,0.05079024202927217,-0.0001514487203228991
-0.007621199999999999,0.05079024202927221,-0.0001514487203228991
-0.007613899999999999,0.04700490414279786,-0.0001514487203228991
-0.007606599999999999,0.0507902420292722,-0.0001514487203228991
-0.007599299999999999,0.04700490414279785,-0.0001514487203228991
-0.007591999999999999,0.04700490414279785,-0.0004970230348290646
-0.007584699999999999,0.04700490414279786,-0.0004970230348290634
-0.007577399999999999,0.05079024202927223,-0.0001514487203228991
-0.007570099999999999,0.05457557991574651,-0.0001514487203229017
-0.007562799999999999,0.04700490414279785,-0.0004970230348290646
-0.007555499999999999,0.04700490414279789,-0.0004970230348290607
-0.007548199999999999,0.05079024202927221,-0.0001514487203229037
-0.007540899999999999,0.05079024202927221,-0.0004970230348290646
-0.007533599999999999,0.05079024202927221,-0.0004970230348290587
-0.007526299999999999,0.05079024202927221,-0.0001514487203229058
-0.007518999999999999,0.05079024202927221,-0.0004970230348290646
-0.007511699999999999,0.0507902420292723,-0.0004970230348290566
-0.007504399999999999,0.05457557991574647,-0.0001514487203229079
-0.007497099999999999,0.0507902420292721,-0.0004970230348290646
-0.007489799999999999,0.04700490414279807,-0.0004970230348290545
-0.007482499999999999,0.05457557991574645,-0.0001514487203228991
-0.007475199999999999,0.05079024202927221,-0.0001514487203229107
-0.007467899999999999,0.05079024202927221,-0.0004970230348290524
-0.007460599999999999,0.05079024202927235,-0.000151448720322912
-0.007453299999999999,0.05457557991574642,-0.0004970230348290646
-0.007445999999999999,0.05079024202927221,-0.0004970230348290503
-0.007438699999999999,0.05079024202927238,-0.0001514487203229141
-0.007431399999999999,0.05457557991574639,-0.0004970230348290646
-0.007424099999999999,0.05079024202927221,-0.0004970230348290646
-0.007416799999999999,0.0507902420292724,-0.0004970230348290646
-0.007409499999999999,0.05457557991574637,-0.000497023034829047
-0.007402199999999999,0.05079024202927221,-0.0001514487203228991
-0.007394899999999999,0.05079024202927221,-0.0001514487203229182
-0.007387599999999999,0.05079024202927221,-0.0004970230348290448
-0.007380299999999999,0.05079024202927221,-0.0001514487203229197
-0.007372999999999999,0.05079024202927221,-0.0001514487203228991
-0.007365699999999999,0.05079024202927221,-0.0001514487203228991
-0.007358399999999999,0.05079024202927221,-0.0001514487203228991
-0.007351099999999999,0.05457557991574637,-0.0001514487203228991
-0.007343799999999999,0.04700490414279822,-0.0004970230348290475
-0.007336499999999999,0.05079024202927203,-0.0004970230348290646
-0.007329199999999999,0.05457557991574639,-0.0001514487203229149
-0.007321899999999999,0.05079024202927238,-0.0001514487203228991
-0.007314599999999999,0.04700490414279801,-0.0004970230348290503
-0.007307299999999999,0.05079024202927206,-0.0004970230348290646
-0.007299999999999999,0.05079024202927221,-0.0004970230348290646
-0.007292699999999999,0.05079024202927221,-0.0004970230348290646
-0.007285399999999999,0.05079024202927221,-0.0004970230348290646
-0.007278099999999999,0.05079024202927221,-0.0004970230348290646
-0.007270799999999999,0.05079024202927221,-0.0004970230348290646
-0.007263499999999999,0.05079024202927221,-0.0004970230348290646
-0.007256199999999999,0.05457557991574647,-0.0004970230348290646
-0.007248899999999999,0.0507902420292723,-0.0008425973493352222
-0.007241599999999999,0.05079024202927221,-0.0008425973493352303
-0.007234299999999999,0.05079024202927221,-0.0008425973493352303
-0.007226999999999999,0.05079024202927221,-0.0008425973493352303
-0.007219699999999999,0.05079024202927221,-0.00049702303482907
-0.007212399999999999,0.05079024202927221,-0.0004970230348290646
-0.007205099999999999,0.04700490414279789,-0.0004970230348290646
-0.007197799999999999,0.05079024202927217,-0.0004970230348290646
-0.007190499999999999,0.05079024202927221,-0.0004970230348290646
-0.007183199999999999,0.05079024202927221,-0.0001514487203229011
-0.007175899999999999,0.05079024202927221,-0.0004970230348290634
-0.007168599999999999,0.04700490414279786,-0.0004970230348290646
-0.007161299999999999,0.05079024202927221,-0.0004970230348290645
-0.007153999999999999,0.05079024202927221,-0.0001514487203229
-0.007146699999999999,0.0507902420292722,-0.0004970230348290646
-0.007139399999999999,0.04700490414279785,-0.0004970230348290646
-0.007132099999999999,0.04700490414279788,-0.0004970230348290646
-0.007124799999999999,0.05079024202927217,-0.0004970230348290646
-0.007117499999999999,0.0470049041427979,-0.0004970230348290646
-0.007110199999999999,0.05079024202927221,-0.0004970230348290596
-0.007102899999999999,0.05079024202927215,-0.0001514487203228991
-0.007095599999999999,0.04700490414279799,-0.0001514487203229055
-0.007088299999999999,0.05457557991574642,-0.0004970230348290646
-0.007080999999999999,0.04700490414279793,-0.0004970230348290646
-0.007073699999999999,0.05079024202927221,-0.0004970230348290646
-0.007066399999999999,0.05079024202927221,-0.0004970230348290646
-0.007059099999999999,0.05079024202927221,-0.0004970230348290646
-0.007051799999999999,0.05079024202927221,-0.0004970230348290646
