Module1/20201008 계측 Data/1Mohm4단자osc.csv

#Digilent WaveForms Oscilloscope Acquisition
#Device Name: Discovery2
#Serial Number: SN:210321AC1D4D
#Date Time: 2020-10-08 17:13:19.467
#Sample rate: 1000Hz
#Samples: 9888
#Trigger: Source: Channel 1 Type: Edge Condition: Rising Level: 0 V Hyst.: Auto HoldOff: 0 s
#Channel 1: Range: 5 mV/div Offset: 0 V Attenuation: 1 X
#Channel 2: Range: 1 V/div Offset: 0 V Attenuation: 1 X
#Wavegen Channel 1: Running
#Mode: Simple
#Type: Triangle
#Frequency: 200 mHz
#Period: 5 s
#Amplitude: 1 V
#Offset: 0 V
#Symmetry: 50 %
#Phase: 0 ¡Æ
#Wavegen Channel 2: Running
#Mode: Simple
#Type: Sine
#Frequency: 1 kHz
#Period: 1 ms
#Amplitude: 1 V
#Offset: 0 V
#Symmetry: 50 %
#Phase: 0 ¡Æ

Time (s),Channel 1 (V),Channel 2 (V)
-131.072,0.002540120625917473,0.1179499963387019
-131.071,0.01010488604190862,0.4486198141482678
-131.07,0.01010488604190862,0.4486198141482678
-131.069,0.01044873901536277,0.4486198141482678
-131.068,0.01044873901536277,0.4486198141482678
-131.067,0.01113644496227105,0.452420616651826
-131.066,0.01113644496227105,0.452420616651826
-131.065,0.01113644496227105,0.452420616651826
-131.064,0.01079259198881691,0.452420616651826
-131.063,0.01044873901535776,0.4524206166518813
-131.062,0.01010488604191362,0.4562214191553289
-131.061,0.009761033068454479,0.4562214191553842
-131.06,0.009761033068454479,0.4562214191553842
-131.059,0.009761033068454479,0.4562214191553842
-131.058,0.009761033068454479,0.4600222216589425
-131.057,0.009761033068459482,0.4600222216589425
-131.056,0.01010488604190362,0.4600222216589425
-131.055,0.01044873901536277,0.4638230241625007
-131.054,0.01079259198881691,0.4638230241625007
-131.053,0.01044873901536277,0.4638230241625007
-131.052,0.01079259198881691,0.4638230241625007
-131.051,0.01079259198882692,0.4638230241625007
-131.05,0.01148029793571519,0.4638230241625007
-131.049,0.01148029793572519,0.4676238266660589
-131.048,0.01113644496227105,0.4676238266660589
-131.047,0.01079259198881691,0.4676238266660589
-131.046,0.01044873901535776,0.4676238266661142
-131.045,0.01010488604190862,0.4714246291696171
-131.044,0.01010488604190862,0.4714246291696171
-131.043,0.01010488604190862,0.4714246291696171
-131.042,0.01010488604190862,0.4714246291696171
-131.041,0.01010488604190862,0.4714246291696171
-131.04,0.01010488604191863,0.4752254316731754
-131.039,0.01079259198881691,0.4752254316731754
-131.038,0.01079259198881691,0.4752254316731754
-131.037,0.01079259198881691,0.4790262341767336
-131.036,0.01113644496227105,0.4790262341767336
-131.035,0.01113644496227105,0.4790262341767336
-131.034,0.0114802979357302,0.4790262341767336
-131.033,0.01182415090917934,0.4790262341767889
-131.032,0.01182415090917934,0.4828270366802365
-131.031,0.01148029793572519,0.4828270366802918
-131.03,0.01113644496227105,0.4828270366802918
-131.029,0.01079259198881691,0.4828270366802918
-131.028,0.01044873901535776,0.4866278391838501
-131.027,0.01010488604191362,0.4866278391838501
-131.026,0.01044873901535776,0.4866278391838501
-131.025,0.01044873901536277,0.4866278391838501
-131.024,0.01079259198881691,0.4904286416874083
-131.023,0.01113644496227105,0.4904286416874083
-131.022,0.01113644496227105,0.4904286416874083
-131.021,0.01113644496227105,0.4904286416874083
-131.02,0.01113644496227105,0.4904286416874083
-131.019,0.01148029793572519,0.4942294441909665
-131.018,0.01148029793572519,0.4942294441909665
-131.017,0.01182415090917934,0.4942294441909665
-131.016,0.01216800388263348,0.4942294441910218
-131.015,0.01216800388262347,0.4980302466945247
-131.014,0.0114802979357352,0.4980302466945247
-131.013,0.01148029793572519,0.4980302466945247
-131.012,0.01113644496227105,0.501831049198083
-131.011,0.01079259198881691,0.4980302466945247
-131.01,0.01079259198881691,0.501831049198083
-131.009,0.01079259198881691,0.501831049198083
-131.008,0.01079259198881691,0.501831049198083
-131.007,0.01079259198881691,0.501831049198083
-131.006,0.01148029793572519,0.5056318517016412
-131.005,0.01148029793572519,0.5056318517016412
-131.004,0.0114802979357302,0.5056318517016412
-131.003,0.01182415090917433,0.5056318517016964
-131.002,0.0114802979357302,0.5094326542051442
-131.001,0.01182415090917934,0.5094326542051995
-131,0.01251185685608762,0.5094326542051995
-130.999,0.01251185685608762,0.5094326542051995
-130.998,0.01216800388262848,0.5132334567087576
-130.997,0.01182415090918434,0.5132334567087576
-130.996,0.0114802979357302,0.5132334567087576
-130.995,0.01113644496227105,0.5132334567087576
-130.994,0.01113644496227105,0.5170342592123158
-130.993,0.01113644496227105,0.5170342592123158
-130.992,0.01113644496227105,0.5170342592123158
-130.991,0.01113644496227105,0.5170342592123158
-130.99,0.01148029793572019,0.5170342592123158
-130.989,0.01182415090917934,0.5208350617158741
-130.988,0.01182415090917934,0.5208350617158741
-130.987,0.01182415090917934,0.5208350617158741
-130.986,0.01216800388263348,0.5208350617158741
-130.985,0.01216800388263348,0.5208350617158741
-130.984,0.01251185685608262,0.524635864219377
-130.983,0.01285570982954177,0.5246358642194323
-130.982,0.01285570982954177,0.5246358642194323
-130.981,0.01216800388263348,0.5246358642194323
-130.98,0.01216800388262848,0.5284366667229906
-130.979,0.01182415090918434,0.5284366667229906
-130.978,0.0114802979357302,0.5284366667229906
-130.977,0.01148029793572519,0.5284366667229906
-130.976,0.01148029793572519,0.5322374692265488
-130.975,0.01148029793572519,0.5322374692265488
-130.974,0.0114802979357302,0.5322374692265488
-130.973,0.01182415090917433,0.5322374692265488
-130.972,0.01216800388262848,0.5360382717300517
-130.971,0.01216800388263348,0.536038271730107
-130.97,0.01216800388263348,0.536038271730107
-130.969,0.01251185685608762,0.536038271730107
-130.968,0.01251185685609263,0.5360382717301623
-130.967,0.01285570982953676,0.53983907423361
-130.966,0.01319956280299091,0.5398390742336653
-130.965,0.01285570982954177,0.5398390742336653
-130.964,0.01251185685608762,0.5436398767372235
-130.963,0.01216800388263348,0.5436398767372235
-130.962,0.01216800388262848,0.5436398767372235
-130.961,0.01182415090918434,0.5436398767372235
-130.96,0.01182415090917934,0.5436398767372235
-130.959,0.01182415090917934,0.5436398767372235
-130.958,0.01182415090917934,0.5474406792407817
-130.957,0.01182415090917934,0.5474406792407817
-130.956,0.01251185685608762,0.5474406792407817
-130.955,0.01251185685608762,0.5474406792407817
-130.954,0.01251185685608762,0.5512414817442847
-130.953,0.01285570982954177,0.55124148174434
-130.952,0.01285570982954177,0.55124148174434
-130.951,0.01285570982954177,0.55124148174434
-130.95,0.01354341577645005,0.5550422842478981
-130.949,0.01354341577645005,0.5550422842478981
-130.948,0.01319956280300091,0.5550422842478981
-130.947,0.01285570982954177,0.5550422842478981
-130.946,0.01251185685608762,0.5588430867514564
-130.945,0.01216800388263348,0.5588430867514564
-130.944,0.01216800388263348,0.5588430867514564
-130.943,0.01216800388263348,0.5588430867514564
-130.942,0.01216800388263348,0.5588430867514564
-130.941,0.01216800388263348,0.5588430867514564
-130.94,0.01216800388263348,0.5626438892550146
-130.939,0.01251185685608762,0.5626438892550146
-130.938,0.01285570982954177,0.5626438892550699
-130.937,0.01285570982954177,0.5664446917585175
-130.936,0.01285570982954177,0.5664446917585728
-130.935,0.01285570982954177,0.5664446917585728
-130.934,0.01319956280299591,0.5664446917585728
-130.933,0.0138872687499042,0.5664446917585728
-130.932,0.01388726874989919,0.5702454942621311
-130.931,0.01354341577645506,0.5702454942621311
-130.93,0.01319956280299591,0.5702454942621311
-130.929,0.01285570982954177,0.5702454942621311
-130.928,0.01251185685608762,0.5740462967656893
-130.927,0.01251185685608762,0.5740462967656893
-130.926,0.01251185685608262,0.5740462967656893
-130.925,0.01216800388263848,0.5740462967656893
-130.924,0.01251185685608762,0.5740462967656893
-130.923,0.01285570982954177,0.5778470992692475
-130.922,0.01319956280299591,0.5778470992692475
-130.921,0.01319956280299591,0.5778470992692475
-130.92,0.01319956280299591,0.5778470992692475
-130.919,0.01319956280299591,0.5778470992692475
-130.918,0.01354341577645005,0.5816479017728058
-130.917,0.0138872687499042,0.5816479017728058
-130.916,0.01423112172335834,0.5816479017728058
-130.915,0.01388726874989919,0.5816479017728611
-130.914,0.01354341577644505,0.585448704276364
-130.913,0.01319956280300091,0.585448704276364
-130.912,0.01285570982954177,0.585448704276364
-130.911,0.01285570982954177,0.585448704276364
-130.91,0.01285570982954177,0.585448704276364
-130.909,0.01285570982954177,0.5892495067799223
-130.908,0.01285570982954177,0.5892495067799223
-130.907,0.01285570982954177,0.5892495067799223
-130.906,0.01319956280299591,0.5892495067799223
-130.905,0.01319956280299591,0.5892495067799223
-130.904,0.01354341577645005,0.5930503092834805
-130.903,0.01354341577645506,0.5930503092834805
-130.902,0.0138872687499042,0.5930503092834805
-130.901,0.0138872687499042,0.5930503092834805
-130.9,0.01457497469681248,0.5968511117870386
-130.899,0.01457497469681248,0.5968511117870386
-130.898,0.01423112172335834,0.5968511117870386
-130.897,0.01388726874989919,0.5968511117870386
-130.896,0.01354341577644505,0.5968511117870386
-130.895,0.01319956280300091,0.5968511117870386
-130.894,0.01319956280299591,0.6006519142905969
-130.893,0.01319956280299591,0.6006519142905969
-130.892,0.01319956280299591,0.6006519142905969
-130.891,0.01319956280299591,0.6006519142906522
-130.89,0.01319956280300091,0.6044527167941551
-130.889,0.01354341577644505,0.6044527167941551
-130.888,0.0138872687499042,0.6044527167941551
-130.887,0.0138872687499042,0.6044527167941551
-130.886,0.0138872687499042,0.6044527167941551
-130.885,0.0138872687499092,0.6082535192977133
-130.884,0.01423112172336835,0.6082535192977133
-130.883,0.01491882767025662,0.6082535192977133
-130.882,0.01491882767026662,0.6082535192977133
-130.881,0.01457497469681248,0.6082535192977133
-130.88,0.01423112172335834,0.6120543218012716
-130.879,0.01388726874989919,0.6120543218012716
-130.878,0.01354341577645005,0.6120543218012716
-130.877,0.01354341577645005,0.6120543218012716
-130.876,0.01354341577645005,0.6120543218012716
-130.875,0.01354341577645005,0.6158551243048298
-130.874,0.01354341577645005,0.6158551243048298
-130.873,0.01354341577645506,0.6158551243048851
-130.872,0.01388726874989919,0.6196559268083327
-130.871,0.01423112172335333,0.619655926808388
-130.87,0.01423112172335834,0.619655926808388
-130.869,0.01423112172335834,0.619655926808388
-130.868,0.01423112172335834,0.619655926808388
-130.867,0.01491882767027163,0.6234567293119463
-130.866,0.01526268064371577,0.6234567293119463
-130.865,0.01491882767027163,0.6234567293119463
-130.864,0.01457497469681248,0.6234567293119463
-130.863,0.01423112172335834,0.6272575318155045
-130.862,0.0138872687499042,0.6272575318155045
-130.861,0.0138872687499042,0.6272575318155045
-130.86,0.0138872687499042,0.6272575318155045
-130.859,0.01354341577645506,0.6310583343190075
-130.858,0.01354341577645005,0.6310583343190628
-130.857,0.01423112172335834,0.6310583343190628
-130.856,0.01423112172335834,0.6310583343190628
-130.855,0.01457497469681248,0.6310583343191181
-130.854,0.01457497469681248,0.6348591368225657
-130.853,0.01457497469681248,0.634859136822621
-130.852,0.01457497469681248,0.634859136822621
-130.851,0.01457497469681248,0.634859136822621
-130.85,0.01560653361717491,0.6386599393261791
-130.849,0.01560653361716991,0.6386599393261791
-130.848,0.01526268064372577,0.6386599393261791
-130.847,0.01491882767027163,0.6386599393261791
-130.846,0.01457497469681248,0.6386599393261791
-130.845,0.01423112172335834,0.6424607418297374
-130.844,0.0138872687499042,0.6424607418297374
-130.843,0.01423112172335834,0.6424607418297927
-130.842,0.01423112172335834,0.6462615443332403
-130.841,0.0138872687499092,0.6462615443332956
-130.84,0.01457497469681248,0.6462615443332956
-130.839,0.01457497469681248,0.6462615443332956
-130.838,0.01491882767026662,0.6462615443332956
-130.837,0.01491882767026662,0.6500623468368538
-130.836,0.01491882767026662,0.6500623468368538
-130.835,0.01491882767026662,0.6500623468368538
-130.834,0.01526268064372077,0.6500623468368538
-130.833,0.01595038659062905,0.6500623468368538
-130.832,0.01595038659062905,0.6538631493404121
-130.831,0.01526268064371577,0.6538631493404121
-130.83,0.01491882767027163,0.6538631493404121
-130.829,0.01491882767026662,0.6538631493404121
-130.828,0.01457497469681248,0.6538631493404121
-130.827,0.01457497469681248,0.6576639518439703
-130.826,0.01457497469681248,0.6576639518439703
-130.825,0.01388726874991921,0.6576639518440256
-130.824,0.01491882767025161,0.6614647543474733
-130.823,0.01491882767026662,0.6614647543475286
-130.822,0.01526268064372077,0.6614647543475286
-130.821,0.01526268064372077,0.6614647543475286
-130.82,0.01526268064372077,0.6652655568510868
-130.819,0.01560653361716991,0.6652655568510868
-130.818,0.01526268064372577,0.6652655568510868
-130.817,0.01595038659062905,0.669066359354645
-130.816,0.0162942395640832,0.669066359354645
-130.815,0.01595038659062905,0.669066359354645
-130.814,0.01560653361717491,0.669066359354645
-130.813,0.01526268064371577,0.6690663593547003
-130.812,0.01491882767027163,0.672867161858148
-130.811,0.01491882767026662,0.6728671618582033
-130.81,0.01491882767026662,0.6728671618582033
-130.809,0.01491882767026662,0.6728671618582033
-130.808,0.01491882767026662,0.6766679643617615
-130.807,0.01491882767027163,0.6766679643617615
-130.806,0.01526268064371577,0.6766679643617615
-130.805,0.01560653361717491,0.6766679643617615
-130.804,0.01560653361717491,0.6766679643617615
-130.803,0.01560653361717491,0.6766679643617615
-130.802,0.01560653361717491,0.6804687668653197
-130.801,0.01560653361718992,0.6804687668653197
-130.8,0.01663809253752233,0.6804687668653197
-130.799,0.01663809253753734,0.6804687668653197
-130.798,0.0162942395640832,0.684269569368878
-130.797,0.01595038659062905,0.684269569368878
-130.796,0.01560653361716991,0.684269569368878
-130.795,0.01526268064372077,0.684269569368878
-130.794,0.01526268064372077,0.684269569368878
-130.793,0.01526268064372077,0.6880703718724361
-130.792,0.01491882767026662,0.6880703718724361
-130.791,0.01491882767026662,0.6880703718724361
-130.79,0.01560653361717491,0.6918711743759944
-130.789,0.01560653361717991,0.6918711743759944
-130.788,0.01595038659062405,0.6918711743759944
-130.787,0.01595038659062905,0.6956719768795526
-130.786,0.01595038659062905,0.6956719768795526
-130.785,0.0162942395640832,0.6956719768795526
-130.784,0.0162942395640932,0.6956719768795526
-130.783,0.01698194551098648,0.6956719768795526
-130.782,0.01663809253754234,0.6956719768795526
-130.781,0.0162942395640832,0.6994727793831108
-130.78,0.01595038659062905,0.6994727793831108
-130.779,0.01595038659062905,0.6994727793831108
-130.778,0.01560653361717491,0.6994727793831661
-130.777,0.01560653361717491,0.7032735818866691
-130.776,0.01560653361717491,0.7032735818866691
-130.775,0.01560653361717491,0.7032735818866691
-130.774,0.01560653361717491,0.7032735818866691
-130.773,0.01560653361717491,0.7032735818866691
-130.772,0.01595038659063406,0.7032735818867244
-130.771,0.0162942395640832,0.7070743843902273
-130.77,0.0162942395640832,0.7070743843902273
-130.769,0.0162942395640832,0.7070743843902273
-130.768,0.01663809253753734,0.7108751868937855
-130.767,0.01698194551099148,0.7108751868937855
-130.766,0.01732579848444062,0.7108751868937855
-130.765,0.01698194551098648,0.7108751868937855
-130.764,0.01663809253754234,0.7108751868937855
-130.763,0.0162942395640832,0.7108751868937855
-130.762,0.01595038659062905,0.7146759893973438
-130.761,0.01560653361717491,0.7146759893973438
-130.76,0.01595038659062905,0.7146759893973438
-130.759,0.01595038659062405,0.7146759893973438
-130.758,0.01560653361717991,0.7146759893973438
-130.757,0.0162942395640832,0.718476791900902
-130.756,0.0162942395640832,0.718476791900902
-130.755,0.01663809253753734,0.718476791900902
-130.754,0.01663809253753734,0.718476791900902
-130.753,0.01663809253753734,0.7184767919009573
-130.752,0.01663809253753734,0.722277594404405
-130.751,0.01698194551099148,0.7222775944044603
-130.75,0.01766965145789977,0.7222775944044603
-130.749,0.01766965145789977,0.7222775944044603
-130.748,0.01732579848444062,0.7222775944045156
-130.747,0.01698194551099649,0.7260783969079632
-130.746,0.01663809253754234,0.7260783969080185
-130.745,0.0162942395640832,0.7260783969080185
-130.744,0.0162942395640832,0.7260783969080185
-130.743,0.0162942395640832,0.7298791994115766
-130.742,0.0162942395640832,0.7298791994115766
-130.741,0.0162942395640832,0.7298791994115766
-130.74,0.0162942395640832,0.7298791994115766
-130.739,0.01663809253753734,0.7298791994115766
-130.738,0.01698194551099148,0.7336800019151349
-130.737,0.01698194551099148,0.7336800019151349
-130.736,0.01698194551099148,0.7336800019151349
-130.735,0.01698194551099148,0.7336800019151349
-130.734,0.01732579848444062,0.7336800019151349
-130.733,0.01801350443135391,0.7336800019151349
-130.732,0.01801350443135391,0.7374808044186931
-130.731,0.01732579848444563,0.7374808044186931
-130.73,0.01698194551099148,0.7374808044186931
-130.729,0.01698194551099148,0.7374808044186931
-130.728,0.0162942395640932,0.7374808044186931
-130.727,0.01663809253753734,0.7374808044186931
-130.726,0.01663809253753734,0.7412816069222513
-130.725,0.01663809253753734,0.7412816069222513
-130.724,0.0162942395640932,0.7412816069222513
-130.723,0.01698194551098148,0.7412816069222513
-130.722,0.01732579848444062,0.7412816069222513
-130.721,0.01732579848444563,0.7450824094258096
-130.72,0.01732579848444563,0.7450824094258096
-130.719,0.01732579848444563,0.7488832119293678
-130.718,0.01732579848445563,0.7488832119293678
-130.717,0.01801350443134391,0.7488832119293678
-130.716,0.01835735740480305,0.7488832119293678
-130.715,0.01801350443135391,0.7488832119293678
-130.714,0.01766965145789977,0.752684014432926
-130.713,0.01732579848444563,0.752684014432926
-130.712,0.01698194551099148,0.752684014432926
-130.711,0.01698194551099148,0.752684014432926
-130.71,0.01663809253754234,0.752684014432926
-130.709,0.01698194551099148,0.752684014432926
-130.708,0.0162942395640832,0.7564848169364843
-130.707,0.01732579848444563,0.7564848169364843
-130.706,0.01732579848445063,0.7564848169365396
-130.705,0.01766965145789477,0.7602856194399872
-130.704,0.01766965145789977,0.7602856194400425
-130.703,0.01766965145789977,0.7602856194400425
-130.702,0.01766965145789977,0.7602856194400425
-130.701,0.01766965145789977,0.7640864219436008
-130.7,0.0187012103782622,0.7640864219436008
-130.699,0.0187012103782622,0.7640864219436008
-130.698,0.01835735740481306,0.7640864219436008
-130.697,0.01801350443135391,0.7640864219436008
-130.696,0.01766965145789977,0.767887224447159
-130.695,0.01698194551099148,0.767887224447159
-130.694,0.01732579848444563,0.767887224447159
-130.693,0.01732579848444563,0.767887224447159
-130.692,0.01732579848444563,0.767887224447159
-130.691,0.01732579848444563,0.767887224447159
-130.69,0.01732579848444563,0.7716880269507171
-130.689,0.01766965145789977,0.7716880269507171
-130.688,0.01801350443135391,0.7716880269507171
-130.687,0.01801350443135391,0.7716880269507171
-130.686,0.01801350443135391,0.7754888294542754
-130.685,0.01801350443135391,0.7754888294542754
-130.684,0.01835735740480806,0.7754888294542754
-130.683,0.01904506335171634,0.7792896319578336
-130.682,0.0187012103782572,0.7792896319578336
-130.681,0.01835735740481306,0.7792896319578336
-130.68,0.01801350443135391,0.7792896319578336
-130.679,0.01801350443135391,0.7792896319578336
-130.678,0.01732579848444563,0.7792896319578336
-130.677,0.01766965145789977,0.7830904344613918
-130.676,0.01766965145789977,0.7830904344613918
-130.675,0.01766965145789977,0.7830904344613918
-130.674,0.01766965145789977,0.7868912369649501
-130.673,0.01766965145789977,0.7868912369649501
-130.672,0.01835735740480806,0.7868912369649501
-130.671,0.01835735740480806,0.7868912369650054
-130.67,0.01835735740480806,0.7906920394685083
-130.669,0.01835735740480806,0.7906920394685083
