Module1/20201008 계측 Data/1MOhm_얼음추가_빼기.csv

#Digilent WaveForms Oscilloscope Acquisition
#Device Name: Discovery2
#Serial Number: SN:210321AC1D4D
#Date Time: 2020-10-08 19:48:49.351
#Sample rate: 400Hz
#Samples: 8000
#Trigger: Source: Channel 1 Type: Edge Condition: Rising Level: 0 V Hyst.: Auto HoldOff: 0 s
#Channel 1: Range: 5 mV/div Offset: 0 V Attenuation: 1 X
#Channel 2: Range: 2 V/div Offset: 0 V Attenuation: 1 X
#Wavegen Channel 1: Running
#Mode: Simple
#Type: Triangle
#Frequency: 200 mHz
#Period: 5 s
#Amplitude: 1 V
#Offset: 0 V
#Symmetry: 50 %
#Phase: 0 ¡Æ

Time (s),Channel 1 (V),Channel 2 (V)
14.1,-0.002961526949348816,-0.2507278465064463
14.1025,-0.00330537992280296,-0.2507278465064463
14.105,-0.00296152694934866,-0.246927044002888
14.1075,-0.002617673975894673,-0.246927044002888
14.11,-0.002617673975894673,-0.2431262414993298
14.1125,-0.003649232896256634,-0.2431262414993298
14.115,-0.003993085869711246,-0.2393254389957716
14.1175,-0.005024644790073675,-0.2393254389957716
14.12,-0.003649232896257103,-0.2355246364922133
14.1225,-0.002617673975894517,-0.2355246364922116
14.125,-0.00227382100244053,-0.2317238339886551
14.1275,-0.002961526949348816,-0.2317238339886551
14.13,-0.003305379922802804,-0.2279230314850986
14.1325,-0.004336938843165388,-0.2241222289815387
14.135,-0.004336938843165388,-0.2241222289815387
14.1375,-0.002961526949348816,-0.2203214264779804
14.14,-0.002273821002440843,-0.2203214264779804
14.1425,-0.00227382100244053,-0.2165206239744222
14.145,-0.002961526949348816,-0.2165206239744222
14.1475,-0.00330537992280296,-0.212719821470864
14.15,-0.004336938843165075,-0.2127198214708622
14.1525,-0.003649232896257103,-0.2089190189673057
14.155,-0.00227382100244053,-0.2089190189673057
14.1575,-0.001929968028986544,-0.2051182164637492
14.16,-0.002617673975894673,-0.2051182164637475
14.1625,-0.002961526949348816,-0.2013174139601893
14.165,-0.00330537992280296,-0.2013174139601893
14.1675,-0.004336938843164919,-0.197516611456631
14.17,-0.00330537992280296,-0.197516611456631
14.1725,-0.001929968028986387,-0.1937158089530728
14.175,-0.0015861150555324,-0.1937158089530728
14.1775,-0.002617673975894673,-0.1899150064495146
14.18,-0.002961526949348816,-0.1899150064495146
14.1825,-0.003649232896257103,-0.1899150064495146
14.185,-0.003993085869710465,-0.1861142039459564
14.1875,-0.00227382100244053,-0.1861142039459564
14.19,-0.001586115055532244,-0.1823134014423981
14.1925,-0.001586115055532244,-0.1823134014423981
14.195,-0.002273821002440843,-0.1823134014423964
14.1975,-0.002961526949348816,-0.1785125989388399
14.2,-0.003993085869711246,-0.1785125989388399
14.2025,-0.003305379922803272,-0.1747117964352834
14.205,-0.001586115055532244,-0.1747117964352817
14.2075,-0.001242262082078101,-0.1709109939317235
14.21,-0.001929968028986387,-0.1671101914281652
14.2125,-0.002273821002440843,-0.1671101914281635
14.215,-0.002961526949348816,-0.163309388924607
14.2175,-0.003993085869711246,-0.163309388924607
14.22,-0.002617673975895299,-0.1595085864210505
14.2225,-0.001242262082078101,-0.1595085864210488
14.225,-0.001242262082078101,-0.1595085864210488
14.2275,-0.001929968028986387,-0.1557077839174905
14.23,-0.002273821002440843,-0.1557077839174888
14.2325,-0.002961526949348816,-0.1519069814139323
14.235,-0.00330537992280296,-0.1481061789103741
14.2375,-0.001929968028987013,-0.1481061789103741
14.24,-0.001242262082078101,-0.1443053764068158
14.2425,-0.001242262082078101,-0.1443053764068158
14.245,-0.001929968028986387,-0.1405045739032576
14.2475,-0.002273821002440999,-0.1367037713996994
14.25,-0.00330537992280296,-0.1367037713996994
14.2525,-0.002617673975894673,-0.1329029688961412
14.255,-0.001242262082078726,-0.1329029688961412
14.2575,-0.0005545561351702839,-0.1291021663925829
14.26,-0.001586115055532244,-0.1291021663925829
14.2625,-0.001929968028986387,-0.1253013638890247
14.265,-0.002273821002440374,-0.1253013638890247
14.2675,-0.00330537992280296,-0.1215005613854665
14.27,-0.001929968028986387,-0.1215005613854665
14.2725,-0.0008984091086239579,-0.1176997588819083
14.275,-0.0005545561351702839,-0.1176997588819065
14.2775,-0.001586115055532244,-0.11389895637835
14.28,-0.001929968028986387,-0.11389895637835
14.2825,-0.002617673975894361,-0.1100981538747935
14.285,-0.002961526949348816,-0.1100981538747918
14.2875,-0.001242262082078101,-0.1062973513712336
14.29,-0.0005545561351698148,-0.1024965488676753
14.2925,-0.0008984091086242706,-0.1024965488676736
14.295,-0.001586115055532244,-0.09869574636411711
14.2975,-0.001929968028986387,-0.09869574636411711
14.3,-0.002961526949348347,-0.09489494386056062
14.3025,-0.00227382100244053,-0.09489494386055888
14.305,-0.0005545561351698148,-0.09489494386055888
14.3075,-0.0002107031617156717,-0.09109414135700065
14.31,-0.0008984091086241142,-0.09109414135699892
14.3125,-0.001242262082078101,-0.08729333885344243
14.315,-0.001929968028986387,-0.08729333885344243
14.3175,-0.002961526949348347,-0.08349253634988593
14.32,-0.001586115055531619,-0.08349253634988246
14.3225,-0.0002107031617156717,-0.07969173384632597
14.325,-0.0002107031617156717,-0.07969173384632597
14.3275,-0.0008984091086236452,-0.07589093134276947
14.33,-0.001242262082078101,-0.07589093134276774
14.3325,-0.001929968028986387,-0.07209012883920951
14.335,-0.00227382100244053,-0.07209012883920951
14.3375,-0.0005545561351695021,-0.06828932633564955
14.34,0.0001331498117384714,-0.06448852383209305
14.3425,-0.0002107031617156717,-0.06448852383209305
14.345,-0.0008984091086236452,-0.06068772132853656
14.3475,-0.001242262082078101,-0.06068772132853483
14.35,-0.00227382100244053,-0.0568869188249766
14.3525,-0.001586115055532244,-0.0568869188249766
14.355,-0.0002107031617155153,-0.05308611632141665
14.3575,0.0001331498117384714,-0.04928531381786014
14.36,-0.0002107031617156717,-0.04928531381786014
14.3625,-0.0008984091086236452,-0.04548451131430364
14.365,-0.001242262082078101,-0.04548451131430192
14.3675,-0.00227382100244053,-0.04548451131430192
14.37,-0.0008984091086239579,-0.04168370881074369
14.3725,0.0001331498117386278,-0.03788290630718546
14.375,0.0004770027851926145,-0.03788290630718546
14.3775,-0.0002107031617156717,-0.03408210380362723
14.38,-0.0008984091086236452,-0.03408210380362723
14.3825,-0.001586115055532244,-0.030281301300069
14.385,-0.001586115055532244,-0.030281301300069
14.3875,-0.0002107031617156717,-0.02648049879651078
14.39,0.0004770027851923018,-0.02267969629295427
14.3925,0.0004770027851926145,-0.02267969629295255
14.395,-0.0002107031617156717,-0.01887889378939432
14.3975,-0.0005545561351698148,-0.01887889378939432
14.4,-0.001586115055531931,-0.01507809128583609
14.4025,-0.0008984091086239579,-0.01507809128583609
14.405,0.0001331498117384714,-0.01127728878227786
14.4075,0.0008208557586464448,-0.01127728878227786
14.41,0.0004770027851926145,-0.007476486278719634
14.4125,-0.0002107031617156717,-0.007476486278719634
14.415,-0.0005545561351698148,0.0001251187283968225
14.4175,-0.001586115055531619,0.0001251187283985509
14.42,-0.0002107031617156717,0.003925921231955051
14.4225,0.0008208557586467575,0.003925921231955051
14.425,0.001164708732100744,0.007726723735511551
14.4275,0.0001331498117384714,0.007726723735513279
14.43,-0.0002107031617156717,0.01152752623907151
14.4325,-0.0008984091086239579,0.01152752623907151
14.435,-0.001242262082077319,0.01532832874262974
14.4375,0.0004770027851926145,0.01532832874262974
14.44,0.001164708732100901,0.01912913124618796
14.4425,0.0008208557586469138,0.01912913124618796
14.445,0.000133149811738315,0.02292993374974619
14.4475,-0.0002107031617156717,0.02292993374974619
14.45,-0.001242262082078101,0.02673073625330442
14.4525,-0.0005545561351701275,0.02673073625330442
14.455,0.0008208557586467575,0.03053153875686265
14.4575,0.001164708732100901,0.03433234126042087
14.46,0.001164708732100901,0.03433234126042087
14.4625,0.000133149811738315,0.0381331437639791
14.465,-0.0002107031617156717,0.0381331437639791
14.4675,-0.001242262082078101,0.04193394626753733
14.47,0.0001331498117378462,0.04193394626753733
14.4725,0.001164708732100901,0.04573474877109556
14.475,0.001508561705555044,0.04573474877109556
14.4775,0.0008208557586467575,0.04953555127465379
14.48,0.0004770027851921454,0.04953555127465552
14.4825,-0.0005545561351698148,0.05333635377821202
14.485,-0.0005545561351698148,0.05333635377821202
14.4875,0.0008208557586461322,0.05713715628176852
14.49,0.001508561705555044,0.05713715628177025
14.4925,0.001508561705555044,0.06093795878532848
14.495,0.0008208557586467575,0.0647387612888867
14.4975,0.0004770027851921454,0.06473876128888843
14.5,-0.0005545561351698148,0.06853956379244493
14.5025,0.0001331498117384714,0.06853956379244493
14.505,0.001508561705554419,0.07234036629600142
14.5075,0.00185241467900903,0.07234036629600489
14.51,0.001508561705555044,0.07614116879956138
14.5125,0.0008208557586467575,0.07614116879956138
14.515,0.0004770027851927709,0.07994197130311788
14.5175,-0.0005545561351698148,0.07994197130311961
14.52,0.0008208557586467575,0.08374277380667784
14.5225,0.001852414679009187,0.08754357631023607
14.525,0.002196267652463017,0.08754357631023781
14.5275,0.001508561705555044,0.0913443788137943
14.53,0.0008208557586467575,0.0913443788137943
14.5325,0.0001331498117387841,0.09514518131735079
14.535,0.0001331498117384714,0.09514518131735253
14.5375,0.001508561705555044,0.09894598382091076
14.54,0.00219626765246333,0.09894598382091076
14.5425,0.002196267652462861,0.102746786324469
14.545,0.001164708732100901,0.102746786324469
14.5475,0.0008208557586467575,0.1065475888280272
14.55,-0.0002107031617152027,0.1065475888280272
14.5525,0.0004770027851926145,0.1103483913315854
14.555,0.001852414679009187,0.1103483913315854
14.5575,0.00219626765246333,0.1141491938351437
14.56,0.002196267652463017,0.1141491938351454
14.5625,0.001508561705555044,0.1179499963387019
14.565,0.0008208557586467575,0.1179499963387019
14.5675,-0.0002107031617152027,0.1217507988422584
14.57,0.00116470873210137,0.1217507988422619
14.5725,0.00219626765246333,0.1255516013458184
14.575,0.002540120625917473,0.1255516013458184
14.5775,0.001852414679009499,0.1293524038493749
14.58,0.001508561705555044,0.1293524038493766
14.5825,0.0004770027851926145,0.1331532063529348
14.585,0.0004770027851926145,0.1331532063529348
14.5875,0.001852414679009499,0.136954008856493
14.59,0.002540120625917473,0.136954008856493
14.5925,0.002540120625917473,0.1407548113600513
14.595,0.001852414679009499,0.1407548113600513
14.5975,0.001508561705555044,0.1445556138636095
14.6,0.0001331498117384714,0.1445556138636095
14.6025,0.001164708732100901,0.1483564163671677
14.605,0.002196267652463643,0.1483564163671695
14.6075,0.002883973599371616,0.1521572188707259
14.61,0.002540120625917473,0.1559580213742842
14.6125,0.001852414679009499,0.1559580213742842
14.615,0.001164708732100901,0.1597588238778424
14.6175,0.0004770027851926145,0.1597588238778424
14.62,0.001852414679009187,0.1597588238778424
14.6225,0.002883973599371773,0.1635596263814024
14.625,0.00322782657282576,0.1673604288849589
14.6275,0.00219626765246333,0.1673604288849589
14.63,0.001852414679009343,0.1711612313885154
14.6325,0.001164708732100744,0.1749620338920753
14.635,0.0008208557586467575,0.1749620338920753
14.6375,0.002540120625917473,0.1787628363956336
14.64,0.003227826572825447,0.1787628363956336
14.6425,0.002883973599371616,0.1825636388991918
14.645,0.00219626765246333,0.1825636388991918
14.6475,0.001852414679009187,0.18636444140275
14.65,0.0008208557586470702,0.1863644414027517
14.6525,0.001508561705555044,0.1901652439063082
14.655,0.002883973599371616,0.1901652439063082
14.6575,0.003227826572825603,0.1939660464098648
14.66,0.00322782657282576,0.1939660464098665
14.6625,0.00219626765246333,0.1977668489134247
14.665,0.001852414679009187,0.1977668489134247
14.6675,0.00116470873210137,0.2015676514169829
14.67,0.00219626765246333,0.2015676514169829
14.6725,0.003571679546279902,0.2053684539205411
14.675,0.003571679546279902,0.2091692564240977
14.6775,0.002883973599371616,0.2091692564240994
14.68,0.002540120625917473,0.2129700589276576
14.6825,0.001508561705555044,0.2129700589276576
14.685,0.001508561705555669,0.2167708614312176
14.6875,0.002883973599371616,0.2205716639347741
14.69,0.003571679546279902,0.2205716639347741
14.6925,0.003571679546279902,0.2243724664383306
14.695,0.00288397359937146,0.224372466438334
14.6975,0.002540120625917473,0.2281732689418905
14.7,0.001164708732100901,0.2281732689418905
14.7025,0.002196267652462861,0.231974071445447
14.705,0.003571679546279902,0.2319740714454488
14.7075,0.003915532519734045,0.235774873949007
14.71,0.003571679546279902,0.235774873949007
14.7125,0.002883973599371304,0.2395756764525652
14.715,0.00219626765246333,0.2395756764525652
14.7175,0.001508561705555044,0.2433764789561234
14.72,0.002883973599370991,0.2433764789561234
14.7225,0.003915532519734045,0.2471772814596817
14.725,0.004259385493188188,0.2509780839632399
14.7275,0.00322782657282576,0.2509780839632399
14.73,0.002883973599371304,0.2547788864667981
14.7325,0.00219626765246333,0.2547788864667981
14.735,0.00219626765246333,0.2585796889703563
14.7375,0.003571679546279277,0.2623804914739128
14.74,0.004259385493188188,0.2623804914739146
14.7425,0.004259385493188188,0.2623804914739146
14.745,0.00322782657282576,0.2661812939774728
14.7475,0.002883973599371147,0.2661812939774745
14.75,0.001852414679009187,0.2699820964810311
14.7525,0.002540120625917473,0.2737828989845892
14.755,0.00391553251973342,0.2737828989845892
14.7575,0.004259385493188188,0.273782898984591
14.76,0.004259385493188188,0.2775837014881475
14.7625,0.003571679546279902,0.2775837014881475
14.765,0.002883973599371929,0.281384503991704
14.7675,0.001852414679009187,0.285185306495264
14.77,0.00322782657282576,0.285185306495264
14.7725,0.004259385493188188,0.285185306495264
14.775,0.004603238466642018,0.2889861089988222
14.7775,0.003915532519734045,0.2889861089988222
14.78,0.003571679546279902,0.2927869115023804
14.7825,0.002540120625917942,0.2927869115023804
14.785,0.002540120625917473,0.2965877140059386
14.7875,0.003915532519734045,0.2965877140059386
14.79,0.004603238466642331,0.3003885165094969
14.7925,0.004603238466642018,0.3003885165094969
14.795,0.003915532519734045,0.3003885165094969
14.7975,0.003571679546279902,0.3041893190130551
14.8,0.002196267652463955,0.3041893190130551
14.8025,0.00322782657282576,0.3079901215166133
14.805,0.004603238466642331,0.3079901215166133
14.8075,0.004947091440096475,0.3117909240201716
14.81,0.004259385493188032,0.3117909240201733
14.8125,0.003915532519734045,0.3155917265237298
14.815,0.00322782657282576,0.3155917265237298
14.8175,0.002540120625917786,0.3193925290272863
14.82,0.003915532519734514,0.3193925290272897
14.8225,0.004947091440096475,0.3231933315308462
14.825,0.005290944413550618,0.3231933315308462
14.8275,0.004259385493188658,0.3269941340344028
14.83,0.003915532519734045,0.3269941340344045
14.8325,0.00322782657282576,0.3307949365379627
14.835,0.00322782657282576,0.3345957390415209
14.8375,0.004603238466642645,0.3345957390415226
14.84,0.005290944413550618,0.3383965415450791
14.8425,0.005290944413550618,0.3383965415450791
14.845,0.004259385493188658,0.3421973440486357
14.8475,0.003915532519734045,0.3421973440486374
14.85,0.002883973599371616,0.3459981465521956
14.8525,0.003915532519734045,0.3459981465521956
14.855,0.005290944413550774,0.3497989490557555
14.8575,0.005634797387004761,0.3535997515593121
14.86,0.004947091440096475,0.3535997515593121
14.8625,0.004603238466642488,0.3574005540628686
14.865,0.003915532519734045,0.3574005540628703
14.8675,0.00322782657282576,0.3612013565664285
14.87,0.004603238466642331,0.3612013565664285
14.8725,0.005634797387004761,0.3650021590699867
14.875,0.005634797387004761,0.3650021590699867
14.8775,0.004947091440096475,0.368802961573545
14.88,0.004603238466642488,0.368802961573545
14.8825,0.003571679546279902,0.3726037640771049
14.885,0.003571679546279902,0.3764045665806614
14.8875,0.005290944413550618,0.3764045665806614
14.89,0.005978650360458592,0.3802053690842179
14.8925,0.005290944413550618,0.3802053690842196
14.895,0.004947091440096475,0.3802053690842196
14.8975,0.004603238466642331,0.3840061715877779
14.9,0.003227826572826229,0.3840061715877796
14.9025,0.004259385493188188,0.3878069740913361
14.905,0.005634797387004761,0.3878069740913361
14.9075,0.005978650360458748,0.3916077765948926
14.91,0.005634797387004761,0.3916077765948943
14.9125,0.004947091440096475,0.3954085790984526
14.915,0.004259385493188188,0.3954085790984526
14.9175,0.003571679546280528,0.3992093816020108
14.92,0.004947091440096475,0.3992093816020108
14.9225,0.005978650360458904,0.403010184105569
14.925,0.006322503333912891,0.4068109866091255
14.9275,0.005634797387004761,0.4068109866091272
14.93,0.004947091440096475,0.4106117891126855
14.9325,0.003915532519734045,0.4106117891126855
14.935,0.004259385493188814,0.4144125916162437
14.9375,0.005634797387004761,0.4144125916162437
14.94,0.006322503333913048,0.418213394119802
14.9425,0.006322503333913048,0.418213394119802
14.945,0.005290944413550462,0.4220141966233601
14.9475,0.004947091440096475,0.4220141966233601
14.95,0.003915532519734045,0.4258149991269184
14.9525,0.004947091440096005,0.4258149991269184
14.955,0.006322503333913048,0.4296158016304766
14.9575,0.006666356307367191,0.4334166041340349
14.96,0.006322503333913048,0.4334166041340349
14.9625,0.005634797387004448,0.4334166041340366
14.965,0.004947091440096475,0.4372174066375931
14.9675,0.004259385493188188,0.4372174066375931
14.97,0.005634797387004136,0.4410182091411496
14.9725,0.006666356307367191,0.4448190116447095
14.975,0.006666356307367191,0.4448190116447095
14.9775,0.005978650360458904,0.4486198141482678
14.98,0.005634797387004292,0.4486198141482695
14.9825,0.004603238466642331,0.452420616651826
14.985,0.004603238466642331,0.452420616651826
14.9875,0.006322503333912266,0.4562214191553825
14.99,0.006666356307367191,0.4600222216589425
14.9925,0.006666356307367191,0.4600222216589425
14.995,0.005978650360458904,0.4638230241625007
14.9975,0.005634797387004292,0.4638230241625024
15,0.004603238466642331,0.4676238266660589
15.0025,0.005290944413550618,0.4676238266660589
15.005,0.006666356307366565,0.4714246291696154
15.0075,0.007010209280821177,0.4714246291696189
15.01,0.006666356307367191,0.4752254316731754
15.0125,0.005978650360458904,0.4752254316731754
15.015,0.005634797387004917,0.4790262341767319
15.0175,0.004947091440096475,0.4828270366802918
15.02,0.005978650360458904,0.4828270366802918
15.0225,0.007010209280821333,0.4866278391838501
15.025,0.007354062254275163,0.4866278391838518
15.0275,0.006666356307367191,0.4904286416874083
15.03,0.005978650360458904,0.4904286416874083
15.0325,0.00529094441355093,0.4904286416874083
15.035,0.005290944413550618,0.4942294441909665
15.0375,0.006666356307367191,0.4980302466945247
15.04,0.007354062254275476,0.4980302466945247
15.0425,0.007354062254275007,0.501831049198083
15.045,0.006322503333913048,0.501831049198083
15.0475,0.006322503333913048,0.5056318517016412
15.05,0.0049470914400971,0.5056318517016412
15.0525,0.005978650360458904,0.5094326542051995
15.055,0.007354062254275476,0.5094326542051995
15.0575,0.00769791522772962,0.5132334567087576
15.06,0.00701020928082102,0.5170342592123158
15.0625,0.006322503333913048,0.5170342592123158
15.065,0.005978650360458904,0.5208350617158741
15.0675,0.00529094441355093,0.5208350617158741
15.07,0.00666635630736766,0.5246358642194341
15.0725,0.00769791522772962,0.5284366667229906
15.075,0.00769791522772962,0.5284366667229906
15.0775,0.007010209280821645,0.5284366667229906
15.08,0.006322503333913048,0.5322374692265488
15.0825,0.005634797387004761,0.5322374692265488
15.085,0.005978650360458904,0.536038271730107
15.0875,0.007354062254275632,0.5398390742336653
15.09,0.00769791522772962,0.5398390742336653
15.0925,0.00769791522772962,0.5436398767372235
15.095,0.007010209280821645,0.5436398767372235
15.0975,0.006666356307367191,0.5474406792407817
15.1,0.005634797387004761,0.5474406792407817
15.1025,0.006322503333913048,0.55124148174434
15.105,0.007697915227729776,0.5512414817443417
15.1075,0.008041768201183762,0.5550422842478981
