Module1/20201008 계측 Data/1Mohm4단자osc_th를ground가깝게연결.csv

#Digilent WaveForms Oscilloscope Acquisition
#Device Name: Discovery2
#Serial Number: SN:210321AC1D4D
#Date Time: 2020-10-08 17:31:59.259
#Sample rate: 1024Hz
#Samples: 8000
#Trigger: Source: Channel 1 Type: Edge Condition: Rising Level: 0 V Hyst.: Auto HoldOff: 0 s
#Channel 1: Range: 5 mV/div Offset: 0 V Attenuation: 1 X
#Channel 2: Range: 1 V/div Offset: 0 V Attenuation: 1 X
#Wavegen Channel 1: Running
#Mode: Simple
#Type: Triangle
#Frequency: 200 mHz
#Period: 5 s
#Amplitude: 1 V
#Offset: 0 V
#Symmetry: 50 %
#Phase: 0 ¡Æ
#Wavegen Channel 2: Enabled
#Mode: Simple
#Type: Sine
#Frequency: 1 kHz
#Period: 1 ms
#Amplitude: 1 V
#Offset: 0 V
#Symmetry: 50 %
#Phase: 0 ¡Æ

Time (s),Channel 1 (V),Channel 2 (V)
-7.90720632,0.001508561705554888,0.2015676514169829
-7.90622976,0.00185241467900903,0.2015676514169829
-7.9052532,0.0004770027851926145,0.04573474877109556
-7.90427664,0.0004770027851926145,0.04573474877109556
-7.903300079999999,0.0004770027851926145,0.04573474877109556
-7.902323519999999,0.0004770027851926145,0.04573474877109556
-7.90134696,0.0004770027851926145,0.04573474877109556
-7.9003704,0.0004770027851926145,0.04573474877109556
-7.89939384,0.0001331498117386278,0.04193394626753906
-7.89841728,0.0001331498117384714,0.04193394626753733
-7.89744072,0.0001331498117384714,0.04193394626753733
-7.89646416,0.0001331498117384714,0.04193394626753733
-7.895487599999999,0.0001331498117384714,0.0381331437639791
-7.894511039999999,0.000133149811738315,0.0381331437639791
-7.89353448,-0.0002107031617156717,0.0381331437639791
-7.89255792,-0.0002107031617156717,0.0381331437639791
-7.89158136,-0.0002107031617156717,0.0381331437639791
-7.8906048,-0.0002107031617156717,0.0343323412604226
-7.88962824,0.0001331498117383151,0.03433234126042087
-7.88865168,0.0001331498117384714,0.03433234126042087
-7.88767512,0.0001331498117384714,0.03433234126042087
-7.886698559999999,0.0001331498117384714,0.03433234126041915
-7.885721999999999,0.0001331498117386278,0.03053153875686265
-7.88474544,0.0004770027851926145,0.03053153875686265
-7.88376888,0.0001331498117384714,0.03053153875686265
-7.88279232,0.0001331498117384714,0.03053153875686265
-7.88181576,0.0001331498117384714,0.02673073625330615
-7.8808392,0.0001331498117384714,0.02673073625330442
-7.87986264,-0.0002107031617156717,0.02673073625330442
-7.87888608,-0.0002107031617156717,0.02673073625330442
-7.877909519999999,-0.0002107031617158281,0.02673073625330269
-7.87693296,-0.0005545561351698148,0.02292993374974619
-7.8759564,-0.0005545561351698148,0.02292993374974619
-7.87497984,-0.0005545561351698148,0.02292993374974619
-7.87400328,-0.000210703161715828,0.02292993374974619
-7.87302672,-0.0002107031617156717,0.02292993374974619
-7.87205016,0.0001331498117384714,0.02292993374974619
-7.8710736,0.0001331498117384714,0.01912913124618796
-7.870097039999999,0.0001331498117384714,0.01912913124618796
-7.869120479999999,0.0001331498117384714,0.01912913124618624
-7.86814392,0.0001331498117384714,0.01532832874262974
-7.86716736,0.0001331498117384714,0.01532832874262974
-7.8661908,-0.0002107031617155153,0.01532832874262974
-7.86521424,-0.0002107031617156717,0.01532832874262974
-7.86423768,-0.0002107031617156717,0.01532832874262974
-7.86326112,-0.0002107031617156717,0.01152752623907151
-7.86228456,-0.0002107031617156717,0.01152752623907151
-7.861307999999999,-0.0002107031617158281,0.01152752623907151
-7.86033144,-0.0005545561351698148,0.01152752623907151
-7.85935488,-0.0005545561351698148,0.01152752623907151
-7.85837832,-0.0005545561351698148,0.01152752623907151
-7.85740176,-0.0005545561351698148,0.007726723735515008
-7.8564252,-0.000210703161715828,0.007726723735513279
-7.85544864,-0.0002107031617156717,0.007726723735513279
-7.85447208,0.0001331498117384714,0.007726723735513279
-7.853495519999999,-0.0002107031617156717,0.003925921231955051
-7.852518959999999,-0.0002107031617155153,0.003925921231955051
-7.8515424,0.0001331498117384714,0.003925921231955051
-7.85056584,-0.0002107031617156717,0.003925921231955051
-7.84958928,-0.0002107031617156717,0.003925921231955051
-7.84861272,-0.0002107031617156717,0.003925921231955051
-7.84763616,-0.0002107031617156717,0.0001251187283985507
-7.8466596,-0.0005545561351698148,0.0001251187283968225
-7.84568304,-0.0005545561351698148,0.0001251187283968225
-7.844706479999999,-0.0005545561351698148,0.0001251187283950941
-7.843729919999999,-0.0005545561351699711,-0.003675683775161406
-7.84275336,-0.0008984091086239579,-0.003675683775161406
-7.8417768,-0.0008984091086239579,-0.007476486278719634
-7.84080024,-0.0005545561351699711,-0.007476486278719634
-7.83982368,-0.0005545561351698148,-0.007476486278719634
-7.83884712,-0.0002107031617156717,-0.007476486278719634
-7.83787056,-0.0002107031617156717,-0.007476486278719634
-7.836893999999999,-0.0002107031617156717,-0.01127728878227786
-7.835917439999999,-0.0002107031617156717,-0.01127728878227786
-7.83494088,-0.0002107031617156717,-0.01127728878227786
-7.83396432,-0.0002107031617156717,-0.01127728878227786
-7.83298776,-0.0005545561351698148,-0.01507809128583609
-7.8320112,-0.0005545561351698148,-0.01507809128583609
-7.83103464,-0.0005545561351698148,-0.01507809128583609
-7.83005808,-0.0005545561351698148,-0.01507809128583609
-7.82908152,-0.0005545561351698148,-0.01507809128583609
-7.828104959999999,-0.0005545561351699711,-0.01887889378939432
-7.827128399999999,-0.0008984091086239579,-0.01887889378939432
-7.82615184,-0.0008984091086239579,-0.01887889378939432
-7.82517528,-0.0008984091086239579,-0.01887889378939432
-7.82419872,-0.0008984091086239579,-0.01887889378939432
-7.82322216,-0.0005545561351699711,-0.01887889378939432
-7.8222456,-0.0005545561351698148,-0.02267969629295255
-7.82126904,-0.0002107031617156717,-0.02267969629295255
-7.82029248,-0.0005545561351698148,-0.02267969629295255
-7.819315919999999,-0.0005545561351698148,-0.02267969629295427
-7.81833936,-0.0005545561351698148,-0.02648049879651078
-7.8173628,-0.0005545561351698148,-0.02648049879651078
-7.81638624,-0.0005545561351698148,-0.02648049879651078
-7.81540968,-0.0005545561351698148,-0.03028130130006728
-7.81443312,-0.0005545561351698148,-0.030281301300069
-7.81345656,-0.0008984091086239579,-0.030281301300069
-7.81248,-0.0008984091086239579,-0.030281301300069
-7.811503439999999,-0.0008984091086239579,-0.030281301300069
-7.810526879999999,-0.0008984091086241142,-0.03028130130007073
-7.80955032,-0.001242262082078101,-0.03408210380362723
-7.80857376,-0.001242262082078101,-0.03408210380362723
-7.8075972,-0.0008984091086239579,-0.03408210380362723
-7.80662064,-0.0008984091086239579,-0.03408210380362723
-7.80564408,-0.0008984091086239579,-0.03788290630718373
-7.80466752,-0.0005545561351698148,-0.03788290630718546
-7.80369096,-0.0005545561351698148,-0.03788290630718546
-7.802714399999999,-0.0005545561351696584,-0.03788290630718546
-7.801737839999999,-0.0002107031617158281,-0.03788290630718719
-7.80076128,-0.0005545561351698148,-0.04168370881074369
-7.79978472,-0.0008984091086239579,-0.04168370881074369
-7.79880816,-0.0008984091086239579,-0.04168370881074369
-7.7978316,-0.0008984091086239579,-0.04168370881074369
-7.79685504,-0.0008984091086239579,-0.04168370881074369
-7.79587848,-0.0008984091086239579,-0.04168370881074369
-7.794901919999999,-0.0008984091086241142,-0.04548451131430192
-7.793925359999999,-0.001242262082078101,-0.04548451131430192
-7.7929488,-0.001242262082078101,-0.04548451131430192
-7.79197224,-0.001242262082078101,-0.04548451131430192
-7.79099568,-0.001242262082078101,-0.04928531381786014
-7.79001912,-0.0008984091086241142,-0.04928531381786014
-7.78904256,-0.0008984091086239579,-0.04928531381786014
-7.788066,-0.0005545561351698148,-0.04928531381786014
-7.78708944,-0.0005545561351698148,-0.04928531381786014
-7.786112879999999,-0.0008984091086238015,-0.05308611632141837
-7.785136319999999,-0.0005545561351699711,-0.05308611632141837
-7.78415976,-0.0008984091086239579,-0.05308611632141837
-7.7831832,-0.0008984091086239579,-0.05308611632141837
-7.78220664,-0.0008984091086239579,-0.05308611632141837
-7.78123008,-0.0008984091086239579,-0.05688691882497487
-7.78025352,-0.001242262082078101,-0.0568869188249766
-7.77927696,-0.0008984091086239579,-0.0568869188249766
-7.7783004,-0.001242262082078101,-0.0568869188249766
-7.777323839999999,-0.001242262082078257,-0.06068772132853483
-7.77634728,-0.001586115055532088,-0.06068772132853483
-7.77537072,-0.001242262082078101,-0.06068772132853483
-7.77439416,-0.001242262082078101,-0.06068772132853483
-7.7734176,-0.001242262082078101,-0.06068772132853483
-7.77244104,-0.0008984091086241142,-0.06068772132853483
-7.77146448,-0.0008984091086239579,-0.06448852383209305
-7.77048792,-0.0008984091086239579,-0.06448852383209305
-7.769511359999999,-0.0008984091086239579,-0.06448852383209305
-7.768534799999999,-0.0008984091086239579,-0.06448852383209305
-7.76755824,-0.0008984091086239579,-0.06448852383209305
-7.76658168,-0.0008984091086239579,-0.06828932633565128
-7.76560512,-0.001242262082077945,-0.06828932633565128
-7.76462856,-0.001242262082078101,-0.06828932633565128
-7.763652,-0.001242262082078101,-0.06828932633565128
-7.76267544,-0.001242262082078101,-0.07209012883920951
-7.76169888,-0.001242262082078101,-0.07209012883920951
-7.760722319999999,-0.001242262082078257,-0.07209012883920951
-7.759745759999999,-0.001586115055532244,-0.07209012883920951
-7.7587692,-0.001586115055532244,-0.07209012883920951
-7.75779264,-0.001586115055532244,-0.07209012883920951
-7.75681608,-0.001242262082078257,-0.075890931342766
-7.75583952,-0.001242262082078101,-0.07589093134276774
-7.75486296,-0.0008984091086239579,-0.07589093134276774
-7.7538864,-0.001242262082078101,-0.07589093134276774
-7.752909839999999,-0.0008984091086241142,-0.07969173384632597
-7.751933279999999,-0.001242262082078101,-0.07969173384632597
-7.75095672,-0.001242262082078101,-0.07969173384632597
-7.74998016,-0.001242262082078101,-0.07969173384632597
-7.7490036,-0.001242262082078101,-0.07969173384632597
-7.74802704,-0.001242262082078101,-0.07969173384632597
-7.74705048,-0.001242262082078101,-0.08349253634988246
-7.74607392,-0.001242262082078101,-0.0834925363498842
-7.74509736,-0.001586115055532244,-0.0834925363498842
-7.744120799999999,-0.0015861150555324,-0.0834925363498842
-7.743144239999999,-0.001929968028986387,-0.08349253634988593
-7.74216768,-0.001929968028986387,-0.08729333885344243
-7.74119112,-0.001586115055532244,-0.08729333885344243
-7.74021456,-0.001586115055532244,-0.08729333885344243
-7.739238,-0.001586115055532244,-0.08729333885344243
-7.73826144,-0.001242262082078101,-0.09109414135700065
-7.73728488,-0.001242262082078101,-0.09109414135700065
-7.73630832,-0.001242262082078101,-0.09109414135700065
-7.735331759999999,-0.001242262082078101,-0.09109414135700065
-7.7343552,-0.001242262082078101,-0.09109414135700065
-7.73337864,-0.001242262082078101,-0.09109414135700065
-7.73240208,-0.001586115055532244,-0.09489494386055888
-7.73142552,-0.001586115055532244,-0.09489494386055888
-7.73044896,-0.001586115055532244,-0.09489494386055888
-7.7294724,-0.001586115055532244,-0.09489494386055888
-7.72849584,-0.001586115055532244,-0.09489494386055888
-7.727519279999999,-0.0015861150555324,-0.09869574636411711
-7.726542719999999,-0.001929968028986387,-0.09869574636411711
-7.72556616,-0.001929968028986387,-0.09869574636411711
-7.7245896,-0.001929968028986387,-0.09869574636411711
-7.72361304,-0.0015861150555324,-0.09869574636411711
-7.72263648,-0.001586115055532244,-0.09869574636411711
-7.72165992,-0.001242262082078257,-0.1024965488676736
-7.72068336,-0.001242262082078101,-0.1024965488676753
-7.7197068,-0.001242262082078101,-0.1024965488676753
-7.718730239999999,-0.001242262082078101,-0.1024965488676753
-7.71775368,-0.001242262082078257,-0.1024965488676771
-7.71677712,-0.001586115055532244,-0.1062973513712336
-7.71580056,-0.001586115055532244,-0.1062973513712336
-7.714824,-0.001586115055532244,-0.1062973513712336
-7.71384744,-0.001586115055532244,-0.1100981538747901
-7.71287088,-0.001586115055532244,-0.1100981538747918
-7.71189432,-0.001929968028986387,-0.1100981538747918
-7.710917759999999,-0.001929968028986544,-0.1100981538747918
-7.709941199999999,-0.002273821002440374,-0.1100981538747918
-7.70896464,-0.001929968028986387,-0.1100981538747918
-7.70798808,-0.001929968028986387,-0.11389895637835
-7.70701152,-0.001929968028986387,-0.11389895637835
-7.70603496,-0.0015861150555324,-0.11389895637835
-7.7050584,-0.001586115055532244,-0.11389895637835
-7.70408184,-0.001586115055532244,-0.11389895637835
-7.70310528,-0.001586115055532244,-0.1176997588819083
-7.702128719999999,-0.001586115055532244,-0.1176997588819083
-7.701152159999999,-0.001586115055532244,-0.1176997588819083
-7.7001756,-0.001586115055532244,-0.1176997588819083
-7.69919904,-0.001929968028986387,-0.1215005613854665
-7.69822248,-0.001929968028986387,-0.1215005613854665
-7.69724592,-0.001929968028986387,-0.1215005613854665
-7.69626936,-0.001929968028986387,-0.1215005613854665
-7.6952928,-0.001929968028986387,-0.1215005613854665
-7.694316239999999,-0.001929968028986544,-0.1215005613854665
-7.693339679999999,-0.00227382100244053,-0.1215005613854682
-7.69236312,-0.00227382100244053,-0.1253013638890247
-7.69138656,-0.00227382100244053,-0.1253013638890247
-7.69041,-0.00227382100244053,-0.1253013638890247
-7.68943344,-0.001929968028986544,-0.1291021663925812
-7.68845688,-0.001929968028986387,-0.1291021663925829
-7.68748032,-0.001586115055532244,-0.1291021663925829
-7.68650376,-0.001586115055532244,-0.1291021663925829
-7.685527199999999,-0.001929968028986231,-0.1291021663925829
-7.684550639999999,-0.0015861150555324,-0.1291021663925846
-7.68357408,-0.001929968028986387,-0.1329029688961412
-7.68259752,-0.001929968028986387,-0.1329029688961412
-7.68162096,-0.001929968028986387,-0.1329029688961412
-7.6806444,-0.001929968028986387,-0.1329029688961412
-7.67966784,-0.001929968028986387,-0.1367037713996994
-7.67869128,-0.001929968028986387,-0.1367037713996994
-7.67771472,-0.00227382100244053,-0.1367037713996994
-7.676738159999999,-0.002617673975894673,-0.1367037713997011
-7.6757616,-0.002617673975894517,-0.1405045739032576
-7.67478504,-0.00227382100244053,-0.1405045739032576
-7.67380848,-0.00227382100244053,-0.1405045739032576
-7.67283192,-0.001929968028986544,-0.1405045739032576
-7.67185536,-0.001929968028986387,-0.1405045739032576
-7.6708788,-0.001929968028986387,-0.1405045739032576
-7.66990224,-0.001929968028986387,-0.1443053764068158
-7.668925679999999,-0.001929968028986387,-0.1443053764068158
-7.667949119999999,-0.001929968028986387,-0.1443053764068158
-7.66697256,-0.001929968028986387,-0.1443053764068158
-7.665996,-0.001929968028986387,-0.1481061789103741
-7.66501944,-0.00227382100244053,-0.1481061789103741
-7.66404288,-0.00227382100244053,-0.1481061789103741
-7.66306632,-0.00227382100244053,-0.1519069814139306
-7.66208976,-0.00227382100244053,-0.1519069814139323
-7.6611132,-0.00227382100244053,-0.1519069814139323
-7.660136639999999,-0.002617673975894673,-0.1519069814139323
-7.659160079999999,-0.002617673975894673,-0.1519069814139323
-7.65818352,-0.002617673975894673,-0.1519069814139323
-7.65720696,-0.00227382100244053,-0.1557077839174905
-7.6562304,-0.00227382100244053,-0.1557077839174905
-7.65525384,-0.00227382100244053,-0.1557077839174905
-7.65427728,-0.00227382100244053,-0.1557077839174905
-7.65330072,-0.001929968028986387,-0.1557077839174905
-7.652324159999999,-0.001929968028986387,-0.1595085864210488
-7.651347599999999,-0.001929968028986544,-0.1595085864210488
-7.65037104,-0.00227382100244053,-0.1595085864210505
-7.64939448,-0.00227382100244053,-0.163309388924607
-7.64841792,-0.00227382100244053,-0.163309388924607
-7.64744136,-0.00227382100244053,-0.163309388924607
-7.6464648,-0.00227382100244053,-0.163309388924607
-7.64548824,-0.002617673975894673,-0.163309388924607
-7.64451168,-0.002617673975894673,-0.1671101914281652
-7.643535119999999,-0.002961526949348816,-0.1633093889246087
-7.642558559999999,-0.00296152694934866,-0.1671101914281652
-7.641582,-0.002617673975894673,-0.1671101914281652
-7.64060544,-0.002617673975894673,-0.1671101914281652
-7.63962888,-0.002273821002440686,-0.1671101914281652
-7.63865232,-0.00227382100244053,-0.1709109939317217
-7.63767576,-0.00227382100244053,-0.1709109939317235
-7.6366992,-0.00227382100244053,-0.1709109939317235
-7.63572264,-0.00227382100244053,-0.1709109939317235
-7.634746079999999,-0.00227382100244053,-0.1709109939317252
-7.63376952,-0.00227382100244053,-0.1747117964352817
-7.63279296,-0.00227382100244053,-0.1747117964352817
-7.6318164,-0.002617673975894673,-0.1747117964352817
-7.63083984,-0.002617673975894673,-0.1747117964352817
-7.62986328,-0.002617673975894673,-0.1747117964352817
-7.62888672,-0.002617673975894673,-0.1747117964352817
-7.62791016,-0.002617673975894673,-0.1785125989388399
-7.626933599999999,-0.002961526949348816,-0.1785125989388399
-7.625957039999999,-0.002961526949348816,-0.1785125989388399
-7.62498048,-0.002961526949348816,-0.1785125989388399
-7.62400392,-0.002617673975894673,-0.1823134014423981
-7.62302736,-0.002617673975894673,-0.1823134014423981
-7.6220508,-0.002273821002440686,-0.1823134014423981
-7.62107424,-0.00227382100244053,-0.1823134014423981
-7.62009768,-0.00227382100244053,-0.1823134014423981
-7.61912112,-0.00227382100244053,-0.1823134014423981
-7.618144559999999,-0.00227382100244053,-0.1823134014423999
-7.617167999999999,-0.002273821002440687,-0.1861142039459564
-7.61619144,-0.002617673975894673,-0.1861142039459564
-7.61521488,-0.002617673975894673,-0.1861142039459564
-7.61423832,-0.002617673975894673,-0.1861142039459564
-7.61326176,-0.002617673975894673,-0.1861142039459564
-7.6122852,-0.002961526949348816,-0.1861142039459564
-7.61130864,-0.002617673975894673,-0.1899150064495146
-7.610332079999999,-0.002961526949348973,-0.1899150064495146
-7.609355519999999,-0.003305379922802803,-0.1899150064495146
-7.60837896,-0.002961526949348816,-0.1899150064495146
-7.6074024,-0.002961526949348816,-0.1899150064495146
-7.60642584,-0.002617673975894673,-0.1899150064495146
-7.60544928,-0.002617673975894673,-0.1937158089530711
-7.60447272,-0.002617673975894673,-0.1937158089530728
-7.60349616,-0.002617673975894673,-0.1937158089530728
-7.6025196,-0.002617673975894673,-0.1937158089530728
-7.601543039999999,-0.002617673975894673,-0.1937158089530746
-7.600566479999999,-0.002617673975894673,-0.197516611456631
-7.59958992,-0.002617673975894673,-0.197516611456631
-7.59861336,-0.002961526949348816,-0.197516611456631
-7.5976368,-0.002617673975894829,-0.197516611456631
-7.59666024,-0.00296152694934866,-0.197516611456631
-7.59568368,-0.002961526949348816,-0.2013174139601893
-7.59470712,-0.002961526949348816,-0.2013174139601893
-7.59373056,-0.00330537992280296,-0.2013174139601893
-7.592753999999999,-0.00330537992280296,-0.2013174139601893
-7.59177744,-0.003305379922802803,-0.2013174139601893
-7.59080088,-0.002961526949348816,-0.2013174139601893
-7.58982432,-0.002961526949348816,-0.2051182164637475
-7.58884776,-0.002617673975894829,-0.2051182164637475
-7.5878712,-0.002617673975894673,-0.2051182164637475
-7.58689464,-0.002617673975894673,-0.2051182164637475
-7.58591808,-0.002617673975894673,-0.2051182164637475
-7.584941519999999,-0.002617673975894673,-0.2089190189673057
-7.583964959999999,-0.00261767397589483,-0.2089190189673057
-7.5829884,-0.002961526949348816,-0.2089190189673057
-7.58201184,-0.002961526949348816,-0.2089190189673057
-7.58103528,-0.002961526949348816,-0.2089190189673057
-7.58005872,-0.002961526949348816,-0.2127198214708622
-7.57908216,-0.002961526949348816,-0.212719821470864
-7.5781056,-0.00330537992280296,-0.212719821470864
-7.57712904,-0.00330537992280296,-0.212719821470864
-7.576152479999999,-0.003649232896256946,-0.2127198214708657
-7.57517592,-0.00330537992280296,-0.2165206239744222
-7.57419936,-0.00330537992280296,-0.2165206239744222
-7.5732228,-0.002961526949348816,-0.2165206239744222
-7.57224624,-0.002961526949348816,-0.2165206239744222
-7.57126968,-0.002961526949348816,-0.2165206239744222
-7.57029312,-0.002961526949348816,-0.2203214264779804
