Module1/20201008 계측 Data/1Mohm4단자_10kOhm을ground멀리연결.csv

#Digilent WaveForms Oscilloscope Acquisition
#Device Name: Discovery2
#Serial Number: SN:210321AC1D4D
#Date Time: 2020-10-08 17:47:11.375
#Sample rate: 930.908Hz
#Samples: 8000
#Trigger: Source: Channel 1 Type: Edge Condition: Rising Level: 0 V Hyst.: Auto HoldOff: 0 s
#Channel 1: Range: 5 mV/div Offset: 0 V Attenuation: 1 X
#Channel 2: Range: 1 V/div Offset: 0 V Attenuation: 1 X
#Wavegen Channel 1: Running
#Mode: Simple
#Type: Triangle
#Frequency: 200 mHz
#Period: 5 s
#Amplitude: 1 V
#Offset: 0 V
#Symmetry: 50 %
#Phase: 0 ¡Æ
#Wavegen Channel 2: Running
#Mode: Simple
#Type: Sine
#Frequency: 1 kHz
#Period: 1 ms
#Amplitude: 1 V
#Offset: 0 V
#Symmetry: 50 %
#Phase: 0 ¡Æ

Time (s),Channel 1 (V),Channel 2 (V)
-8.696885120000001,0.01766965145789992,0.8971145095681405
-8.695810900000001,0.01732579848444594,0.8933137070645839
-8.69473668,-0.006400056683890248,-0.3001382790527032
-8.693662460000001,-0.006400056683890248,-0.3001382790527032
-8.692588239999999,-0.006400056683890248,-0.3039390815562614
-8.69151402,-0.006400056683890248,-0.3039390815562614
-8.6904398,-0.006400056683890092,-0.3039390815562614
-8.68936558,-0.006056203710436104,-0.3039390815562614
-8.688291360000001,-0.005712350736982117,-0.3039390815562614
-8.687217140000001,-0.006056203710435791,-0.3077398840598162
-8.68614292,-0.006400056683890404,-0.3077398840598197
-8.6850687,-0.006743909657344391,-0.3077398840598197
-8.683994479999999,-0.00674390965734486,-0.3077398840598248
-8.68292026,-0.007087762630798534,-0.3115406865633779
-8.68184604,-0.007087762630798534,-0.3115406865633779
-8.68077182,-0.007087762630798534,-0.3115406865633779
-8.679697600000001,-0.007087762630798534,-0.3153414890669344
-8.678623380000001,-0.007087762630798534,-0.3153414890669362
-8.677549160000002,-0.00674390965734486,-0.3153414890669362
-8.67647494,-0.006743909657344391,-0.3153414890669362
-8.675400720000001,-0.006743909657344391,-0.3191422915704926
-8.674326499999999,-0.006743909657344391,-0.3191422915704943
-8.67325228,-0.006743909657344078,-0.3191422915704943
-8.67217806,-0.006056203710436104,-0.3191422915704943
-8.671103840000001,-0.006400056683890092,-0.3229430940740509
-8.670029620000001,-0.006400056683890248,-0.3229430940740526
-8.668955400000002,-0.006743909657344078,-0.3229430940740526
-8.66788118,-0.007087762630798534,-0.3229430940740526
-8.666806960000001,-0.007431615604252676,-0.3229430940740526
-8.665732739999999,-0.007431615604252676,-0.3267438965776108
-8.66465852,-0.007431615604252676,-0.3267438965776108
-8.6635843,-0.00743161560425252,-0.3267438965776125
-8.662510080000001,-0.007087762630798534,-0.3305446990811691
-8.661435860000001,-0.007087762630798534,-0.3305446990811691
-8.660361640000001,-0.007087762630798534,-0.3305446990811691
-8.65928742,-0.007087762630798534,-0.3305446990811691
-8.6582132,-0.007087762630798534,-0.3305446990811691
-8.657138979999999,-0.007087762630798065,-0.3343455015847273
-8.65606476,-0.006743909657344078,-0.3343455015847307
-8.65499054,-0.006400056683890404,-0.3381463040882855
-8.65391632,-0.006743909657344391,-0.3381463040882855
-8.652842100000001,-0.007087762630798378,-0.3381463040882855
-8.651767880000001,-0.007087762630798534,-0.3381463040882855
-8.65069366,-0.007431615604252833,-0.3381463040882872
-8.64961944,-0.00777546857770682,-0.3419471065918437
-8.648545220000001,-0.00777546857770682,-0.3419471065918437
-8.647470999999999,-0.00777546857770682,-0.3419471065918437
-8.64639678,-0.007775468577706664,-0.3419471065918437
-8.64532256,-0.007431615604252676,-0.3419471065918437
-8.644248340000001,-0.007431615604252676,-0.3457479090954003
-8.643174120000001,-0.007431615604252676,-0.345747909095402
-8.642099900000002,-0.007431615604252676,-0.345747909095402
-8.64102568,-0.007431615604252676,-0.345747909095402
-8.639951460000001,-0.007431615604252676,-0.3495487115989585
-8.638877239999999,-0.006743909657344391,-0.3495487115989602
-8.63780302,-0.006743909657344547,-0.3495487115989619
-8.6367288,-0.007087762630798534,-0.3533495141025184
-8.635654580000001,-0.007431615604252676,-0.3533495141025184
-8.634580360000001,-0.007775468577706664,-0.3533495141025184
-8.633506140000001,-0.00777546857770682,-0.3533495141025184
-8.63243192,-0.00777546857770682,-0.3533495141025201
-8.631357700000001,-0.00777546857770682,-0.3571503166060767
-8.630283479999999,-0.00777546857770682,-0.3571503166060767
-8.62920926,-0.00777546857770682,-0.3571503166060767
-8.62813504,-0.00777546857770682,-0.3571503166060784
-8.627060820000001,-0.00777546857770682,-0.3609511191096349
-8.625986600000001,-0.00777546857770682,-0.3609511191096349
-8.624912380000001,-0.00743161560425299,-0.3609511191096349
-8.62383816,-0.007431615604252676,-0.3609511191096349
-8.62276394,-0.007431615604252676,-0.3609511191096349
-8.621689719999999,-0.007087762630799003,-0.3647519216131931
-8.6206155,-0.007431615604252676,-0.3647519216131931
-8.61954128,-0.007431615604252833,-0.3647519216131931
-8.61846706,-0.00777546857770682,-0.3647519216131931
-8.617392840000001,-0.008119321551160807,-0.3647519216131931
-8.616318620000001,-0.008119321551160963,-0.3685527241167479
-8.615244400000002,-0.008119321551160963,-0.3685527241167513
-8.61417018,-0.008119321551160963,-0.3685527241167513
-8.613095960000001,-0.008119321551160963,-0.3685527241167513
-8.612021739999999,-0.008119321551160651,-0.3723535266203096
-8.61094752,-0.00777546857770682,-0.3723535266203096
-8.6098733,-0.00777546857770682,-0.3723535266203096
-8.608799080000001,-0.00777546857770682,-0.3723535266203096
-8.607724860000001,-0.00777546857770682,-0.3723535266203096
-8.606650640000002,-0.00777546857770682,-0.3761543291238643
-8.60557642,-0.007431615604252676,-0.3761543291238678
-8.604502200000001,-0.007431615604252676,-0.3761543291238678
-8.603427979999999,-0.007775468577707133,-0.3761543291238678
-8.60235376,-0.008119321551160963,-0.3761543291238695
-8.60127954,-0.008119321551160963,-0.379955131627426
-8.600205320000001,-0.008463174524615105,-0.379955131627426
-8.599131100000001,-0.008463174524615105,-0.379955131627426
-8.598056880000001,-0.008463174524615105,-0.379955131627426
-8.59698266,-0.008463174524614949,-0.3799551316274277
-8.595908440000001,-0.008119321551160963,-0.3837559341309842
-8.594834219999999,-0.008119321551160963,-0.3837559341309877
-8.59376,-0.008119321551160963,-0.3875567366345425
-8.59268578,-0.008119321551160963,-0.3875567366345425
-8.59161156,-0.008119321551160963,-0.3875567366345425
-8.590537340000001,-0.008119321551160963,-0.3875567366345425
-8.589463120000001,-0.007775468577707133,-0.3875567366345425
-8.5883889,-0.00777546857770682,-0.3913575391381007
-8.58731468,-0.00777546857770682,-0.3913575391381007
-8.586240459999999,-0.008119321551161431,-0.3913575391381007
-8.58516624,-0.008463174524615105,-0.3913575391381041
-8.58409202,-0.008463174524615261,-0.3951583416416589
-8.5830178,-0.008807027498069249,-0.3951583416416589
-8.581943580000001,-0.008807027498069249,-0.3951583416416589
-8.580869360000001,-0.008807027498069249,-0.3951583416416589
-8.579795140000002,-0.008807027498069249,-0.398959144145212
-8.57872092,-0.008807027498069249,-0.3989591441452172
-8.577646700000001,-0.008463174524615261,-0.3989591441452172
-8.576572479999999,-0.008463174524615105,-0.3989591441452206
-8.57549826,-0.008463174524615105,-0.4027599466487754
-8.57442404,-0.008463174524615105,-0.4027599466487754
-8.573349820000001,-0.008463174524615105,-0.4027599466487754
-8.572275600000001,-0.008119321551161119,-0.4027599466487754
-8.571201380000002,-0.008119321551160963,-0.4065607491523301
-8.57012716,-0.008119321551160963,-0.4065607491523336
-8.569052940000001,-0.008463174524615105,-0.4065607491523336
-8.567978719999999,-0.008807027498069562,-0.4065607491523336
-8.5669045,-0.009150880471523392,-0.4065607491523353
-8.56583028,-0.009150880471523392,-0.4103615516558918
-8.564756060000001,-0.009150880471523392,-0.4103615516558918
-8.563681840000001,-0.009150880471523392,-0.4141623541594484
-8.562607620000001,-0.008807027498069562,-0.4141623541594501
-8.5615334,-0.008807027498069249,-0.4141623541594501
-8.560459180000001,-0.008807027498069249,-0.4141623541594501
-8.559384959999999,-0.008807027498069249,-0.4179631566630083
-8.55831074,-0.008807027498069249,-0.4179631566630083
-8.55723652,-0.008807027498069093,-0.4179631566630083
-8.5561623,-0.008463174524615105,-0.4179631566630083
-8.555088080000001,-0.008119321551161119,-0.4179631566630083
-8.554013860000001,-0.008463174524614793,-0.4217639591665631
-8.55293964,-0.008807027498069249,-0.4217639591665665
-8.55186542,-0.008807027498069249,-0.4217639591665665
-8.550791200000001,-0.009150880471523236,-0.4217639591665665
-8.549716979999999,-0.009494733444977223,-0.4255647616701247
-8.54864276,-0.009150880471523548,-0.4255647616701247
-8.54756854,-0.009494733444977536,-0.4255647616701247
-8.546494320000001,-0.009150880471523548,-0.4293655641736813
-8.545420100000001,-0.009150880471523392,-0.429365564173683
-8.544345880000002,-0.009150880471523392,-0.429365564173683
-8.54327166,-0.009150880471523392,-0.429365564173683
-8.542197440000001,-0.009150880471523392,-0.429365564173683
-8.541123219999999,-0.009150880471523392,-0.4331663666772412
-8.540049,-0.009150880471523079,-0.4331663666772412
-8.53897478,-0.008463174524615105,-0.4331663666772412
-8.537900560000001,-0.008463174524615105,-0.4331663666772412
-8.536826340000001,-0.008807027498069093,-0.4369671691807977
-8.535752120000001,-0.009150880471523079,-0.4369671691807994
-8.5346779,-0.009494733444977536,-0.4369671691807994
-8.533603680000001,-0.009494733444977536,-0.4369671691807994
-8.532529459999999,-0.009838586418431366,-0.4407679716843577
-8.53145524,-0.009494733444977536,-0.4407679716843577
-8.53038102,-0.009494733444977536,-0.4407679716843577
-8.529306800000001,-0.009494733444977536,-0.4407679716843577
-8.528232580000001,-0.009494733444977536,-0.4445687741879142
-8.527158360000001,-0.009494733444977536,-0.4445687741879159
-8.52608414,-0.00949473344497738,-0.4445687741879159
-8.52500992,-0.009150880471523392,-0.4445687741879159
-8.523935699999999,-0.009150880471523392,-0.4445687741879211
-8.52286148,-0.009150880471523079,-0.4483695766914741
-8.52178726,-0.008807027498069405,-0.4483695766914741
-8.52071304,-0.009150880471523392,-0.4483695766914741
-8.519638820000001,-0.009150880471523392,-0.4483695766914741
-8.518564600000001,-0.009494733444977223,-0.4521703791950289
-8.517490380000002,-0.00983858641843121,-0.4521703791950323
-8.51641616,-0.009838586418431678,-0.4521703791950323
-8.515341940000001,-0.009838586418431678,-0.4559711816985889
-8.514267719999999,-0.01018243939188551,-0.4559711816985906
-8.5131935,-0.009838586418431522,-0.4559711816985906
-8.51211928,-0.009494733444977536,-0.4559711816985906
-8.511045060000001,-0.009494733444977536,-0.4559711816985906
-8.509970840000001,-0.009494733444977536,-0.4597719842021454
-8.508896620000002,-0.009494733444977536,-0.4597719842021488
-8.5078224,-0.009494733444977536,-0.4597719842021488
-8.506748180000001,-0.009494733444977536,-0.4597719842021488
-8.505673959999999,-0.009150880471523392,-0.4635727867057071
-8.50459974,-0.009150880471523548,-0.4635727867057071
-8.50352552,-0.009494733444977536,-0.4635727867057071
-8.502451300000001,-0.009494733444977536,-0.4635727867057071
-8.501377080000001,-0.009838586418431522,-0.4635727867057071
-8.500302860000001,-0.01018243939188551,-0.4673735892092618
-8.49922864,-0.01018243939188582,-0.4673735892092652
-8.498154420000001,-0.01018243939188582,-0.4673735892092652
-8.497080199999999,-0.01018243939188582,-0.4711743917128235
-8.49600598,-0.01018243939188551,-0.4711743917128235
-8.49493176,-0.009838586418431678,-0.4711743917128235
-8.49385754,-0.009838586418431678,-0.4711743917128235
-8.492783320000001,-0.009838586418431678,-0.4711743917128235
-8.491709100000001,-0.009838586418431678,-0.4749751942163783
-8.49063488,-0.009838586418431522,-0.4749751942163835
-8.48956066,-0.009494733444977536,-0.47877599671994
-8.488486439999999,-0.00915088047152386,-0.47877599671994
-8.48741222,-0.009494733444977848,-0.47877599671994
-8.486338,-0.009838586418431678,-0.4787759967199417
-8.48526378,-0.009838586418431678,-0.4825767992234982
-8.484189560000001,-0.01018243939188567,-0.4825767992234982
-8.483115340000001,-0.01052629236533965,-0.4825767992234982
-8.482041120000002,-0.01018243939188629,-0.4825767992234982
-8.4809669,-0.01052629236533996,-0.4825767992234982
-8.479892680000001,-0.01018243939188598,-0.4863776017270547
-8.478818459999999,-0.01018243939188582,-0.4863776017270564
-8.47774424,-0.01018243939188582,-0.4863776017270564
-8.47667002,-0.01018243939188582,-0.4863776017270564
-8.475595800000001,-0.01018243939188582,-0.4863776017270564
-8.474521580000001,-0.009838586418431834,-0.4863776017270564
-8.473447360000002,-0.01018243939188551,-0.4901784042306112
-8.47237314,-0.009494733444977536,-0.4901784042306147
-8.471298920000001,-0.009494733444977536,-0.4901784042306147
-8.470224699999999,-0.00983858641843199,-0.4939792067341728
-8.46915048,-0.01018243939188582,-0.4939792067341728
-8.46807626,-0.01018243939188598,-0.4939792067341746
-8.467002040000001,-0.01052629236533996,-0.4977800092377311
-8.465927820000001,-0.01052629236533996,-0.4977800092377311
-8.464853600000001,-0.01052629236533996,-0.4977800092377311
-8.46377938,-0.01052629236533996,-0.4977800092377328
-8.462705160000001,-0.01052629236533996,-0.5015808117412893
-8.461630939999999,-0.01052629236533996,-0.5015808117412945
-8.46055672,-0.01052629236533996,-0.5053816142448475
-8.4594825,-0.01052629236533996,-0.5053816142448475
-8.45840828,-0.01052629236533996,-0.5053816142448475
-8.457334060000001,-0.01052629236533996,-0.5053816142448475
-8.456259840000001,-0.01018243939188613,-0.5053816142448475
-8.45518562,-0.009838586418431678,-0.5053816142448493
-8.4541114,-0.009838586418431678,-0.5091824167484058
-8.453037180000001,-0.01018243939188567,-0.5091824167484058
-8.451962959999999,-0.01052629236534028,-0.5091824167484058
-8.45088874,-0.01087014533879411,-0.5091824167484058
-8.44981452,-0.01087014533879411,-0.5091824167484058
-8.448740300000001,-0.01087014533879411,-0.5129832192519622
-8.447666080000001,-0.01087014533879411,-0.512983219251964
-8.446591860000002,-0.01087014533879411,-0.512983219251964
-8.44551764,-0.01087014533879411,-0.512983219251964
-8.444443420000001,-0.01052629236534012,-0.5167840217555204
-8.443369199999999,-0.01052629236533996,-0.5167840217555222
-8.44229498,-0.01052629236533996,-0.516784021755524
-8.44122076,-0.01052629236533996,-0.5205848242590805
-8.440146540000001,-0.01052629236533996,-0.5205848242590805
-8.439072320000001,-0.01018243939188598,-0.5205848242590805
-8.437998100000002,-0.01018243939188582,-0.5205848242590805
-8.43692388,-0.01052629236533996,-0.5243856267626387
-8.435849660000001,-0.01052629236533996,-0.5243856267626387
-8.434775439999999,-0.01087014533879442,-0.5243856267626387
-8.43370122,-0.01121399831224825,-0.5243856267626387
-8.432627,-0.01121399831224825,-0.5243856267626404
-8.431552780000001,-0.01121399831224825,-0.528186429266197
-8.430478560000001,-0.01121399831224825,-0.528186429266197
-8.429404340000001,-0.01121399831224825,-0.528186429266197
-8.42833012,-0.01121399831224809,-0.5281864292661987
-8.4272559,-0.01087014533879411,-0.5319872317697552
-8.426181679999999,-0.01087014533879411,-0.5319872317697552
-8.42510746,-0.01087014533879411,-0.5319872317697586
-8.42403324,-0.01087014533879395,-0.5357880342733133
-8.42295902,-0.01052629236533996,-0.5357880342733133
-8.421884800000001,-0.01052629236533996,-0.5357880342733133
-8.420810580000001,-0.01052629236533996,-0.5357880342733133
-8.419736360000002,-0.01087014533879364,-0.5357880342733133
-8.41866214,-0.01087014533879411,-0.5357880342733133
-8.417587920000001,-0.01121399831224809,-0.5395888367768699
-8.416513699999999,-0.01155785128570239,-0.5395888367768716
-8.41543948,-0.01155785128570239,-0.5395888367768716
-8.41436526,-0.01155785128570239,-0.5395888367768716
-8.413291040000001,-0.01121399831224841,-0.543389639280428
-8.412216820000001,-0.01121399831224825,-0.5433896392804298
-8.411142600000002,-0.01121399831224825,-0.5433896392804298
-8.41006838,-0.01121399831224825,-0.5433896392804298
-8.408994160000001,-0.01121399831224825,-0.5471904417839862
-8.407919939999999,-0.01121399831224825,-0.547190441783988
-8.40684572,-0.01121399831224809,-0.5471904417839898
-8.4057715,-0.01087014533879411,-0.5509912442875463
-8.404697280000001,-0.01052629236533996,-0.5509912442875463
-8.403623060000001,-0.01087014533879395,-0.5509912442875463
-8.402548840000001,-0.01121399831224794,-0.5509912442875463
-8.40147462,-0.01121399831224856,-0.5547920467911045
-8.400400400000001,-0.01190170425915654,-0.5547920467911045
-8.399326180000001,-0.01190170425915654,-0.5547920467911045
-8.39825196,-0.01155785128570271,-0.5547920467911045
-8.39717774,-0.01190170425915638,-0.5547920467911063
-8.39610352,-0.01155785128570239,-0.5585928492946628
-8.395029300000001,-0.01155785128570239,-0.5585928492946628
-8.393955080000001,-0.01155785128570239,-0.5585928492946628
-8.39288086,-0.01155785128570239,-0.5585928492946646
-8.39180664,-0.01155785128570239,-0.562393651798221
-8.390732420000001,-0.01155785128570239,-0.562393651798221
-8.3896582,-0.01121399831224794,-0.562393651798221
-8.38858398,-0.01087014533879426,-0.5623936517982228
-8.38750976,-0.01121399831224825,-0.5661944543017792
-8.386435540000001,-0.01121399831224825,-0.5661944543017792
-8.385361320000001,-0.01155785128570208,-0.5661944543017792
-8.3842871,-0.01190170425915669,-0.5661944543017792
-8.38321288,-0.01224555723261068,-0.5661944543017792
-8.382138660000001,-0.01224555723261068,-0.5699952568053357
-8.381064439999999,-0.01224555723261068,-0.5699952568053375
-8.37999022,-0.01224555723261052,-0.5699952568053375
-8.378916,-0.01190170425915654,-0.5699952568053375
-8.377841780000001,-0.01190170425915654,-0.5737960593088939
-8.376767560000001,-0.01190170425915654,-0.5737960593088957
-8.37569334,-0.01155785128570255,-0.5737960593088957
-8.37461912,-0.01190170425915654,-0.5737960593088957
-8.373544900000001,-0.01190170425915654,-0.5737960593088957
-8.372470680000001,-0.01121399831224856,-0.5775968618124521
-8.37139646,-0.01121399831224841,-0.5775968618124538
-8.37032224,-0.01155785128570255,-0.5775968618124538
-8.369248020000001,-0.01190170425915654,-0.5775968618124538
-8.368173800000001,-0.01190170425915654,-0.5813976643160104
-8.367099580000001,-0.01224555723261037,-0.5813976643160121
-8.36602536,-0.01224555723261068,-0.5813976643160121
-8.364951140000001,-0.01224555723261068,-0.5813976643160121
-8.363876920000001,-0.01258941020606467,-0.5851984668195686
-8.3628027,-0.01258941020606451,-0.5851984668195703
-8.36172848,-0.01224555723261068,-0.5851984668195703
-8.36065426,-0.01224555723261068,-0.5851984668195703
-8.359580040000001,-0.01224555723261068,-0.5889992693231269
-8.358505820000001,-0.01190170425915685,-0.5889992693231286
-8.3574316,-0.01190170425915654,-0.5889992693231286
-8.35635738,-0.01190170425915654,-0.5889992693231286
-8.355283160000001,-0.01155785128570255,-0.5889992693231286
-8.354208939999999,-0.01155785128570271,-0.5928000718266868
-8.35313472,-0.01190170425915669,-0.5928000718266886
-8.3520605,-0.01224555723261068,-0.596600874330245
-8.350986280000001,-0.01224555723261068,-0.596600874330245
-8.349912060000001,-0.01258941020606451,-0.596600874330245
-8.34883784,-0.01258941020606482,-0.596600874330245
-8.34776362,-0.01258941020606482,-0.596600874330245
-8.346689400000001,-0.01258941020606482,-0.596600874330245
-8.345615179999999,-0.01258941020606451,-0.6004016768338033
-8.34454096,-0.01224555723261068,-0.6004016768338033
-8.34346674,-0.01224555723261068,-0.6004016768338033
-8.342392520000001,-0.01224555723261068,-0.6004016768338033
-8.341318300000001,-0.01224555723261068,-0.6042024793373597
-8.34024408,-0.01224555723261052,-0.6042024793373615
-8.33916986,-0.01190170425915654,-0.6042024793373615
-8.338095640000001,-0.01190170425915654,-0.6042024793373615
-8.337021420000001,-0.01190170425915654,-0.6042024793373615
-8.3359472,-0.01224555723261084,-0.6080032818409197
