Module1/20201008 계측 Data/1MOhm_얼음0개.csv

#Digilent WaveForms Oscilloscope Acquisition
#Device Name: Discovery2
#Serial Number: SN:210321AC1D4D
#Date Time: 2020-10-08 19:43:48.521
#Sample rate: 400Hz
#Samples: 3921
#Trigger: Source: Channel 1 Type: Edge Condition: Rising Level: 0 V Hyst.: Auto HoldOff: 0 s
#Channel 1: Range: 5 mV/div Offset: 0 V Attenuation: 1 X
#Channel 2: Range: 2 V/div Offset: 0 V Attenuation: 1 X
#Wavegen Channel 1: Running
#Mode: Simple
#Type: Triangle
#Frequency: 200 mHz
#Period: 5 s
#Amplitude: 1 V
#Offset: 0 V
#Symmetry: 50 %
#Phase: 0 ¡Æ

Time (s),Channel 1 (V),Channel 2 (V)
14.1,-0.009150880471523392,-0.7600353819832488
14.1025,-0.009494733444977536,-0.7562345794796906
14.105,-0.0101824393918852,-0.7562345794796889
14.1075,-0.008807027498069249,-0.7524337769761323
14.11,-0.00777546857770682,-0.7486329744725742
14.1125,-0.00777546857770682,-0.7486329744725742
14.115,-0.008807027498069249,-0.744832171969016
14.1175,-0.008807027498069249,-0.7410313694654577
14.12,-0.009838586418431678,-0.7410313694654577
14.1225,-0.009838586418430896,-0.7410313694654559
14.125,-0.008119321551160963,-0.7372305669618995
14.1275,-0.007431615604252676,-0.7372305669618995
14.13,-0.008119321551160651,-0.7334297644583431
14.1325,-0.008463174524615261,-0.729628961954783
14.135,-0.008807027498069249,-0.729628961954783
14.1375,-0.009838586418431678,-0.7258281594512248
14.14,-0.009150880471523704,-0.7258281594512248
14.1425,-0.00777546857770682,-0.7258281594512248
14.145,-0.007431615604252676,-0.7220273569476666
14.1475,-0.008119321551160963,-0.7220273569476666
14.15,-0.008463174524615417,-0.7182265544441083
14.1525,-0.009150880471523392,-0.7182265544441083
14.155,-0.009838586418431678,-0.7182265544441083
14.1575,-0.00846317452461573,-0.7144257519405519
14.16,-0.007431615604252676,-0.7144257519405501
14.1625,-0.007431615604252676,-0.7106249494369918
14.165,-0.008119321551160963,-0.7106249494369918
14.1675,-0.008463174524615417,-0.7068241469334319
14.17,-0.009150880471523392,-0.7030233444298755
14.1725,-0.009150880471523392,-0.7030233444298755
14.175,-0.008119321551161431,-0.7030233444298755
14.1775,-0.007431615604252676,-0.6992225419263172
14.18,-0.007431615604252676,-0.6992225419263172
14.1825,-0.008119321551160963,-0.695421739422759
14.185,-0.008463174524615574,-0.6954217394227572
14.1875,-0.009494733444977536,-0.6916209369192008
14.19,-0.008807027498069249,-0.6916209369192008
14.1925,-0.007431615604253302,-0.6878201344156443
14.195,-0.00708776263079869,-0.6878201344156407
14.1975,-0.007431615604252676,-0.6840193319120843
14.2,-0.008119321551160963,-0.6840193319120843
14.2025,-0.008463174524614949,-0.6802185294085278
14.205,-0.009494733444977536,-0.6764177269049678
14.2075,-0.008119321551160963,-0.6764177269049678
14.21,-0.007087762630798534,-0.6764177269049678
14.2125,-0.00674390965734486,-0.6726169244014079
14.215,-0.00777546857770682,-0.6688161218978513
14.2175,-0.008119321551160963,-0.6688161218978513
14.22,-0.008807027498068937,-0.6650153193942949
14.2225,-0.008807027498069249,-0.6650153193942931
14.225,-0.007431615604252676,-0.661214516890735
14.2275,-0.006743909657344391,-0.6574137143871767
14.23,-0.007087762630798847,-0.6574137143871767
14.2325,-0.00777546857770682,-0.6574137143871767
14.235,-0.008119321551160963,-0.6536129118836185
14.2375,-0.009150880471522923,-0.6536129118836185
14.24,-0.008463174524615105,-0.6498121093800602
14.2425,-0.007087762630798534,-0.6498121093800602
14.245,-0.006743909657344391,-0.646011306876502
14.2475,-0.007087762630798847,-0.6422105043729438
14.25,-0.00777546857770682,-0.6422105043729438
14.2525,-0.008119321551160963,-0.6384097018693855
14.255,-0.009150880471522923,-0.6384097018693855
14.2575,-0.007775468577706194,-0.6346088993658273
14.26,-0.006400056683890248,-0.6346088993658273
14.2625,-0.006400056683890248,-0.6308080968622691
14.265,-0.007431615604252207,-0.6308080968622691
14.2675,-0.007431615604252676,-0.6270072943587108
14.27,-0.008463174524615105,-0.6270072943587108
14.2725,-0.008463174524615105,-0.6232064918551526
14.275,-0.007087762630798065,-0.6194056893515943
14.2775,-0.006056203710436104,-0.6194056893515943
14.28,-0.006743909657344391,-0.6156048868480362
14.2825,-0.007087762630798378,-0.6156048868480362
14.285,-0.007431615604252676,-0.611804084344478
14.2875,-0.008463174524615105,-0.6080032818409197
14.29,-0.00777546857770682,-0.6080032818409197
14.2925,-0.006400056683890092,-0.6042024793373615
14.295,-0.006056203710436104,-0.6042024793373615
14.2975,-0.006743909657344391,-0.6004016768338033
14.3,-0.007087762630798378,-0.6004016768338033
14.3025,-0.00777546857770682,-0.596600874330245
14.305,-0.008463174524615105,-0.596600874330245
14.3075,-0.007087762630798534,-0.5928000718266868
14.31,-0.006056203710436104,-0.592800071826685
14.3125,-0.006056203710436104,-0.5889992693231286
14.315,-0.006743909657344391,-0.5889992693231286
14.3175,-0.007087762630798378,-0.5851984668195721
14.32,-0.008119321551160963,-0.5851984668195686
14.3225,-0.008119321551160963,-0.5813976643160121
14.325,-0.006400056683890248,-0.5775968618124538
14.3275,-0.006056203710436261,-0.5775968618124538
14.33,-0.006056203710436104,-0.5737960593088957
14.3325,-0.006743909657344391,-0.5737960593088957
14.335,-0.007087762630798534,-0.5737960593088957
14.3375,-0.008119321551160651,-0.5699952568053375
14.34,-0.007431615604252676,-0.5699952568053375
14.3425,-0.006056203710436104,-0.5661944543017792
14.345,-0.005368497763528131,-0.5661944543017792
14.3475,-0.006400056683890248,-0.562393651798221
14.35,-0.006743909657344391,-0.5585928492946628
14.3525,-0.007087762630798534,-0.5585928492946628
14.355,-0.008119321551160337,-0.558592849294661
14.3575,-0.006743909657344391,-0.5547920467911045
14.36,-0.005712350736981961,-0.5547920467911045
14.3625,-0.005712350736981961,-0.5509912442875481
14.365,-0.006056203710436104,-0.547190441783988
14.3675,-0.006743909657344391,-0.547190441783988
14.37,-0.007431615604252676,-0.5433896392804298
14.3725,-0.007431615604252051,-0.543389639280428
14.375,-0.006056203710436104,-0.5395888367768716
14.3775,-0.005712350736981961,-0.5395888367768716
14.38,-0.005368497763527974,-0.5357880342733151
14.3825,-0.006400056683890404,-0.5357880342733116
14.385,-0.006743909657344391,-0.5319872317697552
14.3875,-0.00777546857770682,-0.5319872317697552
14.39,-0.00674390965734486,-0.5281864292661987
14.3925,-0.005368497763527818,-0.5243856267626387
14.395,-0.005024644790073675,-0.5243856267626387
14.3975,-0.006056203710436104,-0.5205848242590805
14.4,-0.006400056683890404,-0.5205848242590787
14.4025,-0.006743909657344391,-0.5167840217555222
14.405,-0.007431615604252676,-0.5167840217555222
14.4075,-0.006400056683890717,-0.5129832192519658
14.41,-0.005024644790073675,-0.512983219251964
14.4125,-0.005024644790073675,-0.5091824167484058
14.415,-0.006056203710436104,-0.5091824167484058
14.4175,-0.006400056683890561,-0.5053816142448457
14.42,-0.007087762630798534,-0.5015808117412893
14.4225,-0.007087762630798534,-0.5015808117412893
14.425,-0.0053684977635286,-0.5015808117412893
14.4275,-0.004680791816619532,-0.4977800092377311
14.43,-0.005368497763527818,-0.4939792067341728
14.4325,-0.005712350736981961,-0.4939792067341728
14.435,-0.00605620371043673,-0.4901784042306147
14.4375,-0.007431615604252676,-0.4901784042306147
14.44,-0.006400056683890248,-0.4863776017270564
14.4425,-0.0050246447900743,-0.4825767992234999
14.445,-0.004680791816619845,-0.4825767992234982
14.4475,-0.005368497763527818,-0.4825767992234982
14.45,-0.005712350736981961,-0.47877599671994
14.4525,-0.006056203710435948,-0.4749751942163835
14.455,-0.007087762630798534,-0.4749751942163817
14.4575,-0.005712350736981961,-0.4711743917128235
14.46,-0.004336938843165388,-0.4711743917128235
14.4625,-0.004680791816619845,-0.4673735892092652
14.465,-0.005368497763527818,-0.4673735892092652
14.4675,-0.005712350736981961,-0.4635727867057071
14.47,-0.006400056683889935,-0.4635727867057071
14.4725,-0.006743909657344391,-0.4597719842021488
14.475,-0.005024644790073675,-0.4597719842021488
14.4775,-0.004336938843165388,-0.4559711816985906
14.48,-0.004680791816619845,-0.4521703791950323
14.4825,-0.005368497763527818,-0.4521703791950323
14.485,-0.005712350736981961,-0.4483695766914741
14.4875,-0.006743909657343922,-0.4483695766914741
14.49,-0.006056203710436104,-0.4445687741879159
14.4925,-0.004680791816619532,-0.4445687741879159
14.495,-0.004336938843165388,-0.4407679716843577
14.4975,-0.004680791816619845,-0.4407679716843559
14.5,-0.005368497763527818,-0.4369671691807994
14.5025,-0.005712350736981961,-0.4369671691807994
14.505,-0.006743909657343922,-0.433166366677243
14.5075,-0.005368497763527349,-0.4331663666772395
14.51,-0.004336938843165388,-0.429365564173683
14.5125,-0.003993085869711246,-0.429365564173683
14.515,-0.005024644790073206,-0.4255647616701265
14.5175,-0.005368497763527818,-0.4217639591665665
14.52,-0.006056203710436104,-0.4217639591665665
14.5225,-0.006056203710436104,-0.4179631566630083
14.525,-0.004680791816619219,-0.4179631566630066
14.5275,-0.003993085869711246,-0.4141623541594501
14.53,-0.003993085869711246,-0.4103615516558918
14.5325,-0.005024644790073206,-0.4103615516558918
14.535,-0.005368497763527818,-0.4065607491523336
14.5375,-0.006400056683890248,-0.4065607491523336
14.54,-0.005712350736981961,-0.4027599466487754
14.5425,-0.00399308586971109,-0.4027599466487737
14.545,-0.003649232896257103,-0.3989591441452172
14.5475,-0.004680791816619532,-0.3989591441452172
14.55,-0.005024644790073519,-0.3951583416416606
14.5525,-0.005368497763527818,-0.3951583416416589
14.555,-0.006056203710436104,-0.3913575391381007
14.5575,-0.005024644790073675,-0.3875567366345425
14.56,-0.003649232896257103,-0.3875567366345408
14.5625,-0.003649232896257103,-0.3837559341309842
14.565,-0.004336938843165388,-0.3837559341309842
14.5675,-0.004680791816619376,-0.3837559341309842
14.57,-0.005712350736981961,-0.379955131627426
14.5725,-0.005712350736981961,-0.379955131627426
14.575,-0.003993085869711246,-0.3761543291238678
14.5775,-0.003649232896257259,-0.3761543291238678
14.58,-0.003649232896257103,-0.3723535266203096
14.5825,-0.004336938843165388,-0.3723535266203096
14.585,-0.004680791816619532,-0.3685527241167513
14.5875,-0.005712350736981648,-0.3685527241167496
14.59,-0.005024644790073675,-0.3647519216131931
14.5925,-0.003649232896257103,-0.3647519216131931
14.595,-0.003305379922803116,-0.3609511191096366
14.5975,-0.003649232896257103,-0.3609511191096349
14.6,-0.004336938843165388,-0.3571503166060767
14.6025,-0.004680791816619532,-0.3571503166060767
14.605,-0.005712350736981336,-0.3533495141025184
14.6075,-0.004336938843165388,-0.3533495141025184
14.61,-0.00330537992280296,-0.3495487115989602
14.6125,-0.00330537992280296,-0.3495487115989602
14.615,-0.003993085869711246,-0.345747909095402
14.6175,-0.004336938843165388,-0.345747909095402
14.62,-0.005368497763527818,-0.3419471065918437
14.6225,-0.005368497763527037,-0.341947106591842
14.625,-0.003649232896257103,-0.3381463040882855
14.6275,-0.00330537992280296,-0.3381463040882855
14.63,-0.002961526949348973,-0.334345501584729
14.6325,-0.003993085869711402,-0.3343455015847255
14.635,-0.004336938843165388,-0.3305446990811691
14.6375,-0.005368497763527818,-0.3305446990811691
14.64,-0.004680791816619845,-0.3267438965776125
14.6425,-0.002961526949348816,-0.3229430940740526
14.645,-0.002961526949348816,-0.3229430940740526
14.6475,-0.00330537992280296,-0.3229430940740526
14.65,-0.003993085869711402,-0.3191422915704926
14.6525,-0.004336938843165388,-0.3153414890669362
14.655,-0.005368497763527818,-0.3153414890669362
14.6575,-0.003993085869711871,-0.3115406865633796
14.66,-0.002617673975894673,-0.3115406865633779
14.6625,-0.002617673975894673,-0.3077398840598197
14.665,-0.003649232896257103,-0.3077398840598197
14.6675,-0.003993085869711559,-0.3039390815562614
14.67,-0.004680791816619532,-0.3039390815562614
14.6725,-0.004680791816619532,-0.3001382790527032
14.675,-0.003305379922803585,-0.2963374765491467
14.6775,-0.002617673975894673,-0.296337476549145
14.68,-0.002961526949348816,-0.296337476549145
14.6825,-0.003649232896257103,-0.2925366740455868
14.685,-0.003993085869711715,-0.2887358715420285
14.6875,-0.005024644790073675,-0.2887358715420285
14.69,-0.004336938843165388,-0.2849350690384703
14.6925,-0.002617673975895455,-0.2849350690384703
14.695,-0.002273821002440999,-0.2811342665349121
14.6975,-0.00330537992280296,-0.2811342665349121
14.7,-0.003649232896257103,-0.2773334640313538
14.7025,-0.00399308586971109,-0.2735326615277973
14.705,-0.005024644790073675,-0.2735326615277956
14.7075,-0.003649232896257103,-0.2697318590242374
14.71,-0.00227382100244053,-0.2697318590242374
14.7125,-0.002273821002440843,-0.2659310565206792
14.715,-0.002961526949348816,-0.2659310565206792
14.7175,-0.00330537992280296,-0.2621302540171209
14.72,-0.004336938843164919,-0.2621302540171209
14.7225,-0.004336938843165388,-0.2583294515135627
14.725,-0.002617673975894673,-0.2583294515135627
14.7275,-0.001929968028986387,-0.2545286490100045
14.73,-0.00261767397589483,-0.2545286490100028
14.7325,-0.002961526949348816,-0.2507278465064463
14.735,-0.00330537992280296,-0.246927044002888
14.7375,-0.004336938843164919,-0.246927044002888
14.74,-0.003649232896257103,-0.2431262414993298
14.7425,-0.00227382100244053,-0.2393254389957716
14.745,-0.001929968028986387,-0.2393254389957716
14.7475,-0.00261767397589483,-0.2393254389957699
14.75,-0.002961526949348816,-0.2355246364922133
14.7525,-0.00330537992280296,-0.2317238339886551
14.755,-0.004336938843164919,-0.2317238339886551
14.7575,-0.002961526949348347,-0.2317238339886534
14.76,-0.001929968028986387,-0.2279230314850969
14.7625,-0.001929968028986387,-0.2241222289815387
14.765,-0.002617673975894361,-0.2241222289815387
14.7675,-0.002961526949348816,-0.2203214264779804
14.77,-0.003649232896257103,-0.2203214264779804
14.7725,-0.003993085869711246,-0.2165206239744222
14.775,-0.002273821002440217,-0.2165206239744205
14.7775,-0.001586115055532244,-0.212719821470864
14.78,-0.001586115055532244,-0.212719821470864
14.7825,-0.002617673975894204,-0.2089190189673075
14.785,-0.002961526949348816,-0.2089190189673057
14.7875,-0.003993085869711246,-0.2051182164637475
14.79,-0.00330537992280296,-0.2013174139601893
14.7925,-0.001586115055532088,-0.2013174139601893
14.795,-0.001242262082078101,-0.2013174139601893
14.7975,-0.00227382100244053,-0.197516611456631
14.8,-0.002617673975894517,-0.197516611456631
14.8025,-0.002961526949348816,-0.1937158089530728
14.805,-0.003993085869711246,-0.1937158089530728
14.8075,-0.002617673975894673,-0.1937158089530728
14.81,-0.001242262082078101,-0.1899150064495146
14.8125,-0.001242262082078101,-0.1899150064495146
14.815,-0.00227382100244053,-0.1861142039459564
14.8175,-0.002617673975894517,-0.1823134014423999
14.82,-0.00330537992280296,-0.1823134014423981
14.8225,-0.00330537992280296,-0.1823134014423981
14.825,-0.001929968028986387,-0.1785125989388399
14.8275,-0.001242262082078414,-0.1785125989388399
14.83,-0.001586115055532244,-0.1747117964352817
14.8325,-0.00227382100244053,-0.1747117964352817
14.835,-0.002617673975894673,-0.1747117964352817
14.8375,-0.00364923289625679,-0.1709109939317217
14.84,-0.002961526949348816,-0.1671101914281652
14.8425,-0.001242262082078101,-0.1671101914281652
14.845,-0.0008984091086241142,-0.1633093889246087
14.8475,-0.001929968028986387,-0.163309388924607
14.85,-0.001929968028986387,-0.1595085864210488
14.8525,-0.002617673975894673,-0.1595085864210488
14.855,-0.003305379922802334,-0.1557077839174905
14.8575,-0.001929968028986387,-0.1557077839174905
14.86,-0.0008984091086239579,-0.1519069814139323
14.8625,-0.0008984091086239579,-0.1519069814139323
14.865,-0.001586115055532244,-0.1481061789103741
14.8675,-0.001929968028986387,-0.1443053764068158
14.87,-0.002961526949348816,-0.1443053764068158
14.8725,-0.002961526949348191,-0.1405045739032576
14.875,-0.001586115055532244,-0.1405045739032576
14.8775,-0.0008984091086239579,-0.1367037713996994
14.88,-0.0008984091086239579,-0.1367037713996994
14.8825,-0.0015861150555324,-0.1329029688961412
14.885,-0.001929968028986387,-0.1329029688961412
14.8875,-0.00330537992280296,-0.1291021663925829
14.89,-0.002273821002440999,-0.1291021663925829
14.8925,-0.0008984091086239579,-0.1253013638890247
14.895,-0.0005545561351698148,-0.1253013638890247
14.8975,-0.001242262082078101,-0.1215005613854665
14.9,-0.001586115055532557,-0.1215005613854648
14.9025,-0.00227382100244053,-0.1176997588819083
14.905,-0.002961526949348816,-0.11389895637835
14.9075,-0.001586115055532869,-0.11389895637835
14.91,-0.0005545561351698148,-0.11389895637835
14.9125,-0.0002107031617156717,-0.1100981538747918
14.915,-0.001242262082078101,-0.1100981538747918
14.9175,-0.001586115055532557,-0.1062973513712318
14.92,-0.00227382100244053,-0.1024965488676753
14.9225,-0.002617673975894673,-0.1024965488676753
14.925,-0.0008984091086247398,-0.09869574636411885
14.9275,-0.0002107031617156717,-0.09869574636411711
14.93,-0.0005545561351698148,-0.09489494386055888
14.9325,-0.001242262082078101,-0.09489494386055888
14.935,-0.001586115055532713,-0.09109414135700065
14.9375,-0.002617673975894673,-0.09109414135700065
14.94,-0.001929968028986387,-0.09109414135700065
14.9425,-0.0002107031617164536,-0.08729333885344416
14.945,0.0001331498117380023,-0.0834925363498842
14.9475,-0.0008984091086239579,-0.0834925363498842
14.95,-0.001242262082078101,-0.07969173384632597
14.9525,-0.001586115055532088,-0.07969173384632597
14.955,-0.002617673975894673,-0.07969173384632597
14.9575,-0.001242262082078101,-0.07589093134276774
14.96,-0.0002107031617156717,-0.07209012883920951
14.9625,-0.0002107031617159844,-0.07209012883920778
14.965,-0.0008984091086239579,-0.06828932633565128
14.9675,-0.001242262082078101,-0.06828932633565128
14.97,-0.001929968028986075,-0.06448852383209479
14.9725,-0.001929968028986387,-0.06068772132853483
14.975,-0.0005545561351698148,-0.06068772132853483
14.9775,0.0001331498117384714,-0.06068772132853483
14.98,0.0001331498117380023,-0.05688691882497487
14.9825,-0.0008984091086239579,-0.05308611632141837
14.985,-0.001242262082078101,-0.05308611632141837
14.9875,-0.002273821002440061,-0.04928531381786187
14.99,-0.001586115055532244,-0.04928531381786014
14.9925,0.0001331498117384714,-0.04548451131430192
14.995,0.0004770027851926145,-0.04548451131430192
14.9975,-0.0005545561351699711,-0.04168370881074369
15,-0.0008984091086239579,-0.04168370881074369
15.0025,-0.001242262082078101,-0.03788290630718546
15.005,-0.001929968028986075,-0.03788290630718546
15.0075,-0.0008984091086234888,-0.0340821038036255
15.01,0.0001331498117384714,-0.030281301300069
15.0125,0.0004770027851926145,-0.030281301300069
15.015,-0.000210703161715359,-0.030281301300069
15.0175,-0.0005545561351698148,-0.02648049879651078
15.02,-0.001586115055532244,-0.02267969629295255
15.0225,-0.001586115055532244,-0.02267969629295255
15.025,-0.000210703161715359,-0.01887889378939432
15.0275,0.0004770027851926145,-0.01887889378939432
15.03,0.0004770027851926145,-0.01507809128583609
15.0325,-0.000210703161715359,-0.01507809128583609
15.035,-0.0005545561351698148,-0.01127728878227786
15.0375,-0.001586115055532244,-0.01127728878227786
15.04,-0.0008984091086239579,-0.007476486278719634
15.0425,0.0008208557586469138,-0.007476486278716178
15.045,0.001164708732100901,0.0001251187283968225
15.0475,0.0001331498117384714,0.0001251187283968225
15.05,-0.0002107031617155153,0.0001251187283968225
15.0525,-0.0005545561351698148,0.003925921231955051
15.055,-0.001586115055532244,0.003925921231955051
15.0575,-0.0002107031617156717,0.007726723735513279
15.06,0.001164708732100744,0.01152752623907151
15.0625,0.0008208557586467575,0.01152752623907151
15.065,0.0001331498117384714,0.01532832874262974
15.0675,-0.0002107031617155153,0.01532832874262974
15.07,-0.0008984091086241142,0.01912913124618796
15.0725,-0.001242262082078101,0.01912913124618796
15.075,0.0004770027851926145,0.02292993374974619
15.0775,0.0008208557586466012,0.02673073625330269
15.08,0.001164708732100901,0.02673073625330442
15.0825,0.0001331498117384714,0.03053153875686265
15.085,-0.0002107031617156717,0.03053153875686265
