Module3/data/exp1/2N3906/2000.11.12.exp_3-1-2_1kOhm_I_E_V_BE_pnp.csv

#Digilent WaveForms Oscilloscope Acquisition
#Device Name: Discovery2
#Serial Number: SN:210321AC1D4D
#Date Time: 2020-11-12 16:24:26.125
#Sample rate: 202429Hz
#Samples: 8192
#Trigger: Source: Channel 1 Type: Edge Condition: Rising Level: 0 V Hyst.: Auto HoldOff: 0 s
#Channel 1: Range: 1 V/div Offset: 0 V Attenuation: 1 X
#Channel 2: Range: 200 mV/div Offset: 0 V Attenuation: 1 X
#Wavegen Channel 1: Running
#Mode: Simple
#Type: Triangle
#Frequency: 100 Hz
#Period: 10 ms
#Amplitude: 2 V
#Offset: 2 V
#Symmetry: 50 %
#Phase: 0 ¡Æ
#Power Supplies: ON
#Positive Supply: ON
#Voltage: 5 V
#Negative Supply: ON
#Voltage: -5 V

Time (s),Channel 1 (V),Channel 2 (V)
-0.02023177,-0.1876860448186136,-0.6073255193076559
-0.02022683,-0.180115369045662,-0.6066343706786433
-0.02022189,-0.1725446932727157,-0.6059432220496312
-0.02021695,-0.1725446932727149,-0.6049064991061125
-0.02021201,-0.1725446932727149,-0.6045609247916064
-0.02020707,-0.1649740174997649,-0.6042153504771
-0.02020213,-0.1611886796132917,-0.6031786275335818
-0.02019719,-0.1536180038403454,-0.6021419045900636
-0.02019225,-0.1574033417268169,-0.6014507559610509
-0.02018731,-0.1498326659538706,-0.6007596073320388
-0.02018237,-0.1460473280673938,-0.6000684587030263
-0.02017743,-0.1422619901809207,-0.5997228843885203
-0.02017249,-0.1384766522944449,-0.5986861614450014
-0.02016755,-0.1346913144079718,-0.5973038641869772
-0.02016261,-0.1309059765214959,-0.5966127155579645
-0.02015767,-0.1271206386350228,-0.5962671412434585
-0.02015273,-0.1157646249756007,-0.5955759926144457
-0.02014779,-0.1195499628620739,-0.5941936953564215
-0.02014285,-0.1157646249756007,-0.5931569724129033
-0.02013791,-0.1119792870891249,-0.5921202494693844
-0.02013297,-0.1081939492026518,-0.5907379522113602
-0.02012803,-0.1006232734297016,-0.5897012292678412
-0.02012309,-0.09683793554322846,-0.5890100806388291
-0.02011815,-0.09305259765675265,-0.5876277833808041
-0.02011321,-0.08926725977027951,-0.5862454861227799
-0.02010827,-0.08548192188380274,-0.5852087631792608
-0.02010333,-0.07791124611085647,-0.5838264659212367
-0.02009839,-0.07412590822438275,-0.5824441686632112
-0.02009345,-0.07791124611085591,-0.5807162970906811
-0.02008851,-0.07412590822438282,-0.5796795741471629
-0.02008357,-0.06655523245143247,-0.576914979631113
-0.02007863,-0.05898455667848617,-0.5748415337440768
-0.02007369,-0.05898455667848371,-0.5734592364860513
-0.02006875,-0.05519921879201057,-0.571385790599015
-0.02006381,-0.05141388090553476,-0.5689667703974709
-0.02005887,-0.04762854301906162,-0.5665477501959285
-0.02005393,-0.04384320513258581,-0.5637831556798781
-0.02004899,-0.04005786724611267,-0.5606729868493237
-0.02004405,-0.03248719147316365,-0.5568716693897547
-0.02003911,-0.03248719147316365,-0.5541070748737063
-0.02003417,-0.0249165157002175,-0.5496146087851277
-0.02002923,-0.02113117781374041,-0.5437398454385209
-0.02002429,-0.01734583992726727,-0.5364827848338938
-0.02001935,-0.01356050204079146,-0.5295712985437673
-0.02001441,-0.009775164154318321,-0.5181673461650675
-0.02000947,-0.009775164154316875,-0.4967417386656772
-0.02000453,-0.005989826267843728,-0.4632210301585899
-0.01999959,-0.002204488381369657,-0.4303914702805015
-0.01999465,-0.005989826267842802,-0.4411042740301891
-0.01998971,-0.009775164154318606,-0.4891391037465563
-0.01998477,-0.01356050204079175,-0.5205863663666073
-0.01997983,-0.02113117781373793,-0.5364827848338862
-0.01997489,-0.02491651570021506,-0.5447765683820399
-0.01996995,-0.0287018535866882,-0.5492690344706186
-0.01996501,-0.02870185358668965,-0.5537615005592006
-0.01996007,-0.03248719147316279,-0.5582539666477793
-0.01995513,-0.04005786724611355,-0.5620552841073484
-0.01995019,-0.04762854301905983,-0.5641287299943847
-0.01994525,-0.05141388090553626,-0.5672388988249412
-0.01994031,-0.0551992187920094,-0.5700034933409895
-0.01993537,-0.05141388090553755,-0.5713857905990153
-0.01993043,-0.05898455667848385,-0.5741503851150638
-0.01992549,-0.0627698945649611,-0.5758782566875953
-0.01992055,-0.07034057033790739,-0.5776061282601255
-0.01991561,-0.07791124611085368,-0.5793339998326558
-0.01991067,-0.07791124611085626,-0.5810618714051873
-0.01990573,-0.08169658399732939,-0.5827897429777176
-0.01990079,-0.0854819218838052,-0.5841720402357429
-0.01989585,-0.08926725977027834,-0.5855543374937671
-0.01989091,-0.09305259765675415,-0.5869366347517923
-0.01988597,-0.0968379355432273,-0.5879733576953103
-0.01988103,-0.1006232734297031,-0.5886645063243231
-0.01987609,-0.1044086113161762,-0.5900468035823474
-0.01987115,-0.1119792870891239,-0.5917746751548785
-0.01986621,-0.1081939492026508,-0.5921202494693845
-0.01986127,-0.111979287089124,-0.5935025467274087
-0.01985633,-0.1195499628620744,-0.5941936953564216
-0.01985139,-0.1271206386350207,-0.5955759926144458
-0.01984645,-0.1271206386350231,-0.5962671412434586
-0.01984151,-0.1309059765214962,-0.5973038641869768
-0.01983657,-0.1309059765214984,-0.5983405871304955
-0.01983163,-0.1384766522944447,-0.5986861614450016
-0.01982669,-0.142261990180921,-0.5993773100740142
-0.01982175,-0.1460473280673941,-0.6004140330175324
-0.01981681,-0.1536180038403431,-0.601450755961051
-0.01981187,-0.1536180038403431,-0.6017963302755571
-0.01980693,-0.1574033417268162,-0.6028330532190753
-0.01980199,-0.1649740174997661,-0.6031786275335819
-0.01979705,-0.1649740174997661,-0.6042153504771001
-0.01979211,-0.1687593553862415,-0.6045609247916065
-0.01978717,-0.1763300311591877,-0.6055976477351247
-0.01978223,-0.1801153690456643,-0.6066343706786436
-0.01977729,-0.1839007069321374,-0.6069799449931496
-0.01977235,-0.1876860448186142,-0.607325519307656
-0.01976741,-0.1952567205915605,-0.6083622422511742
-0.01976247,-0.1952567205915622,-0.6087078165656806
-0.01975753,-0.1990420584780353,-0.6093989651946927
-0.01975259,-0.2028273963645085,-0.6100901138237048
-0.01974765,-0.2066127342509845,-0.6104356881382113
-0.01974271,-0.2141834100239308,-0.6111268367672233
-0.01973777,-0.2141834100239337,-0.6118179853962359
-0.01973283,-0.2217540857968799,-0.612163559710742
-0.01972789,-0.2217540857968822,-0.6128547083397545
-0.01972295,-0.2255394236833553,-0.6135458569687666
-0.01971801,-0.2331100994563055,-0.6138914312832731
-0.01971307,-0.2368954373427786,-0.6142370055977791
-0.01970813,-0.2406807752292544,-0.6149281542267915
-0.01970319,-0.2444661131157276,-0.6152737285412976
-0.01969825,-0.2482514510022007,-0.6156193028558036
-0.01969331,-0.2482514510022023,-0.6159648771703099
-0.01968837,-0.2558221267751486,-0.616310451484816
-0.01968343,-0.2633928025480998,-0.6170016001138285
-0.01967849,-0.2671781404345729,-0.6176927487428406
-0.01967355,-0.2671781404345738,-0.618038323057347
-0.01966861,-0.2671781404345738,-0.6183838973718531
-0.01966367,-0.2747488162075233,-0.6187294716863594
-0.01965873,-0.2785341540939965,-0.6190750460008654
-0.01965379,-0.2823194919804723,-0.6194206203153717
-0.01964885,-0.2861048298669455,-0.6197661946298777
-0.01964391,-0.2861048298669469,-0.620111768944384
-0.01963897,-0.28989016775342,-0.62045734325889
-0.01963403,-0.2936755056398932,-0.6211484918879021
-0.01962909,-0.297460843526369,-0.6214940662024085
-0.01962415,-0.3012461814128421,-0.6218396405169146
-0.01961921,-0.3088168571857923,-0.6225307891459271
-0.01961427,-0.3126021950722654,-0.6228763634604331
-0.01960933,-0.3201728708452148,-0.6232219377749394
-0.01960439,-0.3201728708452148,-0.6232219377749394
-0.01959945,-0.3239582087316902,-0.6239130864039519
-0.01959451,-0.3277435466181634,-0.624604235032964
-0.01958957,-0.3353142223911135,-0.6242586607184581
-0.01958463,-0.3390995602775866,-0.6249498093474702
-0.01957969,-0.3390995602775866,-0.6252953836619762
-0.01957475,-0.3466702360505357,-0.6256409579764826
-0.01956981,-0.3504555739370088,-0.6256409579764826
-0.01956487,-0.3542409118234845,-0.6263321066054949
-0.01955993,-0.3580262497099577,-0.6266776809200009
-0.01955499,-0.3618115875964327,-0.6273688295490133
-0.01955005,-0.3618115875964327,-0.6270232552345072
-0.01954511,-0.3655969254829091,-0.6273688295490136
-0.01954017,-0.3731676012558554,-0.6280599781780257
-0.01953523,-0.373167601255857,-0.6284055524925319
-0.01953029,-0.3769529391423302,-0.628751126807038
-0.01952535,-0.3845236149152765,-0.629096701121544
-0.01952041,-0.3845236149152791,-0.6294422754360504
-0.01951547,-0.3883089528017523,-0.6294422754360504
-0.01951053,-0.3958796285747024,-0.6294422754360505
-0.01950559,-0.3996649664611756,-0.6304789983795687
-0.01950065,-0.399664966461177,-0.630478998379569
-0.01949571,-0.4034503043476502,-0.630824572694075
-0.01949077,-0.4110209801206003,-0.6311701470085812
-0.01948583,-0.4148063180070735,-0.6311701470085812
-0.01948089,-0.4185916558935493,-0.6311701470085814
-0.01947595,-0.4223769937800224,-0.6318612956375935
-0.01947101,-0.4261623316664956,-0.6322068699520995
-0.01946607,-0.4299476695529716,-0.6322068699520996
-0.01946113,-0.4375183453259179,-0.6325524442666057
-0.01945619,-0.4413036832123947,-0.6328980185811121
-0.01945125,-0.4450890210988678,-0.633243592895618
-0.01944631,-0.4488743589853437,-0.6332435928956183
-0.01944137,-0.4526596968718168,-0.6335891672101244
-0.01943643,-0.4564450347582926,-0.6339347415246305
-0.01943149,-0.4602303726447657,-0.6339347415246305
-0.01942655,-0.4640157105312415,-0.6342803158391368
-0.01942161,-0.4678010484177147,-0.6346258901536428
-0.01941667,-0.4715863863041878,-0.6349714644681489
-0.01941173,-0.4753717241906636,-0.6353170387826552
-0.01940679,-0.4791570620771368,-0.6356626130971612
-0.01940185,-0.4829423999636126,-0.6356626130971613
-0.01939691,-0.4867277378500857,-0.6360081874116674
-0.01939197,-0.4905130757365622,-0.6360081874116676
-0.01938703,-0.4980837515095085,-0.6363537617261736
-0.01938209,-0.4980837515095105,-0.6366993360406799
-0.01937715,-0.5018690893959836,-0.6366993360406799
-0.01937221,-0.5094397651689337,-0.6366993360406801
-0.01936727,-0.5132251030554069,-0.6373904846696922
-0.01936233,-0.513225103055407,-0.6373904846696922
-0.01935739,-0.5207957788283558,-0.6377360589841984
-0.01935245,-0.524581116714829,-0.6380816332987044
-0.01934751,-0.5245811167148309,-0.6384272076132107
-0.01934257,-0.5321517924877771,-0.6387727819277167
-0.01933763,-0.5359371303742538,-0.6387727819277169
-0.01933269,-0.539722468260727,-0.639118356242223
-0.01932775,-0.5435078061472027,-0.6394639305567291
-0.01932281,-0.5472931440336759,-0.6394639305567291
-0.01931787,-0.5510784819201517,-0.6394639305567292
-0.01931293,-0.5548638198066248,-0.6398095048712353
-0.01930799,-0.5624344955795737,-0.6398095048712354
-0.01930305,-0.5624344955795738,-0.6401550791857414
-0.01929811,-0.5662198334660469,-0.6405006535002475
-0.01929317,-0.5737905092389971,-0.6408462278147539
-0.01928823,-0.5775758471254702,-0.6408462278147539
-0.01928329,-0.581361185011946,-0.64119180212926
-0.01927835,-0.5851465228984192,-0.6415373764437661
-0.01927341,-0.5851465228984215,-0.6415373764437663
-0.01926847,-0.5927171986713677,-0.6422285250727784
-0.01926353,-0.5965025365578439,-0.6422285250727785
-0.01925859,-0.600287874444317,-0.6422285250727785
-0.01925365,-0.6002878744443185,-0.6425740993872846
-0.01924871,-0.6040732123307918,-0.6425740993872846
-0.01924377,-0.6154292259902112,-0.6432652480162968
-0.01923883,-0.6116438881037406,-0.6429196737017908
-0.01923389,-0.6154292259902138,-0.6432652480162969
-0.01922895,-0.6229999017631633,-0.6429196737017909
-0.01922401,-0.6229999017631633,-0.6439563966453091
-0.01921907,-0.6267852396496393,-0.6436108223308032
-0.01921413,-0.6343559154225855,-0.6439563966453093
-0.01920919,-0.6381412533090618,-0.6443019709598155
-0.01920425,-0.641926591195535,-0.6443019709598155
-0.01919931,-0.6457119290820119,-0.6446475452743216
-0.01919437,-0.6532826048549583,-0.6443019709598155
-0.01918943,-0.6532826048549583,-0.6446475452743216
-0.01918449,-0.6532826048549588,-0.6449931195888278
-0.01917955,-0.660853280627905,-0.6456842682178399
-0.01917461,-0.6608532806279079,-0.6456842682178401
-0.01916967,-0.6684239564008542,-0.6456842682178401
-0.01916473,-0.6759946321738044,-0.6460298425323464
-0.01915979,-0.6759946321738044,-0.6463754168468525
-0.01915485,-0.6797799700602797,-0.6467209911613585
-0.01914991,-0.6835653079467529,-0.6463754168468525
-0.01914497,-0.6873506458332287,-0.6463754168468527
-0.01914003,-0.6911359837197018,-0.6470665654758648
-0.01913509,-0.6949213216061749,-0.6470665654758648
-0.01913015,-0.702491997379125,-0.6474121397903709
-0.01912521,-0.7062773352655982,-0.6474121397903709
-0.01912027,-0.7100626731520741,-0.6474121397903709
-0.01911533,-0.7138480110385471,-0.647757714104877
-0.01911039,-0.7176333489250223,-0.6477577141048773
-0.01910545,-0.7176333489250223,-0.6484488627338894
-0.01910051,-0.7252040246979718,-0.6484488627338895
-0.01909557,-0.728989362584445,-0.6484488627338895
-0.01909063,-0.7327747004709197,-0.6484488627338896
-0.01908569,-0.7327747004709197,-0.6487944370483957
-0.01908075,-0.7403453762438659,-0.6487944370483957
-0.01907581,-0.7479160520168172,-0.649485585677408
-0.01907087,-0.7479160520168172,-0.649831159991914
-0.01906593,-0.7517013899032919,-0.649485585677408
-0.01906099,-0.7554867277897651,-0.649831159991914
-0.01905605,-0.7592720656762416,-0.6498311599919142
-0.01905111,-0.7668427414491878,-0.6501767343064203
-0.01904617,-0.7744134172221376,-0.6505223086209264
-0.01904123,-0.7744134172221376,-0.6505223086209264
-0.01903629,-0.7781987551086131,-0.6505223086209264
-0.01903135,-0.7819840929950863,-0.6505223086209264
-0.01902641,-0.7857694308815594,-0.6508678829354325
-0.01902147,-0.7933401066545095,-0.6512134572499387
-0.01901653,-0.7933401066545095,-0.6512134572499387
-0.01901159,-0.7971254445409846,-0.6515590315644449
-0.01900665,-0.8046961203139309,-0.6512134572499388
-0.01900171,-0.8046961203139338,-0.6519046058789512
-0.01899677,-0.81226679608688,-0.6519046058789512
-0.01899183,-0.8160521339733565,-0.6519046058789513
-0.01898689,-0.8198374718598296,-0.6522501801934573
-0.01898195,-0.819837471859831,-0.6522501801934573
-0.01897701,-0.8236228097463042,-0.6522501801934573
-0.01897207,-0.8274081476327814,-0.6525957545079635
-0.01896713,-0.8349788234057274,-0.6525957545079635
-0.01896219,-0.8349788234057274,-0.6529413288224695
-0.01895725,-0.8387641612922021,-0.6532869031369758
-0.01895231,-0.8425494991786752,-0.6532869031369758
-0.01894737,-0.8463348370651516,-0.6532869031369758
-0.01894243,-0.8539055128380978,-0.6536324774514818
-0.01893749,-0.8576908507245743,-0.6539780517659881
-0.01893255,-0.8614761886110475,-0.6539780517659881
-0.01892761,-0.86147618861105,-0.6539780517659881
-0.01892267,-0.8690468643839963,-0.6539780517659881
-0.01891773,-0.8690468643839966,-0.6546692003950003
-0.01891279,-0.8690468643839967,-0.6543236260804943
-0.01890785,-0.8766175401569429,-0.6546692003950003
-0.01890291,-0.8841882159298944,-0.6550147747095066
-0.01889797,-0.8879735538163674,-0.6546692003950005
-0.01889303,-0.8917588917028427,-0.6550147747095066
-0.01888809,-0.8917588917028427,-0.6550147747095066
-0.01888315,-0.8993295674757922,-0.655705923338519
-0.01887821,-0.9031149053622654,-0.655705923338519
-0.01887327,-0.9069002432487422,-0.655705923338519
-0.01886833,-0.9144709190216884,-0.655705923338519
-0.01886339,-0.9144709190216901,-0.6557059233385191
-0.01885845,-0.9182562569081633,-0.6560514976530251
-0.01885351,-0.9220415947946363,-0.6563970719675312
-0.01884857,-0.9296122705675866,-0.6567426462820374
-0.01884363,-0.9333976084540596,-0.6567426462820374
-0.01883869,-0.9333976084540616,-0.6567426462820374
-0.01883375,-0.940968284227008,-0.6567426462820374
-0.01882881,-0.9447536221134843,-0.6570882205965436
-0.01882387,-0.9485389599999576,-0.6570882205965436
-0.01881893,-0.9523242978864335,-0.6574337949110498
-0.01881399,-0.9561096357729065,-0.6574337949110498
-0.01880905,-0.9598949736593824,-0.6574337949110499
-0.01880411,-0.9636803115458555,-0.6577793692255559
-0.01879917,-0.9674656494323286,-0.6577793692255559
-0.01879423,-0.9712509873188042,-0.6581249435400621
-0.01878929,-0.9712509873188042,-0.6581249435400621
-0.01878435,-0.9826070009782277,-0.6584705178545682
-0.01877941,-0.9863923388647009,-0.6584705178545682
-0.01877447,-0.9863923388647023,-0.6584705178545683
-0.01876953,-0.9901776767511755,-0.6588160921690744
-0.01876459,-0.9977483525241256,-0.6584705178545683
-0.01875965,-1.001533690410599,-0.6588160921690744
-0.01875471,-1.001533690410601,-0.6591616664835805
-0.01874977,-1.009104366183547,-0.6591616664835805
-0.01874483,-1.012889704070021,-0.6591616664835805
-0.01873989,-1.016675041956497,-0.6595072407980868
-0.01873495,-1.02046037984297,-0.6595072407980868
-0.01873001,-1.024245717729446,-0.6595072407980869
-0.01872507,-1.031816393502392,-0.660198389427099
-0.01872013,-1.028031055615921,-0.659852815112593
-0.01871519,-1.035601731388867,-0.659852815112593
-0.01871025,-1.043172407161817,-0.6601983894270991
-0.01870531,-1.043172407161817,-0.6601983894270991
-0.01870037,-1.046957745048293,-0.6605439637416053
-0.01869543,-1.050743082934766,-0.6605439637416053
-0.01869049,-1.054528420821239,-0.6605439637416053
-0.01868555,-1.058313758707715,-0.6605439637416053
-0.01868061,-1.065884434480661,-0.6608895380561113
-0.01867567,-1.069669772367138,-0.6608895380561114
-0.01867073,-1.069669772367138,-0.6612351123706175
-0.01866579,-1.073455110253613,-0.6612351123706176
-0.01866085,-1.081025786026559,-0.6612351123706176
-0.01865591,-1.084811123913035,-0.6612351123706177
-0.01865097,-1.084811123913035,-0.6615806866851237
-0.01864603,-1.08859646179951,-0.6615806866851237
-0.01864109,-1.092381799685983,-0.6615806866851237
-0.01863615,-1.099952475458934,-0.6619262609996299
-0.01863121,-1.103737813345407,-0.6619262609996299
-0.01862627,-1.10752315123188,-0.6619262609996299
-0.01862133,-1.107523151231881,-0.6622718353141361
-0.01861639,-1.111308489118355,-0.6622718353141361
-0.01861145,-1.118879164891305,-0.66192626099963
-0.01860651,-1.122664502777778,-0.6626174096286421
-0.01860157,-1.126449840664254,-0.6626174096286421
-0.01859663,-1.130235178550727,-0.6622718353141361
-0.01859169,-1.130235178550729,-0.6626174096286422
-0.01858675,-1.137805854323676,-0.6626174096286422
-0.01858181,-1.137805854323678,-0.6629629839431485
-0.01857687,-1.145376530096625,-0.6629629839431485
-0.01857193,-1.145376530096625,-0.6633085582576544
-0.01856699,-1.1491618679831,-0.6636541325721608
-0.01856205,-1.156732543756046,-0.6633085582576547
-0.01855711,-1.160517881642523,-0.6636541325721608
-0.01855217,-1.164303219528996,-0.6636541325721608
-0.01854723,-1.168088557415472,-0.6636541325721609
-0.01854229,-1.171873895301945,-0.6639997068866669
-0.01853735,-1.17565923318842,-0.664345281201173
-0.01853241,-1.179444571074894,-0.6639997068866669
-0.01852747,-1.179444571074896,-0.664345281201173
-0.01852253,-1.187015246847843,-0.6639997068866669
-0.01851759,-1.190800584734316,-0.664690855515679
-0.01851265,-1.190800584734317,-0.6646908555156792
-0.01850771,-1.198371260507264,-0.6646908555156792
-0.01850277,-1.202156598393741,-0.6646908555156792
-0.01849783,-1.205941936280214,-0.6646908555156792
-0.01849289,-1.205941936280216,-0.6650364298301854
-0.01848795,-1.213512612053162,-0.6650364298301854
-0.01848301,-1.221083287826113,-0.6650364298301855
-0.01847807,-1.224868625712586,-0.6653820041446916
-0.01847313,-1.224868625712589,-0.6653820041446916
-0.01846819,-1.232439301485535,-0.6653820041446916
-0.01846325,-1.236224639372008,-0.6657275784591976
-0.01845831,-1.240009977258484,-0.6657275784591977
-0.01845337,-1.243795315144957,-0.6657275784591977
-0.01844843,-1.247580653031433,-0.6660731527737039
-0.01844349,-1.251365990917906,-0.6660731527737039
-0.01843855,-1.255151328804382,-0.6660731527737039
-0.01843361,-1.258936666690855,-0.6660731527737039
-0.01842867,-1.258936666690857,-0.666073152773704
-0.01842373,-1.266507342463803,-0.6667643014027161
-0.01841879,-1.266507342463807,-0.6667643014027163
-0.01841385,-1.277863356123227,-0.6667643014027163
-0.01840891,-1.277863356123227,-0.6667643014027163
-0.01840397,-1.281648694009702,-0.6671098757172224
-0.01839903,-1.289219369782648,-0.6667643014027164
-0.01839409,-1.293004707669125,-0.6674554500317286
