Module3/data/exp1/2N3906/exp_V_CE_IC_sameasprev.csv

#Digilent WaveForms Oscilloscope Acquisition
#Device Name: Discovery2
#Serial Number: SN:210321AC1D4D
#Date Time: 2020-11-05 18:22:12.566
#Sample rate: 45641.3Hz
#Samples: 8192
#Trigger: Source: Channel 1 Type: Edge Condition: Rising Level: 0 V Hyst.: Auto HoldOff: 0 s
#Channel 1: Range: 1.5 V/div Offset: 0 V Attenuation: 1 X
#Channel 2: Range: 200 mV/div Offset: 0 V Attenuation: 1 X
#Wavegen Channel 1: Running
#Mode: Simple
#Type: Triangle
#Frequency: 200 Hz
#Period: 5 ms
#Amplitude: 2.5 V
#Offset: -2.5 V
#Symmetry: 50 %
#Phase: 90 ¡Æ
#Wavegen Channel 2: Running
#Mode: Simple
#Type: stair.txt
#Frequency: 40 Hz
#Period: 25 ms
#Amplitude: 2 V
#Offset: -2.6 V
#Phase: 0 ¡Æ

Time (s),Channel 1 (V),Channel 2 (V)
-0.0760277,3.26832744553249,0.1439530404287482
-0.07600579,3.222903390894798,0.1436074661142421
-0.07598388,3.181264674143578,0.143607466114242
-0.07596197,3.139625957392361,0.1432618917997359
-0.07594006,3.09420190275467,0.1432618917997358
-0.07591815,3.048777848116977,0.1432618917997358
-0.07589624,3.007139131365758,0.1429163174852298
-0.07587433,2.961715076728067,0.1425707431707236
-0.07585242,2.916291022090375,0.1425707431707235
-0.07583051,2.870866967452682,0.1425707431707235
-0.0758086,2.829228250701464,0.1425707431707235
-0.07578669,2.783804196063772,0.1422251688562174
-0.07576477999999999,2.742165479312527,0.1422251688562173
-0.07574286999999999,2.700526762561308,0.1422251688562172
-0.07572095999999999,2.655102707923616,0.1418795945417111
-0.07569904999999999,2.609678653285925,0.141879594541711
-0.07567713999999999,2.568039936534706,0.141534020227205
-0.07565522999999999,2.522615881897015,0.1415340202272049
-0.07563331999999999,2.480977165145795,0.1411884459126988
-0.07561140999999999,2.435553110508103,0.1411884459126987
-0.07558949999999999,2.390129055870412,0.1408428715981926
-0.07556758999999999,2.348490339119193,0.1408428715981926
-0.07554567999999999,2.303066284481502,0.1408428715981926
-0.07552376999999999,2.261427567730284,0.1408428715981925
-0.07550185999999999,2.219788850979065,0.1404972972836864
-0.07547994999999999,2.174364796341374,0.1401517229691803
-0.07545803999999999,2.132726079590155,0.1401517229691803
-0.07543612999999999,2.087302024952463,0.1401517229691802
-0.07541421999999999,2.04187797031477,0.1398061486546741
-0.07539230999999999,1.996453915677079,0.139806148654674
-0.07537039999999999,1.95481519892586,0.139460574340168
-0.07534848999999999,1.909391144288168,0.139460574340168
-0.07532657999999999,1.863967089650476,0.1394605743401679
-0.07530466999999999,1.818543035012784,0.1391150000256618
-0.07528275999999999,1.776904318261566,0.1391150000256617
-0.07526084999999999,1.735265601510347,0.1387694257111556
-0.07523893999999999,1.689841546872656,0.1387694257111556
-0.07521702999999999,1.648202830121437,0.1387694257111555
-0.07519511999999999,1.602778775483745,0.1384238513966494
-0.07517320999999999,1.557354720846054,0.1380782770821433
-0.07515129999999999,1.515716004094835,0.1380782770821433
-0.07512938999999999,1.470291949457143,0.1380782770821432
-0.07510747999999999,1.424867894819452,0.137732702767637
-0.07508556999999999,1.383229178068232,0.137387128453131
-0.07506365999999999,1.337805123430541,0.137387128453131
-0.07504174999999999,1.296166406679323,0.1373871284531309
-0.07501983999999999,1.254527689928105,0.1370415541386248
-0.07499792999999999,1.212888973176887,0.1370415541386247
-0.07497601999999999,1.167464918539194,0.1366959798241187
-0.07495410999999999,1.122040863901502,0.1366959798241185
-0.07493219999999999,1.076616809263811,0.1363504055096124
-0.07491028999999999,1.034978092512592,0.1360048311951063
-0.07488837999999999,0.9895540378748996,0.1360048311951062
-0.07486646999999999,0.9441299832372084,0.1356592568806
-0.07484455999999999,0.9024912664859894,0.135313682566094
-0.07482264999999999,0.8570672118482983,0.1353136825660939
-0.07480073999999999,0.8154284950970804,0.1349681082515878
-0.07477882999999999,0.7737897783458604,0.1349681082515877
-0.07475691999999999,0.7245803858216958,0.1346225339370817
-0.07473500999999999,0.6829416690704779,0.1346225339370815
-0.07471309999999999,0.6413029523192589,0.1342769596225754
-0.07469118999999999,0.5958788976815678,0.1339313853080693
-0.07466927999999999,0.5542401809303489,0.1339313853080692
-0.07464736999999999,0.5088161262926577,0.1335858109935631
-0.07462545999999999,0.4671774095414386,0.133240236679057
-0.07460354999999999,0.4217533549037474,0.1332402366790568
-0.07458163999999999,0.3801146381525295,0.1325490880500446
-0.07455972999999999,0.3384759214013106,0.1322035137355384
-0.07453781999999999,0.2930518667636194,0.131857939421032
-0.07451590999999999,0.2514131500124015,0.1308212164775128
-0.07449399999999999,0.2097744332611857,0.1270198990179435
-0.07447208999999999,0.1757063922829197,0.1180349668407816
-0.07445017999999999,0.1529943649640746,0.1031752713170153
-0.07442826999999999,0.1340676755317028,0.08416868401917565
-0.07440635999999999,0.1151409860993321,0.06308865083429967
-0.07438444999999999,0.09999963455343258,0.04235419196393041
-0.07436253999999999,0.07728760723458541,0.0240387532951046
-0.07434062999999999,0.05079024202926389,0.009179057771341292
-0.07431871999999999,0.0205075389374732,0.0008852742231952188
-0.07429680999999999,0.00536618739159027,-0.0004970230348274588
-0.07427489999999999,0.04321956625633176,0.005377740311779142
-0.07425298999999999,0.0735022693481235,0.01781841563400241
-0.07423107999999999,0.09242895878049424,0.03509713135931152
-0.07420916999999999,0.1075703103263927,0.05548601591517537
-0.07418725999999999,0.1264969997587645,0.07622047478554519
-0.07416534999999999,0.1454236891911373,0.09660935934140802
-0.07414343999999999,0.1681357165099854,0.1135425007522086
-0.07412152999999999,0.1984184196017823,0.1249464531309106
-0.07409961999999999,0.2362717984665269,0.1308212164775143
-0.07407770999999999,0.2779105152177447,0.1325490880500449
-0.07405579999999999,0.3195492319689627,0.133240236679057
-0.07403388999999999,0.3611879487201806,0.1332402366790572
-0.07401197999999999,0.4028266654713994,0.1339313853080693
-0.07399006999999999,0.4482507201090917,0.1339313853080694
-0.07396815999999999,0.493674774746784,0.1342769596225756
-0.07394624999999999,0.5390988293844753,0.1346225339370817
-0.07392433999999999,0.5807375461356941,0.1346225339370817
-0.07390242999999999,0.6261616007733863,0.1349681082515879
-0.07388051999999999,0.6715856554110776,0.135313682566094
-0.07385860999999999,0.7132243721622966,0.135313682566094
-0.07383669999999999,0.7586484267999879,0.1353136825660941
-0.07381478999999999,0.8002871435512067,0.1356592568806002
-0.07379287999999999,0.845711198188898,0.1356592568806002
-0.07377096999999999,0.8873499149401169,0.1360048311951064
-0.07374905999999999,0.9327739695778091,0.1363504055096125
-0.07372714999999999,0.9781980242155004,0.1363504055096126
-0.07370523999999999,1.019836740966719,0.1366959798241187
-0.07368332999999999,1.065260795604411,0.1370415541386248
-0.07366141999999999,1.106899512355629,0.1370415541386249
-0.07363950999999999,1.152323566993322,0.137387128453131
-0.07361759999999999,1.197747621631014,0.137387128453131
-0.07359568999999999,1.243171676268705,0.1373871284531311
-0.07357377999999999,1.284810393019923,0.1377327027676372
-0.07355186999999999,1.326449109771141,0.1380782770821433
-0.07352995999999999,1.36808782652236,0.1380782770821433
-0.07350804999999999,1.413511881160051,0.1380782770821434
-0.07348613999999999,1.45515059791127,0.1384238513966495
-0.07346422999999999,1.500574652548962,0.1384238513966496
-0.07344231999999999,1.545998707186655,0.1387694257111556
-0.07342040999999999,1.591422761824346,0.1387694257111557
-0.07339849999999999,1.633061478575565,0.1391150000256618
-0.07337658999999999,1.678485533213256,0.1391150000256619
-0.07335467999999999,1.720124249964475,0.139460574340168
-0.07333276999999999,1.765548304602166,0.139460574340168
-0.07331085999999999,1.807187021353384,0.139460574340168
-0.07328894999999999,1.848825738104603,0.1394605743401681
-0.07326703999999999,1.894249792742295,0.1398061486546742
-0.07324512999999999,1.939673847379987,0.1401517229691803
-0.07322321999999999,1.985097902017679,0.1401517229691803
-0.07320130999999999,2.026736618768898,0.1401517229691804
-0.07317939999999999,2.07216067340659,0.1404972972836865
-0.07315748999999999,2.117584728044283,0.1404972972836866
-0.07313557999999999,2.163008782681975,0.1408428715981926
-0.07311366999999999,2.208432837319666,0.1408428715981927
-0.07309175999999999,2.250071554070884,0.1411884459126988
-0.07306984999999999,2.291710270822101,0.1411884459126988
-0.07304793999999999,2.33334898757332,0.1411884459126988
-0.07302602999999999,2.378773042211012,0.1411884459126989
-0.07300411999999999,2.42041175896223,0.141534020227205
-0.07298220999999999,2.465835813599922,0.1415340202272051
-0.07296029999999999,2.50747453035116,0.1418795945416962
-0.07293838999999999,2.636176018491291,0.07794834635805323
-0.07291647999999999,2.77623352029082,0.003995443053751087
-0.07289456999999999,2.821657574928512,0.003995443053751168
-0.07287265999999999,2.86329629167973,0.004341017368257253
-0.07285074999999999,2.908720346317422,0.004341017368257253
-0.07282883999999999,2.95035906306864,0.004341017368257253
-0.07280692999999999,2.995783117706332,0.004341017368257333
-0.07278501999999999,3.03742183445755,0.004686591682763418
-0.07276310999999999,3.082845889095243,0.004686591682763418
-0.07274119999999999,3.128269943732935,0.004686591682763418
-0.07271928999999999,3.173693998370626,0.004686591682763418
-0.07269737999999999,3.215332715121844,0.004686591682763418
-0.07267546999999999,3.256971431873063,0.004686591682763418
-0.07265355999999999,3.302395486510755,0.004686591682763418
-0.07263164999999999,3.347819541148447,0.004686591682763418
-0.07260973999999999,3.389458257899665,0.004686591682763418
-0.07258782999999999,3.434882312537358,0.004686591682763418
-0.07256591999999999,3.48030636717505,0.004686591682763418
-0.07254400999999999,3.525730421812741,0.004686591682763418
-0.07252209999999999,3.567369138563959,0.004686591682763418
-0.07250018999999999,3.609007855315178,0.004686591682763418
-0.07247827999999999,3.654431909952871,0.004686591682763418
-0.07245636999999999,3.699855964590562,0.004686591682763418
-0.07243445999999999,3.74149468134178,0.004686591682763418
-0.07241254999999999,3.783133398092998,0.004686591682763418
-0.07239063999999999,3.82855745273069,0.004686591682763418
-0.07236872999999999,3.873981507368383,0.004686591682763494
-0.07234681999999999,3.919405562006074,0.005032165997269584
-0.07232490999999999,3.961044278757293,0.005032165997269509
-0.07230299999999999,4.006468333394985,0.004686591682763493
-0.07228108999999999,4.051892388032678,0.005032165997269584
-0.07225917999999999,4.09731644267037,0.005032165997269584
-0.07223726999999999,4.14274049730806,0.005032165997269584
-0.07221535999999999,4.180593876172805,0.005032165997269584
-0.07219344999999999,4.222232592924024,0.005032165997269657
-0.07217153999999999,4.267656647561717,0.00537774031177575
-0.07214962999999999,4.316866040085881,0.00537774031177575
-0.07212771999999999,4.3585047568371,0.00537774031177575
-0.07210580999999999,4.403928811474793,0.00537774031177575
-0.07208389999999999,4.449352866112485,0.00537774031177575
-0.07206198999999999,4.494776920750176,0.00537774031177575
-0.07204007999999999,4.536415637501395,0.00537774031177575
-0.07201816999999999,4.578054354252613,0.00537774031177575
-0.07199625999999999,4.623478408890304,0.00537774031177575
-0.07197434999999999,4.665117125641523,0.00537774031177575
-0.07195243999999999,4.710541180279215,0.00537774031177575
-0.07193052999999999,4.752179897030433,0.00537774031177575
-0.07190861999999999,4.797603951668125,0.00537774031177575
-0.07188670999999999,4.843028006305818,0.00537774031177582
-0.07186479999999999,4.888452060943509,0.005723314626281915
-0.07184288999999999,4.930090777694727,0.005723314626281915
-0.07182097999999999,4.975514832332415,0.005723314626281846
-0.07179906999999999,4.998226859651249,0.00537774031177575
-0.07177715999999999,4.95658814290003,0.00537774031177575
-0.07175524999999999,4.911164088262338,0.00537774031177575
-0.07173333999999999,4.865740033624647,0.00537774031177575
-0.07171142999999999,4.824101316873428,0.00537774031177575
-0.07168951999999999,4.778677262235735,0.005377740311775681
-0.07166760999999999,4.733253207598043,0.005032165997269584
-0.07164569999999999,4.687829152960351,0.005032165997269584
-0.07162378999999999,4.642405098322659,0.005032165997269584
-0.07160187999999999,4.60076638157144,0.005032165997269584
-0.07157996999999999,4.555342326933749,0.005032165997269584
-0.07155805999999999,4.513703610182531,0.005032165997269584
-0.07153614999999999,4.468279555544838,0.005032165997269584
-0.07151423999999999,4.422855500907147,0.005032165997269584
-0.07149232999999999,4.381216784155929,0.005032165997269584
-0.07147041999999999,4.33957806740471,0.005032165997269584
-0.07144850999999999,4.294154012767017,0.005032165997269518
-0.07142659999999999,4.244944620242852,0.004686591682763418
-0.07140468999999999,4.203305903491634,0.004686591682763418
-0.07138277999999999,4.161667186740416,0.004686591682763418
-0.07136086999999999,4.120028469989197,0.004686591682763418
-0.07133895999999999,4.074604415351506,0.004686591682763418
-0.07131704999999999,4.032965698600287,0.004686591682763418
-0.07129513999999999,3.987541643962595,0.004686591682763418
-0.07127322999999999,3.942117589324903,0.004686591682763354
-0.07125131999999999,3.896693534687211,0.004341017368257253
-0.07122940999999999,3.855054817935993,0.004341017368257253
-0.07120749999999999,3.8096307632983,0.004341017368257316
-0.07118558999999999,3.764206708660609,0.004686591682763355
-0.07116367999999999,3.72256799190939,0.004341017368257253
-0.07114176999999999,3.677143937271698,0.004341017368257253
-0.07111985999999999,3.631719882634006,0.004341017368257253
-0.07109794999999999,3.586295827996315,0.004341017368257253
-0.07107603999999999,3.54844244913157,0.004341017368257253
-0.07105412999999999,3.503018394493878,0.004341017368257253
-0.07103221999999999,3.457594339856186,0.004341017368257191
-0.07101030999999999,3.415955623104968,0.003995443053751149
-0.07098839999999999,3.370531568467276,0.004341017368257253
-0.07096648999999999,3.325107513829584,0.004341017368257253
-0.07094457999999999,3.283468797078365,0.004341017368257253
-0.07092266999999999,3.238044742440674,0.004341017368257192
-0.07090075999999999,3.196406025689456,0.003995443053751147
-0.07087884999999999,3.154767308938237,0.004341017368257193
-0.07085693999999999,3.109343254300545,0.003995443053751087
-0.07083502999999999,3.063919199662853,0.003995443053751087
-0.07081311999999999,3.018495145025161,0.003995443053751087
-0.07079120999999999,2.976856428273943,0.003995443053751087
-0.07076929999999999,2.93143237363625,0.003995443053751087
-0.07074738999999999,2.886008318998559,0.003995443053751028
-0.07072547999999999,2.84436960224734,0.00364986873924498
-0.07070356999999999,2.798945547609648,0.003995443053751087
-0.07068165999999999,2.753521492971956,0.003995443053751087
-0.07065974999999999,2.711882776220738,0.003995443053751029
-0.07063783999999999,2.666458721583046,0.00364986873924498
-0.07061592999999999,2.624820004831828,0.00399544305375103
-0.07059401999999999,2.58318128808061,0.003649868739244922
-0.07057210999999999,2.537757233442917,0.003649868739244922
-0.07055019999999999,2.492333178805225,0.003649868739244922
-0.07052828999999999,2.446909124167533,0.003649868739244922
-0.07050637999999999,2.401485069529842,0.003649868739244922
-0.07048446999999999,2.359846352778622,0.003649868739244922
-0.07046255999999999,2.314422298140931,0.003649868739244922
-0.07044064999999999,2.272783581389713,0.003649868739244922
-0.07041873999999999,2.231144864638495,0.003649868739244922
-0.07039682999999999,2.185720810000803,0.003649868739244867
-0.07037491999999999,2.144082093249585,0.003304294424738812
-0.07035300999999999,2.098658038611891,0.003649868739244867
-0.07033109999999999,2.049448646087726,0.003304294424738811
-0.07030918999999999,2.007809929336508,0.003649868739244868
-0.07028727999999999,1.962385874698815,0.003304294424738756
-0.07026536999999999,1.916961820061123,0.003304294424738756
-0.07024345999999999,1.871537765423431,0.003304294424738756
-0.07022154999999999,1.82611371078574,0.003304294424738756
-0.07019963999999999,1.788260331920995,0.003304294424738756
-0.07017772999999999,1.742836277283303,0.003304294424738756
-0.07015581999999999,1.697412222645611,0.003304294424738756
-0.07013390999999999,1.655773505894393,0.003304294424738756
-0.07011199999999999,1.610349451256701,0.003304294424738756
-0.07009008999999999,1.568710734505482,0.003304294424738756
-0.07006817999999999,1.52328667986779,0.003304294424738756
-0.07004626999999999,1.477862625230099,0.003304294424738756
-0.07002435999999999,1.43622390847888,0.003304294424738756
-0.07000244999999999,1.390799853841188,0.003304294424738705
-0.06998053999999999,1.345375799203496,0.002958720110232641
-0.06995862999999999,1.303737082452278,0.003304294424738706
-0.06993671999999999,1.26209836570106,0.002958720110232591
-0.06991480999999999,1.216674311063368,0.002958720110232591
-0.06989289999999999,1.171250256425676,0.00295872011023264
-0.06987098999999999,1.129611539674457,0.003304294424738707
-0.06984907999999999,1.084187485036765,0.002958720110232591
-0.06982716999999999,1.038763430399073,0.002958720110232591
-0.06980525999999999,0.9933393757613813,0.002958720110232542
-0.06978334999999999,0.9517006590101628,0.002613145795726425
-0.06976143999999999,0.9062766043724705,0.002613145795726474
-0.06973952999999999,0.8608525497347788,0.002958720110232542
-0.06971761999999999,0.819213832983561,0.002613145795726425
-0.06969570999999999,0.7775751162323424,0.002613145795726425
-0.06967379999999999,0.7321510615946507,0.002613145795726473
-0.06965188999999999,0.6905123448434324,0.002958720110232543
-0.06962997999999999,0.6450882902057401,0.002613145795726425
-0.06960806999999999,0.5996642355680484,0.002613145795726425
-0.06958615999999999,0.5580255188168298,0.002613145795726425
-0.06956424999999999,0.5126014641791377,0.002613145795726378
-0.06954233999999999,0.4671774095414454,0.00226757148122026
-0.06952042999999999,0.4217533549037531,0.00226757148122026
-0.06949851999999999,0.3763293002660614,0.00226757148122026
-0.06947660999999999,0.3346905835148434,0.00226757148122026
-0.06945469999999999,0.2930518667636256,0.00226757148122026
-0.06943278999999999,0.2514131500124072,0.00226757148122026
-0.06941087999999999,0.2059890953747149,0.002267571481220215
-0.06938896999999999,0.1605650407370232,0.001921997166714049
-0.06936705999999999,0.1189263239858053,0.00157642285220775
-0.06934514999999999,0.07728760723458686,0.0001941255941832219
-0.06932323999999999,0.03186355259689703,-0.0001514487203229434
-0.06930132999999999,0.005366187391584757,-0.0004970230348290205
-0.06927941999999999,0.04321956625632926,-0.0001514487203227675
-0.06925750999999999,0.08864362089402104,0.0008852742231957285
-0.06923559999999999,0.1302823376452389,0.001921997166714181
-0.06921368999999999,0.1719210543964573,0.002613145795726425
-0.06919177999999999,0.2173451090341496,0.002613145795726468
-0.06916986999999999,0.2627691636718414,0.002958720110232591
-0.06914795999999999,0.3044078804230598,0.002958720110232591
-0.06912604999999999,0.3498319350607511,0.002958720110232591
-0.06910413999999999,0.3876853139254955,0.002958720110232591
-0.06908222999999999,0.4331093685631878,0.002958720110232591
-0.06906031999999999,0.47853342320088,0.002958720110232591
-0.06903840999999999,0.5239574778385723,0.002958720110232591
-0.06901649999999999,0.5693815324762641,0.002958720110232591
-0.06899458999999999,0.6110202492274825,0.002958720110232591
-0.06897267999999999,0.6564443038651743,0.002958720110232591
-0.06895076999999999,0.6980830206163922,0.002958720110232591
-0.06892885999999999,0.7397217373676106,0.002958720110232591
-0.06890694999999999,0.7851457920053029,0.002958720110232591
-0.06888503999999999,0.8305698466429946,0.002958720110232631
