Module3/data/exp1/2N3906/exp_I_B_I_C_sameasprev.csv

#Digilent WaveForms Oscilloscope Acquisition
#Device Name: Discovery2
#Serial Number: SN:210321AC1D4D
#Date Time: 2020-11-05 18:25:51.464
#Sample rate: 45641.3Hz
#Samples: 8192
#Trigger: Source: Channel 1 Type: Edge Condition: Rising Level: 0 V Hyst.: Auto HoldOff: 0 s
#Channel 1: Range: 1 V/div Offset: 0 V Attenuation: 1 X
#Channel 2: Range: 200 mV/div Offset: 0 V Attenuation: 1 X
#Wavegen Channel 1: Running
#Mode: Simple
#Type: Triangle
#Frequency: 200 Hz
#Period: 5 ms
#Amplitude: 2.5 V
#Offset: -2.5 V
#Symmetry: 50 %
#Phase: 90 ¡Æ
#Wavegen Channel 2: Running
#Mode: Simple
#Type: stair.txt
#Frequency: 40 Hz
#Period: 25 ms
#Amplitude: 2 V
#Offset: -2.6 V
#Phase: 0 ¡Æ

Time (s),Channel 1 (V),Channel 2 (V)
-0.0760277,3.805845425411834,0.5614068123521962
-0.07600579,3.805845425411834,0.56106123803769
-0.07598388,3.805845425411834,0.5600245150941718
-0.07596197,3.805845425411834,0.5593333664651593
-0.07594006,3.805845425411834,0.558642217836147
-0.07591815,3.805845425411834,0.5582966435216408
-0.07589624,3.805845425411834,0.5572599205781225
-0.07587433,3.805845425411834,0.55656877194911
-0.07585242,3.805845425411834,0.5562231976346037
-0.07583051,3.805845425411834,0.5555320490055915
-0.0758086,3.805845425411834,0.5548409003765792
-0.07578669,3.805845425411834,0.5538041774330608
-0.07576477999999999,3.805845425411834,0.553458603118554
-0.07574286999999999,3.805845425411834,0.5524218801750356
-0.07572095999999999,3.805845425411834,0.5517307315460233
-0.07569904999999999,3.805845425411834,0.5510395829170109
-0.07567713999999999,3.805845425411834,0.5503484342879985
-0.07565522999999999,3.805845425411834,0.54931171134448
-0.07563331999999999,3.805845425411834,0.5482749884009616
-0.07561140999999999,3.805845425411834,0.547583839771949
-0.07558949999999999,3.805845425411834,0.5462015425139245
-0.07556758999999999,3.805845425411834,0.545164819570406
-0.07554567999999999,3.805845425411834,0.5441280966268877
-0.07552376999999999,3.805845425411834,0.5434369479978749
-0.07550185999999999,3.805845425411834,0.5417090764253442
-0.07547994999999999,3.805845425411836,0.5399812048528136
-0.07545803999999999,3.809630763298308,0.5392900562238008
-0.07543612999999999,3.805845425411836,0.5368710360222574
-0.07541421999999999,3.809630763298309,0.5337608671917009
-0.07539230999999999,3.809630763298309,0.5271949552160815
-0.07537039999999999,3.809630763298311,0.5133719826358331
-0.07534848999999999,3.817201439071259,0.4936742467089801
-0.07532657999999999,3.820986776957733,0.4687928960645357
-0.07530466999999999,3.824772114844208,0.4421836738475602
-0.07528275999999999,3.828557452730683,0.4131554314290422
-0.07526084999999999,3.836128128503632,0.3837816146960176
-0.07523893999999999,3.84369880427658,0.3526799263904629
-0.07521702999999999,3.851269480049528,0.321923812399414
-0.07519511999999999,3.855054817936003,0.2904765497793529
-0.07517320999999999,3.862625493708952,0.2590292871592917
-0.07515129999999999,3.870196169481901,0.2272364502247247
-0.07512938999999999,3.877766845254851,0.1961347619191698
-0.07510747999999999,3.889122858914274,0.164687499299109
-0.07508556999999999,3.900478872573697,0.1342769596225666
-0.07506365999999999,3.91183488623312,0.1042119942605305
-0.07504174999999999,3.923190899892543,0.07518375184201324
-0.07501983999999999,3.934546913551968,0.04822895531053326
-0.07499792999999999,3.953473602984341,0.02438432760960947
-0.07497601999999999,3.976185630302975,0.006068888940785952
-0.07495410999999999,3.275898121305331,-0.001188171663838362
-0.07493219999999999,2.957929738841574,0.009179057771349019
-0.07491028999999999,2.942788387295677,0.02784007075468346
-0.07488837999999999,2.92764703574978,0.05168469845560967
-0.07486646999999999,2.916291022090358,0.07829392067258489
-0.07484455999999999,2.908720346317409,0.1066310144620909
-0.07482264999999999,2.897364332657987,0.1363504055096212
-0.07480073999999999,2.889793656885037,0.1664153708716576
-0.07477882999999999,2.878437643225615,0.1964803362336938
-0.07475691999999999,2.870866967452666,0.2261997272812242
-0.07473500999999999,2.863296291679717,0.2562646926432603
-0.07471309999999999,2.85572561590677,0.285638509376284
-0.07469118999999999,2.851940278020294,0.313630028851283
-0.07466927999999999,2.844369602247347,0.340239251068257
-0.07464736999999999,2.840584264360873,0.3644294530836871
-0.07462545999999999,2.836798926474398,0.3834360403815243
-0.07460354999999999,2.833013588587925,0.3955311413892383
-0.07458163999999999,2.833013588587925,0.401405904735842
-0.07455972999999999,2.833013588587925,0.4031337763083728
-0.07453781999999999,2.833013588587925,0.4048616478809034
-0.07451590999999999,2.833013588587925,0.4058983708244219
-0.07449399999999999,2.833013588587925,0.4069350937679403
-0.07447208999999999,2.833013588587926,0.4076262423969526
-0.07445017999999999,2.836798926474398,0.4083173910259649
-0.07442826999999999,2.833013588587925,0.4090085396549773
-0.07440635999999999,2.833013588587925,0.4096996882839896
-0.07438444999999999,2.833013588587925,0.4103908369130019
-0.07436253999999999,2.833013588587925,0.4110819855420142
-0.07434062999999999,2.833013588587925,0.4114275598565204
-0.07431871999999999,2.833013588587925,0.4121187084855327
-0.07429680999999999,2.833013588587924,0.4124642828000389
-0.07427489999999999,2.829228250701451,0.4131554314290512
-0.07425298999999999,2.833013588587925,0.4135010057435575
-0.07423107999999999,2.833013588587925,0.4145377286870759
-0.07420916999999999,2.833013588587925,0.4148833030015821
-0.07418725999999999,2.833013588587925,0.4155744516305944
-0.07416534999999999,2.833013588587925,0.4159200259451005
-0.07414343999999999,2.833013588587925,0.4162656002596067
-0.07412152999999999,2.833013588587925,0.416956748888619
-0.07409961999999999,2.833013588587925,0.4173023232031253
-0.07407770999999999,2.833013588587925,0.4179934718321375
-0.07405579999999999,2.833013588587925,0.4183390461466437
-0.07403388999999999,2.833013588587925,0.419030194775656
-0.07401197999999999,2.833013588587924,0.4193757690901622
-0.07399006999999999,2.829228250701451,0.4200669177191745
-0.07396815999999999,2.833013588587925,0.4204124920336807
-0.07394624999999999,2.833013588587924,0.4207580663481869
-0.07392433999999999,2.829228250701451,0.4214492149771992
-0.07390242999999999,2.833013588587924,0.4217947892917053
-0.07388051999999999,2.82922825070145,0.4221403636062115
-0.07385860999999999,2.82922825070145,0.4224859379207177
-0.07383669999999999,2.829228250701451,0.42317708654973
-0.07381478999999999,2.833013588587924,0.4235226608642362
-0.07379287999999999,2.829228250701451,0.4242138094932485
-0.07377096999999999,2.833013588587924,0.4245593838077547
-0.07374905999999999,2.82922825070145,0.4249049581222609
-0.07372714999999999,2.82922825070145,0.4255961067512731
-0.07370523999999999,2.82922825070145,0.4255961067512732
-0.07368332999999999,2.82922825070145,0.4262872553802854
-0.07366141999999999,2.82922825070145,0.4262872553802855
-0.07363950999999999,2.82922825070145,0.4266328296947917
-0.07361759999999999,2.82922825070145,0.427323978323804
-0.07359568999999999,2.829228250701451,0.4276695526383101
-0.07357377999999999,2.833013588587924,0.4280151269528163
-0.07355186999999999,2.82922825070145,0.4283607012673225
-0.07352995999999999,2.82922825070145,0.4287062755818287
-0.07350804999999999,2.82922825070145,0.429397424210841
-0.07348613999999999,2.82922825070145,0.4297429985253471
-0.07346422999999999,2.82922825070145,0.4300885728398534
-0.07344231999999999,2.82922825070145,0.4307797214688656
-0.07342040999999999,2.82922825070145,0.4307797214688657
-0.07339849999999999,2.82922825070145,0.4314708700978779
-0.07337658999999999,2.82922825070145,0.4314708700978782
-0.07335467999999999,2.82922825070145,0.4325075930413962
-0.07333276999999999,2.829228250701451,0.4321620187268904
-0.07331085999999999,2.833013588587924,0.4328531673559026
-0.07328894999999999,2.829228250701449,0.4331987416704088
-0.07326703999999999,2.825442912814976,0.433544315984915
-0.07324512999999999,2.825442912814977,0.433889890299421
-0.07322321999999999,2.82922825070145,0.4338898902994213
-0.07320130999999999,2.82922825070145,0.4349266132429395
-0.07317939999999999,2.82922825070145,0.4349266132429397
-0.07315748999999999,2.82922825070145,0.4356177618719519
-0.07313557999999999,2.82922825070145,0.4359633361864582
-0.07311366999999999,2.82922825070145,0.4366544848154704
-0.07309175999999999,2.82922825070145,0.4370000591299765
-0.07306984999999999,2.82922825070145,0.4370000591299766
-0.07304793999999999,2.82922825070145,0.4373456334444827
-0.07302602999999999,2.82922825070145,0.4376912077589891
-0.07300411999999999,2.82922825070145,0.4387279307025073
-0.07298220999999999,2.82922825070145,0.4387279307025074
-0.07296029999999999,2.82922825070145,0.4390735050170136
-0.07293838999999999,2.82922825070145,0.4394190793315197
-0.07291647999999999,2.82922825070145,0.4397646536460259
-0.07289456999999999,2.82922825070145,0.4401102279605322
-0.07287265999999999,2.829228250701451,0.4408013765895443
-0.07285074999999999,2.833013588587924,0.4408013765895444
-0.07282883999999999,2.82922825070145,0.4411469509040506
-0.07280692999999999,2.82922825070145,0.4418380995330629
-0.07278501999999999,2.82922825070145,0.442183673847569
-0.07276310999999999,2.82922825070145,0.4421836738475692
-0.07274119999999999,2.82922825070145,0.4428748224765815
-0.07271928999999999,2.82922825070145,0.4435659711055936
-0.07269737999999999,2.82922825070145,0.4435659711055937
-0.07267546999999999,2.82922825070145,0.4439115454200998
-0.07265355999999999,2.82922825070145,0.4439115454200999
-0.07263164999999999,2.82922825070145,0.4442571197346061
-0.07260973999999999,2.82922825070145,0.4449482683636184
-0.07258782999999999,2.82922825070145,0.4452938426781245
-0.07256591999999999,2.82922825070145,0.4452938426781247
-0.07254400999999999,2.829228250701449,0.4459849913071368
-0.07252209999999999,2.825442912814976,0.4459849913071369
-0.07250018999999999,2.825442912814976,0.4463305656216431
-0.07247827999999999,2.825442912814977,0.4470217142506553
-0.07245636999999999,2.82922825070145,0.4470217142506551
-0.07243445999999999,2.82922825070145,0.4463305656216428
-0.07241254999999999,2.82922825070145,0.4456394169926307
-0.07239063999999999,2.82922825070145,0.4456394169926307
-0.07236872999999999,2.82922825070145,0.4456394169926305
-0.07234681999999999,2.82922825070145,0.4449482683636183
-0.07232490999999999,2.82922825070145,0.4446026940491121
-0.07230299999999999,2.82922825070145,0.4442571197346059
-0.07228108999999999,2.82922825070145,0.4439115454200998
-0.07225917999999999,2.82922825070145,0.4435659711055936
-0.07223726999999999,2.82922825070145,0.4432203967910873
-0.07221535999999999,2.82922825070145,0.4425292481620752
-0.07219344999999999,2.82922825070145,0.4428748224765812
-0.07217153999999999,2.82922825070145,0.442183673847569
-0.07214962999999999,2.82922825070145,0.4418380995330628
-0.07212771999999999,2.82922825070145,0.4414925252185566
-0.07210580999999999,2.82922825070145,0.4414925252185565
-0.07208389999999999,2.829228250701451,0.4408013765895443
-0.07206198999999999,2.833013588587924,0.4404558022750381
-0.07204007999999999,2.82922825070145,0.440110227960532
-0.07201816999999999,2.82922825070145,0.4397646536460258
-0.07199625999999999,2.82922825070145,0.4394190793315195
-0.07197434999999999,2.82922825070145,0.4387279307025073
-0.07195243999999999,2.82922825070145,0.4383823563880012
-0.07193052999999999,2.82922825070145,0.4383823563880011
-0.07190861999999999,2.82922825070145,0.4380367820734949
-0.07188670999999999,2.82922825070145,0.4376912077589887
-0.07186479999999999,2.82922825070145,0.4370000591299765
-0.07184288999999999,2.82922825070145,0.4366544848154703
-0.07182097999999999,2.82922825070145,0.4363089105009642
-0.07179906999999999,2.82922825070145,0.4359633361864579
-0.07177715999999999,2.82922825070145,0.4352721875574456
-0.07175524999999999,2.82922825070145,0.4349266132429396
-0.07173333999999999,2.829228250701451,0.4352721875574456
-0.07171142999999999,2.833013588587924,0.4345810389284333
-0.07168951999999999,2.82922825070145,0.4342354646139271
-0.07166760999999999,2.82922825070145,0.4335443159849149
-0.07164569999999999,2.82922825070145,0.4335443159849148
-0.07162378999999999,2.82922825070145,0.4331987416704086
-0.07160187999999999,2.82922825070145,0.4328531673559025
-0.07157996999999999,2.82922825070145,0.4328531673559024
-0.07155805999999999,2.82922825070145,0.4321620187268902
-0.07153614999999999,2.82922825070145,0.4321620187268901
-0.07151423999999999,2.82922825070145,0.4314708700978778
-0.07149232999999999,2.82922825070145,0.4307797214688656
-0.07147041999999999,2.829228250701451,0.4307797214688653
-0.07144850999999999,2.833013588587925,0.4297429985253471
-0.07142659999999999,2.833013588587925,0.4300885728398531
-0.07140468999999999,2.833013588587924,0.4293974242108408
-0.07138277999999999,2.829228250701451,0.4290518498963347
-0.07136086999999999,2.833013588587924,0.4287062755818284
-0.07133895999999999,2.82922825070145,0.4280151269528162
-0.07131704999999999,2.82922825070145,0.42766955263831
-0.07129513999999999,2.82922825070145,0.4273239783238038
-0.07127322999999999,2.82922825070145,0.4269784040092976
-0.07125131999999999,2.82922825070145,0.4262872553802853
-0.07122940999999999,2.82922825070145,0.4259416810657792
-0.07120749999999999,2.829228250701451,0.425596106751273
-0.07118558999999999,2.833013588587925,0.4252505324367668
-0.07116367999999999,2.833013588587924,0.4249049581222606
-0.07114176999999999,2.829228250701451,0.4242138094932484
-0.07111985999999999,2.833013588587925,0.4242138094932483
-0.07109794999999999,2.833013588587924,0.423522660864236
-0.07107603999999999,2.829228250701451,0.4228315122352237
-0.07105412999999999,2.833013588587925,0.4224859379207175
-0.07103221999999999,2.833013588587925,0.4224859379207175
-0.07101030999999999,2.833013588587925,0.4221403636062112
-0.07098839999999999,2.833013588587925,0.4211036406626928
-0.07096648999999999,2.833013588587924,0.4207580663481866
-0.07094457999999999,2.829228250701451,0.4200669177191744
-0.07092266999999999,2.833013588587925,0.4197213434046681
-0.07090075999999999,2.833013588587925,0.4190301947756558
-0.07087884999999999,2.833013588587925,0.4186846204611497
-0.07085693999999999,2.833013588587924,0.4183390461466435
-0.07083502999999999,2.829228250701451,0.4176478975176312
-0.07081311999999999,2.833013588587925,0.417302323203125
-0.07079120999999999,2.833013588587925,0.4166111745741126
-0.07076929999999999,2.833013588587925,0.4159200259451004
-0.07074738999999999,2.833013588587925,0.4155744516305942
-0.07072547999999999,2.833013588587925,0.415228877316088
-0.07070356999999999,2.833013588587925,0.4145377286870757
-0.07068165999999999,2.833013588587925,0.4138465800580634
-0.07065974999999999,2.833013588587925,0.4135010057435571
-0.07063783999999999,2.833013588587925,0.4128098571145449
-0.07061592999999999,2.833013588587925,0.4124642828000386
-0.07059401999999999,2.833013588587925,0.4114275598565202
-0.07057210999999999,2.833013588587925,0.411081985542014
-0.07055019999999999,2.833013588587924,0.4103908369130017
-0.07052828999999999,2.829228250701451,0.4100452625984954
-0.07050637999999999,2.833013588587925,0.4086629653404709
-0.07048446999999999,2.833013588587925,0.4083173910259646
-0.07046255999999999,2.833013588587925,0.4076262423969523
-0.07044064999999999,2.833013588587925,0.4065895194534339
-0.07041873999999999,2.833013588587925,0.4058983708244214
-0.07039682999999999,2.833013588587925,0.404861647880903
-0.07037491999999999,2.833013588587925,0.4038249249373844
-0.07035300999999999,2.833013588587925,0.4024426276793596
-0.07033109999999999,2.833013588587925,0.4003691817923219
-0.07030918999999999,2.836798926474399,0.3938032698167039
-0.07028727999999999,2.840584264360874,0.3813625944944808
-0.07026536999999999,2.844369602247348,0.3620104328821348
-0.07024345999999999,2.848154940133823,0.3378202308667028
-0.07022154999999999,2.855725615906771,0.3108654343352217
-0.07019963999999999,2.859510953793245,0.282528340545716
-0.07017772999999999,2.863296291679721,0.2531545238126919
-0.07015581999999999,2.874652305339144,0.2234351327651616
-0.07013390999999999,2.882222981112093,0.1933701674031252
-0.07011199999999999,2.889793656885042,0.1629596277265827
-0.07009008999999999,2.897364332657991,0.1328946623645465
-0.07006817999999999,2.908720346317414,0.1038664199460287
-0.07004626999999999,2.920076359976837,0.07552932615652344
-0.07002435999999999,2.935217711522735,0.04926567825405528
-0.07000244999999999,2.954144400955108,0.02576662486763691
-0.06998053999999999,2.976856428273895,0.008142334827823698
-0.06995862999999999,2.602107977512896,-0.001188171663840534
-0.06993671999999999,1.969956550471768,0.004686591682765539
-0.06991480999999999,1.947244523152923,0.01920071289202539
-0.06989289999999999,1.932103171607026,0.03993517176239586
-0.06987098999999999,1.920747157947603,0.06447094809233385
-0.06984907999999999,1.909391144288181,0.09073459599480256
-0.06982716999999999,1.901820468515231,0.1180349668407897
-0.06980525999999999,1.890464454855809,0.146026486315789
-0.06978334999999999,1.88289377908286,0.1729812828472698
-0.06976143999999999,1.875323103309912,0.199244930749738
-0.06973952999999999,1.871537765423437,0.2230895584506628
-0.06971761999999999,1.863967089650489,0.2431328686920195
-0.06969570999999999,1.860181751764015,0.2562646926432529
-0.06967379999999999,1.860181751764015,0.2631761789333756
-0.06965188999999999,1.860181751764015,0.2655951991349185
-0.06962997999999999,1.860181751764015,0.2662863477639309
-0.06960806999999999,1.860181751764015,0.2673230707074493
-0.06958615999999999,1.860181751764015,0.2680142193364616
-0.06956424999999999,1.860181751764015,0.2683597936509678
-0.06954233999999999,1.860181751764015,0.268705367965474
-0.06952042999999999,1.860181751764015,0.2690509422799801
-0.06949851999999999,1.863967089650489,0.2693965165944863
-0.06947660999999999,1.860181751764015,0.2704332395380047
-0.06945469999999999,1.860181751764015,0.2704332395380048
-0.06943278999999999,1.860181751764015,0.270778813852511
-0.06941087999999999,1.860181751764015,0.2714699624815232
-0.06938896999999999,1.860181751764015,0.2714699624815233
-0.06936705999999999,1.860181751764015,0.2721611111105356
-0.06934514999999999,1.863967089650489,0.2725066854250418
-0.06932323999999999,1.860181751764015,0.272852259739548
-0.06930132999999999,1.860181751764015,0.2731978340540541
-0.06927941999999999,1.860181751764015,0.2735434083685603
-0.06925750999999999,1.860181751764015,0.2738889826830664
-0.06923559999999999,1.860181751764015,0.2738889826830665
-0.06921368999999999,1.860181751764015,0.2745801313120788
-0.06919177999999999,1.860181751764015,0.2749257056265849
-0.06916986999999999,1.860181751764015,0.274925705626585
-0.06914795999999999,1.860181751764015,0.2756168542555973
-0.06912604999999999,1.860181751764015,0.2759624285701034
-0.06910413999999999,1.860181751764015,0.2763080028846095
-0.06908222999999999,1.860181751764015,0.2763080028846096
-0.06906031999999999,1.860181751764015,0.2766535771991158
-0.06903840999999999,1.860181751764015,0.2769991515136219
-0.06901649999999999,1.860181751764015,0.2776903001426342
-0.06899458999999999,1.860181751764015,0.2776903001426342
-0.06897267999999999,1.860181751764015,0.2780358744571404
-0.06895076999999999,1.860181751764015,0.2783814487716466
-0.06892885999999999,1.860181751764015,0.2787270230861528
-0.06890694999999999,1.860181751764015,0.2790725974006589
-0.06888503999999999,1.860181751764015,0.2794181717151651
-0.06886312999999999,1.860181751764015,0.2797637460296712
-0.06884121999999999,1.860181751764015,0.2797637460296712
-0.06881930999999999,1.860181751764015,0.2804548946586835
-0.06879739999999999,1.860181751764015,0.2804548946586836
-0.06877548999999999,1.860181751764014,0.2811460432876958
-0.06875357999999999,1.856396413877541,0.2804548946586836
-0.06873166999999999,1.860181751764015,0.2811460432876959
-0.06870975999999999,1.860181751764015,0.2818371919167082
-0.06868784999999999,1.860181751764015,0.2818371919167082
