Module3/data/exp2/exp2.1/modified_Common_Emitter_Amplifier_V_BE.csv

#Digilent WaveForms Oscilloscope Acquisition
#Device Name: Discovery2
#Serial Number: SN:210321AC1D4D
#Date Time: 2020-11-12 18:32:16.818
#Sample rate: 970874Hz
#Samples: 8192
#Trigger: Source: Channel 1 Type: Edge Condition: Rising Level: 0 V Hyst.: Auto HoldOff: 0 s
#Channel 1: Range: 1 V/div Offset: 0 V Attenuation: 1 X
#Channel 2: Range: 5 mV/div Offset: -520 mV Attenuation: 1 X
#Wavegen Channel 1: Running
#Mode: Simple
#Type: Sine
#Frequency: 1 kHz
#Period: 1 ms
#Amplitude: 1.5 V
#Offset: 0 V
#Symmetry: 50 %
#Phase: 0 ¡Æ
#Power Supplies: ON
#Positive Supply: ON
#Voltage: 2.5 V
#Negative Supply: ON
#Voltage: -2.5 V

Time (s),Channel 1 (V),Channel 2 (V)
-0.003051375,-0.4791570620771382,0.5201685065645054
-0.003050345,-0.475371724190664,0.5205140808790116
-0.003049315,-0.460230372644769,0.5201685065645055
-0.003048285,-0.4488743589853416,0.5198229322499989
-0.003047255,-0.4413036832123932,0.5180950606774685
-0.003046225,-0.4337330074394441,0.5180950606774685
-0.003045195,-0.4185916558935479,0.5184406349919746
-0.003044165,-0.4148063180070737,0.5191317836209869
-0.003043135,-0.4034503043476511,0.5205140808790115
-0.003042105,-0.3883089528017545,0.5208596551935177
-0.003041075,-0.3807382770288055,0.5205140808790116
-0.003040045,-0.3769529391423308,0.5198229322499993
-0.003039015,-0.365596925482904,0.519477357935493
-0.003037985,-0.3504555739370103,0.5191317836209869
-0.003036955,-0.3542409118234818,0.5187862093064809
-0.003035925,-0.3353142223911117,0.5194773579354932
-0.003034895,-0.3277435466181632,0.5208596551935177
-0.003033865,-0.3163875329587406,0.5208596551935177
-0.003032835,-0.305031519299318,0.5201685065645054
-0.003031805,-0.3012461814128434,0.5187862093064809
-0.003030775,-0.2861048298669479,0.5184406349919746
-0.003029745,-0.2747488162075247,0.5191317836209868
-0.003028715,-0.2671781404345724,0.5191317836209872
-0.003027685,-0.259607464661624,0.5208596551935177
-0.003026655,-0.2520367888886756,0.5208596551935176
-0.003025625,-0.2444661131157273,0.5198229322499992
-0.003024595,-0.2368954373427788,0.5191317836209869
-0.003023565,-0.2255394236833563,0.5180950606774685
-0.003022535,-0.2141834100239337,0.5187862093064807
-0.003021505,-0.2028273963645111,0.5191317836209869
-0.003020475,-0.199042058478036,0.5205140808790114
-0.003019445,-0.1839007069321356,0.5208596551935178
-0.003018415,-0.1725446932727124,0.5212052295080239
-0.003017385,-0.1574033417268165,0.5212052295080238
-0.003016355,-0.1498326659538684,0.5198229322499992
-0.003015325,-0.1460473280673939,0.5191317836209869
-0.003014295,-0.1309059765214971,0.5187862093064808
-0.003013265,-0.1233353007485486,0.5194773579354931
-0.003012235,-0.1157646249756003,0.5208596551935176
-0.003011205,-0.1157646249755995,0.5212052295080239
-0.003010175,-0.100623273429705,0.5212052295080239
-0.003009145,-0.08548192188380323,0.5205140808790115
-0.003008115,-0.07791124611085486,0.5201685065645055
-0.003007085,-0.0703405703379061,0.5208596551935176
-0.003006055,-0.05898455667848373,0.5194773579354931
-0.003005025,-0.05141388090553527,0.5191317836209869
-0.003003995,-0.0362725293596385,0.5194773579354931
-0.003002965,-0.02491651570021581,0.5194773579354931
-0.003001935,-0.01734583992726714,0.5194773579354931
-0.003000905,-0.009775164154318759,0.5201685065645053
-0.002999875,0.001580849505103186,0.5194773579354932
-0.002998845,0.01672220105100363,0.518786209306481
-0.002997815,0.02050753893747875,0.5198229322499993
-0.002996785,0.03186355259690072,0.5208596551935177
-0.002995755,0.03564889048337531,0.5208596551935177
-0.002994725,0.05079024202927207,0.5212052295080239
-0.002993695,0.05836091780222052,0.5208596551935177
-0.002992665,0.06971693146164289,0.5201685065645055
-0.002991635,0.08107294512106546,0.5201685065645054
-0.002990605,0.09242895878048803,0.5198229322499993
-0.002989575,0.09621429666696595,0.5198229322499994
-0.002988545,0.1037849724399149,0.5208596551935178
-0.002987515,0.1151409860993374,0.5215508038225301
-0.002986485,0.1264969997587598,0.5218963781370363
-0.002985455,0.1340676755317082,0.5212052295080239
-0.002984425,0.1454236891911308,0.5194773579354931
-0.002983395,0.1529943649640793,0.5191317836209869
-0.002982365,0.1681357165099755,0.5187862093064808
-0.002981335,0.1757063922829248,0.5187862093064808
-0.002980305,0.1870624059423467,0.5205140808790113
-0.002979275,0.1908477438288254,0.5208596551935177
-0.002978245,0.2022037574882475,0.5208596551935177
-0.002977215,0.2097744332611962,0.5205140808790115
-0.002976185,0.2211304469206186,0.5194773579354931
-0.002975155,0.228701122693567,0.5198229322499992
-0.002974125,0.2438424742394637,0.5205140808790116
-0.002973095,0.2476278121259384,0.5208596551935177
-0.002972065,0.2627691636718341,0.5212052295080239
-0.002971035,0.2703398394447835,0.5215508038225299
-0.002970005,0.2854811909906846,0.5212052295080236
-0.002968975,0.296837204650106,0.5194773579354931
-0.002967945,0.300622542536581,0.5191317836209869
-0.002966915,0.3119785561960036,0.5191317836209869
-0.002965885,0.3233345698554261,0.5198229322499992
-0.002964855,0.3309052456283745,0.5208596551935177
-0.002963825,0.3346905835148487,0.5215508038225301
-0.002962795,0.3460465971742708,0.5218963781370363
-0.002961765,0.3498319350607458,0.5208596551935178
-0.002960735,0.3574026108336936,0.5191317836209872
-0.002959705,0.3687586244931202,0.5191317836209869
-0.002958675,0.3801146381525428,0.519131783620987
-0.002957645,0.3914706518119653,0.5201685065645055
-0.002956615,0.4028266654713879,0.5218963781370363
-0.002955585,0.4141826791308105,0.5222419524515424
-0.002954555,0.4255386927902331,0.5222419524515424
-0.002953525,0.4293240306767076,0.5212052295080241
-0.002952495,0.4368947064496557,0.5205140808790117
-0.002951465,0.4406800443361303,0.5201685065645055
-0.002950435,0.4558213958820307,0.5201685065645056
-0.002949405,0.4671774095414526,0.5215508038225301
-0.002948375,0.4747480853144015,0.5215508038225301
-0.002947345,0.4861040989738236,0.5215508038225301
-0.002946315,0.489889436860298,0.5212052295080239
-0.002945285,0.5050307884061948,0.5212052295080239
-0.002944255,0.5088161262926693,0.5208596551935177
-0.002943225,0.5201721399520913,0.5208596551935177
-0.002942195,0.5353134914979876,0.5205140808790116
-0.002941165,0.5390988293844635,0.5205140808790116
-0.002940135,0.5504548430438894,0.5201685065645053
-0.002939105,0.5618108567033114,0.5198229322499993
-0.002938075,0.5693815324762598,0.5208596551935177
-0.002937045,0.5769522082492082,0.5212052295080239
-0.002936015,0.5845228840221566,0.5208596551935177
-0.002934985,0.5996642355680534,0.5205140808790116
-0.002933955,0.603449573454528,0.5212052295080238
-0.002932925,0.6110202492274761,0.5215508038225301
-0.002931895,0.6185909250004245,0.5218963781370362
-0.002930865,0.629946938659852,0.5218963781370362
-0.002929835,0.6450882902057469,0.5215508038225299
-0.002928805,0.6488736280922219,0.5208596551935176
-0.002927775,0.6602296417516442,0.5201685065645054
-0.002926745,0.6678003175245927,0.5205140808790116
-0.002925715,0.675370993297541,0.5215508038225301
-0.002924685,0.6753709932975411,0.5218963781370363
-0.002923655,0.686727006956963,0.5225875267660485
-0.002922625,0.6980830206163856,0.5215508038225302
-0.002921595,0.7018683585028609,0.5201685065645056
-0.002920565,0.7094390342758117,0.5194773579354931
-0.002919535,0.7170097100487601,0.5194773579354931
-0.002918505,0.7245803858217089,0.5198229322499993
-0.002917475,0.7359363994811312,0.5212052295080239
-0.002916445,0.7435070752540796,0.5215508038225301
-0.002915415,0.7472924131405538,0.5222419524515424
-0.002914385,0.7586484267999761,0.5218963781370363
-0.002913355,0.7662191025729247,0.5208596551935178
-0.002912325,0.7775751162323469,0.5215508038225299
-0.002911295,0.7813604541188247,0.5212052295080241
-0.002910265,0.7889311298917743,0.5215508038225303
-0.002909235,0.8040724814376702,0.5225875267660486
-0.002908205,0.8116431572106185,0.5229331010805548
-0.002907175,0.819213832983567,0.5225875267660486
-0.002906145,0.8267845087565153,0.5218963781370363
-0.002905115,0.8343551845294637,0.5208596551935178
-0.002904085,0.8419258603024121,0.5205140808790116
-0.002903055,0.8419258603024129,0.5205140808790116
-0.002902025,0.8532818739618337,0.5212052295080238
-0.002900995,0.8608525497347861,0.5222419524515424
-0.002899965,0.868423225507735,0.5222419524515424
-0.002898935,0.8797792391671567,0.5222419524515423
-0.002897905,0.8835645770536312,0.5215508038225301
-0.002896875,0.8911352528265796,0.5212052295080239
-0.002895845,0.898705928599528,0.5212052295080239
-0.002894815,0.9100619422589504,0.5212052295080239
-0.002893785,0.9138472801454252,0.5225875267660484
-0.002892755,0.9176326180318993,0.5229331010805547
-0.002891725,0.9289886316913254,0.5229331010805546
-0.002890695,0.940344645350748,0.5218963781370362
-0.002889665,0.9517006590101696,0.5212052295080238
-0.002888635,0.9554859968966439,0.5205140808790116
-0.002887605,0.9592713347831182,0.5205140808790116
-0.002886575,0.9668420105560666,0.5215508038225301
-0.002885545,0.9706273484425408,0.5218963781370363
-0.002884515,0.978198024215489,0.5218963781370363
-0.002883485,0.9895540378749111,0.5218963781370363
-0.002882455,1.000910051534334,0.520859655193518
-0.002881425,1.004695389420812,0.5208596551935176
-0.002880395,1.016051403080234,0.5205140808790116
-0.002879365,1.019836740966708,0.520859655193518
-0.002878335,1.027407416739657,0.5225875267660486
-0.002877305,1.034978092512605,0.5229331010805548
-0.002876275,1.038763430399079,0.5229331010805548
-0.002875245,1.042548768285554,0.5225875267660486
-0.002874215,1.053904781944976,0.5222419524515424
-0.002873185,1.061475457717924,0.5225875267660485
-0.002872155,1.069046133490873,0.5218963781370364
-0.002871125,1.069046133490875,0.5212052295080241
-0.002870095,1.072831471377349,0.5218963781370363
-0.002869065,1.072831471377349,0.5215508038225301
-0.002868035,1.084187485036772,0.5215508038225301
-0.002867005,1.095543498696195,0.5222419524515424
-0.002865975,1.103114174469143,0.5222419524515424
-0.002864945,1.110684850242092,0.5212052295080241
-0.002863915,1.11825552601504,0.5218963781370362
-0.002862885,1.118255526015041,0.5229331010805546
-0.002861855,1.125826201787991,0.5222419524515423
-0.002860825,1.13339687756094,0.5218963781370363
-0.002859795,1.140967553333888,0.5222419524515423
-0.002858765,1.148538229106836,0.5215508038225301
-0.002857735,1.156108904879785,0.5215508038225301
-0.002856705,1.159894242766259,0.5215508038225301
-0.002855675,1.159894242766259,0.5218963781370363
-0.002854645,1.167464918539207,0.5225875267660485
-0.002853615,1.171250256425681,0.5222419524515424
-0.002852585,1.175035594312156,0.5218963781370364
-0.002851555,1.18639160797158,0.5208596551935178
-0.002850525,1.190176945858054,0.5212052295080239
-0.002849495,1.193962283744529,0.5215508038225302
-0.002848465,1.201532959517477,0.5222419524515424
-0.002847435,1.205318297403951,0.5225875267660486
-0.002846405,1.216674311063374,0.5225875267660486
-0.002845375,1.220459648949848,0.5229331010805548
-0.002844345,1.224244986836323,0.5225875267660486
-0.002843315,1.228030324722797,0.5218963781370364
-0.002842285,1.235601000495747,0.5218963781370363
-0.002841255,1.239386338382221,0.5218963781370363
-0.002840225,1.24695701415517,0.5218963781370364
-0.002839195,1.250742352041644,0.5229331010805548
-0.002838165,1.258313027814592,0.5232786753950609
-0.002837135,1.258313027814592,0.5232786753950609
-0.002836105,1.262098365701066,0.5229331010805548
-0.002835075,1.26588370358754,0.5218963781370364
-0.002834045,1.273454379360488,0.5215508038225301
-0.002833015,1.277239717246963,0.5215508038225301
-0.002831985,1.28102505513344,0.5212052295080242
-0.002830955,1.288595730906387,0.5222419524515425
-0.002829925,1.288595730906387,0.5232786753950609
-0.002828895,1.292381068792862,0.5229331010805548
-0.002827865,1.296166406679336,0.5218963781370363
-0.002826835,1.29995174456581,0.5218963781370363
-0.002825805,1.307522420338758,0.5215508038225301
-0.002824775,1.311307758225233,0.5222419524515423
-0.002823745,1.315093096111707,0.5222419524515424
-0.002822715,1.311307758225234,0.5229331010805549
-0.002821685,1.315093096111709,0.5232786753950608
-0.002820655,1.32644910977113,0.5225875267660485
-0.002819625,1.322663771884657,0.5215508038225301
-0.002818595,1.330234447657605,0.5215508038225301
-0.002817565,1.337805123430553,0.5218963781370363
-0.002816535,1.341590461317028,0.5222419524515424
-0.002815505,1.345375799203502,0.5232786753950608
-0.002814475,1.341590461317029,0.5239698240240731
-0.002813445,1.345375799203502,0.5239698240240732
-0.002812415,1.352946474976451,0.5232786753950607
-0.002811385,1.352946474976451,0.5222419524515424
-0.002810355,1.352946474976452,0.5218963781370363
-0.002809325,1.3605171507494,0.5218963781370363
-0.002808295,1.364302488635874,0.5225875267660486
-0.002807265,1.368087826522348,0.5232786753950609
-0.002806235,1.371873164408823,0.5236242497095671
-0.002805205,1.371873164408823,0.5232786753950609
-0.002804175,1.375658502295297,0.5222419524515426
-0.002803145,1.383229178068247,0.5215508038225301
-0.002802115,1.38701451595472,0.5215508038225302
-0.002801085,1.383229178068246,0.5222419524515425
-0.002800055,1.38701451595472,0.5229331010805548
-0.002799025,1.390799853841195,0.5225875267660486
-0.002797995,1.394585191727669,0.5225875267660486
-0.002796965,1.398370529614143,0.5218963781370363
-0.002795935,1.398370529614143,0.5212052295080241
-0.002794905,1.398370529614143,0.5208596551935177
-0.002793875,1.402155867500617,0.521896378137036
-0.002792845,1.402155867500619,0.5225875267660487
-0.002791815,1.409726543273568,0.5232786753950609
-0.002790785,1.417297219046515,0.5232786753950609
-0.002789755,1.413511881160041,0.5229331010805548
-0.002788725,1.413511881160041,0.5229331010805548
-0.002787695,1.413511881160041,0.5232786753950609
-0.002786665,1.421082556932989,0.5229331010805548
-0.002785635,1.417297219046516,0.5222419524515425
-0.002784605,1.417297219046515,0.5225875267660485
-0.002783575,1.424867894819463,0.5222419524515424
-0.002782545,1.42108255693299,0.5222419524515423
-0.002781515,1.424867894819465,0.5218963781370363
-0.002780485,1.432438570592412,0.5222419524515424
-0.002779455,1.428653232705938,0.5222419524515424
-0.002778425,1.428653232705938,0.5222419524515424
-0.002777395,1.436223908478887,0.5218963781370363
-0.002776365,1.436223908478887,0.5215508038225301
-0.002775335,1.432438570592413,0.5218963781370363
-0.002774305,1.432438570592413,0.5225875267660485
-0.002773275,1.443794584251836,0.5222419524515425
-0.002772245,1.443794584251836,0.5225875267660487
-0.002771215,1.443794584251836,0.5236242497095671
-0.002770185,1.443794584251836,0.523624249709567
-0.002769155,1.443794584251836,0.5225875267660486
-0.002768125,1.44757992213831,0.5222419524515424
-0.002767095,1.440009246365362,0.5212052295080241
-0.002766065,1.443794584251835,0.5212052295080239
-0.002765035,1.447579922138309,0.5212052295080239
-0.002764005,1.44757992213831,0.5218963781370362
-0.002762975,1.44757992213831,0.523278675395061
-0.002761945,1.447579922138311,0.5239698240240732
-0.002760915,1.451365260024784,0.5243153983385793
-0.002759885,1.44757992213831,0.5225875267660486
-0.002758855,1.443794584251836,0.5222419524515424
-0.002757825,1.443794584251836,0.5218963781370363
-0.002756795,1.443794584251836,0.5218963781370363
-0.002755765,1.44757992213831,0.5222419524515424
-0.002754735,1.443794584251836,0.5229331010805547
-0.002753705,1.451365260024784,0.5232786753950608
-0.002752675,1.44757992213831,0.5225875267660485
-0.002751645,1.44757992213831,0.5215508038225299
-0.002750615,1.443794584251836,0.5208596551935177
-0.002749585,1.451365260024784,0.5205140808790116
-0.002748555,1.44757992213831,0.5208596551935177
-0.002747525,1.440009246365362,0.5218963781370362
-0.002746495,1.443794584251835,0.5232786753950608
-0.002745465,1.440009246365362,0.523624249709567
-0.002744435,1.443794584251835,0.5229331010805549
-0.002743405,1.443794584251836,0.5218963781370362
-0.002742375,1.44757992213831,0.5215508038225301
-0.002741345,1.44757992213831,0.5215508038225301
-0.002740315,1.443794584251835,0.5218963781370363
-0.002739285,1.440009246365361,0.5225875267660486
-0.002738255,1.440009246365361,0.5225875267660486
-0.002737225,1.436223908478887,0.5222419524515424
-0.002736195,1.440009246365361,0.5218963781370363
-0.002735165,1.440009246365361,0.5215508038225302
-0.002734135,1.44000924636536,0.5212052295080241
-0.002733105,1.432438570592412,0.5218963781370365
-0.002732075,1.428653232705938,0.5236242497095672
-0.002731045,1.428653232705938,0.5243153983385793
-0.002730015,1.424867894819464,0.5232786753950609
-0.002728985,1.428653232705938,0.5218963781370363
-0.002727955,1.424867894819464,0.5205140808790117
-0.002726925,1.424867894819464,0.5205140808790116
-0.002725895,1.42108255693299,0.5205140808790116
-0.002724865,1.421082556932989,0.5218963781370359
-0.002723835,1.421082556932989,0.523278675395061
-0.002722805,1.417297219046515,0.523624249709567
-0.002721775,1.413511881160041,0.5229331010805548
-0.002720745,1.413511881160041,0.5232786753950609
-0.002719715,1.413511881160041,0.5229331010805548
-0.002718685,1.409726543273567,0.5218963781370363
-0.002717655,1.402155867500618,0.5215508038225301
-0.002716625,1.402155867500618,0.5218963781370363
-0.002715595,1.39458519172767,0.5218963781370363
-0.002714565,1.398370529614143,0.5215508038225302
-0.002713535,1.398370529614143,0.5218963781370364
-0.002712505,1.394585191727668,0.5225875267660486
-0.002711475,1.38701451595472,0.5229331010805548
-0.002710445,1.38701451595472,0.5229331010805548
-0.002709415,1.383229178068246,0.5225875267660486
-0.002708385,1.383229178068246,0.5218963781370363
-0.002707355,1.375658502295298,0.5215508038225301
-0.002706325,1.375658502295297,0.5212052295080239
-0.002705295,1.36808782652235,0.5215508038225299
-0.002704265,1.368087826522348,0.5225875267660487
-0.002703235,1.364302488635875,0.5229331010805548
-0.002702205,1.368087826522348,0.5229331010805547
-0.002701175,1.3605171507494,0.5222419524515424
-0.002700145,1.356731812862926,0.5229331010805548
-0.002699115,1.352946474976451,0.5232786753950609
-0.002698085,1.349161137089977,0.5225875267660487
-0.002697055,1.349161137089977,0.5218963781370364
-0.002696025,1.341590461317029,0.5212052295080241
-0.002694995,1.337805123430552,0.5208596551935178
-0.002693965,1.330234447657605,0.5212052295080239
-0.002692935,1.330234447657604,0.5212052295080241
-0.002691905,1.32644910977113,0.5218963781370364
-0.002690875,1.322663771884656,0.5229331010805548
-0.002689845,1.318878433998182,0.5236242497095671
-0.002688815,1.315093096111708,0.5225875267660487
-0.002687785,1.311307758225233,0.520859655193518
-0.002686755,1.311307758225233,0.5212052295080239
-0.002685725,1.307522420338759,0.5215508038225299
-0.002684695,1.303737082452283,0.5222419524515425
-0.002683665,1.296166406679336,0.5229331010805549
-0.002682635,1.296166406679335,0.5236242497095671
-0.002681605,1.292381068792861,0.5232786753950608
-0.002680575,1.284810393019913,0.5215508038225301
-0.002679545,1.27345437936049,0.5208596551935177
-0.002678515,1.27345437936049,0.5208596551935177
-0.002677485,1.269669041474016,0.5208596551935177
-0.002676455,1.273454379360489,0.5222419524515421
-0.002675425,1.265883703587539,0.522933101080555
-0.002674395,1.258313027814592,0.5239698240240731
-0.002673365,1.258313027814592,0.5232786753950607
-0.002672335,1.258313027814592,0.5215508038225301
-0.002671305,1.254527689928117,0.5218963781370363
-0.002670275,1.239386338382221,0.5218963781370363
-0.002669245,1.235601000495746,0.5218963781370363
-0.002668215,1.228030324722798,0.5229331010805547
-0.002667185,1.231815662609271,0.5229331010805548
-0.002666155,1.224244986836324,0.5222419524515425
-0.002665125,1.212888973176899,0.5218963781370363
-0.002664095,1.205318297403951,0.5218963781370363
-0.002663065,1.20531829740395,0.5222419524515424
-0.002662035,1.197747621631002,0.5222419524515424
-0.002661005,1.190176945858054,0.5225875267660486
-0.002659975,1.190176945858054,0.5236242497095671
-0.002658945,1.182606270085106,0.5229331010805548
-0.002657915,1.175035594312157,0.5218963781370364
