Module3/data/exp2/exp2.1/Vin_VCE_R_adjustable_changed.csv

#Digilent WaveForms Oscilloscope Acquisition
#Device Name: Discovery2
#Serial Number: SN:210321AC1D4D
#Date Time: 2020-11-12 17:17:42.951
#Sample rate: 800000Hz
#Samples: 8192
#Trigger: Source: Channel 1 Type: Edge Condition: Rising Level: 0 V Hyst.: Auto HoldOff: 0 s
#Channel 1: Range: 1 V/div Offset: 0 V Attenuation: 1 X
#Channel 2: Range: 1 V/div Offset: 0 V Attenuation: 1 X
#Wavegen Channel 1: Running
#Mode: Simple
#Type: Sine
#Frequency: 1 kHz
#Period: 1 ms
#Amplitude: 1.5 V
#Offset: 0 V
#Symmetry: 50 %
#Phase: 0 ¡Æ
#Power Supplies: ON
#Positive Supply: ON
#Voltage: 2.5 V
#Negative Supply: OFF
#Voltage: -1 V

Time (s),Channel 1 (V),Channel 2 (V)
-0.005119375,-1.031816393502391,1.607864577733527
-0.005118125,-1.0166750419565,1.60406377522997
-0.005116875,-1.001533690410599,1.592661367719294
-0.005115625,-0.9977483525241259,1.581258960208623
-0.005114375,-0.9901776767511761,1.577458157705062
-0.005113125,-0.9788216630917517,1.569856552697944
-0.005111875,-0.9750363252052789,1.566055750194387
-0.005110625,-0.963680311545853,1.55465334268371
-0.005109375,-0.9523242978864342,1.547051737676597
-0.005108125,-0.9485389599999564,1.539450132669478
-0.005106875,-0.9371829463405378,1.531848527662365
-0.005105625,-0.9296122705675856,1.51664531764813
-0.005104375,-0.9182562569081669,1.51664531764813
-0.005103125,-0.8993295674757917,1.505242910137456
-0.005101875,-0.8917588917028416,1.497641305130337
-0.005100625,-0.8879735538163687,1.490039700123223
-0.005099375,-0.8728322022704694,1.478637292612546
-0.005098125,-0.8652615264975235,1.471035687605432
-0.005096875,-0.8576908507245721,1.463434082598313
-0.005095625,-0.8463348370651534,1.452031675087643
-0.005094375,-0.8387641612922017,1.444430070080523
-0.005093125,-0.8349788234057287,1.43682846507341
-0.005091875,-0.8198374718598305,1.433027662569849
-0.005090625,-0.8122667960868782,1.421625255059172
-0.005089375,-0.8009107824274595,1.414023650052059
-0.005088125,-0.789554768768033,1.402621242541382
-0.005086875,-0.7781987551086144,1.395019637534268
-0.005085625,-0.7668427414491882,1.383617230023591
-0.005084375,-0.7592720656762424,1.376015625016478
-0.005083125,-0.747916052016817,1.364613217505801
-0.005081875,-0.7403453762438647,1.353210809995122
-0.005080625,-0.728989362584446,1.341808402484452
-0.005079375,-0.713848011038546,1.33800759998089
-0.005078125,-0.7062773352656002,1.32660519247022
-0.005076875,-0.6949213216061743,1.319003587463101
-0.005075625,-0.6835653079467556,1.311401982455987
-0.005074375,-0.6684239564008549,1.296198772441753
-0.005073125,-0.6608532806279093,1.292397969938196
-0.005071875,-0.6532826048549583,1.284796364931078
-0.005070625,-0.6419265911955316,1.273393957420401
-0.005069375,-0.630570577536113,1.265792352413287
-0.005068125,-0.6192145638766873,1.254389944902609
-0.005066875,-0.6116438881037415,1.242987537391939
-0.005065625,-0.6002878744443161,1.23538593238482
-0.005064375,-0.5927171986713703,1.227784327377706
-0.005063125,-0.5775758471254703,1.220182722370588
-0.005061875,-0.5662198334660516,1.212581117363474
-0.005060625,-0.5548638198066251,1.197377907349239
-0.005059375,-0.5435078061471974,1.193577104845678
-0.005058125,-0.5283664546013059,1.185975499838565
-0.005056875,-0.5245811167148278,1.17077228982433
-0.005055625,-0.513225103055409,1.163170684817216
-0.005054375,-0.4980837515095076,1.155569079810096
-0.005053125,-0.4829423999636161,1.140365869795869
-0.005051875,-0.4791570620771371,1.132764264788748
-0.005050625,-0.4640157105312455,1.125162659781635
-0.005049375,-0.4488743589853435,1.113760252270958
-0.005048125,-0.4450890210988645,1.10235784476028
-0.005046875,-0.4299476695529729,1.09095543724961
-0.005045625,-0.414806318007073,1.079553029738932
-0.005044375,-0.4110209801206001,1.071951424731819
-0.005043125,-0.3958796285747007,1.060549017221142
-0.005041875,-0.384523614915282,1.056748214717586
-0.005040625,-0.3731676012558555,1.04534580720691
-0.005039375,-0.3618115875964277,1.033943399696233
-0.005038125,-0.3466702360505362,1.026341794689119
-0.005036875,-0.3315288845046369,1.018740189681999
-0.005035625,-0.327743546618164,1.007337782171329
-0.005034375,-0.3163875329587372,0.9959353746606513
-0.005033125,-0.2974608435263728,0.9883337696535379
-0.005031875,-0.2861048298669452,0.9807321646464188
-0.005030625,-0.2823194919804723,0.9693297571357485
-0.005029375,-0.2747488162075225,0.9579273496250704
-0.005028125,-0.2671781404345702,0.9541265471215074
-0.005026875,-0.2558221267751515,0.9389233371072804
-0.005025625,-0.2444661131157233,0.9275209295966019
-0.005024375,-0.2255394236833588,0.9161185220859317
-0.005023125,-0.2141834100239311,0.9085169170788118
-0.005021875,-0.2028273963645124,0.8971145095681414
-0.005020625,-0.1876860448186115,0.8857121020574633
-0.005019375,-0.1763300311591929,0.8743096945467931
-0.005018125,-0.161188679613292,0.866708089539673
-0.005016875,-0.1498326659538654,0.855305682028996
-0.005015625,-0.1384766522944467,0.8477040770218824
-0.005014375,-0.1346913144079681,0.8401024720147621
-0.005013125,-0.1195499628620765,0.8248992620005351
-0.005011875,-0.1119792870891227,0.8134968544898563
-0.005010625,-0.09305259765675823,0.8020944469791859
-0.005009375,-0.07791124611085576,0.7944928419720664
-0.005008125,-0.07412590822438285,0.7906920394685096
-0.005006875,-0.05898455667848464,0.7754888294542759
-0.005005625,-0.04762854301905901,0.7678872244471558
-0.005004375,-0.04005786724611323,0.7564848169364856
-0.005003125,-0.02491651570021203,0.7412816069222506
-0.005001875,-0.009775164154320467,0.7374808044186939
-0.005000625,0.001580849505106404,0.7298791994115758
-0.004999375,0.009151525278052184,0.7222775944044624
-0.004998125,0.0205075389374779,0.7070743843902271
-0.004996875,0.03943422836985422,0.699472779383107
-0.004995625,0.05457557991574578,0.6880703718724367
-0.004994375,0.05836091780222477,0.6842695693688751
-0.004993125,0.07350226934811632,0.6728671618582048
-0.004991875,0.08485828300754338,0.6652655568510855
-0.004990625,0.09621429666696206,0.657663951843972
-0.004989375,0.1075703103263886,0.6424607418297364
-0.004988125,0.1189263239858073,0.6310583343190661
-0.004986875,0.1302823376452338,0.6196559268083881
-0.004985625,0.1416383513046604,0.6158551243048274
-0.004984375,0.152994364964079,0.608253519297714
-0.004983125,0.1643503786235056,0.5968511117870342
-0.004981875,0.1757063922829243,0.5778470992692505
-0.004980625,0.1870624059423514,0.5778470992692465
-0.004979375,0.202203757488243,0.5702454942621329
-0.004978125,0.2135597711476701,0.5626438892550135
-0.004976875,0.2211304469206159,0.5474406792407865
-0.004975625,0.2362717984665156,0.5360382717301071
-0.004974375,0.2514131500124143,0.5284366667229884
-0.004973125,0.2551984878988872,0.5208350617158748
-0.004971875,0.2703398394447873,0.5056318517016388
-0.004970625,0.281695853104206,0.4942294441909685
-0.004969375,0.2930518667636331,0.4866278391838486
-0.004968125,0.3081932183095246,0.4752254316731783
-0.004966875,0.3157638940824782,0.4676238266660586
-0.004965625,0.3346905835148426,0.460022221658945
-0.004964375,0.3422612592877975,0.4486198141482681
-0.004963125,0.3498319350607517,0.4410182091411471
-0.004961875,0.3687586244931161,0.4258149991269201
-0.004960625,0.3801146381525428,0.422014196623358
-0.004959375,0.3876853139254886,0.4106117891126877
-0.004958125,0.39525598969844,0.4030101841055678
-0.004956875,0.4066120033578587,0.3916077765948975
-0.004955625,0.414182679130811,0.3878069740913358
-0.004954375,0.4293240306767118,0.3764045665806589
-0.004953125,0.4406800443361304,0.3688029615735454
-0.004951875,0.452036057995557,0.3612013565664256
-0.004950625,0.4633920716549756,0.3497989490557554
-0.004949375,0.4709627474279285,0.3421973440486354
-0.004948125,0.4861040989738201,0.3307949365379652
-0.004946875,0.4974601126332477,0.3231933315308455
-0.004945625,0.5126014641791393,0.315591726523732
-0.004944375,0.5277428157250413,0.3079901215166132
-0.004943125,0.5353134914979923,0.3003885165094933
-0.004941875,0.5428841672709381,0.288986108998823
-0.004940625,0.5580255188168378,0.2851853064952622
-0.004939375,0.5655961945897837,0.2775837014881487
-0.004938125,0.5769522082492097,0.262380491473914
-0.004936875,0.5883082219086283,0.2585796889703573
-0.004935625,0.6034495734545292,0.254778886466797
-0.004934375,0.6148055871139478,0.23957567645257
-0.004933125,0.6185909250004258,0.2319740714454488
-0.004931875,0.6299469386598534,0.22437246643833
-0.004930625,0.645088290205745,0.2167708614312165
-0.004929375,0.6526589659786983,0.2053684539205395
-0.004928125,0.6678003175245899,0.197766848913426
-0.004926875,0.6791563311840165,0.1939660464098659
-0.004925625,0.6867270069569623,0.1901652439063092
-0.004924375,0.6942976827299133,0.1825636388991912
-0.004923125,0.7018683585028591,0.1711612313885209
-0.004921875,0.7132243721622844,0.1635596263814009
-0.004920625,0.7170097100487633,0.1597588238778403
-0.004919375,0.7321510615946548,0.1521572188707268
-0.004918125,0.743507075254081,0.1483564163671655
-0.004916875,0.7510777510270269,0.1369540088564952
-0.004915625,0.770004440459401,0.133153206352934
-0.004914375,0.7775751162323467,0.1255516013458205
-0.004913125,0.7889311298917721,0.1179499963387018
-0.004911875,0.7965018056647232,0.1141491938351424
-0.004910625,0.804072481437669,0.1103483913315856
-0.004909375,0.8154284950970934,0.1103483913315845
-0.004908125,0.8192138329835663,0.1065475888280277
-0.004906875,0.8305698466429918,0.09894598382091145
-0.004905625,0.8419258603024105,0.1027467863244682
-0.004904375,0.8532818739618367,0.09514518131735256
-0.004903125,0.8608525497347824,0.09514518131735256
-0.004901875,0.8722085633942078,0.09134437881379422
-0.004900625,0.8797792391671601,0.08374277380668031
-0.004899375,0.8911352528265787,0.09134437881379381
-0.004898125,0.9024912664860052,0.0875435763102352
-0.004896875,0.9138472801454239,0.08374277380667844
-0.004895625,0.9214179559183749,0.0875435763102355
-0.004894375,0.9252032938048478,0.08374277380667874
-0.004893125,0.9365593074642728,0.07614116879956141
-0.004891875,0.9517006590101644,0.07614116879956141
-0.004890625,0.9668420105560666,0.07614116879956141
-0.004889375,0.9706273484425434,0.07994197130311964
-0.004888125,0.9781980242154891,0.07994197130311964
-0.004886875,0.9819833621019675,0.07234036629600318
-0.004885625,0.9971247136478589,0.07234036629600318
-0.004884375,1.008480727307285,0.07614116879956088
-0.004883125,1.012266065193758,0.07234036629600413
-0.004881875,1.019836740966708,0.06473876128888693
-0.004880625,1.031192754626127,0.06853956379244369
-0.004879375,1.038763430399079,0.06853956379244495
-0.004878125,1.046334106172029,0.06853956379244389
-0.004876875,1.050119444058502,0.06473876128888713
-0.004875625,1.057690119831455,0.06473876128888673
-0.004874375,1.07661680926382,0.06473876128888673
-0.004873125,1.076616809263824,0.06093795878532895
-0.004871875,1.08418748503677,0.0647387612888857
-0.004870625,1.099328836582669,0.06853956379244482
-0.004869375,1.103114174469149,0.06473876128888673
-0.004868125,1.11825552601504,0.06473876128888673
-0.004866875,1.129611539674464,0.0609379587853285
-0.004865625,1.129611539674464,0.0609379587853285
-0.004864375,1.140967553333888,0.06093795878532918
-0.004863125,1.148538229106834,0.06473876128888593
-0.004861875,1.156108904879785,0.0609379587853285
-0.004860625,1.163679580652731,0.0609379587853285
-0.004859375,1.171250256425682,0.0609379587853285
-0.004858125,1.17503559431216,0.0609379587853285
-0.004856875,1.186391607971579,0.0609379587853285
-0.004855625,1.18639160797158,0.05713715628176935
-0.004854375,1.190176945858053,0.05333635377821259
-0.004853125,1.201532959517478,0.05713715628177088
-0.004851875,1.209103635290424,0.06093795878532763
-0.004850625,1.220459648949849,0.05333635377821234
-0.004849375,1.228030324722795,0.0571371562817691
-0.004848125,1.228030324722797,0.05333635377821205
-0.004846875,1.239386338382223,0.05713715628177027
-0.004845625,1.246957014155168,0.05713715628177027
-0.004844375,1.254527689928119,0.05333635377821204
-0.004843125,1.262098365701065,0.05333635377821204
-0.004841875,1.269669041474015,0.05713715628176973
-0.004840625,1.269669041474015,0.05333635377821298
-0.004839375,1.281025055133439,0.05333635377821226
-0.004838125,1.284810393019911,0.05713715628176902
-0.004836875,1.292381068792861,0.05333635377821213
-0.004835625,1.296166406679337,0.05333635377821204
-0.004834375,1.29995174456581,0.05333635377821204
-0.004833125,1.303737082452287,0.05333635377821204
-0.004831875,1.315093096111705,0.05333635377821204
-0.004830625,1.318878433998182,0.04953555127465381
-0.004829375,1.318878433998182,0.04953555127465381
-0.004828125,1.326449109771131,0.05713715628177012
-0.004826875,1.334019785544081,0.05333635377821204
-0.004825625,1.337805123430553,0.05333635377821204
-0.004824375,1.341590461317028,0.05333635377821204
-0.004823125,1.341590461317028,0.05333635377821204
-0.004821875,1.349161137089979,0.04573474877109628
-0.004820625,1.360517150749397,0.04953555127465303
-0.004819375,1.364302488635875,0.04953555127465419
-0.004818125,1.368087826522348,0.05333635377821095
-0.004816875,1.371873164408823,0.04953555127465381
-0.004815625,1.383229178068247,0.04953555127465381
-0.004814375,1.38701451595472,0.04953555127465381
-0.004813125,1.387014515954721,0.05713715628177027
-0.004811875,1.390799853841194,0.05713715628177027
-0.004810625,1.398370529614143,0.04953555127465381
-0.004809375,1.39458519172767,0.04953555127465381
-0.004808125,1.402155867500618,0.05333635377821234
-0.004806875,1.409726543273564,0.0571371562817691
-0.004805625,1.405941205387092,0.04953555127465382
-0.004804375,1.417297219046517,0.05333635377821204
-0.004803125,1.424867894819463,0.05333635377821204
-0.004801875,1.428653232705939,0.04953555127465296
-0.004800625,1.432438570592412,0.04573474877109621
-0.004799375,1.428653232705939,0.04953555127465435
-0.004798125,1.436223908478885,0.05333635377821111
-0.004796875,1.440009246365361,0.04953555127465381
-0.004795625,1.440009246365361,0.04953555127465381
-0.004794375,1.44757992213831,0.05333635377821196
-0.004793125,1.443794584251838,0.04573474877109667
-0.004791875,1.451365260024784,0.04953555127465342
-0.004790625,1.455150597911259,0.04953555127465381
-0.004789375,1.455150597911259,0.04953555127465381
-0.004788125,1.462721273684207,0.04573474877109558
-0.004786875,1.462721273684207,0.04573474877109558
-0.004785625,1.466506611570682,0.04573474877109558
-0.004784375,1.466506611570682,0.04573474877109558
-0.004783125,1.470291949457156,0.04953555127465366
-0.004781875,1.474077287343631,0.04953555127465381
-0.004780625,1.474077287343631,0.04953555127465381
-0.004779375,1.474077287343631,0.04953555127465381
-0.004778125,1.474077287343631,0.04953555127465381
-0.004776875,1.477862625230105,0.05333635377821165
-0.004775625,1.477862625230105,0.04953555127465489
-0.004774375,1.485433301003054,0.04573474877109558
-0.004773125,1.485433301003054,0.04573474877109558
-0.004771875,1.485433301003054,0.04573474877109558
-0.004770625,1.48921863888953,0.04953555127465381
-0.004769375,1.496789314662476,0.04953555127465381
-0.004768125,1.50057465254895,0.04573474877109496
-0.004766875,1.493003976776004,0.0419339462675382
-0.004765625,1.496789314662477,0.0457347487710959
-0.004764375,1.50057465254895,0.04953555127465265
-0.004763125,1.496789314662477,0.04193394626753735
-0.004761875,1.500574652548951,0.04193394626753969
-0.004760625,1.500574652548951,0.04953555127465321
-0.004759375,1.50057465254895,0.04573474877109558
-0.004758125,1.496789314662477,0.04573474877109558
-0.004756875,1.496789314662477,0.04953555127465381
-0.004755625,1.50057465254895,0.04953555127465381
-0.004754375,1.500574652548951,0.04953555127465381
-0.004753125,1.500574652548951,0.04953555127465381
-0.004751875,1.500574652548951,0.04953555127465381
-0.004750625,1.500574652548951,0.04953555127465381
-0.004749375,1.500574652548951,0.04953555127465381
-0.004748125,1.500574652548951,0.04953555127465381
-0.004746875,1.500574652548951,0.04953555127465381
-0.004745625,1.500574652548951,0.04953555127465381
-0.004744375,1.496789314662478,0.04953555127465381
-0.004743125,1.500574652548951,0.04573474877109575
-0.004741875,1.496789314662478,0.04953555127465251
-0.004740625,1.500574652548951,0.04953555127465381
-0.004739375,1.50057465254895,0.04193394626753735
-0.004738125,1.496789314662477,0.04193394626753735
-0.004736875,1.496789314662477,0.05333635377821204
-0.004735625,1.496789314662477,0.05333635377821204
-0.004734375,1.496789314662476,0.04573474877109518
-0.004733125,1.48921863888953,0.04193394626753843
-0.004731875,1.489218638889528,0.04573474877109576
-0.004730625,1.489218638889525,0.05333635377821078
-0.004729375,1.48164796311658,0.04953555127465403
-0.004728125,1.489218638889527,0.05333635377821015
-0.004726875,1.485433301003054,0.04573474877109664
-0.004725625,1.485433301003053,0.04953555127465445
-0.004724375,1.48164796311658,0.0533363537782112
-0.004723125,1.485433301003053,0.05333635377821204
-0.004721875,1.477862625230107,0.05333635377821204
-0.004720625,1.477862625230105,0.05713715628177025
-0.004719375,1.474077287343631,0.05333635377821086
-0.004718125,1.474077287343631,0.0495355512746541
-0.004716875,1.466506611570681,0.05333635377821291
-0.004715625,1.462721273684208,0.05713715628176966
-0.004714375,1.462721273684206,0.05333635377821148
-0.004713125,1.45515059791126,0.04953555127465473
-0.004711875,1.451365260024784,0.05333635377821204
-0.004710625,1.447579922138311,0.05333635377821204
-0.004709375,1.44757992213831,0.0457347487710957
-0.004708125,1.447579922138309,0.04573474877109669
-0.004706875,1.443794584251836,0.04953555127465344
-0.004705625,1.440009246365361,0.04953555127465461
-0.004704375,1.440009246365361,0.05333635377821136
-0.004703125,1.436223908478886,0.05333635377821204
-0.004701875,1.42865323270594,0.05333635377821204
-0.004700625,1.421082556932989,0.05333635377821187
-0.004699375,1.417297219046517,0.04953555127465511
-0.004698125,1.421082556932989,0.05333635377821191
-0.004696875,1.413511881160041,0.05713715628176924
-0.004695625,1.413511881160041,0.05333635377821248
-0.004694375,1.405941205387092,0.05713715628177099
-0.004693125,1.405941205387092,0.06093795878532774
-0.004691875,1.398370529614142,0.06093795878532768
-0.004690625,1.390799853841197,0.05333635377821416
-0.004689375,1.390799853841195,0.05333635377821214
-0.004688125,1.387014515954719,0.05713715628177027
-0.004686875,1.383229178068246,0.05713715628177027
-0.004685625,1.371873164408822,0.05713715628177027
-0.004684375,1.368087826522349,0.05713715628177027
-0.004683125,1.360517150749399,0.0609379587853285
-0.004681875,1.356731812862926,0.0609379587853285
-0.004680625,1.352946474976451,0.05713715628177027
-0.004679375,1.349161137089978,0.05713715628177027
-0.004678125,1.341590461317028,0.05713715628177024
-0.004676875,1.337805123430555,0.05333635377821204
-0.004675625,1.341590461317028,0.05333635377821204
-0.004674375,1.330234447657604,0.05713715628177027
-0.004673125,1.326449109771131,0.05713715628177027
-0.004671875,1.318878433998181,0.06093795878532907
-0.004670625,1.315093096111708,0.06473876128888582
-0.004669375,1.311307758225232,0.06093795878532824
-0.004668125,1.299951744565814,0.05713715628177148
-0.004666875,1.288595730906387,0.06093795878532845
-0.004665625,1.288595730906385,0.06473876128888784
-0.004664375,1.281025055133439,0.06853956379244459
-0.004663125,1.281025055133437,0.06473876128888592
-0.004661875,1.277239717246965,0.06093795878532916
-0.004660625,1.269669041474013,0.06853956379244545
-0.004659375,1.254527689928122,0.0723403662960022
-0.004658125,1.254527689928117,0.06473876128888691
-0.004656875,1.250742352041645,0.06853956379244366
-0.004655625,1.243171676268695,0.06473876128888685
-0.004654375,1.23181566260927,0.06853956379244704
-0.004653125,1.228030324722798,0.07614116879956054
-0.004651875,1.220459648949848,0.06853956379244569
-0.004650625,1.220459648949848,0.07234036629600243
-0.004649375,1.212888973176899,0.07614116879956058
-0.004648125,1.20153295951748,0.06853956379244706
-0.004646875,1.190176945858054,0.06853956379244507
