Module3/data/exp2/exp2.1/Vin_VCE_R_adjustable_changed_2.csv

#Digilent WaveForms Oscilloscope Acquisition
#Device Name: Discovery2
#Seri
al Number: SN:210321AC1D4D
#Date Time: 2020-11-12 17:20:20.473
#Sample rate: 800000Hz
#Samples: 8192
#Trigger: Source: Channel 1 Type: Edge Condition: Rising Level: 0 V Hyst.: Auto HoldOff: 0 s
#Channel 1: Range: 1 V/div Offset: 0 V Attenuation: 1 X
#Channel 2: Range: 1 V/div Offset: 0 V Attenuation: 1 X
#Wavegen Channel 1: Running
#Mode: Simple
#Type: Sine
#Frequency: 1 kHz
#Period: 1 ms
#Amplitude: 1.5 V
#Offset: 0 V
#Symmetry: 50 %
#Phase: 0 ¡Æ
#Power Supplies: ON
#Positive Supply: ON
#Voltage: 2.5 V
#Negative Supply: OFF
#Voltage: -1 V

Time (s),Channel 1 (V),Channel 2 (V)
-0.00511925,-1.031816393502392,2.497252363566153
-0.005118,-1.024245717729446,2.497252363566153
-0.00511675,-1.009104366183546,2.501053166069711
-0.0051155,-1.001533690410601,2.501053166069711
-0.00511425,-0.9939630146376492,2.501053166069711
-0.005113,-0.9826070009782305,2.497252363566154
-0.00511175,-0.9750363252052785,2.501053166069711
-0.0051105,-0.9674656494323274,2.501053166069711
-0.00510925,-0.9598949736593816,2.501053166069711
-0.005108,-0.9485389599999544,2.501053166069711
-0.00510675,-0.9333976084540627,2.501053166069711
-0.0051055,-0.9296122705675851,2.501053166069711
-0.00510425,-0.9220415947946392,2.501053166069711
-0.005103,-0.9106855811352136,2.497252363566153
-0.00510175,-0.8993295674757948,2.50105316606971
-0.0051005,-0.8879735538163683,2.497252363566153
-0.00509925,-0.8841882159298906,2.50105316606971
-0.005098,-0.8728322022704719,2.497252363566153
-0.00509675,-0.8652615264975196,2.497252363566153
-0.0050955,-0.853905512838101,2.497252363566153
-0.00509425,-0.8387641612922007,2.493451561062595
-0.005093,-0.8311934855192549,2.497252363566152
-0.00509175,-0.8198374718598295,2.497252363566153
-0.0050905,-0.8122667960868837,2.50105316606971
-0.00508925,-0.8046961203139327,2.497252363566153
-0.005088,-0.7933401066545052,2.497252363566154
-0.00508675,-0.7781987551086136,2.501053166069711
-0.0050855,-0.7706280793356618,2.497252363566154
-0.00508425,-0.7630574035627159,2.50105316606971
-0.005083,-0.7479160520168158,2.504853968573268
-0.00508175,-0.736560038357397,2.497252363566155
-0.0050805,-0.7289893625844447,2.497252363566153
-0.00507925,-0.7138480110385531,2.497252363566153
-0.005078,-0.7100626731520737,2.501053166069711
-0.00507675,-0.6987066594926475,2.504853968573268
-0.0050755,-0.6873506458332288,2.501053166069712
-0.00507425,-0.6722092942873279,2.497252363566153
-0.005073,-0.6608532806279093,2.497252363566153
-0.00507175,-0.6532826048549575,2.501053166069711
-0.0050705,-0.6457119290820116,2.501053166069711
-0.00506925,-0.6305705775361119,2.501053166069711
-0.005068,-0.6229999017631596,2.501053166069711
-0.00506675,-0.6116438881037409,2.501053166069711
-0.0050655,-0.6040732123307897,2.501053166069711
-0.00506425,-0.596502536557844,2.501053166069711
-0.005063,-0.5813611850119436,2.501053166069711
-0.00506175,-0.5700051713525249,2.497252363566154
-0.0050605,-0.558649157693098,2.501053166069711
-0.00505925,-0.5435078061472064,2.501053166069711
-0.005058,-0.5359371303742532,2.501053166069711
-0.00505675,-0.5283664546013009,2.501053166069711
-0.0050555,-0.5170104409418823,2.501053166069711
-0.00505425,-0.5018690893959822,2.50105316606971
-0.005053,-0.4942984136230364,2.497252363566153
-0.00505175,-0.4829423999636105,2.493451561062595
-0.0050505,-0.4715863863041918,2.497252363566152
-0.00504925,-0.4678010484177135,2.501053166069711
-0.005048,-0.4488743589853491,2.501053166069711
-0.00504675,-0.4337330074394458,2.497252363566153
-0.0050455,-0.4261623316664935,2.497252363566153
-0.00504425,-0.4148063180070748,2.497252363566153
-0.005043,-0.4034503043476483,2.50105316606971
-0.00504175,-0.3920942906882297,2.497252363566154
-0.0050405,-0.3807382770288026,2.501053166069711
-0.00503925,-0.365596925482911,2.497252363566154
-0.005038,-0.3618115875964319,2.497252363566153
-0.00503675,-0.3428848981640674,2.50105316606971
-0.0050355,-0.3277435466181641,2.501053166069711
-0.00503425,-0.3201728708452127,2.50105316606971
-0.005033,-0.3126021950722669,2.497252363566153
-0.00503175,-0.2974608435263665,2.501053166069711
-0.0050305,-0.2861048298669479,2.501053166069711
-0.00502925,-0.2785341540939956,2.497252363566154
-0.005028,-0.2671781404345769,2.504853968573267
-0.00502675,-0.2596074646616247,2.501053166069711
-0.0050255,-0.2444661131157239,2.50105316606971
-0.00502425,-0.2331100994563052,2.497252363566153
-0.005023,-0.2255394236833521,2.497252363566153
-0.00502175,-0.2103980721374605,2.497252363566153
-0.0050205,-0.1990420584780322,2.497252363566153
-0.00501925,-0.1801153690456677,2.497252363566153
-0.005018,-0.1725446932727136,2.497252363566153
-0.00501675,-0.157403341726822,2.50105316606971
-0.0050155,-0.1460473280673943,2.501053166069711
-0.00501425,-0.1384766522944421,2.501053166069711
-0.005013,-0.1271206386350234,2.501053166069711
-0.00501175,-0.108193949202649,2.497252363566152
-0.0050105,-0.1006232734297033,2.493451561062595
-0.00500925,-0.08926725977027788,2.497252363566153
-0.005008,-0.0816965839973321,2.50105316606971
-0.00500675,-0.06655523245143236,2.501053166069711
-0.0050055,-0.05898455667848658,2.497252363566154
-0.00500425,-0.04384320513258694,2.497252363566153
-0.005003,-0.03248719147316033,2.50105316606971
-0.00500175,-0.02113117781374166,2.497252363566153
-0.0050005,-0.005989826267841555,2.497252363566153
-0.00499925,0.001580849505104225,2.497252363566153
-0.004998,0.02050753893747882,2.501053166069711
-0.00499675,0.03186355259689749,2.497252363566154
-0.0049955,0.03943422836984968,2.497252363566153
-0.00499425,0.05079024202926834,2.497252363566153
-0.004993,0.06593159357516913,2.497252363566153
-0.00499175,0.08107294512106913,2.497252363566153
-0.0049905,0.08864362089401491,2.497252363566153
-0.00498925,0.09999963455344102,2.50105316606971
-0.004988,0.1113556482128597,2.497252363566154
-0.00498675,0.1264969997587602,2.493451561062595
-0.0049855,0.134067675531706,2.501053166069709
-0.00498425,0.1492090270776058,2.493451561062594
-0.004983,0.1605650407370324,2.497252363566154
-0.00498175,0.171921054396451,2.501053166069711
-0.0049805,0.1832770680558785,2.497252363566153
-0.00497925,0.1984184196017701,2.497252363566153
-0.004978,0.2097744332611959,2.497252363566153
-0.00497675,0.2135597711476687,2.50105316606971
-0.0049755,0.228701122693568,2.497252363566153
-0.00497425,0.2400571363529867,2.50105316606971
-0.004973,0.2551984878988876,2.501053166069711
-0.00497175,0.266554501558313,2.50105316606971
-0.0049705,0.2741251773312587,2.497252363566153
-0.00496925,0.2892665288771594,2.497252363566152
-0.004968,0.300622542536578,2.493451561062595
-0.00496675,0.3081932183095314,2.501053166069711
-0.0049655,0.3271199077418958,2.501053166069711
-0.00496425,0.3422612592877985,2.501053166069711
-0.004963,0.3536172729472172,2.501053166069711
-0.00496175,0.3574026108336951,2.497252363566153
-0.0049605,0.3687586244931215,2.497252363566154
-0.00495925,0.3801146381525402,2.501053166069711
-0.004958,0.3914706518119668,2.50105316606971
-0.00495675,0.4028266654713854,2.497252363566153
-0.0049555,0.414182679130812,2.497252363566152
-0.00495425,0.4255386927902307,2.493451561062595
-0.004953,0.4406800443361316,2.493451561062594
-0.00495175,0.4520360579955502,2.493451561062594
-0.0049505,0.4558213958820283,2.504853968573269
-0.00494925,0.4671774095414546,2.501053166069711
-0.004948,0.4785334232008733,2.501053166069711
-0.00494675,0.4936747747467742,2.501053166069711
-0.0049455,0.5050307884061929,2.501053166069711
-0.00494425,0.516386802065619,2.501053166069712
-0.004943,0.5239574778385647,2.504853968573268
-0.00494175,0.5390988293844645,2.504853968573269
-0.0049405,0.5466695051574193,2.50105316606971
-0.00493925,0.5655961945897838,2.497252363566153
-0.004938,0.569381532476263,2.50105316606971
-0.00493675,0.5845228840221546,2.497252363566153
-0.0049355,0.5958788976815816,2.497252363566153
-0.00493425,0.6072349113410003,2.497252363566153
-0.004933,0.6110202492274786,2.497252363566153
-0.00493175,0.62616160077337,2.497252363566153
-0.0049305,0.629946938659849,2.501053166069711
-0.00492925,0.6413029523192779,2.504853968573269
-0.004928,0.6602296417516423,2.504853968573269
-0.00492675,0.6678003175245951,2.497252363566153
-0.0049255,0.6791563311840138,2.497252363566153
-0.00492425,0.6905123448434409,2.497252363566153
-0.004923,0.7056536963893324,2.497252363566153
-0.00492175,0.7056536963893367,2.493451561062595
-0.0049205,0.7170097100487556,2.497252363566151
-0.00491925,0.7245803858217077,2.497252363566153
-0.004918,0.7397217373676075,2.501053166069711
-0.00491675,0.7472924131405533,2.501053166069711
-0.0049155,0.7586484267999795,2.501053166069712
-0.00491425,0.7700044404593981,2.504853968573269
-0.004913,0.7813604541188247,2.501053166069712
-0.00491175,0.7927164677782433,2.504853968573268
-0.0049105,0.8002871435511951,2.501053166069711
-0.00490925,0.8040724814376681,2.501053166069711
-0.004908,0.815428495097092,2.504853968573269
-0.00490675,0.8305698466429919,2.501053166069711
-0.0049055,0.8381405224159376,2.501053166069711
-0.00490425,0.849496536075363,2.497252363566154
-0.004903,0.8570672118483088,2.50105316606971
-0.00490175,0.8646378876212599,2.497252363566153
-0.0049005,0.8722085633942056,2.497252363566153
-0.00489925,0.8835645770536311,2.501053166069711
-0.004898,0.8949205907130577,2.497252363566153
-0.00489675,0.9062766043724764,2.497252363566153
-0.0048955,0.917632618031902,2.497252363566153
-0.00489425,0.9252032938048477,2.497252363566153
-0.004893,0.9365593074642731,2.497252363566153
-0.00489175,0.944129983237219,2.497252363566153
-0.0048905,0.9517006590101706,2.497252363566153
-0.00488925,0.9668420105560622,2.50105316606971
-0.004888,0.9744126863290155,2.501053166069711
-0.00488675,0.9819833621019666,2.501053166069711
-0.0048855,0.9895540378749123,2.501053166069711
-0.00488425,0.9971247136478633,2.497252363566154
-0.004883,1.004695389420809,2.501053166069711
-0.00488175,1.012266065193761,2.497252363566153
-0.0048805,1.023622078853179,2.497252363566153
-0.00487925,1.031192754626132,2.497252363566153
-0.004878,1.046334106172023,2.497252363566153
-0.00487675,1.053904781944977,2.497252363566153
-0.0048755,1.057690119831452,2.497252363566153
-0.00487425,1.061475457717925,2.497252363566153
-0.004873,1.07283147137735,2.501053166069711
-0.00487175,1.080402147150296,2.501053166069711
-0.0048705,1.091758160809721,2.501053166069711
-0.00486925,1.095543498696194,2.497252363566154
-0.004868,1.110684850242093,2.493451561062594
-0.00486675,1.114470188128565,2.497252363566151
-0.0048655,1.125826201787989,2.501053166069711
-0.00486425,1.137182215447414,2.501053166069711
-0.004863,1.140967553333887,2.501053166069711
-0.00486175,1.152323566993311,2.501053166069711
-0.0048605,1.156108904879784,2.501053166069711
-0.00485925,1.163679580652734,2.501053166069711
-0.004858,1.175035594312153,2.501053166069711
-0.00485675,1.178820932198631,2.497252363566153
-0.0048555,1.186391607971581,2.493451561062596
-0.00485425,1.190176945858054,2.497252363566153
-0.004853,1.201532959517478,2.50105316606971
-0.00485175,1.205318297403951,2.497252363566153
-0.0048505,1.216674311063375,2.504853968573268
-0.00484925,1.220459648949848,2.497252363566155
-0.004848,1.224244986836324,2.501053166069711
-0.00484675,1.235601000495743,2.497252363566154
-0.0048455,1.243171676268695,2.497252363566153
-0.00484425,1.2431716762687,2.501053166069711
-0.004843,1.258313027814591,2.501053166069711
-0.00484175,1.265883703587542,2.50105316606971
-0.0048405,1.269669041474015,2.497252363566153
-0.00483925,1.269669041474016,2.501053166069711
-0.004838,1.277239717246962,2.497252363566154
-0.00483675,1.284810393019913,2.497252363566153
-0.0048355,1.288595730906386,2.497252363566153
-0.00483425,1.292381068792861,2.497252363566153
-0.004833,1.303737082452287,2.501053166069709
-0.00483175,1.311307758225232,2.493451561062595
-0.0048305,1.311307758225235,2.501053166069711
-0.00482925,1.31887843399818,2.501053166069711
-0.004828,1.322663771884658,2.497252363566153
-0.00482675,1.334019785544077,2.497252363566153
-0.0048255,1.33401978554408,2.497252363566153
-0.00482425,1.337805123430552,2.50105316606971
-0.004823,1.341590461317028,2.501053166069711
-0.00482175,1.352946474976453,2.501053166069711
-0.0048205,1.360517150749399,2.501053166069711
-0.00481925,1.368087826522349,2.501053166069711
-0.004818,1.368087826522349,2.501053166069711
-0.00481675,1.371873164408823,2.501053166069711
-0.0048155,1.375658502295296,2.501053166069711
-0.00481425,1.375658502295297,2.497252363566153
-0.004813,1.383229178068246,2.497252363566153
-0.00481175,1.383229178068246,2.497252363566153
-0.0048105,1.390799853841196,2.50105316606971
-0.00480925,1.394585191727669,2.497252363566153
-0.004808,1.402155867500618,2.501053166069711
-0.00480675,1.405941205387091,2.501053166069711
-0.0048055,1.405941205387093,2.501053166069711
-0.00480425,1.413511881160039,2.501053166069711
-0.004803,1.413511881160041,2.501053166069711
-0.00480175,1.417297219046517,2.497252363566154
-0.0048005,1.421082556932989,2.501053166069711
-0.00479925,1.42865323270594,2.50105316606971
-0.004798,1.436223908478886,2.497252363566153
-0.00479675,1.436223908478887,2.501053166069712
-0.0047955,1.436223908478887,2.504853968573268
-0.00479425,1.443794584251836,2.504853968573269
-0.004793,1.447579922138309,2.501053166069712
-0.00479175,1.455150597911259,2.497252363566153
-0.0047905,1.447579922138311,2.50105316606971
-0.00478925,1.451365260024784,2.497252363566153
-0.004788,1.458935935797733,2.497252363566153
-0.00478675,1.458935935797733,2.497252363566153
-0.0047855,1.462721273684208,2.501053166069711
-0.00478425,1.466506611570681,2.501053166069711
-0.004783,1.466506611570682,2.501053166069711
-0.00478175,1.466506611570682,2.497252363566154
-0.0047805,1.47407728734363,2.497252363566153
-0.00477925,1.477862625230105,2.497252363566153
-0.004778,1.477862625230105,2.497252363566153
-0.00477675,1.481647963116579,2.497252363566154
-0.0047755,1.477862625230105,2.50105316606971
-0.00477425,1.477862625230105,2.501053166069711
-0.004773,1.481647963116578,2.501053166069711
-0.00477175,1.489218638889528,2.501053166069711
-0.0047705,1.493003976776004,2.497252363566154
-0.00476925,1.496789314662476,2.501053166069711
-0.004768,1.496789314662478,2.501053166069711
-0.00476675,1.500574652548951,2.501053166069711
-0.0047655,1.496789314662477,2.497252363566153
-0.00476425,1.50057465254895,2.497252363566153
-0.004763,1.496789314662476,2.501053166069711
-0.00476175,1.493003976776003,2.497252363566154
-0.0047605,1.496789314662477,2.497252363566153
-0.00475925,1.50057465254895,2.501053166069708
-0.004758,1.496789314662477,2.493451561062595
-0.00475675,1.500574652548949,2.497252363566153
-0.0047555,1.493003976776003,2.497252363566153
-0.00475425,1.493003976776004,2.501053166069711
-0.004753,1.504359990435423,2.501053166069711
-0.00475175,1.500574652548951,2.497252363566152
-0.0047505,1.496789314662478,2.493451561062596
-0.00474925,1.504359990435425,2.497252363566153
-0.004748,1.50057465254895,2.497252363566154
-0.00474675,1.496789314662477,2.501053166069711
-0.0047455,1.496789314662477,2.497252363566155
-0.00474425,1.496789314662477,2.504853968573268
-0.004743,1.500574652548951,2.504853968573269
-0.00474175,1.500574652548951,2.501053166069712
-0.0047405,1.496789314662477,2.501053166069712
-0.00473925,1.496789314662477,2.504853968573268
-0.004738,1.496789314662477,2.501053166069711
-0.00473675,1.496789314662477,2.497252363566154
-0.0047355,1.496789314662477,2.501053166069711
-0.00473425,1.496789314662475,2.497252363566153
-0.004733,1.489218638889529,2.497252363566153
-0.00473175,1.48164796311658,2.501053166069711
-0.0047305,1.485433301003053,2.497252363566154
-0.00472925,1.485433301003054,2.497252363566153
-0.004728,1.485433301003054,2.497252363566153
-0.00472675,1.485433301003054,2.497252363566153
-0.0047255,1.481647963116579,2.497252363566155
-0.00472425,1.481647963116579,2.504853968573268
-0.004723,1.481647963116578,2.504853968573268
-0.00472175,1.474077287343632,2.501053166069712
-0.0047205,1.474077287343631,2.501053166069711
-0.00471925,1.474077287343631,2.497252363566154
-0.004718,1.470291949457156,2.501053166069711
-0.00471675,1.466506611570682,2.501053166069711
-0.0047155,1.466506611570682,2.501053166069711
-0.00471425,1.458935935797732,2.501053166069711
-0.004713,1.455150597911259,2.501053166069711
-0.00471175,1.455150597911258,2.504853968573268
-0.0047105,1.451365260024785,2.497252363566155
-0.00470925,1.44757992213831,2.501053166069711
-0.004708,1.44757992213831,2.501053166069711
-0.00470675,1.440009246365361,2.501053166069711
-0.0047055,1.436223908478888,2.497252363566153
-0.00470425,1.440009246365361,2.497252363566153
-0.004703,1.432438570592412,2.504853968573268
-0.00470175,1.428653232705939,2.501053166069712
-0.0047005,1.424867894819464,2.501053166069711
-0.00469925,1.42108255693299,2.501053166069711
-0.004698,1.413511881160041,2.493451561062595
-0.00469675,1.409726543273568,2.497252363566151
-0.0046955,1.405941205387092,2.501053166069711
-0.00469425,1.405941205387091,2.497252363566154
-0.004693,1.402155867500618,2.501053166069711
-0.00469175,1.390799853841195,2.497252363566155
-0.0046905,1.390799853841195,2.504853968573268
-0.00468925,1.383229178068246,2.501053166069712
-0.004688,1.379443840181773,2.504853968573268
-0.00468675,1.383229178068245,2.504853968573269
-0.0046855,1.368087826522354,2.501053166069712
-0.00468425,1.371873164408823,2.497252363566153
-0.004683,1.368087826522347,2.501053166069711
-0.00468175,1.360517150749401,2.501053166069711
-0.0046805,1.356731812862925,2.50105316606971
-0.00467925,1.352946474976452,2.497252363566154
-0.004678,1.349161137089976,2.504853968573269
-0.00467675,1.34159046131703,2.504853968573269
-0.0046755,1.334019785544079,2.497252363566153
-0.00467425,1.334019785544077,2.497252363566153
-0.004673,1.326449109771131,2.497252363566153
-0.00467175,1.322663771884654,2.501053166069711
-0.0046705,1.315093096111709,2.501053166069711
-0.00466925,1.311307758225232,2.501053166069711
-0.004668,1.303737082452286,2.501053166069711
-0.00466675,1.296166406679335,2.501053166069711
-0.0046655,1.288595730906389,2.497252363566154
-0.00466425,1.284810393019913,2.501053166069711
-0.004663,1.281025055133435,2.504853968573268
-0.00466175,1.269669041474016,2.501053166069712
-0.0046605,1.262098365701066,2.497252363566154
-0.00465925,1.258313027814593,2.501053166069711
-0.004658,1.250742352041643,2.504853968573268
-0.00465675,1.250742352041643,2.497252363566155
-0.0046555,1.243171676268694,2.504853968573269
-0.00465425,1.231815662609275,2.501053166069712
-0.004653,1.231815662609272,2.497252363566153
-0.00465175,1.224244986836321,2.497252363566153
-0.0046505,1.216674311063375,2.497252363566153
-0.00464925,1.212888973176897,2.501053166069711
-0.004648,1.201532959517479,2.501053166069711
-0.00464675,1.197747621631001,2.497252363566153
-0.0046455,1.190176945858056,2.497252363566153
-0.00464425,1.17882093219863,2.501053166069711
-0.004643,1.167464918539211,2.501053166069711
-0.00464175,1.159894242766259,2.501053166069711
-0.0046405,1.156108904879783,2.493451561062595
-0.00463925,1.148538229106837,2.497252363566152
-0.004638,1.140967553333886,2.493451561062596
-0.00463675,1.13339687756094,2.50105316606971
-0.0046355,1.125826201787988,2.497252363566153
-0.00463425,1.11447018812857,2.497252363566153
-0.004633,1.103114174469144,2.501053166069711
-0.00463175,1.103114174469142,2.501053166069711
-0.0046305,1.099328836582669,2.501053166069711
-0.00462925,1.091758160809718,2.50105316606971
-0.004628,1.080402147150299,2.497252363566153
-0.00462675,1.069046133490873,2.501053166069711
-0.0046255,1.061475457717927,2.501053166069711
-0.00462425,1.053904781944976,2.501053166069711
-0.004623,1.04633410617203,2.501053166069711
-0.00462175,1.038763430399079,2.501053166069711
-0.0046205,1.031192754626127,2.504853968573267
-0.00461925,1.019836740966709,2.497252363566153
-0.004618,1.008480727307282,2.50105316606971
-0.00461675,0.9971247136478633,2.497252363566153
-0.0046155,0.9895540378749111,2.497252363566153
