Module3/data/exp2/exp2.1/Vin_VCE.csv

#Digilent WaveForms Oscilloscope Acquisition
#Device Name: Discovery2
#Serial Number: SN:210321AC1D4D
#Date Time: 2020-11-12 17:16:54.277
#Sample rate: 800000Hz
#Samples: 8192
#Trigger: Source: Channel 1 Type: Edge Condition: Rising Level: 0 V Hyst.: Auto HoldOff: 0 s
#Channel 1: Range: 1 V/div Offset: 0 V Attenuation: 1 X
#Channel 2: Range: 1 V/div Offset: 0 V Attenuation: 1 X
#Wavegen Channel 1: Running
#Mode: Simple
#Type: Sine
#Frequency: 1 kHz
#Period: 1 ms
#Amplitude: 1.5 V
#Offset: 0 V
#Symmetry: 50 %
#Phase: 0 ¡Æ
#Power Supplies: ON
#Positive Supply: ON
#Voltage: 2.5 V
#Negative Supply: OFF
#Voltage: -1 V

Time (s),Channel 1 (V),Channel 2 (V)
-0.0051190625,-1.028031055615922,2.497252363566153
-0.0051178125,-1.020460379842971,2.497252363566153
-0.0051165625,-1.009104366183546,2.497252363566153
-0.0051153125,-1.005319028297074,2.497252363566153
-0.0051140625,-0.997748352524121,2.493451561062595
-0.0051128125,-0.9826070009782294,2.497252363566152
-0.0051115625,-0.9750363252052767,2.493451561062595
-0.0051103125,-0.963680311545858,2.497252363566152
-0.0051090625,-0.9561096357729058,2.501053166069711
-0.0051078125,-0.9447536221134871,2.497252363566154
-0.0051065625,-0.9371829463405349,2.501053166069711
-0.0051053125,-0.9296122705675816,2.497252363566153
-0.0051040625,-0.91447091902169,2.497252363566153
-0.0051028125,-0.903114905362264,2.497252363566154
-0.0051015625,-0.8955442295893183,2.501053166069711
-0.0051003125,-0.8879735538163672,2.501053166069711
-0.0050990625,-0.8804028780434214,2.501053166069711
-0.0050978125,-0.8728322022704702,2.501053166069711
-0.0050965625,-0.8614761886110516,2.501053166069711
-0.0050953125,-0.850120174951625,2.497252363566153
-0.0050940625,-0.8425494991786727,2.501053166069712
-0.0050928125,-0.8311934855192541,2.504853968573269
-0.0050915625,-0.8198374718598284,2.50105316606971
-0.0050903125,-0.8122667960868826,2.497252363566153
-0.0050890625,-0.8046961203139311,2.497252363566153
-0.0050878125,-0.7933401066545124,2.497252363566153
-0.0050865625,-0.7781987551086115,2.501053166069711
-0.0050853125,-0.7668427414491928,2.501053166069711
-0.0050840625,-0.7592720656762405,2.501053166069711
-0.0050828125,-0.7517013899032874,2.497252363566153
-0.0050815625,-0.7365600383573957,2.497252363566153
-0.0050803125,-0.7327747004709169,2.489650758559038
-0.0050790625,-0.7176333489250253,2.497252363566151
-0.0050778125,-0.7024919973791239,2.497252363566153
-0.0050765625,-0.6949213216061783,2.50105316606971
-0.0050753125,-0.6835653079467527,2.501053166069711
-0.0050740625,-0.6722092942873275,2.501053166069712
-0.0050728125,-0.6646386185143818,2.504853968573269
-0.0050715625,-0.6532826048549564,2.501053166069711
-0.0050703125,-0.6457119290820105,2.501053166069711
-0.0050690625,-0.6381412533090588,2.497252363566153
-0.0050678125,-0.6267852396496402,2.497252363566153
-0.0050665625,-0.6154292259902137,2.501053166069711
-0.0050653125,-0.6040732123307949,2.501053166069711
-0.0050640625,-0.5927171986713684,2.497252363566153
-0.0050628125,-0.581361185011943,2.493451561062597
-0.0050615625,-0.5737905092389973,2.501053166069711
-0.0050603125,-0.562434495579571,2.493451561062594
-0.0050590625,-0.5510784819201524,2.493451561062594
-0.0050578125,-0.5359371303742514,2.497252363566153
-0.0050565625,-0.5245811167148328,2.497252363566153
-0.0050553125,-0.5132251030554068,2.493451561062595
-0.0050540625,-0.5094397651689339,2.497252363566151
-0.0050528125,-0.4980837515095097,2.497252363566153
-0.0050515625,-0.4829423999636088,2.493451561062596
-0.0050503125,-0.4715863863041901,2.497252363566152
-0.0050490625,-0.4640157105312363,2.501053166069711
-0.0050478125,-0.4450890210988719,2.501053166069711
-0.0050465625,-0.4337330074394445,2.493451561062595
-0.0050453125,-0.4261623316664988,2.501053166069709
-0.0050440625,-0.4110209801205987,2.501053166069711
-0.0050428125,-0.3996649664611801,2.497252363566154
-0.0050415625,-0.3920942906882278,2.497252363566153
-0.0050403125,-0.3807382770288014,2.497252363566154
-0.0050390625,-0.3693822633693827,2.501053166069711
-0.0050378125,-0.3580262497099562,2.50105316606971
-0.0050365625,-0.3466702360505375,2.497252363566154
-0.0050353125,-0.3353142223911105,2.497252363566153
-0.0050340625,-0.3201728708452189,2.497252363566153
-0.0050328125,-0.3163875329587398,2.497252363566153
-0.0050315625,-0.2974608435263648,2.493451561062597
-0.0050303125,-0.2861048298669461,2.501053166069711
-0.0050290625,-0.2785341540939939,2.50105316606971
-0.0050278125,-0.2671781404345753,2.497252363566153
-0.0050265625,-0.2558221267751487,2.497252363566153
-0.0050253125,-0.2444661131157301,2.497252363566153
-0.0050240625,-0.2293247615698295,2.497252363566153
-0.0050228125,-0.2217540857968837,2.497252363566153
-0.0050215625,-0.2103980721374583,2.493451561062594
-0.0050203125,-0.1990420584780317,2.497252363566153
-0.0050190625,-0.1876860448186131,2.497252363566153
-0.0050178125,-0.1725446932727122,2.501053166069711
-0.0050165625,-0.1611886796132935,2.501053166069711
-0.0050153125,-0.146047328067392,2.504853968573269
-0.0050140625,-0.1309059765215005,2.501053166069712
-0.0050128125,-0.1233353007485474,2.501053166069711
-0.0050115625,-0.1119792870891287,2.501053166069711
-0.0050103125,-0.1006232734297022,2.497252363566153
-0.0050090625,-0.08926725977027448,2.497252363566154
-0.0050078125,-0.07412590822438292,2.501053166069711
-0.0050065625,-0.06276989456495685,2.497252363566154
-0.0050053125,-0.05519921879201108,2.501053166069711
-0.0050040625,-0.04005786724611082,2.497252363566153
-0.0050028125,-0.02870185358669215,2.497252363566153
-0.0050015625,-0.0173458399272656,2.497252363566153
-0.0050003125,-0.005989826267846933,2.50105316606971
-0.0049990625,0.005366187391579616,2.501053166069711
-0.0049978125,0.01293686316453392,2.501053166069711
-0.0049965625,0.03186355259689837,2.501053166069711
-0.0049953125,0.04321956625632574,2.497252363566153
-0.0049940625,0.05457557991574441,2.497252363566153
-0.0049928125,0.06593159357517096,2.497252363566153
-0.0049915625,0.07728760723458963,2.497252363566153
-0.0049903125,0.09242895878049066,2.497252363566153
-0.0049890625,0.1075703103263914,2.501053166069711
-0.0049878125,0.1189263239858101,2.501053166069711
-0.0049865625,0.1302823376452357,2.497252363566153
-0.0049853125,0.1378530134181815,2.497252363566153
-0.0049840625,0.1529943649640819,2.493451561062594
-0.0049828125,0.1643503786235005,2.493451561062594
-0.0049815625,0.1719210543964531,2.493451561062594
-0.0049803125,0.1870624059423447,2.493451561062594
-0.0049790625,0.1984184196017723,2.493451561062594
-0.0049778125,0.2059890953747233,2.489650758559037
-0.0049765625,0.2135597711476691,2.489650758559037
-0.0049753125,0.2249157848070963,2.489650758559035
-0.0049740625,0.2400571363529878,2.482049153551921
-0.0049728125,0.2551984878988905,2.48204915355192
-0.0049715625,0.274125177331255,2.478248351048363
-0.0049703125,0.2816958531042085,2.474447548544803
-0.0049690625,0.2892665288771544,2.466845943537689
-0.0049678125,0.3006225425365797,2.466845943537687
-0.0049665625,0.3119785561960074,2.466845943537685
-0.0049653125,0.327119907741899,2.459244338530571
-0.0049640625,0.338475921401325,2.455443536027011
-0.0049628125,0.3460465971742708,2.451642733523455
-0.0049615625,0.3536172729472218,2.451642733523454
-0.0049603125,0.3611879487201676,2.447841931019897
-0.0049590625,0.3801146381525417,2.444041128516337
-0.0049578125,0.3876853139254875,2.436439523509224
-0.0049565625,0.4066120033578614,2.425037115998547
-0.0049553125,0.4141826791308137,2.4288379185021
-0.0049540625,0.4255386927902324,2.413634708487874
-0.0049528125,0.4368947064496589,2.41363470848787
-0.0049515625,0.4482507201090776,2.402232300977199
-0.0049503125,0.463392071654978,2.398431498473638
-0.0049490625,0.4709627474279238,2.390829893466525
-0.0049478125,0.4823187610873494,2.383228288459406
-0.0049465625,0.4936747747467785,2.379427485955846
-0.0049453125,0.5126014641791429,2.375626683452289
-0.0049440625,0.5163868020656222,2.364224275941613
-0.0049428125,0.5315281536115137,2.356622670934499
-0.0049415625,0.54288416727094,2.34902106592738
-0.0049403125,0.5504548430438858,2.341419460920267
-0.0049390625,0.5655961945897852,2.333817855913148
-0.0049378125,0.569381532476258,2.326216250906035
-0.0049365625,0.5807375461356824,2.326216250906032
-0.0049353125,0.5958788976815833,2.314813843395357
-0.0049340625,0.6072349113410019,2.3110130408918
-0.0049328125,0.6148055871139542,2.303411435884682
-0.0049315625,0.6261616007733728,2.299610633381125
-0.0049303125,0.6337322765463257,2.284407423366891
-0.0049290625,0.6488736280922172,2.276805818359777
-0.0049278125,0.660229641751644,2.273005015856217
-0.0049265625,0.6640149796381168,2.265403410849103
-0.0049253125,0.6753709932975411,2.257801805841984
-0.0049240625,0.6829416690704956,2.254001003338424
-0.0049228125,0.7018683585028601,2.24639939833131
-0.0049215625,0.709439034275812,2.238797793324192
-0.0049203125,0.7170097100487579,2.234996990820636
-0.0049190625,0.7283657237081838,2.227395385813517
-0.0049178125,0.7397217373676025,2.215992978302847
-0.0049165625,0.7548630889135028,2.208391373295727
-0.0049153125,0.7586484267999758,2.20459057079217
-0.0049140625,0.7700044404593999,2.196988965785053
-0.0049128125,0.7813604541188264,2.185586558274377
-0.0049115625,0.792716467778245,2.18178575577082
-0.0049103125,0.800287143551198,2.170383348260144
-0.0049090625,0.8154284950970896,2.16278174325303
-0.0049078125,0.8267845087565159,2.158980940749469
-0.0049065625,0.8305698466429888,2.147578533238799
-0.0049053125,0.8419258603024132,2.136176125728121
-0.0049040625,0.8494965360753629,2.136176125728118
-0.0049028125,0.8532818739618359,2.128574520721005
-0.0049015625,0.8684232255077343,2.117172113210328
-0.0049003125,0.8722085633942073,2.109570508203214
-0.0048990625,0.8873499149401065,2.101968903196095
-0.0048978125,0.8949205907130523,2.090566495685425
-0.0048965625,0.9062766043724777,2.090566495685421
-0.0048953125,0.9138472801454234,2.079164088174751
-0.0048940625,0.9252032938048488,2.071562483167631
-0.0048928125,0.9327739695778023,2.063960878160512
-0.0048915625,0.9479153211236939,2.056359273153399
-0.0048903125,0.9592713347831189,2.044956865642722
-0.0048890625,0.9630566726695917,2.037355260635608
-0.0048878125,0.9706273484425435,2.033554458132049
-0.0048865625,0.985768699988435,2.033554458132049
-0.0048853125,0.9933393757613881,2.018351248117816
-0.0048840625,1.004695389420807,2.010749643110702
-0.0048828125,1.008480727307285,2.010749643110699
-0.0048815625,1.023622078853184,1.999347235600025
-0.0048803125,1.03119275462613,1.999347235600025
-0.0048790625,1.034978092512607,1.991745630592907
-0.0048778125,1.042548768285553,1.984144025585793
-0.0048765625,1.050119444058504,1.980343223082232
-0.0048753125,1.061475457717923,1.968940815571562
-0.0048740625,1.069046133490875,1.957538408060884
-0.0048728125,1.072831471377347,1.957538408060884
-0.0048715625,1.080402147150297,1.953737605557326
-0.0048703125,1.091758160809723,1.942335198046649
-0.0048690625,1.099328836582669,1.934733593039536
-0.0048678125,1.103114174469146,1.930932790535975
-0.0048665625,1.114470188128565,1.923331185528862
-0.0048653125,1.129611539674464,1.915729580521744
-0.0048640625,1.133396877560937,1.911928778018187
-0.0048628125,1.140967553333887,1.900526370507511
-0.0048615625,1.14475289122036,1.892924765500397
-0.0048603125,1.156108904879784,1.889123962996837
-0.0048590625,1.167464918539209,1.889123962996834
-0.0048578125,1.171250256425681,1.881522357989721
-0.0048565625,1.178820932198633,1.873920752982603
-0.0048553125,1.190176945858052,1.870119950479046
-0.0048540625,1.193962283744529,1.862518345471928
-0.0048528125,1.197747621631001,1.854916740464815
-0.0048515625,1.205318297403951,1.851115937961254
-0.0048503125,1.212888973176902,1.847315135457694
-0.0048490625,1.220459648949848,1.843514332954138
-0.0048478125,1.228030324722799,1.832111925443462
-0.0048465625,1.235601000495745,1.828311122939905
-0.0048453125,1.243171676268696,1.824510320436346
-0.0048440625,1.250742352041642,1.824510320436346
-0.0048428125,1.258313027814592,1.824510320436345
-0.0048415625,1.262098365701065,1.809307110422118
-0.0048403125,1.265883703587541,1.805506307918555
-0.0048390625,1.273454379360492,1.801705505414996
-0.0048378125,1.281025055133438,1.797904702911439
-0.0048365625,1.284810393019914,1.794103900407879
-0.0048353125,1.29238106879286,1.786502295400765
-0.0048340625,1.29995174456581,1.778900690393647
-0.0048328125,1.303737082452284,1.77509988789009
-0.0048315625,1.311307758225233,1.771299085386531
-0.0048303125,1.311307758225233,1.763697480379417
-0.0048290625,1.318878433998182,1.759896677875856
-0.0048278125,1.322663771884657,1.756095875372296
-0.0048265625,1.32644910977113,1.748494270365182
-0.0048253125,1.334019785544081,1.748494270365181
-0.0048240625,1.341590461317027,1.744693467861624
-0.0048228125,1.345375799203503,1.737091862854507
-0.0048215625,1.352946474976449,1.737091862854507
-0.0048203125,1.356731812862926,1.733291060350949
-0.0048190625,1.360517150749398,1.733291060350949
-0.0048178125,1.364302488635874,1.729490257847391
-0.0048165625,1.368087826522351,1.721888652840273
-0.0048153125,1.375658502295296,1.718087850336717
-0.0048140625,1.387014515954721,1.718087850336716
-0.0048128125,1.390799853841194,1.718087850336716
-0.0048115625,1.390799853841195,1.714287047833157
-0.0048103125,1.394585191727668,1.710486245329601
-0.0048090625,1.398370529614143,1.706685442826041
-0.0048078125,1.398370529614146,1.710486245329597
-0.0048065625,1.405941205387092,1.702884640322484
-0.0048053125,1.405941205387094,1.699083837818923
-0.0048040625,1.41351188116004,1.69148223281181
-0.0048028125,1.413511881160042,1.691482232811808
-0.0048015625,1.421082556932988,1.687681430308251
-0.0048003125,1.428653232705938,1.683880627804692
-0.0047990625,1.424867894819465,1.680079825301135
-0.0047978125,1.432438570592413,1.676279022797575
-0.0047965625,1.440009246365359,1.672478220294016
-0.0047953125,1.432438570592413,1.668677417790459
-0.0047940625,1.440009246365361,1.668677417790459
-0.0047928125,1.440009246365361,1.668677417790459
-0.0047915625,1.443794584251837,1.661075812783344
-0.0047903125,1.451365260024783,1.668677417790457
-0.0047890625,1.458935935797733,1.664876615286901
-0.0047878125,1.45515059791126,1.661075812783344
-0.0047865625,1.458935935797733,1.653474207776226
-0.0047853125,1.462721273684209,1.653474207776225
-0.0047840625,1.466506611570681,1.649673405272668
-0.0047828125,1.462721273684207,1.653474207776226
-0.0047815625,1.462721273684207,1.653474207776226
-0.0047803125,1.466506611570683,1.653474207776225
-0.0047790625,1.474077287343629,1.645872602769112
-0.0047778125,1.470291949457156,1.64587260276911
-0.0047765625,1.474077287343629,1.64587260276911
-0.0047753125,1.485433301003053,1.642071800265552
-0.0047740625,1.485433301003054,1.645872602769108
-0.0047728125,1.485433301003054,1.638270997761994
-0.0047715625,1.485433301003054,1.642071800265551
-0.0047703125,1.485433301003054,1.638270997761994
-0.0047690625,1.493003976776002,1.638270997761993
-0.0047678125,1.493003976776002,1.638270997761993
-0.0047665625,1.489218638889528,1.638270997761993
-0.0047653125,1.493003976776002,1.638270997761993
-0.0047640625,1.493003976776002,1.638270997761993
-0.0047628125,1.500574652548949,1.638270997761993
-0.0047615625,1.493003976776003,1.638270997761993
-0.0047603125,1.500574652548951,1.634470195258434
-0.0047590625,1.500574652548951,1.630669392754878
-0.0047578125,1.500574652548951,1.634470195258436
-0.0047565625,1.496789314662478,1.638270997761992
-0.0047553125,1.493003976776002,1.642071800265551
-0.0047540625,1.50057465254895,1.638270997761992
-0.0047528125,1.496789314662477,1.634470195258435
-0.0047515625,1.500574652548951,1.630669392754878
-0.0047503125,1.500574652548951,1.634470195258434
-0.0047490625,1.504359990435425,1.642071800265551
-0.0047478125,1.500574652548952,1.638270997761994
-0.0047465625,1.496789314662477,1.638270997761993
-0.0047453125,1.496789314662477,1.638270997761993
-0.0047440625,1.496789314662477,1.634470195258435
-0.0047428125,1.496789314662476,1.642071800265553
-0.0047415625,1.493003976776003,1.645872602769109
-0.0047403125,1.496789314662476,1.642071800265552
-0.0047390625,1.493003976776003,1.645872602769109
-0.0047378125,1.493003976776003,1.642071800265551
-0.0047365625,1.496789314662476,1.642071800265551
-0.0047353125,1.489218638889528,1.649673405272668
-0.0047340625,1.489218638889528,1.653474207776225
-0.0047328125,1.485433301003054,1.653474207776226
-0.0047315625,1.489218638889528,1.645872602769113
-0.0047303125,1.489218638889528,1.657275010279783
-0.0047290625,1.485433301003054,1.653474207776228
-0.0047278125,1.485433301003054,1.661075812783341
-0.0047265625,1.481647963116579,1.6648766152869
-0.0047253125,1.477862625230106,1.657275010279786
-0.0047240625,1.477862625230105,1.657275010279784
-0.0047228125,1.477862625230105,1.657275010279787
-0.0047215625,1.477862625230105,1.6648766152869
-0.0047203125,1.470291949457156,1.668677417790459
-0.0047190625,1.470291949457156,1.668677417790459
-0.0047178125,1.474077287343629,1.676279022797576
-0.0047165625,1.466506611570683,1.680079825301133
-0.0047153125,1.462721273684207,1.680079825301134
-0.0047140625,1.458935935797734,1.680079825301134
-0.0047128125,1.458935935797733,1.683880627804692
-0.0047115625,1.451365260024783,1.687681430308251
-0.0047103125,1.44757992213831,1.691482232811808
-0.0047090625,1.447579922138309,1.69148223281181
-0.0047078125,1.443794584251836,1.699083837818924
-0.0047065625,1.440009246365361,1.702884640322483
-0.0047053125,1.436223908478888,1.702884640322483
-0.0047040625,1.436223908478887,1.702884640322483
-0.0047028125,1.428653232705941,1.70668544282604
-0.0047015625,1.428653232705938,1.714287047833158
-0.0047003125,1.424867894819463,1.714287047833159
-0.0046990625,1.42108255693299,1.718087850336716
-0.0046978125,1.413511881160042,1.718087850336717
-0.0046965625,1.417297219046515,1.721888652840274
-0.0046953125,1.409726543273566,1.729490257847391
-0.0046940625,1.405941205387093,1.733291060350948
-0.0046928125,1.405941205387092,1.733291060350949
-0.0046915625,1.402155867500619,1.733291060350949
-0.0046903125,1.398370529614144,1.740892665358065
-0.0046890625,1.394585191727665,1.744693467861624
-0.0046878125,1.379443840181773,1.744693467861624
-0.0046865625,1.375658502295297,1.748494270365184
-0.0046853125,1.371873164408824,1.759896677875854
-0.0046840625,1.368087826522348,1.763697480379415
-0.0046828125,1.360517150749402,1.763697480379415
-0.0046815625,1.356731812862926,1.771299085386532
-0.0046803125,1.356731812862922,1.778900690393649
-0.0046790625,1.345375799203503,1.782701492897206
-0.0046778125,1.341590461317027,1.786502295400765
-0.0046765625,1.337805123430554,1.790303097904322
-0.0046753125,1.32644910977113,1.794103900407882
-0.0046740625,1.322663771884657,1.801705505414996
-0.0046728125,1.318878433998182,1.809307110422113
-0.0046715625,1.318878433998182,1.809307110422113
-0.0046703125,1.311307758225233,1.81690871542923
-0.0046690625,1.303737082452284,1.816908715429234
-0.0046678125,1.303737082452284,1.828311122939904
-0.0046665625,1.292381068792861,1.832111925443463
-0.0046653125,1.292381068792861,1.832111925443463
-0.0046640625,1.284810393019912,1.839713530450581
-0.0046628125,1.277239717246966,1.847315135457694
-0.0046615625,1.269669041474015,1.847315135457696
-0.0046603125,1.262098365701069,1.85491674046481
-0.0046590625,1.262098365701066,1.862518345471929
-0.0046578125,1.250742352041642,1.862518345471932
-0.0046565625,1.24695701415517,1.873920752982602
-0.0046553125,1.239386338382219,1.88152235798972
-0.0046540625,1.231815662609273,1.88152235798972
-0.0046528125,1.224244986836323,1.892924765500394
-0.0046515625,1.220459648949849,1.892924765500394
-0.0046503125,1.212888973176899,1.900526370507511
-0.0046490625,1.205318297403954,1.908127975514625
-0.0046478125,1.201532959517477,1.911928778018186
-0.0046465625,1.193962283744526,1.919530383025303
-0.0046453125,1.18639160797158,1.92333118552886
-0.0046440625,1.175035594312155,1.934733593039536
-0.0046428125,1.167464918539209,1.938534395543093
