Module3/data/exp2/exp2.1/Vin_VBE_R_adjustable_changed_2.csv

#Digilent WaveForms Oscilloscope Acquisition
#Device Name: Discovery2
#Serial Number: SN:210321AC1D4D
#Date Time: 2020-11-12 17:19:44.464
#Sample rate: 800000Hz
#Samples: 8192
#Trigger: Source: Channel 1 Type: Edge Condition: Rising Level: 0 V Hyst.: Auto HoldOff: 0 s
#Channel 1: Range: 1 V/div Offset: 0 V Attenuation: 1 X
#Channel 2: Range: 1 V/div Offset: 0 V Attenuation: 1 X
#Wavegen Channel 1: Running
#Mode: Simple
#Type: Sine
#Frequency: 1 kHz
#Period: 1 ms
#Amplitude: 1.5 V
#Offset: 0 V
#Symmetry: 50 %
#Phase: 0 ¡Æ
#Power Supplies: ON
#Positive Supply: ON
#Voltage: 2.5 V
#Negative Supply: OFF
#Voltage: -1 V

Time (s),Channel 1 (V),Channel 2 (V)
-0.00511875,-1.024245717729445,-0.1519069814139323
-0.0051175,-1.020460379842969,-0.1519069814139312
-0.00511625,-1.012889704070023,-0.1481061789103745
-0.005115,-1.005319028297071,-0.1519069814139323
-0.00511375,-0.990177676751179,-0.1519069814139323
-0.0051125,-0.9863923388647003,-0.1443053764068154
-0.00511125,-0.9750363252052817,-0.1405045739032586
-0.00511,-0.9674656494323294,-0.1405045739032575
-0.00510875,-0.9523242978864311,-0.136703771399702
-0.0051075,-0.9485389599999583,-0.1443053764068155
-0.00510625,-0.9409682842270065,-0.1367037713996994
-0.005105,-0.9296122705675878,-0.1367037713996994
-0.00510375,-0.9220415947946342,-0.1329029688961411
-0.0051025,-0.9031149053622698,-0.1329029688961411
-0.00510125,-0.8955442295893171,-0.1329029688961408
-0.0051,-0.8955442295893171,-0.129102166392584
-0.00509875,-0.8804028780434195,-0.129102166392583
-0.0050975,-0.8690468643839941,-0.1367037713996945
-0.00509625,-0.8614761886110485,-0.1215005613854675
-0.005095,-0.8501201749516222,-0.1215005613854665
-0.00509375,-0.8387641612922034,-0.1215005613854665
-0.0050925,-0.8311934855192518,-0.1215005613854671
-0.00509125,-0.8236228097463061,-0.1253013638890238
-0.00509,-0.8160521339733547,-0.1215005613854662
-0.00508875,-0.8046961203139361,-0.1176997588819094
-0.0050875,-0.7933401066545096,-0.11389895637835
-0.00508625,-0.7819840929950819,-0.1138989563783477
-0.005085,-0.7668427414491903,-0.1062973513712342
-0.00508375,-0.7630574035627138,-0.110098153874791
-0.0050825,-0.7592720656762409,-0.1062973513712342
-0.00508125,-0.7441307141303413,-0.106297351371233
-0.00508,-0.7327747004709226,-0.1024965488676763
-0.00507875,-0.72520402469797,-0.0986957463641171
-0.0050775,-0.7062773352656055,-0.0986957463641171
-0.00507625,-0.6987066594926508,-0.0986957463641171
-0.005075,-0.6873506458332242,-0.0986957463641171
-0.00507375,-0.6759946321738056,-0.0986957463641171
-0.0050725,-0.6684239564008534,-0.09489494386055887
-0.00507125,-0.6570679427414347,-0.09489494386055887
-0.00507,-0.6419265911955343,-0.0910941413570002
-0.00506875,-0.6343559154225884,-0.08729333885344344
-0.0050675,-0.6267852396496373,-0.08729333885344255
-0.00506625,-0.6154292259902108,-0.09109414135700064
-0.005065,-0.6040732123307921,-0.09109414135700064
-0.00506375,-0.596502536557839,-0.08729333885344241
-0.0050625,-0.5813611850119473,-0.08729333885344241
-0.00506125,-0.5700051713525204,-0.08349253634988418
-0.00506,-0.5586491576931016,-0.08349253634988418
-0.00505875,-0.5472931440336755,-0.07969173384632595
-0.0050575,-0.5397224682607298,-0.07969173384632595
-0.00505625,-0.5283664546013043,-0.07589093134276773
-0.005055,-0.5170104409418778,-0.0758909313427665
-0.00505375,-0.5056544272824591,-0.07209012883920975
-0.0050525,-0.4980837515095059,-0.06828932633565035
-0.00505125,-0.4829423999636144,-0.06448852383209359
-0.00505,-0.4753717241906616,-0.06068772132853481
-0.00504875,-0.464015710531243,-0.06068772132853481
-0.0050475,-0.4488743589853418,-0.06448852383209246
-0.00504625,-0.4337330074394502,-0.05688691882497894
-0.005045,-0.4261623316664969,-0.05688691882497658
-0.00504375,-0.4148063180070715,-0.06068772132853251
-0.0050425,-0.4072356422341257,-0.05308611632141901
-0.00504125,-0.3920942906882243,-0.05308611632141836
-0.00504,-0.3769529391423327,-0.05308611632141836
-0.00503875,-0.3693822633693793,-0.0454845113143019
-0.0050375,-0.3542409118234878,-0.0454845113143019
-0.00503625,-0.3466702360505349,-0.0530861163214177
-0.005035,-0.3390995602775891,-0.04168370881074744
-0.00503375,-0.3239582087316896,-0.04548451131430181
-0.0050325,-0.3126021950722607,-0.03788290630718544
-0.00503125,-0.2936755056398963,-0.03788290630718544
-0.00503,-0.2823194919804697,-0.03408210380362798
-0.00502875,-0.2747488162075239,-0.03788290630718474
-0.0050275,-0.2671781404345719,-0.02648049879651076
-0.00502625,-0.2520367888886804,-0.02648049879651076
-0.005025,-0.2444661131157271,-0.03028130130006913
-0.00502375,-0.2293247615698263,-0.0340821038036233
-0.0050225,-0.2179687479104077,-0.02267969629295303
-0.00502125,-0.2103980721374545,-0.02267969629295353
-0.00502,-0.1952567205915629,-0.02648049879651028
-0.00501875,-0.1801153690456629,-0.01887889378939499
-0.0050175,-0.17633003115919,-0.02267969629295175
-0.00501625,-0.1611886796132903,-0.0150780912858357
-0.005015,-0.1460473280673987,-0.01127728878227894
-0.00501375,-0.1384766522944454,-0.01127728878227778
-0.0050125,-0.1233353007485421,-0.007476486278720849
-0.00501125,-0.1044086113161776,-0.0112772887822776
-0.00501,-0.1044086113161728,-0.01507809128583423
-0.00500875,-0.0892672597702812,-0.007476486278720718
-0.0050075,-0.07412590822438096,-0.007476486278719004
-0.00500625,-0.07034057033790808,-0.003675683775162249
-0.005005,-0.05141388090553483,0.003925921231954766
-0.00500375,-0.04384320513258905,0.000125118728398011
-0.0050025,-0.02491651570021497,0.003925921231955062
-0.00500125,-0.01734583992726392,0.003925921231956226
-0.005,-0.009775164154318136,0.007726723735512981
-0.00499875,0.00915152527805597,0.007726723735514145
-0.0049975,0.01672220105100175,0.0115275262390709
-0.00499625,0.02807821471042714,0.01532832874263083
-0.004995,0.03564889048337291,0.02292993374974434
-0.00499375,0.05079024202927289,0.02292993374974621
-0.0049925,0.06214625568869156,0.02292993374974621
-0.00499125,0.08107294512106666,0.02673073625330435
-0.00499,0.09242895878049229,0.02292993374974729
-0.00498875,0.09999963455343808,0.02673073625330405
-0.0049875,0.111355648212865,0.03053153875686267
-0.00498625,0.1264969997587566,0.03053153875686267
-0.004985,0.1378530134181838,0.02673073625330444
-0.00498375,0.1492090270776025,0.02673073625330444
-0.0049825,0.1643503786235032,0.03053153875686297
-0.00498125,0.1719210543964582,0.03813314376397781
-0.00498,0.1908477438288226,0.03433234126042106
-0.00497875,0.2059890953747218,0.03813314376397912
-0.0049775,0.2097744332611947,0.03813314376397912
-0.00497625,0.2173451090341467,0.04193394626753805
-0.004975,0.2324864605800383,0.0457347487710948
-0.00497375,0.2438424742394656,0.04953555127465342
-0.0049725,0.2551984878988843,0.04573474877109667
-0.00497125,0.2665545015583109,0.04953555127465389
-0.00497,0.2816958531042105,0.05333635377821204
-0.00496875,0.2892665288771563,0.05333635377821204
-0.0049675,0.2968372046501092,0.05713715628177027
-0.00496625,0.3119785561960007,0.05713715628177027
-0.004965,0.3233345698554277,0.0609379587853285
-0.00496375,0.3346905835148464,0.0609379587853285
-0.0049625,0.3460465971742733,0.0609379587853285
-0.00496125,0.3611879487201649,0.0609379587853285
-0.00496,0.3687586244931182,0.06473876128888673
-0.00495875,0.3763293002660693,0.06853956379244262
-0.0049575,0.383899976039015,0.06093795878532911
-0.00495625,0.3990413275849156,0.06473876128888929
-0.004955,0.4103973412443343,0.07614116879955957
-0.00495375,0.4255386927902358,0.07614116879956141
-0.0049525,0.4406800443361273,0.07614116879956141
-0.00495125,0.4482507201090807,0.07614116879956165
-0.00495,0.4633920716549722,0.07994197130311841
-0.00494875,0.4709627474279257,0.0837427738066778
-0.0049475,0.4823187610873533,0.08374277380667897
-0.00494625,0.4974601126332449,0.08754357631023571
-0.004945,0.5012454505197238,0.0875435763102361
-0.00494375,0.5163868020656154,0.0875435763102361
-0.0049425,0.5277428157250427,0.09514518131735208
-0.00494125,0.5390988293844613,0.09134437881379533
-0.00494,0.5542401809303622,0.09134437881379449
-0.00493875,0.5655961945897809,0.09514518131735124
-0.0049375,0.5731668703627332,0.09514518131735256
-0.00493625,0.5807375461356852,0.09894598382091077
-0.004935,0.5920935597951039,0.09894598382091077
-0.00493375,0.5996642355680561,0.09894598382091219
-0.0049325,0.6110202492274748,0.1065475888280257
-0.00493125,0.618590925000427,0.1065475888280272
-0.00493,0.6299469386598456,0.1065475888280272
-0.00492875,0.6413029523192723,0.1065475888280272
-0.0049275,0.6564443038651744,0.1065475888280285
-0.00492625,0.6715856554110659,0.1103483913315852
-0.004925,0.6791563311840183,0.1103483913315864
-0.00492375,0.690512344843437,0.1141491938351432
-0.0049225,0.6980830206163892,0.1103483913315861
-0.00492125,0.7094390342758078,0.1141491938351428
-0.00492,0.7207950479352341,0.1141491938351443
-0.00491875,0.7283657237081799,0.1217507988422578
-0.0049175,0.7359363994811309,0.1217507988422602
-0.00491625,0.7472924131405563,0.1255516013458172
-0.004915,0.7548630889135021,0.1217507988422604
-0.00491375,0.7662191025729291,0.1255516013458192
-0.0049125,0.7813604541188207,0.129352403849376
-0.00491125,0.7927164677782473,0.1293524038493766
-0.00491,0.8002871435511931,0.1293524038493766
-0.00490875,0.8116431572106187,0.1293524038493769
-0.0049075,0.8229991708700374,0.1331532063529336
-0.00490625,0.8305698466429897,0.136954008856493
-0.004905,0.8381405224159418,0.1331532063529348
-0.00490375,0.8494965360753605,0.1331532063529348
-0.0049025,0.860852549734787,0.1369540088564938
-0.00490125,0.8722085633942057,0.1407548113600506
-0.0049,0.8797792391671568,0.144555613863609
-0.00489875,0.8835645770536298,0.1407548113600523
-0.0048975,0.8987059285995285,0.1407548113600513
-0.00489625,0.9024912664860012,0.1407548113600513
-0.004895,0.9214179559183737,0.1445556138636094
-0.00489375,0.9252032938048507,0.1483564163671667
-0.0048925,0.9327739695777966,0.14455561386361
-0.00489125,0.9479153211236963,0.1521572188707267
-0.00489,0.955485996896642,0.1559580213742835
-0.00488875,0.9592713347831192,0.152157218870726
-0.0048875,0.9706273484425378,0.152157218870726
-0.00488625,0.9781980242154901,0.1559580213742841
-0.004885,0.9895540378749166,0.1521572188707272
-0.00488375,1.000910051534335,0.155958021374284
-0.0048825,1.008480727307286,0.1597588238778424
-0.00488125,1.012266065193759,0.1597588238778424
-0.00488,1.031192754626131,0.1635596263814
-0.00487875,1.034978092512604,0.1597588238778433
-0.0048775,1.03876343039908,0.163559626381401
-0.00487625,1.050119444058499,0.1673604288849578
-0.004875,1.057690119831451,0.1635596263814006
-0.00487375,1.065260795604402,0.163559626381403
-0.0048725,1.072831471377348,0.1711612313885165
-0.00487125,1.084187485036773,0.1711612313885162
-0.00487,1.091758160809719,0.1673604288849595
-0.00486875,1.09932883658267,0.1711612313885182
-0.0048675,1.106899512355616,0.1787628363956318
-0.00486625,1.118255526015041,0.1749620338920756
-0.004865,1.122040863901514,0.1787628363956323
-0.00486375,1.137182215447412,0.1825636388991917
-0.0048625,1.140967553333888,0.1787628363956336
-0.00486125,1.144752891220361,0.1787628363956336
-0.00486,1.156108904879787,0.1825636388991918
-0.00485875,1.167464918539206,0.1825636388991918
-0.0048575,1.175035594312157,0.1825636388991923
-0.00485625,1.17882093219863,0.186364441402749
-0.004855,1.18639160797158,0.1863644414027502
-0.00485375,1.193962283744525,0.190165243906307
-0.0048525,1.205318297403951,0.1901652439063083
-0.00485125,1.2128889731769,0.1901652439063093
-0.00485,1.2128889731769,0.193966046409866
-0.00484875,1.22045964894985,0.190165243906309
-0.0048475,1.228030324722796,0.1939660464098657
-0.00484625,1.235601000495748,0.1939660464098669
-0.004845,1.250742352041639,0.1977668489134237
-0.00484375,1.250742352041644,0.1977668489134246
-0.0048425,1.262098365701068,0.1939660464098665
-0.00484125,1.265883703587541,0.1939660464098665
-0.00484,1.269669041474017,0.201567651416982
-0.00483875,1.277239717246963,0.1977668489134252
-0.0048375,1.281025055133439,0.1977668489134241
-0.00483625,1.284810393019912,0.1939660464098673
-0.004835,1.296166406679336,0.1977668489134247
-0.00483375,1.296166406679336,0.1977668489134247
-0.0048325,1.307522420338759,0.201567651416983
-0.00483125,1.307522420338761,0.2053684539205424
-0.00483,1.315093096111707,0.2091692564240991
-0.00482875,1.322663771884657,0.2053684539205412
-0.0048275,1.32644910977113,0.2053684539205412
-0.00482625,1.334019785544081,0.2091692564240994
-0.004825,1.341590461317026,0.2091692564240994
-0.00482375,1.337805123430554,0.2091692564240997
-0.0048225,1.341590461317027,0.2129700589276564
-0.00482125,1.352946474976451,0.2053684539205413
-0.00482,1.356731812862927,0.2167708614312158
-0.00481875,1.360517150749399,0.2167708614312158
-0.0048175,1.364302488635876,0.216770861431215
-0.00481625,1.371873164408822,0.2129700589276583
-0.004815,1.375658502295298,0.2129700589276571
-0.00481375,1.383229178068244,0.2091692564241004
-0.0048125,1.38701451595472,0.2129700589276576
-0.00481125,1.38701451595472,0.2129700589276576
-0.00481,1.394585191727669,0.2167708614312157
-0.00480875,1.402155867500619,0.2167708614312169
-0.0048075,1.405941205387092,0.2205716639347737
-0.00480625,1.41351188116004,0.2167708614312158
-0.004805,1.409726543273567,0.2167708614312158
-0.00480375,1.417297219046516,0.2205716639347741
-0.0048025,1.421082556932988,0.2205716639347741
-0.00480125,1.42108255693299,0.2167708614312161
-0.0048,1.424867894819463,0.2243724664383323
-0.00479875,1.42108255693299,0.2243724664383323
-0.0047975,1.432438570592413,0.2205716639347741
-0.00479625,1.436223908478887,0.2205716639347741
-0.004795,1.440009246365362,0.2243724664383316
-0.00479375,1.443794584251835,0.2205716639347749
-0.0047925,1.447579922138311,0.2243724664383327
-0.00479125,1.451365260024783,0.2281732689418894
-0.00479,1.455150597911259,0.2205716639347741
-0.00478875,1.462721273684207,0.2243724664383311
-0.0047875,1.462721273684207,0.2205716639347744
-0.00478625,1.466506611570682,0.2243724664383323
-0.004785,1.466506611570682,0.2243724664383323
-0.00478375,1.466506611570682,0.2205716639347747
-0.0047825,1.470291949457155,0.2243724664383314
-0.00478125,1.474077287343631,0.2243724664383326
-0.00478,1.474077287343631,0.2281732689418894
-0.00477875,1.477862625230105,0.2243724664383323
-0.0047775,1.481647963116579,0.2243724664383312
-0.00477625,1.481647963116579,0.2205716639347744
-0.004775,1.485433301003054,0.2205716639347749
-0.00477375,1.485433301003054,0.2243724664383316
-0.0047725,1.485433301003054,0.2281732689418916
-0.00477125,1.489218638889527,0.2357748739490051
-0.00477,1.485433301003054,0.2319740714454488
-0.00476875,1.489218638889527,0.2319740714454488
-0.0047675,1.493003976776002,0.2281732689418907
-0.00476625,1.493003976776002,0.2319740714454467
-0.004765,1.493003976776002,0.2243724664383331
-0.00476375,1.496789314662476,0.2243724664383323
-0.0047625,1.493003976776003,0.2243724664383323
-0.00476125,1.496789314662477,0.2281732689418906
-0.00476,1.50057465254895,0.2281732689418906
-0.00475875,1.500574652548951,0.2319740714454489
-0.0047575,1.500574652548952,0.2357748739490057
-0.00475625,1.504359990435425,0.231974071445449
-0.004755,1.508145328321899,0.2319740714454478
-0.00475375,1.504359990435426,0.228173268941891
-0.0047525,1.496789314662478,0.2281732689418912
-0.00475125,1.504359990435424,0.231974071445448
-0.00475,1.500574652548952,0.2281732689418906
-0.00474875,1.508145328321898,0.2281732689418906
-0.0047475,1.504359990435425,0.2281732689418905
-0.00474625,1.504359990435423,0.2243724664383347
-0.004745,1.496789314662477,0.2319740714454482
-0.00474375,1.500574652548951,0.2243724664383332
-0.0047425,1.500574652548951,0.22817326894189
-0.00474125,1.50057465254895,0.2281732689418906
-0.00474,1.496789314662478,0.2281732689418906
-0.00473875,1.496789314662477,0.2281732689418903
-0.0047375,1.496789314662477,0.2243724664383335
-0.00473625,1.493003976776002,0.2281732689418905
-0.004735,1.493003976776001,0.2319740714454465
-0.00473375,1.489218638889528,0.224372466438333
-0.0047325,1.493003976776002,0.2281732689418906
-0.00473125,1.493003976776002,0.2281732689418906
-0.00473,1.489218638889527,0.2243724664383318
-0.00472875,1.485433301003054,0.220571663934775
-0.0047275,1.485433301003054,0.2243724664383323
-0.00472625,1.485433301003054,0.2243724664383323
-0.004725,1.481647963116579,0.2205716639347742
-0.00472375,1.477862625230105,0.2205716639347751
-0.0047225,1.477862625230105,0.2243724664383319
-0.00472125,1.474077287343629,0.2205716639347741
-0.00472,1.466506611570683,0.2205716639347741
-0.00471875,1.466506611570682,0.2243724664383314
-0.0047175,1.466506611570682,0.2167708614312179
-0.00471625,1.458935935797733,0.2205716639347741
-0.004715,1.46650661157068,0.2205716639347728
-0.00471375,1.462721273684208,0.216770861431216
-0.0047125,1.455150597911259,0.2205716639347731
-0.00471125,1.455150597911259,0.2167708614312163
-0.00471,1.455150597911257,0.2243724664383309
-0.00470875,1.447579922138312,0.2167708614312174
-0.0047075,1.451365260024784,0.2205716639347741
-0.00470625,1.447579922138311,0.2205716639347741
-0.004705,1.443794584251836,0.2243724664383322
-0.00470375,1.44000924636536,0.2167708614312158
-0.0047025,1.436223908478887,0.2167708614312158
-0.00470125,1.428653232705938,0.2129700589276586
-0.0047,1.428653232705938,0.2167708614312153
-0.00469875,1.424867894819463,0.2091692564241
-0.0046975,1.42108255693299,0.2129700589276568
-0.00469625,1.413511881160041,0.2129700589276576
-0.004695,1.417297219046514,0.2129700589276576
-0.00469375,1.405941205387092,0.2091692564240994
-0.0046925,1.40594120538709,0.2053684539205435
-0.00469125,1.398370529614144,0.212970058927657
-0.00469,1.394585191727669,0.2091692564240986
-0.00468875,1.394585191727669,0.2053684539205418
-0.0046875,1.38701451595472,0.2015676514169835
-0.00468625,1.383229178068247,0.2053684539205402
-0.004685,1.375658502295297,0.2091692564240989
-0.00468375,1.375658502295297,0.2015676514169854
-0.0046825,1.368087826522349,0.2015676514169829
-0.00468125,1.364302488635873,0.2015676514169819
-0.00468,1.3605171507494,0.1977668489134251
-0.00467875,1.356731812862923,0.1977668489134247
-0.0046775,1.345375799203505,0.1977668489134247
-0.00467625,1.337805123430553,0.1977668489134252
-0.004675,1.334019785544081,0.2015676514169819
-0.00467375,1.330234447657605,0.1977668489134246
-0.0046725,1.322663771884655,0.1939660464098665
-0.00467125,1.318878433998182,0.1939660464098665
-0.00467,1.311307758225232,0.1901652439063083
-0.00466875,1.307522420338759,0.1901652439063083
-0.0046675,1.303737082452282,0.1939660464098658
-0.00466625,1.292381068792864,0.190165243906309
-0.004665,1.296166406679335,0.1901652439063079
-0.00466375,1.292381068792863,0.1863644414027511
-0.0046625,1.281025055133438,0.18636444140275
-0.00466125,1.273454379360488,0.1863644414027475
-0.00466,1.269669041474015,0.178762836395634
-0.00465875,1.265883703587538,0.1825636388991918
-0.0046575,1.254527689928119,0.1825636388991918
-0.00465625,1.250742352041642,0.1825636388991924
-0.004655,1.243171676268696,0.1863644414027492
-0.00465375,1.23938633838222,0.1863644414027497
-0.0046525,1.231815662609274,0.182563638899193
-0.00465125,1.224244986836323,0.1787628363956336
-0.00465,1.216674311063372,0.1787628363956324
-0.00464875,1.209103635290426,0.1749620338920757
-0.0046475,1.201532959517475,0.1749620338920745
-0.00464625,1.193962283744529,0.1711612313885177
-0.004645,1.182606270085105,0.1711612313885171
-0.00464375,1.178820932198632,0.1711612313885171
-0.0046425,1.175035594312155,0.1711612313885171
-0.00464125,1.159894242766264,0.1711612313885171
-0.00464,1.156108904879785,0.1711612313885171
-0.00463875,1.148538229106832,0.1673604288849589
-0.0046375,1.137182215447414,0.1673604288849589
-0.00463625,1.133396877560936,0.1635596263813999
-0.004635,1.122040863901517,0.1597588238778431
-0.00463375,1.114470188128566,0.1559580213742847
-0.0046325,1.10689951235562,0.1597588238778414
-0.00463125,1.099328836582669,0.1559580213742844
-0.00463,1.091758160809716,0.1597588238778411
-0.00462875,1.080402147150298,0.1559580213742844
