Module3/data/exp2/exp2.1/Vin_VBE.csv

#Digilent WaveForms Oscilloscope Acquisition
#Device Name: Discovery2
#Serial Number: SN:210321AC1D4D
#Date Time: 2020-11-12 17:13:21.799
#Sample rate: 800000Hz
#Samples: 8192
#Trigger: Source: Channel 1 Type: Edge Condition: Rising Level: 0 V Hyst.: Auto HoldOff: 0 s
#Channel 1: Range: 1 V/div Offset: 0 V Attenuation: 1 X
#Channel 2: Range: 1 V/div Offset: 0 V Attenuation: 1 X
#Wavegen Channel 1: Running
#Mode: Simple
#Type: Sine
#Frequency: 1 kHz
#Period: 1 ms
#Amplitude: 1.5 V
#Offset: 0 V
#Symmetry: 50 %
#Phase: 0 ¡Æ
#Power Supplies: ON
#Positive Supply: ON
#Voltage: 2.5 V
#Negative Supply: OFF
#Voltage: -1 V

Time (s),Channel 1 (V),Channel 2 (V)
-0.005119583333333334,-1.020460379842972,0.04953555127465381
-0.005118333333333333,-1.016675041956496,0.04953555127465437
-0.005117083333333334,-1.00910436618355,0.05713715628176787
-0.005115833333333333,-0.9977483525241249,0.05713715628177027
-0.005114583333333333,-0.9939630146376458,0.06093795878533189
-0.005113333333333333,-0.9788216630917542,0.07234036629600216
-0.005112083333333333,-0.9712509873188025,0.07614116879956223
-0.005110833333333334,-0.9636803115458569,0.07994197130311899
-0.005109583333333333,-0.9523242978864315,0.0837427738066789
-0.005108333333333334,-0.9447536221134856,0.0913443788137924
-0.005107083333333333,-0.9371829463405345,0.09134437881379454
-0.005105833333333334,-0.9258269326811157,0.09514518131735128
-0.005104583333333333,-0.9220415947946377,0.1027467863244688
-0.005103333333333333,-0.9144709190216836,0.1027467863244701
-0.005102083333333333,-0.8955442295893192,0.1065475888280268
-0.005100833333333333,-0.8841882159298933,0.1065475888280272
-0.005099583333333334,-0.8804028780434204,0.1065475888280272
-0.005098333333333333,-0.8690468643839957,0.1141491938351446
-0.005097083333333334,-0.86147618861105,0.1217507988422581
-0.005095833333333333,-0.8501201749516246,0.1255516013458184
-0.005094583333333333,-0.8425494991786709,0.125551601345821
-0.005093333333333333,-0.8274081476327795,0.1331532063529345
-0.005092083333333333,-0.819837471859827,0.1331532063529368
-0.005090833333333333,-0.8084814582004083,0.1407548113600503
-0.005089583333333333,-0.8009107824274568,0.1445556138636102
-0.005088333333333334,-0.793340106654511,0.148356416367167
-0.005087083333333333,-0.7781987551086109,0.1521572188707263
-0.005085833333333334,-0.7668427414491923,0.1559580213742831
-0.005084583333333333,-0.7592720656762402,0.1635596263814007
-0.005083333333333333,-0.7479160520168148,0.1673604288849601
-0.005082083333333333,-0.740345376243869,0.1711612313885169
-0.005080833333333333,-0.7327747004709161,0.1749620338920772
-0.005079583333333334,-0.7176333489250245,0.1825636388991907
-0.005078333333333333,-0.7062773352655974,0.1825636388991936
-0.005077083333333334,-0.6949213216061788,0.1939660464098638
-0.005075833333333333,-0.6873506458332266,0.1939660464098671
-0.005074583333333334,-0.675994632173808,0.2015676514169805
-0.005073333333333333,-0.660853280627907,0.2053684539205411
-0.005072083333333333,-0.6494972669684816,0.2129700589276588
-0.005070833333333333,-0.6419265911955359,0.2167708614312155
-0.005069583333333333,-0.6305705775361097,0.2205716639347749
-0.005068333333333334,-0.6192145638766909,0.2243724664383317
-0.005067083333333333,-0.607858550217265,0.2281732689418916
-0.005065833333333334,-0.6002878744443191,0.2357748739490051
-0.005064583333333333,-0.5851465228984196,0.2395756764525654
-0.005063333333333334,-0.5813611850119467,0.2433764789561222
-0.005062083333333333,-0.5700051713525227,0.2471772814596816
-0.005060833333333333,-0.5624344955795705,0.2509780839632409
-0.005059583333333333,-0.5510784819201519,0.2547788864667977
-0.005058333333333333,-0.5321517924877772,0.2585796889703572
-0.005057083333333334,-0.5245811167148315,0.2623804914739139
-0.005055833333333333,-0.5170104409418796,0.2661812939774741
-0.005054583333333334,-0.5018690893959881,0.2775837014881444
-0.005053333333333333,-0.4867277378500861,0.2775837014881476
-0.005052083333333333,-0.4753717241906621,0.2813845039917083
-0.005050833333333333,-0.4715863863041893,0.2889861089988219
-0.005049583333333333,-0.4564450347582887,0.2927869115023814
-0.005048333333333333,-0.4450890210988701,0.2965877140059381
-0.005047083333333333,-0.4375183453259178,0.2965877140059393
-0.005045833333333334,-0.4261623316664992,0.3003885165094961
-0.005044583333333333,-0.4148063180070722,0.3117909240201716
-0.005043333333333334,-0.3996649664611807,0.3117909240201716
-0.005042083333333333,-0.3845236149152788,0.3155917265237299
-0.005040833333333333,-0.3769529391423265,0.3231933315308487
-0.005039583333333333,-0.3655969254829078,0.3307949365379622
-0.005038333333333333,-0.3580262497099547,0.3345957390415218
-0.005037083333333334,-0.3428848981640631,0.3383965415450786
-0.005035833333333333,-0.3315288845046355,0.3421973440486392
-0.005034583333333334,-0.3163875329587439,0.3535997515593094
-0.005033333333333333,-0.3088168571857908,0.3535997515593123
-0.005032083333333334,-0.2974608435263721,0.3574005540628691
-0.005030833333333333,-0.2861048298669456,0.3650021590699868
-0.005029583333333333,-0.2747488162075179,0.365002159069988
-0.005028333333333333,-0.2596074646616264,0.3688029615735446
-0.005027083333333333,-0.2520367888886739,0.3802053690842197
-0.005025833333333334,-0.2406807752292552,0.3802053690842197
-0.005024583333333333,-0.2331100994563025,0.3916077765948944
-0.005023333333333334,-0.2179687479104109,0.3916077765948944
-0.005022083333333333,-0.2028273963645091,0.3954085790984531
-0.005020833333333334,-0.1914713827050904,0.4030101841055665
-0.005019583333333333,-0.1839007069321381,0.4068109866091272
-0.005018333333333333,-0.1687593553862384,0.4106117891126887
-0.005017083333333333,-0.1611886796132926,0.422014196623359
-0.005015833333333333,-0.1460473280673913,0.422014196623361
-0.005014583333333334,-0.1309059765214998,0.4258149991269177
-0.005013333333333333,-0.1195499628620725,0.4334166041340353
-0.005012083333333334,-0.1081939492026538,0.4372174066375921
-0.005010833333333333,-0.104408611316176,0.4372174066375934
-0.005009583333333333,-0.09305259765674684,0.4448190116447122
-0.005008333333333333,-0.07412590822438239,0.4524206166518257
-0.005007083333333333,-0.06276989456495352,0.452420616651829
-0.005005833333333333,-0.04384320513258908,0.4638230241624993
-0.005004583333333333,-0.03627252935963732,0.4676238266660596
-0.005003333333333334,-0.03248719147316442,0.4714246291696164
-0.005002083333333333,-0.009775164154316748,0.4752254316731762
-0.005000833333333334,-0.002204488381370968,0.4828270366802897
-0.004999583333333333,0.005366187391580135,0.4866278391838501
-0.004998333333333333,0.01672220105100914,0.4904286416874107
-0.004997083333333333,0.03564889048337359,0.4980302466945243
-0.004995833333333333,0.0470049041427997,0.5018310491980839
-0.004994583333333334,0.05457557991574548,0.5056318517016407
-0.004993333333333333,0.06971693146164583,0.5132334567087589
-0.004992083333333334,0.0810729451210645,0.5208350617158725
-0.004990833333333333,0.08485828300754233,0.524635864219433
-0.004989583333333334,0.09621429666696102,0.5322374692265465
-0.004988333333333333,0.122711661872285,0.536038271730107
-0.004987083333333333,0.1302823376452372,0.5360382717301093
-0.004985833333333333,0.1416383513046559,0.5436398767372228
-0.004984583333333333,0.149209027077608,0.5474406792407818
-0.004983333333333334,0.1605650407370267,0.5474406792407818
-0.004982083333333333,0.1757063922829282,0.558843086751457
-0.004980833333333334,0.1908477438288197,0.5626438892550137
-0.004979583333333333,0.1908477438288243,0.566444691758573
-0.004978333333333334,0.2059890953747159,0.5702454942621299
-0.004977083333333333,0.2249157848070923,0.5740462967656892
-0.004975833333333333,0.2287011226935702,0.5740462967656904
-0.004974583333333333,0.2400571363529889,0.5778470992692472
-0.004973333333333333,0.2589838257853642,0.5816479017728066
-0.004972083333333334,0.2703398394447828,0.5854487042763633
-0.004970833333333333,0.2816958531042089,0.5892495067799227
-0.004969583333333334,0.2892665288771547,0.5930503092834795
-0.004968333333333333,0.3006225425365804,0.5968511117870386
-0.004967083333333334,0.315763894082472,0.5968511117870386
-0.004965833333333333,0.330905245628374,0.6006519142905968
-0.004964583333333333,0.3422612592877997,0.6006519142905969
-0.004963333333333333,0.3498319350607455,0.6006519142905969
-0.004962083333333333,0.3574026108336979,0.6044527167941566
-0.004960833333333334,0.3725439623795895,0.6120543218012701
-0.004959583333333333,0.3838999760390164,0.6120543218012716
-0.004958333333333334,0.3914706518119622,0.6120543218012716
-0.004957083333333333,0.4066120033578619,0.6120543218012717
-0.004955833333333333,0.4103973412443436,0.6196559268083893
-0.004954583333333333,0.4331093685631809,0.6234567293119461
-0.004953333333333333,0.4444653822226063,0.6234567293119454
-0.004952083333333334,0.4482507201090792,0.6196559268083887
-0.004950833333333333,0.459606733768504,0.6310583343190628
-0.004949583333333334,0.4671774095414498,0.6310583343190628
-0.004948333333333333,0.4823187610873502,0.6310583343190628
-0.004947083333333334,0.4974601126332417,0.6310583343190628
-0.004945833333333333,0.5088161262926695,0.6272575318155045
-0.004944583333333333,0.5201721399520949,0.6348591368226222
-0.004943333333333333,0.5277428157250407,0.6386599393261789
-0.004942083333333333,0.5428841672709412,0.6386599393261793
-0.004940833333333334,0.5542401809303599,0.6386599393261793
-0.004939583333333333,0.5655961945897859,0.6386599393261798
-0.004938333333333334,0.5731668703627316,0.6424607418297366
-0.004937083333333333,0.5807375461356832,0.6424607418297374
-0.004935833333333334,0.5958788976815748,0.6424607418297374
-0.004934583333333333,0.6034495734545282,0.6424607418297374
-0.004933333333333333,0.6148055871139546,0.6462615443332945
-0.004932083333333333,0.6261616007733734,0.6424607418297378
-0.004930833333333333,0.6375176144327999,0.6424607418297382
-0.004929583333333334,0.6488736280922185,0.646261544333295
-0.004928333333333333,0.6602296417516451,0.6500623468368535
-0.004927083333333334,0.6715856554110637,0.6462615443332966
-0.004925833333333333,0.6791563311840159,0.6500623468368539
-0.004924583333333334,0.6867270069569616,0.6500623468368539
-0.004923333333333333,0.6980830206163868,0.6500623468368539
-0.004922083333333333,0.7094390342758133,0.6500623468368529
-0.004920833333333333,0.7207950479352321,0.6462615443332961
-0.004919583333333333,0.7321510615946593,0.6500623468368546
-0.004918333333333334,0.7472924131405509,0.6538631493404113
-0.004917083333333333,0.7548630889135034,0.6538631493404121
-0.004915833333333334,0.7624337646864493,0.6538631493404121
-0.004914583333333333,0.7700044404594003,0.6576639518439702
-0.004913333333333333,0.7813604541188269,0.6538631493404133
-0.004912083333333333,0.7927164677782456,0.6576639518439701
-0.004910833333333333,0.8040724814376712,0.6576639518439712
-0.004909583333333334,0.8116431572106169,0.6614647543475281
-0.004908333333333333,0.8192138329835693,0.6614647543475286
-0.004907083333333334,0.8343551845294608,0.6614647543475286
-0.004905833333333333,0.8419258603024136,0.6652655568510861
-0.004904583333333334,0.8494965360753592,0.6576639518439726
-0.004903333333333333,0.8570672118483103,0.6576639518439703
-0.004902083333333333,0.8684232255077357,0.6614647543475286
-0.004900833333333333,0.8759939012806816,0.6614647543475286
-0.004899583333333333,0.8911352528265812,0.6614647543475295
-0.004898333333333334,0.898705928599527,0.6652655568510862
-0.004897083333333333,0.9100619422589524,0.6614647543475286
-0.004895833333333334,0.9176326180318982,0.6614647543475286
-0.004894583333333333,0.9252032938048494,0.6614647543475286
-0.004893333333333334,0.9365593074642681,0.6614647543475286
-0.004892083333333333,0.9441299832372204,0.6652655568510867
-0.004890833333333333,0.9517006590101703,0.6652655568510857
-0.004889583333333333,0.9554859968966433,0.6614647543475289
-0.004888333333333333,0.9706273484425434,0.665265556851086
-0.004887083333333334,0.9819833621019621,0.6614647543475293
-0.004885833333333333,0.9895540378749142,0.6652655568510872
-0.004884583333333334,1.000910051534333,0.669066359354644
-0.004883333333333333,1.008480727307285,0.6690663593546448
-0.004882083333333334,1.019836740966704,0.6652655568510881
-0.004880833333333333,1.027407416739656,0.6690663593546449
-0.004879583333333333,1.03876343039908,0.6728671618582033
-0.004878333333333333,1.042548768285553,0.6728671618582033
-0.004877083333333333,1.053904781944978,0.6728671618582033
-0.004875833333333334,1.057690119831451,0.6728671618582033
-0.004874583333333333,1.069046133490875,0.6728671618582033
-0.004873333333333334,1.080402147150294,0.6728671618582033
-0.004872083333333333,1.080402147150298,0.6766679643617615
-0.004870833333333333,1.08797282292325,0.6766679643617615
-0.004869583333333333,1.099328836582669,0.6766679643617615
-0.004868333333333333,1.114470188128569,0.6728671618582043
-0.004867083333333334,1.122040863901514,0.6766679643617609
-0.004865833333333333,1.125826201787991,0.6766679643617608
-0.004864583333333334,1.133396877560937,0.6728671618582041
-0.004863333333333333,1.144752891220362,0.6766679643617611
-0.004862083333333334,1.148538229106835,0.6728671618582044
-0.004860833333333333,1.159894242766259,0.6728671618582033
-0.004859583333333333,1.163679580652737,0.6728671618582045
-0.004858333333333333,1.175035594312155,0.6766679643617611
-0.004857083333333333,1.178820932198632,0.6804687668653189
-0.004855833333333334,1.182606270085104,0.676667964361762
-0.004854583333333333,1.193962283744529,0.6728671618582044
-0.004853333333333334,1.201532959517475,0.680468766865318
-0.004852083333333333,1.205318297403952,0.6766679643617615
-0.004850833333333334,1.216674311063371,0.6766679643617615
-0.004849583333333333,1.220459648949848,0.6804687668653198
-0.004848333333333333,1.228030324722801,0.6804687668653209
-0.004847083333333333,1.239386338382219,0.6842695693688776
-0.004845833333333333,1.24695701415517,0.6804687668653198
-0.004844583333333334,1.250742352041643,0.6804687668653198
-0.004843333333333333,1.258313027814593,0.6766679643617615
-0.004842083333333334,1.262098365701066,0.6766679643617615
-0.004840833333333333,1.265883703587541,0.68046876686532
-0.004839583333333334,1.269669041474014,0.6842695693688766
-0.004838333333333333,1.277239717246964,0.6766679643617617
-0.004837083333333333,1.28102505513344,0.6804687668653208
-0.004835833333333333,1.288595730906386,0.6842695693688775
-0.004834583333333333,1.296166406679336,0.684269569368878
-0.004833333333333334,1.299951744565809,0.684269569368878
-0.004832083333333333,1.311307758225233,0.6804687668653198
-0.004830833333333334,1.315093096111706,0.6804687668653198
-0.004829583333333333,1.315093096111708,0.6804687668653198
-0.004828333333333333,1.322663771884659,0.680468766865321
-0.004827083333333333,1.330234447657604,0.6842695693688777
-0.004825833333333333,1.334019785544081,0.684269569368878
-0.004824583333333334,1.341590461317027,0.684269569368878
-0.004823333333333333,1.345375799203503,0.6842695693688773
-0.004822083333333334,1.349161137089976,0.6804687668653205
-0.004820833333333333,1.356731812862926,0.6842695693688783
-0.004819583333333334,1.356731812862926,0.688070371872435
-0.004818333333333333,1.3605171507494,0.684269569368878
-0.004817083333333333,1.368087826522351,0.6842695693688792
-0.004815833333333333,1.375658502295297,0.6880703718724359
-0.004814583333333333,1.383229178068245,0.6880703718724352
-0.004813333333333334,1.379443840181772,0.6842695693688785
-0.004812083333333333,1.390799853841196,0.6804687668653203
-0.004810833333333334,1.398370529614142,0.6842695693688771
-0.004809583333333333,1.394585191727669,0.6880703718724361
-0.004808333333333334,1.402155867500615,0.6880703718724361
-0.004807083333333333,1.405941205387092,0.684269569368878
-0.004805833333333333,1.409726543273569,0.684269569368878
-0.004804583333333333,1.417297219046515,0.684269569368878
-0.004803333333333333,1.413511881160042,0.684269569368878
-0.004802083333333334,1.417297219046515,0.684269569368878
-0.004800833333333333,1.424867894819464,0.684269569368878
-0.004799583333333334,1.424867894819464,0.684269569368878
-0.004798333333333333,1.432438570592413,0.684269569368878
-0.004797083333333334,1.436223908478886,0.684269569368878
-0.004795833333333333,1.436223908478887,0.684269569368878
-0.004794583333333333,1.440009246365362,0.6804687668653208
-0.004793333333333333,1.443794584251835,0.6842695693688775
-0.004792083333333333,1.447579922138312,0.6880703718724354
-0.004790833333333334,1.455150597911257,0.6842695693688787
-0.004789583333333333,1.455150597911259,0.6880703718724352
-0.004788333333333334,1.458935935797732,0.6804687668653219
-0.004787083333333333,1.458935935797733,0.6880703718724361
-0.004785833333333333,1.466506611570682,0.6880703718724375
-0.004784583333333333,1.466506611570682,0.6918711743759942
-0.004783333333333333,1.466506611570683,0.6880703718724351
-0.004782083333333333,1.470291949457156,0.6842695693688785
-0.004780833333333333,1.470291949457157,0.6880703718724361
-0.004779583333333334,1.47407728734363,0.6880703718724361
-0.004778333333333333,1.477862625230105,0.684269569368878
-0.004777083333333334,1.481647963116578,0.684269569368878
-0.004775833333333333,1.481647963116579,0.684269569368878
-0.004774583333333333,1.481647963116582,0.684269569368878
-0.004773333333333333,1.489218638889527,0.684269569368878
-0.004772083333333333,1.489218638889529,0.6880703718724352
-0.004770833333333334,1.493003976776002,0.6842695693688785
-0.004769583333333333,1.485433301003054,0.6842695693688774
-0.004768333333333334,1.489218638889527,0.6804687668653207
-0.004767083333333333,1.496789314662476,0.6880703718724364
-0.004765833333333334,1.493003976776003,0.6918711743759932
-0.004764583333333333,1.493003976776002,0.6880703718724361
-0.004763333333333333,1.496789314662477,0.688070371872435
-0.004762083333333333,1.496789314662477,0.6842695693688783
-0.004760833333333333,1.493003976776003,0.6842695693688772
-0.004759583333333334,1.496789314662476,0.6804687668653204
-0.004758333333333333,1.500574652548951,0.6842695693688785
-0.004757083333333334,1.500574652548951,0.6880703718724351
-0.004755833333333333,1.493003976776003,0.6880703718724364
-0.004754583333333334,1.500574652548949,0.6918711743759932
-0.004753333333333333,1.5081453283219,0.6880703718724362
-0.004752083333333333,1.496789314662477,0.6880703718724361
-0.004750833333333333,1.496789314662477,0.6880703718724361
-0.004749583333333333,1.500574652548951,0.6880703718724369
-0.004748333333333334,1.500574652548951,0.6918711743759937
-0.004747083333333333,1.500574652548951,0.6880703718724361
-0.004745833333333334,1.500574652548951,0.6880703718724361
-0.004744583333333333,1.500574652548951,0.688070371872436
-0.004743333333333333,1.500574652548948,0.6842695693688793
-0.004742083333333333,1.493003976776003,0.6880703718724359
-0.004740833333333333,1.50057465254895,0.6918711743759944
-0.004739583333333333,1.496789314662477,0.6918711743759944
-0.004738333333333333,1.489218638889528,0.6918711743759938
-0.004737083333333334,1.489218638889528,0.6880703718724369
-0.004735833333333333,1.493003976776002,0.6880703718724358
-0.004734583333333334,1.485433301003056,0.6842695693688791
-0.004733333333333333,1.485433301003054,0.684269569368878
-0.004732083333333333,1.489218638889528,0.684269569368878
-0.004730833333333333,1.489218638889528,0.684269569368878
-0.004729583333333333,1.485433301003052,0.684269569368878
-0.004728333333333334,1.477862625230106,0.684269569368878
-0.004727083333333333,1.485433301003053,0.6842695693688774
-0.004725833333333334,1.48164796311658,0.6804687668653207
-0.004724583333333333,1.477862625230105,0.6842695693688783
-0.004723333333333334,1.474077287343632,0.6880703718724349
-0.004722083333333333,1.474077287343631,0.684269569368878
-0.004720833333333333,1.470291949457156,0.684269569368878
-0.004719583333333333,1.470291949457156,0.684269569368878
-0.004718333333333333,1.466506611570682,0.6842695693688787
-0.004717083333333334,1.466506611570682,0.6880703718724355
