Module4/data/1203/modified trigger op-amp/1kHz_OP97F_triag_1V_Offset2.5_hysteresis.csv

#Digilent WaveForms Oscilloscope Acquisition
#Device Name: Discovery2
#Serial Number: SN:210321AC1D4D
#Date Time: 2020-12-03 16:48:27.898
#Sample rate: 1.5873e+06Hz
#Samples: 8192
#Trigger: Source: Channel 1 Type: Edge Condition: Rising Level: 0 V Hyst.: Auto HoldOff: 0 s
#Channel 1: Range: 2 V/div Offset: 0 V Attenuation: 1 X
#Channel 2: Range: 2 V/div Offset: 0 V Attenuation: 1 X
#Wavegen Channel 1: Running
#Mode: Simple
#Type: Triangle
#Frequency: 1 kHz
#Period: 1 ms
#Amplitude: 1 V
#Offset: 2.5 V
#Symmetry: 50 %
#Phase: 0 ¡Æ
#Power Supplies: ON
#Positive Supply: ON
#Voltage: 5 V
#Negative Supply: ON
#Voltage: -5 V

Time (s),Channel 1 (V),Channel 2 (V)
0.44160102,3.408353694995686,2.245016171542304
0.44160165,3.472337134571449,2.245016171542272
0.44160228,3.53632057414717,2.241238078081715
0.44160291,3.596540281983181,2.241238078081616
0.44160354,3.656759989819368,2.233681891160535
0.44160417,3.728270892874595,2.233681891160535
0.4416048,3.796018064190185,2.233681891160381
0.44160543,3.867528967245278,2.226125704239271
0.44160606,3.931512406821323,2.222347610778767
0.44160669,4.006787041616234,2.222347610778767
0.44160732,4.078297944671387,2.222347610778656
0.44160795,4.14604511598666,2.218569517318177
0.44160858,4.206264823822287,2.218569517318177
0.44160921,4.255193336437951,2.21856951731804
0.44160984,4.274011995136418,2.214791423857145
0.44161047,4.285303190355203,2.203457143475819
0.4416111,4.285303190355368,2.203457143475819
0.44161173,4.289066922094786,2.203457143475819
0.44161236,4.296594385574129,2.195900956554942
0.44161299,4.28906692209523,2.199679050015086
0.44161362,4.285303190355337,2.199679050015229
0.44161425,4.285303190355203,2.192122863094301
0.44161488,4.289066922094831,2.19212286309405
0.44161551,4.289066922094945,2.184566676173084
0.44161614,4.289066922094945,2.184566676172871
0.44161677,4.285303190355292,2.184566676172871
0.4416174,4.285303190355203,2.184566676172871
0.44161803,4.285303190355203,2.177010489251836
0.44161866,4.285303190355203,2.173232395791165
0.44161929,4.281539458615517,2.173232395791102
0.44161992,4.277775726875765,2.169454302330559
0.44162055,4.277775726875719,2.173232395791066
0.44162118,4.277775726875719,2.165676208869978
0.44162181,4.274011995135996,2.165676208869923
0.44162244,4.277775726875708,2.161898115409344
0.44162307,4.277775726875719,2.165676208869921
0.4416237,4.277775726875726,2.158120021948737
0.44162433,4.281539458615446,2.154341928488154
0.44162496,4.277775726875719,2.15434192848813
0.44162559,4.277775726875686,2.150563835027532
0.44162622,4.274011995136018,2.146785741566933
0.44162685,4.277775726875667,2.143007648106385
0.44162748,4.274011995135917,2.143007648106385
0.44162811,4.270248263396303,2.143007648106316
0.44162874,4.274011995135977,2.139229554645641
0.44162937,4.274011995135977,2.131673367724616
0.44163,4.274011995135977,2.131673367724522
0.44163063,4.274011995135874,2.127895274263924
0.44163126,4.270248263396235,2.124117180803326
0.44163189,4.270248263396355,2.120339087342848
0.44163252,4.274011995135847,2.120339087342848
0.44163315,4.270248263396235,2.120339087342848
0.44163378,4.270248263396235,2.120339087342848
0.44163441,4.270248263396235,2.120339087342535
0.44163504,4.270248263396071,2.112782900421503
0.44163567,4.266484531656651,2.109004806961239
0.4416363,4.270248263396084,2.101448620040202
0.44163693,4.270248263396235,2.097670526579451
0.44163756,4.270248263396235,2.093892433118853
0.44163819,4.262720799916996,2.093892433118721
0.44163882,4.266484531656378,2.093892433118721
0.44163945,4.258957068177221,2.093892433118721
0.44164008,4.255193336437364,2.090114339658229
0.44164071,4.262720799916573,2.08633624619763
0.44164134,4.266484531656412,2.082558152737032
0.44164197,4.258957068177152,2.078780059276434
0.4416426,4.258957068177009,2.078780059276362
0.44164323,4.258957068177009,2.075001965815826
0.44164386,4.25519333643731,2.071223872355227
0.44164449,4.251429604697559,2.071223872355183
0.44164512,4.255193336437238,2.067445778894621
0.44164575,4.255193336437266,2.067445778894593
0.44164638,4.255193336437266,2.067445778894593
0.44164701,4.255193336437266,2.071223872355181
0.44164764,4.255193336437266,2.06366768543399
0.44164827,4.255193336437251,2.056111498512824
0.4416489,4.251429604697498,2.056111498512824
0.44164953,4.247665872957817,2.05611149851279
0.44165016,4.251429604697524,2.052333405052234
0.44165079,4.251429604697575,2.052333405052183
0.44165142,4.255193336437266,2.048555311591585
0.44165205,4.255193336437197,2.044777218130986
0.44165268,4.251429604697524,2.040999124670312
0.44165331,4.251429604697439,2.033442937749201
0.44165394,4.247665872957782,2.029664844288697
0.44165457,4.247665872957782,2.029664844288697
0.4416552,4.247665872957782,2.02966484428881
0.44165583,4.247665872957904,2.033442937749165
0.44165646,4.251429604697784,2.029664844288436
0.44165709,4.258957068176731,2.02210865736724
0.44165772,4.251429604697524,2.014552470446339
0.44165835,4.251429604697524,2.014552470446339
0.44165898,4.251429604697524,2.014552470446174
0.44165961,4.251429604697524,2.010774376985907
0.44166024,4.251429604697524,2.010774376985749
0.44166087,4.247665872957922,2.006996283525301
0.4416615,4.251429604697393,2.003218190064702
0.44166213,4.251429604697524,2.006996283525036
0.44166276,4.251429604697524,2.003218190064685
0.44166339,4.247665872957888,1.999440096604087
0.44166402,4.243902141218137,1.99944009660398
0.44166465,4.247665872957693,1.99944009660398
0.44166528,4.243902141218118,1.99566200314347
0.44166591,4.243902141218039,1.991883909682872
0.44166654,4.243902141218039,1.991883909682801
0.44166717,4.243902141218039,1.980549629301192
0.4416678,4.247665872957738,1.980549629301032
0.44166843,4.243902141218075,1.976771535840479
0.44166906,4.240138409478325,1.976771535840443
0.44166969,4.240138409478297,1.976771535840443
0.44167032,4.243902141218029,1.969215348919284
0.44167095,4.240138409478299,1.965437255458676
0.44167158,4.240138409478306,1.961659161998084
0.44167221,4.243902141218039,1.961659161998067
0.44167284,4.243902141218039,1.957881068537469
0.44167347,4.243902141218039,1.954102975076939
0.4416741,4.243902141217997,1.957881068537495
0.44167473,4.240138409478246,1.957881068537443
0.44167536,4.236374677738556,1.954102975076785
0.44167599,4.236374677738692,1.946546788155657
0.44167662,4.243902141218039,1.942768694695136
0.44167725,4.243902141217864,1.942768694695136
0.44167788,4.23637467773846,1.94276869469504
0.44167851,4.232610945998918,1.938990601234442
0.44167914,4.236374677738556,1.93521250777373
0.44167977,4.236374677738677,1.9276563208529
0.4416804,4.240138409478297,1.931434414313367
0.44168103,4.240138409478159,1.931434414313089
0.44168166,4.236374677738556,1.923878227392041
0.44168229,4.236374677738556,1.920100133931442
0.44168292,4.236374677738556,1.916322040471176
0.44168355,4.24013840947814,1.916322040471009
0.44168418,4.24390214121789,1.912543947010569
0.44168481,4.247665872957642,1.91254394701042
0.44168544,4.247665872957782,1.916322040470877
0.44168607,4.243902141218163,1.908765853550077
0.4416867,4.240138409478412,1.901209666628881
0.44168733,4.236374677738661,1.901209666628651
0.44168796,4.236374677738556,1.897431573168157
0.44168859,4.24013840947821,1.897431573168061
0.44168922,4.240138409478297,1.89365347970755
0.44168985,4.236374677738626,1.889875386246952
0.44169048,4.232610945998874,1.882319199325826
0.44169111,4.232610945998813,1.878541105865166
0.44169174,4.232610945998813,1.878541105865113
0.44169237,4.23637467773852,1.874763012404559
0.441693,4.24013840947827,1.878541105865085
0.44169363,4.236374677738572,1.878541105865113
0.44169426,4.236374677738556,1.874763012404532
0.44169489,4.232610945998813,1.870984918943934
0.44169552,4.232610945998796,1.867206825483336
0.44169615,4.225083482519364,1.863428732022737
0.44169678,4.232610945998813,1.859650638562113
0.44169741,4.232610945998813,1.852094451641055
0.44169804,4.23261094599877,1.859650638562122
0.44169867,4.228847214259019,1.855872545101575
0.4416993,4.225083482519449,1.855872545101515
0.44169993,4.232610945998813,1.852094451640845
0.44170056,4.232610945998813,1.844538264719648
0.44170119,4.2326109459989,1.836982077798627
0.44170182,4.236374677738652,1.836982077798531
0.44170245,4.240138409478193,1.833203984338247
0.44170308,4.236374677738443,1.84076017125899
0.44170371,4.232610945998935,1.833203984337916
0.44170434,4.236374677738426,1.829425890877448
0.44170497,4.232610945998813,1.829425890877309
0.4417056,4.232610945998813,1.825647797416709
0.44170623,4.23261094599897,1.821869703956269
0.44170686,4.236374677738722,1.821869703956102
0.44170749,4.24013840947814,1.818091610495837
0.44170812,4.236374677738705,1.814313517035239
0.44170875,4.228847214259352,1.810535423574641
0.44170938,4.225083482519461,1.8105354235745
0.44171001,4.228847214258947,1.8105354235745
0.44171064,4.228847214259071,1.8105354235745
0.44171127,4.232610945998708,1.806757330114015
0.4417119,4.23637467773846,1.806757330113911
0.44171253,4.236374677738556,1.802979236653409
0.44171316,4.228847214259228,1.79920114319281
0.44171379,4.232610945998743,1.80297923665325
0.44171442,4.232610945998813,1.795423049732265
0.44171505,4.232610945998813,1.791644956271605
0.44171568,4.232610945998813,1.787866862811007
0.44171631,4.236374677738521,1.784088769350407
0.44171694,4.228847214259122,1.784088769350373
0.44171757,4.228847214259071,1.784088769350373
0.4417182,4.232610945998804,1.780310675889792
0.44171883,4.232610945998813,1.776532582429194
0.44171946,4.232610945998813,1.776532582429177
0.44172009,4.23261094599883,1.768976395507997
0.44172072,4.236374677738504,1.765198302047425
0.44172135,4.228847214259036,1.765198302047459
0.44172198,4.225083482519372,1.768976395507972
0.44172261,4.228847214259071,1.765198302047318
0.44172324,4.228847214259132,1.757642115126246
0.44172387,4.232610945998743,1.757642115126105
0.4417245,4.22884721425915,1.750085928205066
0.44172513,4.2326109459989,1.750085928205066
0.44172576,4.236374677738556,1.750085928205066
0.44172639,4.236374677738556,1.750085928204962
0.44172702,4.23637467773833,1.74630783474425
0.44172765,4.228847214259193,1.738751647823298
0.44172828,4.232610945998813,1.738751647823033
0.44172891,4.232610945998532,1.731195460902119
0.44172954,4.225083482519478,1.731195460901969
0.44173017,4.228847214259228,1.727417367441529
0.4417308,4.232610945998647,1.727417367441529
0.44173143,4.236374677738398,1.723639273981097
0.44173206,4.232610945998962,1.723639273980939
0.44173269,4.232610945998813,1.716083087060038
0.44173332,4.228847214259201,1.71608308705976
0.44173395,4.228847214259071,1.712304993599292
0.44173458,4.2326109459987,1.71230499359917
0.44173521,4.228847214259176,1.71230499359917
0.44173584,4.232610945998717,1.71230499359917
0.44173647,4.228847214259158,1.708526900138668
0.4417371,4.232610945998734,1.70474880667807
0.44173773,4.225083482519469,1.704748806677991
0.44173836,4.225083482519329,1.704748806677991
0.44173899,4.228847214259019,1.697192619756915
0.44173962,4.228847214259071,1.693414526296265
0.44174025,4.228847214259071,1.693414526296222
0.44174088,4.225083482519355,1.693414526296222
0.44174151,4.225083482519329,1.68963643283565
0.44174214,4.225083482519329,1.689636432835633
0.44174277,4.225083482519329,1.689636432835633
0.4417434,4.228847214259071,1.685858339375018
0.44174403,4.228847214259088,1.674524058993257
0.44174466,4.232610945998813,1.670745965532657
0.44174529,4.232610945998741,1.666967872072131
0.44174592,4.225083482519285,1.670745965532685
0.44174655,4.22131975077964,1.670745965532578
0.44174718,4.225083482519268,1.663189778611506
0.44174781,4.221319750779656,1.663189778611435
0.44174844,4.225083482519329,1.659411685150916
0.44174907,4.225083482519242,1.659411685150828
0.4417497,4.221319750779586,1.65563359169023
0.44175033,4.221319750779691,1.651855498229737
0.44175096,4.225083482519329,1.651855498229506
0.44175159,4.225083482519206,1.644299311308558
0.44175222,4.221319750779586,1.644299311308558
0.44175285,4.221319750779446,1.644299311308276
0.44175348,4.217556019040291,1.636743124387079
0.44175411,4.228847214259071,1.629186937466357
0.44175474,4.228847214259071,1.632965030926789
0.44175537,4.228847214259071,1.632965030926789
0.441756,4.225083482519477,1.629186937466347
0.44175663,4.225083482519329,1.629186937466199
0.44175726,4.225083482519329,1.62540884400574
0.44175789,4.228847214258949,1.62540884400561
0.44175852,4.225083482519442,1.621630750545133
0.44175915,4.221319750779691,1.61407456362405
0.44175978,4.221319750779586,1.606518376702854
0.44176041,4.225083482519242,1.610296470163163
0.44176104,4.232610945998659,1.610296470163251
0.44176167,4.228847214259139,1.60651837670273
0.4417623,4.228847214259071,1.602740283242132
0.44176293,4.228847214259071,1.602740283242072
0.44176356,4.228847214259071,1.598962189781525
0.44176419,4.225083482519364,1.595184096320927
0.44176482,4.228847214259045,1.591406002860329
0.44176545,4.228847214259071,1.587627909399731
0.44176608,4.225083482519338,1.587627909399713
0.44176671,4.225083482519329,1.583849815939124
0.44176734,4.221319750779607,1.580071722478555
0.44176797,4.228847214259071,1.587627909399713
0.4417686,4.228847214259071,1.587627909399658
0.44176923,4.228847214259071,1.580071722478498
0.44176986,4.228847214259071,1.5762936290179
0.44177049,4.228847214259071,1.572515535557355
0.44177112,4.22884721425901,1.572515535557293
0.44177175,4.225083482519399,1.568737442096695
0.44177238,4.228847214259071,1.564959348636097
0.44177301,4.228847214259071,1.561181255175586
0.44177364,4.228847214259071,1.561181255175488
0.44177427,4.228847214258859,1.55740316171489
0.4417749,4.221319750779701,1.553625068254407
0.44177553,4.225083482519453,1.55362506825416
0.44177616,4.228847214259071,1.54606888133336
0.44177679,4.228847214259071,1.549846974793536
0.44177742,4.228847214258922,1.542290787872489
0.44177805,4.225083482519329,1.538512694412365
0.44177868,4.225083482519329,1.546068881332898
0.44177931,4.225083482519329,1.538512694412361
0.44177994,4.221319750779734,1.538512694412049
0.44178057,4.221319750779586,1.530956507491148
0.4417812,4.221319750779586,1.52717841403041
0.44178183,4.225083482519207,1.519622227109345
0.44178246,4.225083482519329,1.523400320569577
0.44178309,4.225083482519329,1.519622227109205
0.44178372,4.225083482519329,1.523400320569596
0.44178435,4.225083482519329,1.515844133648683
0.44178498,4.228847214258994,1.512066040187999
0.44178561,4.232610945998744,1.508287946727401
0.44178624,4.232610945998813,1.508287946727332
0.44178687,4.232610945998813,1.504509853266794
0.4417875,4.228847214259114,1.508287946727289
0.44178813,4.228847214259071,1.519622227108998
0.44178876,4.225083482519355,1.523400320569664
0.44178939,4.225083482519329,1.530956507490835
0.44179002,4.225083482519329,1.530956507490869
0.44179065,4.228847214259073,1.530956507490868
0.44179128,4.232610945998813,1.52717841403029
0.44179191,4.232610945998776,1.530956507490888
0.44179254,4.225083482519329,1.534734600951459
0.44179317,4.225083482519329,1.534734600951495
0.4417938,4.225083482519373,1.538512694412049
0.44179443,4.228847214259071,1.538512694412102
0.44179506,4.22884721425901,1.542290787872638
0.44179569,4.225083482519329,1.54229078787271
0.44179632,4.225083482519329,1.546068881333147
0.44179695,4.225083482519507,1.542290787872638
0.44179758,4.232610945998813,1.542290787872736
0.44179821,4.232610945998707,1.546068881333441
0.44179884,4.228847214259071,1.553625068254637
0.44179947,4.228847214258825,1.561181255175586
0.4418001,4.22131975077985,1.561181255175851
0.44180073,4.228847214259071,1.568737442096625
0.44180136,4.228847214259071,1.564959348636176
0.44180199,4.228847214259071,1.564959348636495
0.44180262,4.228847214259071,1.572515535557025
0.44180325,4.228847214259071,1.572515535557355
0.44180388,4.228847214259071,1.576293629017797
0.44180451,4.228847214259071,1.583849815938846
0.44180514,4.228847214259071,1.583849815939124
0.44180577,4.225083482519451,1.583849815939124
0.4418064,4.22884721425896,1.59140600286008
0.44180703,4.228847214259071,1.591406002860303
0.44180766,4.232610945998719,1.595184096320798
0.44180829,4.228847214259156,1.595184096320893
0.44180892,4.228847214259071,1.598962189781405
0.44180955,4.225083482519397,1.606518376702524
0.44181018,4.228847214259011,1.606518376702661
0.44181081,4.228847214259071,1.606518376702661
0.44181144,4.23261094599877,1.606518376702661
0.44181207,4.228847214259104,1.610296470163219
0.4418127,4.225083482519353,1.614074563623817
0.44181333,4.221319750779601,1.614074563623841
0.44181396,4.221319750779586,1.617852657084423
0.44181459,4.225083482519331,1.625408844005608
0.44181522,4.22884721425906,1.62163075054503
0.44181585,4.225083482519348,1.625408844005628
0.44181648,4.228847214259071,1.629186937466227
0.44181711,4.228847214259035,1.632965030926897
0.44181774,4.225083482519373,1.644299311308558
0.44181837,4.228847214259126,1.644299311308558
0.441819,4.23261094599875,1.644299311308558
0.44181963,4.228847214259071,1.64429931130863
0.44182026,4.228847214259071,1.648077404769147
0.44182089,4.228847214259071,1.648077404769236
0.44182152,4.228847214259071,1.651855498229835
0.44182215,4.228847214258965,1.655633591690326
0.44182278,4.225083482519329,1.655633591690441
0.44182341,4.225083482519453,1.659411685150916
0.44182404,4.228847214259204,1.659411685151184
0.44182467,4.232610945998813,1.666967872072238
0.4418253,4.232610945998662,1.670745965532685
0.44182593,4.228847214259389,1.670745965533004
0.44182656,4.236374677738227,1.678302152453534
0.44182719,4.232610945998968,1.678302152453864
0.44182782,4.228847214259218,1.682080245914306
0.44182845,4.225083482519466,1.678302152454001
0.44182908,4.225083482519329,1.682080245914325
0.44182971,4.225083482519329,1.685858339374923
0.44183034,4.22884721425896,1.689636432835521
0.44183097,4.23637467773835,1.689636432835633
0.4418316,4.228847214259259,1.689636432835633
0.44183223,4.228847214259071,1.689636432835633
0.44183286,4.228847214259071,1.697192619756657
0.44183349,4.225083482519397,1.697192619756812
0.44183412,4.221319750779646,1.700970713217342
0.44183475,4.228847214258971,1.700970713217402
0.44183538,4.232610945998772,1.70474880667795
0.44183601,4.228847214259104,1.708526900138548
0.44183664,4.232610945998789,1.712304993599146
0.44183727,4.228847214259086,1.716083087059745
0.4418379,4.2213197507796,1.71608308705976
0.44183853,4.225083482519329,1.71608308705976
0.44183916,4.22508348251934,1.716083087059781
0.44183979,4.22884721425909,1.723639273980958
0.44184042,4.232610945998784,1.727417367441558
0.44184105,4.228847214259071,1.731195460902119
0.44184168,4.228847214259071,1.731195460902119
0.44184231,4.228847214259016,1.731195460902174
0.44184294,4.225083482519392,1.734973554362835
0.44184357,4.228847214259071,1.742529741283887
0.4418442,4.228847214259232,1.742529741283968
0.44184483,4.236374677738467,1.746307834744566
0.44184546,4.232610945998813,1.750085928205066
0.44184609,4.232610945998707,1.750085928205173
0.44184672,4.228847214259071,1.753864021665656
0.44184735,4.228847214259196,1.753864021665656
0.44184798,4.232610945998946,1.75386402166579
0.44184861,4.236374677738413,1.757642115126388
0.44184924,4.232610945998662,1.761420208586684
0.44184987,4.228847214259389,1.757642115126725
0.4418505,4.236374677738227,1.76897639550752
0.44185113,4.232610945998966,1.772754488968449
0.44185176,4.232610945998813,1.776532582429048
0.44185239,4.232610945998813,1.772754488968741
0.44185302,4.2288472142592,1.772754488968604
0.44185365,4.232610945998693,1.776532582429073
0.44185428,4.228847214259182,1.780310675889672
0.44185491,4.228847214259071,1.78408876935027
0.44185554,4.232610945998719,1.787866862810868
0.44185617,4.232610945998813,1.791644956271466
0.4418568,4.228847214259146,1.791644956271552
0.44185743,4.232610945998746,1.791644956271552
0.44185806,4.232610945998813,1.791644956271552
0.44185869,4.225083482519429,1.795423049732092
0.44185932,4.22884721425903,1.79920114319269
0.44185995,4.23261094599878,1.802979236653288
0.44186058,4.232610945998813,1.806757330113887
0.44186121,4.228847214259086,1.810535423574485
