Module4/data/1203/modified trigger op-amp/1kHz_OP97F_custom_1V_Offset2.1.csv

#Digilent WaveForms Oscilloscope Acquisition
#Device Name: Discovery2
#Serial Number: SN:210321AC1D4D
#Date Time: 2020-12-03 16:45:34.002
#Sample rate: 1.5873e+06Hz
#Samples: 8192
#Trigger: Source: Channel 1 Type: Edge Condition: Rising Level: 0 V Hyst.: Auto HoldOff: 0 s
#Channel 1: Range: 2 V/div Offset: 0 V Attenuation: 1 X
#Channel 2: Range: 2 V/div Offset: 0 V Attenuation: 1 X
#Wavegen Channel 1: Running
#Mode: Simple
#Type: Custom1
#Frequency: 1 kHz
#Period: 1 ms
#Amplitude: 1 V
#Offset: 2.1 V
#Phase: 0 ¡Æ
#Power Supplies: ON
#Positive Supply: ON
#Voltage: 5 V
#Negative Supply: ON
#Voltage: -5 V

Time (s),Channel 1 (V),Channel 2 (V)
0.44132571,4.225083482519329,2.603935050298076
0.44132634,4.225083482519329,2.566154115692356
0.44132697,4.225083482519329,2.558597928771242
0.4413276,4.225083482519379,2.558597928771242
0.44132823,4.228847214259012,2.558597928771301
0.44132886,4.225083482519329,2.562376022231762
0.44132949,4.225083482519329,2.558597928771242
0.44133012,4.225083482519414,2.558597928771242
0.44133075,4.228847214259071,2.558597928771242
0.4413313800000001,4.228847214259174,2.558597928771345
0.4413320100000001,4.232610945998702,2.56237602223172
0.4413326400000001,4.228847214258951,2.558597928771362
0.4413332700000001,4.225083482519329,2.562376022231831
0.4413339000000001,4.225083482519603,2.562376022231831
0.4413345300000001,4.232610945998519,2.562376022231831
0.4413351600000001,4.225083482519485,2.562376022231675
0.4413357900000001,4.228847214259071,2.558597928768273
0.44133642,4.228847214259071,2.490592246483505
0.44133705,4.22508348251948,2.490592246480629
0.44133768,4.225083482519329,2.486814153020182
0.44133831,4.225083482519329,2.483036059559583
0.44133894,4.225083482519329,2.483036059559449
0.44133957,4.228847214258956,2.486814153019924
0.4413402,4.228847214259071,2.490592246480523
0.44134083,4.228847214259071,2.49437033994112
0.44134146,4.228847214259071,2.490592246480718
0.44134209,4.228847214259071,2.490592246480629
0.44134272,4.228847214259071,2.490592246480629
0.44134335,4.228847214259071,2.494370339941155
0.44134398,4.228847214259071,2.490592246480684
0.44134461,4.228847214259071,2.490592246480629
0.44134524,4.228847214259071,2.490592246480629
0.44134587,4.225083482519357,2.483036059559504
0.4413465,4.225083482519329,2.471701779177738
0.44134713,4.22884721425906,2.47925796609884
0.44134776,4.228847214259071,2.47925796609886
0.44134839,4.228847214259071,2.479257966098867
0.44134902,4.228847214259071,2.483036059559449
0.44134965,4.228847214259047,2.483036059559425
0.44135028,4.225083482519329,2.47925796609886
0.44135091,4.22508348251937,2.479257966098901
0.44135154,4.228847214259071,2.483036059559501
0.44135217,4.228847214259011,2.486814153019919
0.4413528,4.225083482519397,2.479257966098791
0.44135343,4.228847214259071,2.47547987263827
0.44135406,4.228847214259071,2.475479872638442
0.44135469,4.228847214258977,2.483036059559544
0.4413553200000001,4.225083482519226,2.486814153021276
0.4413559500000001,4.221319750779586,2.532151274547673
0.4413565800000001,4.221319750779586,2.551041741850183
0.4413572100000001,4.221319750779716,2.554819835310652
0.4413578400000001,4.225083482519468,2.554819835310652
0.4413584700000001,4.228847214259071,2.554819835310652
0.4413591000000001,4.228847214258916,2.554819835310652
0.4413597300000001,4.225083482519329,2.554819835310487
0.44136036,4.225083482519329,2.551041741850223
0.44136099,4.225083482519329,2.551041741850063
0.44136162,4.225083482519329,2.551041741850063
0.44136225,4.22884721425894,2.551041741850063
0.44136288,4.228847214259071,2.558597928770995
0.44136351,4.225083482519444,2.554819835310767
0.44136414,4.228847214258965,2.554819835310652
0.44136477,4.225083482519427,2.551041741850161
0.4413654,4.228847214258982,2.554819835310563
0.44136603,4.232610945998732,2.622825517599811
0.44136666,4.236374677738484,2.664384545666957
0.44136729,4.228847214259198,2.668162639128277
0.44136792,4.225083482519382,2.664384545667803
0.44136855,4.221319750779631,2.660606452207206
0.44136918,4.225083482519294,2.664384545667714
0.44136981,4.228847214259043,2.66438454566775
0.44137044,4.213792287300178,2.66438454566775
0.44137107,4.194973628601443,2.66438454566775
0.4413717,4.149808847724506,2.66438454566775
0.44137233,4.082061676408962,2.66438454566775
0.44137296,3.991732114654976,2.664384545667735
0.44137359,3.908930016380422,2.660606452207161
0.44137422,3.826127918105906,2.660606452207161
0.44137485,3.743325819831433,2.660606452207204
0.44137548,3.664287453296309,2.664384545668626
0.44137611,3.558902964583528,2.728612134497774
0.44137674,3.468573402829853,2.728612134497774
0.44137737,3.397062499774435,2.728612134497774
0.441378,3.318024133239413,2.72861213449786
0.44137863,3.227694571485584,2.732390227958364
0.4413792600000001,3.144892473210863,2.732390227958467
0.4413798900000001,3.054562911457031,2.736168321418953
0.4413805200000001,2.971760813182271,2.736168321418953
0.4413811500000001,2.881431251428644,2.736168321418953
0.4413817800000001,2.802392884893602,2.736168321418814
0.4413824100000001,2.71582705487963,2.732390227958216
0.4413830400000001,2.636788688344553,2.72861213449793
0.44138367,2.550222858337923,2.732390227958196
0.4413843,2.463657028323617,2.732390227958364
0.44138493,2.380854930048944,2.732390227958364
0.44138556,2.30181656351403,2.728612134497915
0.44138619,2.230305660458485,2.713499760655945
0.44138682,2.143739830444745,2.717277854115881
0.44138745,2.060937732170106,2.717277854116005
0.44138808,1.97813563389559,2.717277854116005
0.44138871,1.89156980388143,2.717277854116005
0.44138934,1.80124024212751,2.713499760655505
0.44138997,1.718438143852779,2.713499760655416
0.4413906,1.635636045578263,2.709721667194896
0.44139123,1.549070215564066,2.713499760655354
0.44139186,1.466268117289489,2.721055947576488
0.44139249,1.383466019014973,2.71727785411605
0.44139312,1.304427652480163,2.713499760655452
0.44139375,1.225389285945398,2.713499760655416
0.44139438,1.138823455931186,2.713499760655416
0.44139501,1.056021357656651,2.717277854115995
0.44139564,0.973219259382135,2.702165480273653
0.44139627,0.9129995515460431,2.649272171825375
0.4413969,0.8339611850112607,2.641715984904196
0.44139753,0.7511590867370016,2.63793789144365
0.44139816,0.7059943058602668,2.641715984904213
0.44139879,0.6909393789013923,2.641715984904213
0.44139942,0.6871756471616928,2.641715984904213
0.44140005,0.6871756471616928,2.641715984904273
0.44140068,0.6871756471616243,2.645494078364803
0.44140131,0.6834119154219507,2.645494078364803
0.44140194,0.6834119154217762,2.645494078364803
0.44140257,0.6758844519422745,2.645494078364803
0.4414032000000001,0.6683569884627732,2.645494078364593
0.4414038300000001,0.6608295249834977,2.637937891443737
0.4414044600000001,0.6608295249836192,2.641715984904213
0.4414050900000001,0.66459325672324,2.641715984903952
0.4414057200000001,0.6645932567229628,2.634159797981642
0.4414063500000001,0.6570657932436084,2.596378863377137
0.4414069800000001,0.6533020615041693,2.596378863377137
0.4414076100000001,0.6570657932435913,2.596378863377137
0.44140824,0.6533020615041709,2.596378863377137
0.44140887,0.6570657932436067,2.596378863377137
0.4414095,0.6570657932437556,2.596378863377137
0.44141013,0.6533020615041453,2.600156956837595
0.44141076,0.6533020615040135,2.596378863377261
0.44141139,0.6570657932436409,2.600156956837612
0.44141202,0.6645932567230277,2.596378863377244
0.44141265,0.6608295249835935,2.596378863377137
0.44141328,0.6608295249834977,2.603935050298141
0.44141391,0.6608295249834977,2.600156956837806
0.44141454,0.6608295249834977,2.600156956837727
0.44141517,0.6608295249834977,2.603935050298255
0.4414158,0.6645932567231869,2.615269330679926
0.44141643,0.6683569884629376,2.63415979798281
0.44141706,0.6683569884629821,2.634159797983034
0.44141769,0.6683569884629821,2.641715984904158
0.44141832,0.6683569884629821,2.641715984904213
0.44141895,0.6683569884629821,2.641715984904213
0.44141958,0.6721207202027242,2.641715984904213
0.44142021,0.6683569884629906,2.637937891443624
0.44142084,0.6721207202027071,2.637937891443624
0.44142147,0.6683569884630077,2.63793789144365
0.4414221,0.67212072020269,2.641715984904179
0.44142273,0.6683569884630677,2.637937891443581
0.44142336,0.675884451942415,2.634159797983034
0.44142399,0.6721207202026642,2.634159797983034
0.44142462,0.6683569884630522,2.634159797983104
0.44142525,0.6721207202028029,2.637937891444414
0.44142588,0.6758844519426408,2.675718826051097
0.44142651,0.6834119154217589,2.743724508340132
0.4414271400000001,0.6758844519424663,2.743724508339922
0.4414277700000001,0.6758844519423534,2.736168321419066
0.4414284000000001,0.6721207202027242,2.739946414879665
0.4414290300000001,0.6721207202028543,2.743724508340263
0.4414296600000001,0.6758844519426049,2.747502601800583
0.4414302900000001,0.6796481836822086,2.743724508339833
0.4414309200000001,0.6796481836822086,2.736168321419111
0.44143155,0.6796481836822086,2.739946414879376
0.44143218,0.6796481836822086,2.736168321419111
0.44143281,0.6758844519426151,2.739946414879393
0.44143344,0.6796481836820683,2.739946414879543
0.44143407,0.6796481836822086,2.74372450834
0.4414347,0.6871756471614463,2.743724508340132
0.44143533,0.6796481836824345,2.743724508340132
0.44143596,0.6796481836822086,2.807952097168374
0.44143659,0.6834119154218549,2.834398751393609
0.44143722,0.6796481836822958,2.83062065793378
0.44143785,0.675884451942545,2.834398751394204
0.44143848,0.6796481836821384,2.834398751394283
0.44143911,0.6834119154218891,2.826842564473228
0.44143974,0.6909393789013289,2.83062065793364
0.44144037,0.6909393789014351,2.834398751394238
0.441441,0.687175647161727,2.834398751394283
0.44144163,0.6871756471616928,2.838176844854846
0.44144226,0.6871756471616928,2.838176844854872
0.44144289,0.6909393789014265,2.838176844854872
0.44144352,0.6947031106411772,2.838176844854872
0.44144415,0.6909393789014351,2.838176844854864
0.44144478,0.6909393789014522,2.834398751394283
0.44144541,0.6947031106411515,2.834398751394412
0.44144604,0.6909393789014351,2.8532892186973
0.44144667,0.6909393789014351,2.860845405618453
0.4414473,0.6909393789014351,2.864623499078999
0.44144793,0.6909393789014351,2.864623499078938
0.44144856,0.6909393789014351,2.86084540561841
0.44144919,0.6909393789013564,2.860845405618252
0.44144982,0.6871756471616928,2.853289218697319
0.44145045,0.6871756471617886,2.857067312157724
0.4414510800000001,0.6909393789014351,2.853289218697231
0.4414517100000001,0.690939378901548,2.853289218697118
0.4414523400000001,0.6947031106411772,2.849511125236885
0.4414529700000001,0.6947031106410454,2.85706731215782
0.4414536000000001,0.6909393789014351,2.85706731215768
0.4414542300000001,0.6909393789014351,2.853289218697381
0.4414548600000001,0.6909393789017501,2.85706731215782
0.4414554900000001,0.6984668423809193,2.857067312155487
0.44145612,0.6984668423809193,2.804174003711779
0.44145675,0.6984668423809193,2.796617816788685
0.44145738,0.6947031106413158,2.800395910248838
0.44145801,0.6909393789015652,2.800395910248977
0.44145864,0.6947031106410556,2.796617816788509
0.44145927,0.690939378901548,2.796617816788387
0.4414599,0.6984668423807104,2.800395910248872
0.44146053,0.6984668423809193,2.800395910248977
0.44146116,0.6947031106412644,2.800395910248977
0.44146179,0.6909393789015138,2.800395910248977
0.44146242,0.7022305741204511,2.800395910248977
0.44146305,0.6984668423809809,2.800395910248977
0.44146368,0.6984668423809193,2.804174003709514
0.44146431,0.7022305741206188,2.807952097170113
0.44146494,0.7022305741206616,2.8041740037096
0.44146557,0.7022305741206616,2.800395910249002
0.4414662,0.6947031106412114,2.739946414879818
0.44146683,0.6909393789014436,2.736168321418961
0.44146746,0.7022305741206616,2.736168321418953
0.44146809,0.7059943058604037,2.732390227958364
0.44146872,0.7059943058603866,2.732390227958364
0.44146935,0.7022305741206616,2.732390227958391
0.44146998,0.7022305741206976,2.736168321418917
0.44147061,0.7059943058603592,2.732390227958319
0.44147124,0.7022305741206085,2.728612134497774
0.44147187,0.6984668423808577,2.728612134497836
0.4414725,0.6947031106413175,2.732390227958364
0.44147313,0.7022305741206616,2.732390227958285
0.44147376,0.7022305741206616,2.728612134497861
0.44147439,0.7022305741206616,2.732390227958364
0.4414750200000001,0.7022305741206616,2.732390227958364
0.4414756500000001,0.7022305741207763,2.732390227958249
0.4414762800000001,0.7059943058601572,2.728612134497898
0.4414769100000001,0.6984668423809193,2.732390227958364
0.4414775400000001,0.6984668423809193,2.732390227958505
0.4414781700000001,0.6984668423810682,2.736168321418803
0.4414788000000001,0.7022305741206616,2.732390227958364
0.44147943,0.7022305741206616,2.732390227958364
0.44148006,0.698466842381075,2.732390227958364
0.44148069,0.7022305741205144,2.728612134497922
0.44148132,0.7022305741206616,2.728612134497774
0.44148195,0.7022305741206616,2.728612134497774
0.44148258,0.7022305741206616,2.732390227958242
0.44148321,0.7022305741206616,2.73616832141884
0.44148384,0.6984668423810236,2.736168321418953
0.44148447,0.7022305741205658,2.73239022795846
0.4414851,0.7022305741206616,2.728612134497861
0.44148573,0.7022305741206616,2.739946414879311
0.44148636,0.7135217693396827,2.811730190629439
0.44148699,0.7135217693398881,2.811730190630745
0.44148762,0.7097580376001971,2.807952097170207
0.44148825,0.7059943058604464,2.815508284091249
0.44148888,0.7059943058604037,2.811730190630779
0.44148951,0.7059943058604037,2.807952097170181
0.44149014,0.7022305741206787,2.807952097170156
0.44149077,0.7059943058603951,2.815508284091317
0.4414914,0.7059943058604037,2.811730190630745
0.44149203,0.7059943058604037,2.807952097170156
0.44149266,0.7059943058604226,2.807952097170156
0.44149329,0.7097580376001458,2.807952097170183
0.44149392,0.7097580376001458,2.811730190630745
0.44149455,0.7097580376001458,2.811730190630745
0.44149518,0.7097580376001458,2.811730190631331
0.44149581,0.7097580376001458,2.853289218698406
0.44149644,0.7097580376001458,2.925072994448433
0.44149707,0.7097580375999883,2.925072994448512
0.4414977,0.7022305741206616,2.928851087908934
0.44149833,0.7022305741207592,2.925072994448335
0.4414989600000001,0.7059943058604037,2.921294900987844
0.4414995900000001,0.7059943058604037,2.921294900987959
0.4415002200000001,0.7059943058604037,2.925072994448433
0.4415008500000001,0.7059943058604037,2.925072994448565
0.4415014800000001,0.7059943058604037,2.928851087909023
0.4415021100000001,0.7059943058604037,2.928851087908873
0.4415027400000001,0.7059943058604037,2.925072994448433
0.4415033700000001,0.7059943058604037,2.9250729944486
0.441504,0.7059943058604037,2.928851087908867
0.44150463,0.7059943058604037,2.928851087909023
0.44150526,0.7097580376000071,2.928851087909023
0.44150589,0.7097580376001458,2.943963461750859
0.44150652,0.7135217693397665,2.99307867673746
0.44150715,0.7135217693398881,2.993078676739046
0.44150778,0.7097580376002501,2.985522489818076
0.44150841,0.7059943058604978,2.981744396357372
0.44150904,0.7097580376000602,2.977966302896773
0.44150967,0.7097580376001458,2.974188209436176
0.4415103,0.7097580376001458,2.977966302896619
0.44151093,0.7097580376001458,2.981744396357218
0.44151156,0.705994305860455,2.981744396357278
0.44151219,0.7059943058604037,2.981744396357278
0.44151282,0.7059943058604037,2.985522489817833
0.44151345,0.7097580376001201,2.985522489817867
0.44151408,0.7097580376001458,2.989300583278439
0.44151471,0.7097580376001458,2.981744396357291
0.44151534,0.7097580376001441,2.981744396357274
0.44151597,0.7059943058604037,2.974188209436047
0.4415166,0.7059943058604226,2.95529774213315
0.44151723,0.7097580376001732,2.95529774213315
0.44151786,0.7135217693398521,2.955297742133114
0.44151849,0.7097580376001013,2.951519648672605
0.44151912,0.7059943058604568,2.955297742133204
0.44151975,0.7097580376001458,2.959075835593678
0.44152038,0.7097580376001458,2.95529774213315
0.44152101,0.7097580376003066,2.955297742133231
0.44152164,0.7172855010795411,2.95907583559365
0.44152227,0.7135217693397905,2.95529774213315
0.4415229000000001,0.7097580376000396,2.955297742133257
0.4415235300000001,0.7059943058604037,2.959075835593739
0.4415241600000001,0.7059943058605269,2.959075835593739
0.4415247900000001,0.7097580376002776,2.959075835593739
0.4415254200000001,0.7135217693398881,2.959075835592331
0.4415260500000001,0.7135217693397374,2.921294900986332
0.4415266800000001,0.7097580376001458,2.883513966382107
0.44152731,0.7097580376001458,2.887292059842373
0.44152794,0.7059943058605594,2.89107015330297
0.44152857,0.7059943058604037,2.887292059842685
0.4415292,0.7097580376000071,2.883513966382087
0.44152983,0.7097580376001458,2.883513966381948
0.44153046,0.7097580376001458,2.883513966381948
0.44153109,0.7097580376001458,2.887292059842426
0.44153172,0.7097580376001458,2.887292059842538
0.44153235,0.7097580376001458,2.883513966382042
0.44153298,0.7097580376001458,2.883513966381948
0.44153361,0.7059943058604807,2.88729205984246
0.44153424,0.7097580376000773,2.887292059842538
0.44153487,0.7059943058604636,2.891070153303067
0.4415355,0.7097580376000945,2.883513966382051
0.44153613,0.7059943058604464,2.868401592539761
0.44153676,0.7059943058604037,2.845733031776247
0.44153739,0.7059943058604037,2.845733031776051
0.44153802,0.7059943058604037,2.841954938315478
0.44153865,0.7059943058604037,2.841954938315462
0.44153928,0.7097580376001474,2.845733031776051
0.44153991,0.7135217693398881,2.845733031776061
0.44154054,0.7135217693398881,2.849511125236641
0.44154117,0.7135217693398607,2.849511125236641
0.4415418,0.7097580376001817,2.849511125236605
0.44154243,0.7135217693398436,2.845733031776051
0.44154306,0.7097580376001458,2.845733031776051
0.44154369,0.7097580376002091,2.845733031776051
0.44154432,0.7135217693398881,2.845733031775979
0.44154495,0.7135217693398881,2.841954938315462
0.44154558,0.7135217693397991,2.841954938316356
0.4415462100000001,0.7097580376002434,2.879735872921848
0.4415468400000001,0.7135217693398881,2.898626340224093
0.4415474700000001,0.7135217693398881,2.891070153303127
0.4415481000000001,0.7135217693398881,2.891070153303127
0.4415487300000001,0.7135217693397546,2.891070153303127
0.4415493600000001,0.7097580376002879,2.891070153303269
0.4415499900000001,0.7135217693398881,2.894848246763717
0.4415506200000001,0.7135217693395698,2.894848246763557
0.44155125,0.7059943058607323,2.891070153303291
0.44155188,0.7135217693395766,2.891070153303127
0.44155251,0.7135217693398881,2.891070153303127
0.44155314,0.7172855010794933,2.894848246763579
0.44155377,0.7135217693400164,2.891070153303255
0.4415544,0.7135217693398881,2.898626340224065
0.44155503,0.7135217693398881,2.894848246763828
0.44155566,0.7097580376002485,2.89107015330323
0.44155629,0.7135217693397939,2.970410115973524
0.44155692,0.7248129645588579,3.000634863659537
0.44155755,0.7210492328194493,3.000634863660225
0.44155818,0.713521769340025,3.000634863660225
0.44155881,0.7135217693398881,2.996856770199696
0.44155944,0.7097580376001954,3.004412957120715
0.44156007,0.713521769339847,2.996856770199718
0.4415607,0.7135217693398881,2.993078676739079
0.44156133,0.7059943058604516,2.996856770199612
0.44156196,0.7135217693398573,2.996856770199636
0.44156259,0.7059943058604173,3.000634863660218
0.44156322,0.7097580376001474,2.996856770199632
0.44156385,0.7135217693398881,2.989300583278477
0.44156448,0.7135217693398881,2.996856770199655
0.44156511,0.713521769339859,3.000634863660254
0.44156574,0.709758037600221,3.004412957121646
0.44156637,0.7172855010796764,3.087531013253832
0.441567,0.7210492328193723,3.091309106714321
0.44156763,0.7210492328194356,3.087531013253849
0.44156826,0.7248129645591146,3.091309106714304
0.44156889,0.7248129645591951,3.087531013253786
0.44156952,0.7285766962987676,3.087531013253786
0.4415701500000001,0.7248129645592122,3.087531013253786
0.4415707800000001,0.7285766962987505,3.087531013253786
0.4415714100000001,0.7248129645592309,3.087531013253669
0.4415720400000001,0.7285766962988567,3.083752919793322
0.4415726700000001,0.7285766962989901,3.087531013253786
0.4415733000000001,0.7323404280387409,3.087531013253643
