Module4/data/1203/basic trigger op-amp/10Hz_OP97F_sine_1V_Offset2.5V.csv

#Digilent WaveForms Oscilloscope Acquisition
#Device Name: Discovery2
#Serial Number: SN:210321AC1D4D
#Date Time: 2020-12-03 16:27:28.768
#Sample rate: 8000Hz
#Samples: 8192
#Trigger: Source: Channel 1 Type: Edge Condition: Rising Level: 0 V Hyst.: Auto HoldOff: 0 s
#Channel 1: Range: 2 V/div Offset: 0 V Attenuation: 1 X
#Channel 2: Range: 2 V/div Offset: 0 V Attenuation: 1 X
#Wavegen Channel 1: Running
#Mode: Simple
#Type: Sine
#Frequency: 10 Hz
#Period: 100 ms
#Amplitude: 1 V
#Offset: 2.5 V
#Symmetry: 50 %
#Phase: 0 ¡Æ
#Power Supplies: ON
#Positive Supply: ON
#Voltage: 5 V
#Negative Supply: ON
#Voltage: -5 V

Time (s),Channel 1 (V),Channel 2 (V)
-0.114375,0.6307196710655605,2.513260807244166
-0.11425,0.6307196710655605,2.513260807244165
-0.114125,0.6307196710655605,2.509482713783578
-0.114,0.6307196710655605,2.513260807244166
-0.1138749999999999,0.6307196710655605,2.513260807244166
-0.11375,0.6307196710655605,2.513260807244166
-0.113625,0.6307196710655605,2.513260807244166
-0.1135,0.6307196710655605,2.513260807244166
-0.113375,0.6307196710655605,2.513260807244166
-0.11325,0.6307196710655605,2.513260807244168
-0.113125,0.6307196710655605,2.517038900704755
-0.113,0.6307196710655605,2.517038900704756
-0.1128749999999999,0.6307196710655605,2.517038900704756
-0.11275,0.6307196710655605,2.517038900704756
-0.112625,0.6307196710655605,2.517038900704756
-0.1125,0.6307196710655605,2.517038900704756
-0.112375,0.6307196710655605,2.517038900704756
-0.11225,0.6307196710655605,2.517038900704756
-0.112125,0.6307196710655605,2.517038900704756
-0.112,0.6307196710655605,2.517038900704756
-0.1118749999999999,0.6307196710655605,2.517038900704756
-0.11175,0.6307196710655605,2.517038900704756
-0.111625,0.6307196710655605,2.517038900704756
-0.1115,0.6307196710655605,2.517038900704756
-0.111375,0.6307196710655605,2.517038900704756
-0.11125,0.6307196710655605,2.520816994165346
-0.111125,0.6307196710655605,2.520816994165346
-0.111,0.6307196710655605,2.517038900704756
-0.1108749999999999,0.6307196710655605,2.517038900704758
-0.11075,0.6307196710655605,2.520816994165346
-0.110625,0.6307196710655605,2.520816994165346
-0.1105,0.6307196710655605,2.520816994165346
-0.110375,0.6307196710655605,2.520816994165346
-0.11025,0.6307196710655605,2.520816994165346
-0.110125,0.6307196710655605,2.520816994165346
-0.11,0.6307196710655605,2.524595087625936
-0.1098749999999999,0.6307196710655605,2.524595087625934
-0.10975,0.6307196710655605,2.520816994165346
-0.109625,0.6307196710655605,2.520816994165346
-0.1095,0.6307196710655605,2.524595087625934
-0.109375,0.6307196710655605,2.520816994165346
-0.10925,0.6307196710655605,2.524595087625936
-0.109125,0.6307196710655605,2.524595087625936
-0.109,0.6307196710655605,2.524595087625936
-0.1088749999999999,0.6307196710655605,2.524595087625936
-0.10875,0.6307196710655605,2.524595087625936
-0.108625,0.6307196710655605,2.524595087625936
-0.1085,0.6307196710655605,2.524595087625936
-0.108375,0.6307196710655605,2.524595087625936
-0.10825,0.6307196710655605,2.524595087625936
-0.108125,0.6307196710655605,2.524595087625936
-0.108,0.6307196710655605,2.524595087625936
-0.1078749999999999,0.6307196710655605,2.524595087625937
-0.10775,0.6307196710655605,2.528373181086525
-0.107625,0.6307196710655605,2.524595087625936
-0.1075,0.6307196710655605,2.524595087625936
-0.107375,0.6307196710655605,2.528373181086525
-0.10725,0.6307196710655605,2.528373181086525
-0.107125,0.6307196710655605,2.528373181086525
-0.107,0.6307196710655605,2.528373181086525
-0.1068749999999999,0.6307196710655605,2.528373181086525
-0.10675,0.6307196710655605,2.528373181086525
-0.106625,0.6307196710655605,2.528373181086525
-0.1065,0.6307196710655605,2.528373181086525
-0.106375,0.6307196710655605,2.528373181086525
-0.10625,0.6307196710655605,2.528373181086525
-0.106125,0.6307196710655605,2.528373181086525
-0.106,0.6307196710655605,2.528373181086525
-0.1058749999999999,0.6307196710655605,2.528373181086525
-0.10575,0.6307196710655605,2.528373181086525
-0.105625,0.6307196710655605,2.528373181086525
-0.1055,0.6307196710655605,2.528373181086525
-0.105375,0.6307196710655605,2.528373181086525
-0.10525,0.6307196710655605,2.528373181086525
-0.105125,0.6307196710655605,2.528373181086525
-0.105,0.6269559393258182,2.528373181086525
-0.1048749999999999,0.6307196710655605,2.528373181086525
-0.10475,0.6307196710655605,2.528373181086525
-0.104625,0.6307196710655605,2.532151274547115
-0.1045,0.6307196710655605,2.532151274547115
-0.104375,0.6307196710655605,2.528373181086525
-0.10425,0.6307196710655605,2.528373181086525
-0.104125,0.6307196710655605,2.528373181086525
-0.104,0.6307196710655605,2.528373181086525
-0.1038749999999999,0.6307196710655605,2.528373181086525
-0.10375,0.6307196710655605,2.528373181086525
-0.103625,0.6307196710655605,2.528373181086525
-0.1035,0.6307196710655605,2.528373181086525
-0.103375,0.6307196710655605,2.528373181086525
-0.10325,0.6307196710655605,2.528373181086525
-0.103125,0.6307196710655605,2.528373181086525
-0.103,0.6307196710655605,2.528373181086525
-0.1028749999999999,0.6307196710655605,2.528373181086525
-0.10275,0.6307196710655605,2.528373181086525
-0.102625,0.6307196710655605,2.528373181086525
-0.1025,0.6307196710655605,2.528373181086525
-0.102375,0.6307196710655605,2.528373181086525
-0.10225,0.6307196710655605,2.528373181086525
-0.102125,0.6307196710655605,2.528373181086525
-0.102,0.6307196710655605,2.528373181086525
-0.101875,0.6307196710655605,2.528373181086525
-0.10175,0.6307196710655605,2.528373181086525
-0.101625,0.6307196710655605,2.528373181086525
-0.1015,0.6307196710655605,2.528373181086525
-0.101375,0.6307196710655605,2.528373181086525
-0.10125,0.6307196710655605,2.528373181086525
-0.101125,0.6307196710655605,2.528373181086525
-0.101,0.6307196710655605,2.528373181086525
-0.100875,0.6307196710655605,2.528373181086525
-0.10075,0.6307196710655605,2.528373181086525
-0.100625,0.6307196710655605,2.528373181086525
-0.1005,0.6307196710655605,2.528373181086525
-0.100375,0.6307196710655605,2.528373181086525
-0.10025,0.6307196710655605,2.528373181086525
-0.100125,0.6307196710655605,2.528373181086525
-0.09999999999999998,0.6307196710655605,2.528373181086525
-0.09987499999999999,0.6307196710655605,2.528373181086525
-0.09975000000000001,0.6307196710655605,2.528373181086525
-0.09962500000000002,0.6307196710655605,2.528373181086525
-0.09949999999999998,0.6307196710655605,2.528373181086525
-0.09937499999999999,0.6307196710655605,2.528373181086525
-0.09925,0.6307196710655605,2.528373181086525
-0.09912500000000002,0.6307196710655605,2.524595087625936
-0.09899999999999998,0.6307196710655605,2.524595087625936
-0.09887499999999999,0.6307196710655605,2.524595087625936
-0.09875,0.6307196710655605,2.524595087625936
-0.09862500000000002,0.6307196710655605,2.524595087625936
-0.09849999999999998,0.6307196710655605,2.524595087625936
-0.09837499999999999,0.6307196710655605,2.524595087625936
-0.09825,0.6307196710655605,2.524595087625936
-0.09812500000000002,0.6307196710655605,2.524595087625936
-0.09799999999999998,0.6307196710655605,2.524595087625936
-0.09787499999999999,0.6307196710655605,2.524595087625936
-0.09775,0.6307196710655605,2.524595087625936
-0.09762500000000002,0.6307196710655605,2.524595087625936
-0.09749999999999998,0.6307196710655605,2.524595087625936
-0.09737499999999999,0.6307196710655605,2.524595087625936
-0.09725,0.6307196710655605,2.524595087625936
-0.09712500000000002,0.6307196710655605,2.524595087625936
-0.09699999999999998,0.6307196710655605,2.520816994165346
-0.09687499999999999,0.6307196710655605,2.520816994165346
-0.09675,0.6307196710655605,2.520816994165346
-0.09662500000000002,0.6307196710655605,2.520816994165346
-0.09649999999999997,0.6307196710655605,2.520816994165346
-0.09637499999999999,0.6307196710655605,2.520816994165346
-0.09625,0.6307196710655605,2.520816994165346
-0.09612500000000002,0.6307196710655605,2.520816994165346
-0.09599999999999997,0.6269559393258182,2.520816994165346
-0.09587499999999999,0.6307196710655605,2.520816994165346
-0.09575,0.6307196710655605,2.520816994165346
-0.09562500000000002,0.6307196710655605,2.520816994165346
-0.09549999999999997,0.6307196710655605,2.520816994165346
-0.09537499999999999,0.6307196710655605,2.517038900704756
-0.09525,0.6307196710655605,2.520816994165346
-0.09512500000000002,0.6307196710655605,2.520816994165346
-0.09499999999999997,0.6307196710655605,2.517038900704756
-0.09487499999999999,0.6307196710655605,2.517038900704756
-0.09475,0.6307196710655605,2.517038900704756
-0.09462500000000001,0.6307196710655605,2.517038900704756
-0.09449999999999997,0.6307196710655605,2.517038900704756
-0.09437499999999999,0.6307196710655605,2.517038900704756
-0.09425,0.6307196710655605,2.517038900704756
-0.09412500000000001,0.6269559393258182,2.513260807244166
-0.09399999999999997,0.6307196710655605,2.513260807244166
-0.09387499999999999,0.6269559393258182,2.517038900704756
-0.09375,0.6307196710655605,2.517038900704756
-0.09362500000000001,0.6307196710655605,2.513260807244166
-0.09349999999999997,0.6269559393258182,2.513260807244166
-0.09337499999999999,0.6269559393258182,2.513260807244166
-0.09325,0.6269559393258182,2.513260807244166
-0.09312500000000001,0.6307196710655605,2.513260807244166
-0.09299999999999997,0.6307196710655605,2.513260807244166
-0.09287499999999999,0.6307196710655605,2.513260807244166
-0.09275,0.6307196710655605,2.513260807244166
-0.09262500000000001,0.6307196710655605,2.513260807244166
-0.09249999999999997,0.6269559393258182,2.513260807244166
-0.09237499999999998,0.6269559393258182,2.509482713783576
-0.09225,0.6307196710655605,2.513260807244166
-0.09212500000000001,0.6269559393258182,2.513260807244166
-0.09199999999999997,0.6269559393258182,2.513260807244166
-0.09187499999999998,0.6307196710655605,2.513260807244166
-0.09175,0.6269559393258182,2.509482713783576
-0.09162500000000001,0.6269559393258182,2.509482713783576
-0.09149999999999997,0.6307196710655605,2.509482713783576
-0.09137499999999998,0.6307196710655605,2.513260807244166
-0.09125,0.6269559393258182,2.509482713783576
-0.09112500000000001,0.6269559393258182,2.509482713783576
-0.09099999999999997,0.6269559393258182,2.509482713783576
-0.09087499999999998,0.6269559393258182,2.509482713783576
-0.09075,0.6307196710655605,2.509482713783576
-0.09062500000000001,0.6269559393258182,2.509482713783576
-0.09049999999999997,0.6269559393258182,2.509482713783576
-0.09037499999999998,0.6269559393258182,2.509482713783576
-0.09025,0.6269559393258182,2.509482713783576
-0.09012500000000001,0.6269559393258182,2.509482713783576
-0.08999999999999997,0.6269559393258182,2.509482713783576
-0.08987499999999998,0.6269559393258182,2.505704620322987
-0.08975,0.6231922075860761,2.509482713783576
-0.08962500000000001,0.6269559393258182,2.509482713783576
-0.08949999999999997,0.6231922075860761,2.509482713783576
-0.08937499999999998,0.6231922075860761,2.509482713783576
-0.08925,0.619428475846334,2.505704620322987
-0.08912500000000001,0.619428475846334,2.505704620322987
-0.08899999999999997,0.6156647441065917,2.505704620322987
-0.08887499999999998,0.6119010123668496,2.505704620322987
-0.08875,0.6081372806271075,2.505704620322987
-0.08862500000000001,0.6081372806271075,2.505704620322987
-0.08849999999999997,0.6081372806271075,2.505704620322987
-0.08837499999999998,0.6043735488873652,2.505704620322987
-0.08825,0.6043735488873652,2.505704620322987
-0.08812500000000001,0.6043735488873652,2.505704620322987
-0.08799999999999997,0.6043735488873652,2.505704620322987
-0.08787499999999998,0.6043735488873652,2.505704620322987
-0.08774999999999999,0.6081372806271075,2.505704620322987
-0.08762500000000001,0.6043735488873652,2.505704620322987
-0.08749999999999997,0.6043735488873652,2.505704620322987
-0.08737499999999998,0.6043735488873652,2.505704620322987
-0.08724999999999999,0.6043735488873652,2.505704620322987
-0.08712500000000001,0.6043735488873652,2.505704620322987
-0.08699999999999997,0.6043735488873652,2.505704620322987
-0.08687499999999998,0.6081372806271075,2.505704620322987
-0.08674999999999999,0.6043735488873652,2.505704620322987
-0.08662500000000001,0.6043735488873652,2.505704620322987
-0.08650000000000002,0.6043735488873652,2.505704620322987
-0.08637499999999998,0.6043735488873652,2.505704620322987
-0.08624999999999999,0.6043735488873652,2.505704620322987
-0.08612500000000001,0.6043735488873652,2.505704620322987
-0.08600000000000002,0.6043735488873652,2.505704620322987
-0.08587499999999998,0.6043735488873652,2.505704620322987
-0.08574999999999999,0.6081372806271075,2.509482713783576
-0.08562500000000001,0.6081372806271075,2.505704620322987
-0.08550000000000002,0.6081372806271075,2.505704620322987
-0.08537499999999998,0.6043735488873652,2.505704620322987
-0.08524999999999999,0.6043735488873652,2.505704620322987
-0.08512500000000001,0.6043735488873652,2.505704620322987
-0.08500000000000002,0.6043735488873652,2.505704620322987
-0.08487499999999998,0.6043735488873652,2.505704620322987
-0.08474999999999999,0.6043735488873652,2.505704620322987
-0.08462500000000001,0.6043735488873652,2.505704620322987
-0.08450000000000002,0.6043735488873652,2.505704620322987
-0.08437499999999998,0.6043735488873652,2.505704620322987
-0.08424999999999999,0.6043735488873652,2.505704620322987
-0.08412500000000001,0.6043735488873652,2.505704620322987
-0.08400000000000002,0.6043735488873652,2.505704620322987
-0.08387499999999998,0.6043735488873652,2.505704620322987
-0.08374999999999999,0.6043735488873652,2.505704620322987
-0.083625,0.6081372806271075,2.505704620322987
-0.08350000000000002,0.6081372806271075,2.505704620322987
-0.08337499999999998,0.6081372806271075,2.505704620322987
-0.08324999999999999,0.6081372806271075,2.509482713783576
-0.083125,0.6043735488873652,2.505704620322987
-0.08300000000000002,0.6081372806271075,2.509482713783576
-0.08287499999999998,0.6081372806271075,2.505704620322987
-0.08274999999999999,0.6081372806271075,2.505704620322987
-0.082625,0.6043735488873652,2.505704620322987
-0.08250000000000002,0.6043735488873652,2.505704620322987
-0.08237499999999998,0.6043735488873652,2.505704620322987
-0.08224999999999999,0.6081372806271075,2.505704620322987
-0.082125,0.6081372806271075,2.505704620322987
-0.08200000000000002,0.6043735488873652,2.505704620322987
-0.08187499999999998,0.6043735488873652,2.505704620322987
-0.08174999999999999,0.6043735488873652,2.505704620322987
-0.081625,0.6043735488873652,2.505704620322987
-0.08150000000000002,0.6043735488873652,2.505704620322987
-0.08137499999999998,0.6043735488873652,2.505704620322987
-0.08124999999999999,0.6043735488873652,2.505704620322987
-0.081125,0.6043735488873652,2.505704620322987
-0.08100000000000002,0.6081372806271075,2.509482713783576
-0.08087499999999997,0.6043735488873652,2.509482713783576
-0.08074999999999999,0.6043735488873652,2.505704620322987
-0.080625,0.6043735488873652,2.505704620322987
-0.08050000000000002,0.6043735488873652,2.505704620322987
-0.08037499999999997,0.6043735488873652,2.505704620322987
-0.08024999999999999,0.6043735488873652,2.509482713783576
-0.080125,0.6043735488873652,2.509482713783576
-0.08000000000000002,0.6043735488873652,2.505704620322987
-0.07987499999999997,0.6043735488873652,2.505704620322987
-0.07974999999999999,0.6043735488873652,2.505704620322987
-0.079625,0.6006098171476231,2.505704620322987
-0.07950000000000002,0.6006098171476231,2.505704620322987
-0.07937499999999997,0.6006098171476231,2.505704620322987
-0.07924999999999999,0.596846085407881,2.505704620322987
-0.079125,0.596846085407881,2.505704620322987
-0.07900000000000001,0.5930823536681387,2.509482713783576
-0.07887499999999997,0.5893186219283966,2.505704620322987
-0.07874999999999999,0.5893186219283966,2.505704620322987
-0.078625,0.5893186219283966,2.505704620322987
-0.07850000000000001,0.5930823536681387,2.509482713783576
-0.07837499999999997,1.319482579438377,2.505704620322987
-0.07824999999999999,3.999259578134799,2.505704620322987
-0.078125,4.398215142547468,2.505704620322987
-0.07800000000000001,4.398215142547468,2.505704620322987
-0.07787499999999997,4.398215142547468,2.505704620322987
-0.07774999999999999,4.394451410807726,2.505704620322987
-0.077625,4.394451410807726,2.505704620322987
-0.07750000000000001,4.394451410807726,2.505704620322987
-0.07737499999999997,4.394451410807726,2.505704620322987
-0.07724999999999999,4.394451410807726,2.505704620322987
-0.077125,4.398215142547468,2.505704620322987
-0.07700000000000001,4.394451410807726,2.505704620322987
-0.07687499999999997,4.394451410807726,2.505704620322987
-0.07674999999999998,4.394451410807726,2.505704620322987
-0.076625,4.398215142547468,2.505704620322987
-0.07650000000000001,4.398215142547468,2.505704620322987
-0.07637499999999997,4.398215142547468,2.505704620322987
-0.07624999999999998,4.398215142547468,2.505704620322987
-0.076125,4.394451410807726,2.505704620322987
-0.07600000000000001,4.398215142547468,2.505704620322987
-0.07587499999999997,4.398215142547468,2.505704620322987
-0.07574999999999998,4.394451410807726,2.505704620322987
-0.075625,4.394451410807726,2.505704620322987
-0.07550000000000001,4.394451410807726,2.505704620322987
-0.07537499999999997,4.394451410807726,2.505704620322987
-0.07524999999999998,4.394451410807726,2.505704620322987
-0.075125,4.394451410807726,2.505704620322987
-0.07500000000000001,4.398215142547468,2.505704620322987
-0.07487499999999997,4.398215142547468,2.505704620322987
-0.07474999999999998,4.394451410807726,2.505704620322987
-0.074625,4.394451410807726,2.505704620322987
-0.07450000000000001,4.398215142547468,2.509482713783576
-0.07437499999999997,4.398215142547468,2.509482713783576
-0.07424999999999998,4.394451410807726,2.505704620322987
-0.074125,4.394451410807726,2.505704620322987
-0.07400000000000001,4.398215142547468,2.509482713783576
-0.07387499999999997,4.398215142547468,2.509482713783576
-0.07374999999999998,4.398215142547468,2.505704620322987
-0.073625,4.398215142547468,2.505704620322987
-0.07350000000000001,4.394451410807726,2.505704620322987
-0.07337499999999997,4.398215142547468,2.505704620322987
-0.07324999999999998,4.394451410807726,2.505704620322987
-0.073125,4.398215142547468,2.505704620322987
-0.07300000000000001,4.398215142547468,2.505704620322987
-0.07287499999999997,4.394451410807726,2.505704620322987
-0.07274999999999998,4.394451410807726,2.505704620322987
-0.072625,4.398215142547468,2.505704620322987
-0.07250000000000001,4.398215142547468,2.509482713783576
-0.07237499999999997,4.398215142547468,2.505704620322987
-0.07224999999999998,4.398215142547468,2.505704620322987
-0.07212499999999999,4.398215142547468,2.505704620322987
-0.07200000000000001,4.398215142547468,2.505704620322987
-0.07187499999999997,4.398215142547468,2.505704620322987
-0.07174999999999998,4.394451410807726,2.505704620322987
-0.07162499999999999,4.398215142547468,2.505704620322987
-0.07150000000000001,4.398215142547468,2.505704620322987
-0.07137499999999997,4.398215142547468,2.505704620322987
-0.07124999999999998,4.398215142547468,2.505704620322987
-0.07112499999999999,4.398215142547468,2.509482713783576
-0.07100000000000001,4.398215142547468,2.509482713783576
-0.07087500000000002,4.398215142547468,2.505704620322987
-0.07074999999999998,4.398215142547468,2.505704620322987
-0.07062499999999999,4.398215142547468,2.505704620322987
-0.07050000000000001,4.398215142547468,2.505704620322987
-0.07037500000000002,4.398215142547468,2.509482713783576
-0.07024999999999998,4.398215142547468,2.509482713783576
-0.07012499999999999,4.398215142547468,2.505704620322987
-0.07000000000000001,4.398215142547468,2.505704620322987
-0.06987500000000002,4.398215142547468,2.509482713783576
-0.06974999999999998,4.394451410807726,2.505704620322987
-0.06962499999999999,4.394451410807726,2.509482713783576
-0.06950000000000001,4.394451410807726,2.505704620322987
-0.06937500000000002,4.398215142547468,2.509482713783576
-0.06924999999999998,4.398215142547468,2.505704620322987
-0.06912499999999999,4.394451410807726,2.505704620322987
-0.06900000000000001,4.394451410807726,2.505704620322987
-0.06887500000000002,4.394451410807726,2.505704620322987
