Module4/data/1203/basic trigger op-amp/10kHz_OP97F_sine_1V_Offset2.5V.csv

#Digilent WaveForms Oscilloscope Acquisition
#Device Name: Discovery2
#Serial Number: SN:210321AC1D4D
#Date Time: 2020-12-03 16:30:41.368
#Sample rate: 7.69231e+06Hz
#Samples: 8192
#Trigger: Source: Channel 1 Type: Edge Condition: Rising Level: 0 V Hyst.: Auto HoldOff: 0 s
#Channel 1: Range: 2 V/div Offset: 0 V Attenuation: 1 X
#Channel 2: Range: 2 V/div Offset: 0 V Attenuation: 1 X
#Wavegen Channel 1: Running
#Mode: Simple
#Type: Sine
#Frequency: 10 kHz
#Period: 100 us
#Amplitude: 1 V
#Offset: 2.5 V
#Symmetry: 50 %
#Phase: 0 ¡Æ
#Power Supplies: ON
#Positive Supply: ON
#Voltage: 5 V
#Negative Supply: ON
#Voltage: -5 V

Time (s),Channel 1 (V),Channel 2 (V)
0.43158622,0.9807467228618385,2.524595087625987
0.43158635,0.9619280641650018,2.520816994165773
0.43158648,0.9355819419902829,2.528373181084917
0.43158661,0.9129995515436247,2.535929368007269
0.43158674,0.8904171611074206,2.532151274547056
0.43158687,0.8678347706712064,2.528373181086841
0.431587,0.84148864849595,2.528373181086525
0.43158713,0.8189062580499473,2.524595087627028
0.43158726,0.8000875993531106,2.532151274547115
0.43158739,0.7812689406562655,2.532151274547115
0.43158752,0.7662140136985854,2.532151274547115
0.43158765,0.74739535499429,2.528373181087183
0.43158778,0.728576696297727,2.532151274546831
0.43158791,0.7135217693402578,2.528373181086617
0.43158804,0.6984668423827814,2.524595087626403
0.43158817,0.6871756471601592,2.524595087625936
0.4315883,0.6796481836810276,2.524595087625936
0.43158843,0.6683569884629821,2.524595087625898
0.43158856,0.6683569884629821,2.517038900705468
0.43158869,0.6645932567239691,2.513260807244898
0.43158882,0.6608295249834977,2.51326080724518
0.43158895,0.6608295249834977,2.520816994165084
0.43158908,0.6608295249834977,2.513260807244655
0.43158921,0.6570657932443734,2.520816994164105
0.43158934,0.6495383297655035,2.520816994165346
0.43158947,0.6570657932435126,2.520816994165834
0.4315896,0.6533020615041453,2.52837318108626
0.43158973,0.6533020615040135,2.524595087626442
0.43158986,0.6533020615040135,2.532151274545654
0.43158999,0.6533020615033049,2.524595087626291
0.43159012,0.6457745980245702,2.528373181086504
0.43159025,0.6420108662851807,2.524595087626331
0.43159038,0.6457745980237606,2.524595087625936
0.43159051,0.642010866284787,2.532151274546647
0.43159064,0.6420108662845149,2.528373181086434
0.43159077,0.6307196710664077,2.524595087626219
0.4315909,0.6307196710655605,2.528373181085865
0.43159103,0.6307196710649837,2.528373181085946
0.43159116,0.6269559393256162,2.524595087626138
0.43159129,0.6231922075862473,2.528373181086353
0.43159142,0.6194284758468782,2.532151274546568
0.43159155,0.619428475846334,2.528373181086525
0.43159168,0.619428475846019,2.528373181086525
0.43159181,0.6156647441066516,2.528373181086525
0.43159194,0.6119010123672826,2.52459508762637
0.43159207,0.6081372806271075,2.524595087625133
0.4315922,0.6081372806266813,2.520816994166201
0.43159233,0.6043735488874165,2.528373181086422
0.43159246,0.6081372806267857,2.520816994165992
0.43159259,0.6081372806271075,2.528373181085126
0.43159272,0.6043735488873652,2.532151274546036
0.43159285,0.60437354888704,2.524595087626262
0.43159298,0.596846085408302,2.532151274546692
0.43159311,0.596846085407881,2.532151274547115
0.43159324,0.5930823536681387,2.524595087625936
0.43159337,0.5930823536681387,2.524595087626489
0.4315935,0.5930823536681387,2.532151274546915
0.43159363,0.5930823536681387,2.524595087626884
0.43159376,0.5893186219283966,2.524595087625936
0.43159389,0.5893186219287834,2.524595087625547
0.43159402,0.5930823536681507,2.520816994165358
0.43159415,0.5968460854075198,2.524595087625573
0.43159428,0.5855548901908624,2.528373181085786
0.43159441,0.5893186219278985,2.532151274547115
0.43159454,0.5855548901889009,2.532151274546991
0.43159467,0.5930823536676388,2.528373181086776
0.4315948,0.5893186219290213,2.5208169941666
0.43159493,0.5855548901886545,2.528373181085913
0.43159506,0.5855548901886545,2.524595087626173
0.43159519,0.5855548901886545,2.528373181086386
0.43159532,0.5817911584494239,2.520816994166373
0.43159545,0.589318621927676,2.524595087625212
0.43159558,0.5855548901886545,2.520816994165346
0.43159571,0.5855548901886545,2.520816994165346
0.43159584,0.5893186219279961,2.520816994165346
0.43159597,0.5930823536673633,2.520816994165346
0.4315961,0.5930823536685974,2.517038900704756
0.43159623,0.5968460854077132,2.517038900704672
0.43159636,0.5893186219289751,2.513260807244457
0.43159649,0.5893186219283966,2.51703890070409
0.43159662,0.5893186219283966,2.517038900704756
0.43159675,0.5893186219283966,2.517038900704561
0.43159688,0.5893186219283966,2.513260807244345
0.43159701,0.5855548901892056,2.513260807244166
0.43159714,0.5893186219283966,2.51326080724485
0.43159727,0.5893186219283966,2.517038900704447
0.4315974,0.5893186219283966,2.513260807244234
0.43159753,0.5893186219283966,2.517038900704315
0.43159766,0.5855548901886545,2.513260807244166
0.43159779,0.5855548901886545,2.513260807244166
0.43159792,0.5855548901886545,2.513260807244122
0.43159805,0.5855548901886545,2.509482713783906
0.43159818,0.5855548901886545,2.520816994163227
0.43159831,0.5817911584494427,2.517038900705289
0.43159844,0.5855548901886545,2.520816994165033
0.43159857,0.5855548901886545,2.513260807244603
0.4315987,0.5893186219278044,2.517038900704162
0.43159883,0.5893186219283966,2.517038900704112
0.43159896,0.5893186219283966,2.513260807244436
0.43159909,0.5893186219283966,2.51703890070465
0.43159922,0.5817911584498706,2.513260807244647
0.43159935,0.5855548901886545,2.517038900704001
0.43159948,0.5855548901886545,2.513260807243785
0.43159961,0.5855548901886545,2.509482713783576
0.43159974,0.5855548901886545,2.509482713783576
0.43159987,0.5855548901886545,2.501926526863889
0.4316,0.5855548901886545,2.505704620322494
0.43160013,0.5855548901888873,2.501926526862631
0.43160026,0.5930823536676252,2.509482713783061
0.43160039,0.5930823536681387,2.505704620323622
0.43160052,0.5930823536675361,2.509482713782972
0.43160065,0.5893186219283966,2.505704620322987
0.43160078,0.5893186219283966,2.505704620322987
0.43160091,0.5930823536676201,2.501926526862918
0.43160104,0.5893186219283966,2.501926526862397
0.43160117,0.589318621928056,2.501926526862739
0.4316013,0.5855548901886887,2.505704620322953
0.43160143,0.5893186219279892,2.505704620322987
0.43160156,0.5893186219283966,2.505704620322987
0.43160169,0.5817911584502677,2.505704620323441
0.43160182,0.5930823536679847,2.509482713783499
0.43160195,0.5855548901892467,2.505704620323284
0.43160208,0.5893186219277257,2.505704620322987
0.43160221,0.5893186219283966,2.513260807243601
0.43160234,0.5893186219282083,2.509482713783576
0.43160247,0.5855548901888393,2.509482713783576
0.4316026,0.5855548901886545,2.509482713783576
0.43160273,0.5855548901879801,2.513260807242812
0.43160286,0.5817911584489122,2.505704620322987
0.43160299,0.5817911584489122,2.505704620322987
0.43160312,0.5855548901882077,2.509482713783128
0.43160325,0.5817911584489122,2.509482713782788
0.43160338,0.5817911584493246,2.505704620322987
0.43160351,0.5855548901886545,2.505704620322987
0.43160364,0.5855548901886545,2.505704620322987
0.43160377,0.5780274267105906,2.505704620322987
0.4316039,0.5704999632296857,2.509482713783051
0.43160403,0.5704999632295368,2.505704620323286
0.43160416,0.5667362314901678,2.513260807243716
0.43160429,0.5629724997508005,2.513260807244166
0.43160442,0.5667362314886736,2.513260807243529
0.43160455,0.5592087680107211,2.509482713783576
0.43160468,0.5629724997500886,2.509482713783576
0.43160481,0.5592087680109452,2.509482713783576
0.43160494,0.5629724997502015,2.505704620323737
0.43160507,0.5629724997505746,2.509482713783202
0.4316052,0.5667362314899419,2.505704620322989
0.43160533,0.5592087680112088,2.505704620322987
0.43160546,0.5592087680104592,2.50192652686315
0.43160559,0.5554450362716858,2.505704620322501
0.43160572,0.5629724997502015,2.501926526862397
0.43160585,0.5629724997502015,2.501926526862397
0.43160598,0.5592087680110975,2.501926526862397
0.43160611,0.5592087680104592,2.509482713783576
0.43160624,0.5592087680104592,2.509482713783576
0.43160637,0.5592087680104592,2.509482713783576
0.4316065,0.5667362314888926,2.505704620323515
0.43160663,0.5592087680104592,2.505704620322987
0.43160676,0.5592087680107929,2.505704620322987
0.43160689,0.5629724997501604,2.505704620322987
0.43160702,0.5629724997502015,2.501926526862813
0.43160715,0.5629724997502015,2.501926526862397
0.43160728,0.5667362314899436,2.505704620323434
0.43160741,0.5667362314900137,2.509482713783647
0.43160754,0.5704999632293827,2.513260807243862
0.43160767,0.5704999632296857,2.509482713784257
0.4316078,0.5667362314899436,2.505704620324104
0.43160793,0.566736231490125,2.513260807243984
0.43160806,0.5704999632294939,2.509482713783769
0.43160819,0.5704999632296857,2.509482713783576
0.43160832,0.5742636949687605,2.505704620323657
0.43160845,0.5704999632293912,2.509482713783576
0.43160858,0.5667362314900241,2.509482713783576
0.43160871,0.562972499750655,2.509482713783576
0.43160884,0.5667362314899436,2.509482713782795
0.43160897,0.5667362314895379,2.50570462032258
0.4316091,0.5629724997502322,2.50192652686249
0.43160923,0.5667362314896013,2.513260807243136
0.43160936,0.5629724997509186,2.509482713784296
0.43160949,0.5667362314899436,2.505704620323506
0.43160962,0.5667362314900857,2.509482713783434
0.43160975,0.5704999632294546,2.505704620323219
0.43160988,0.5704999632296857,2.509482713782968
0.43161001,0.5742636949681716,2.505704620322987
0.43161014,0.5667362314899436,2.505704620323242
0.43161027,0.5667362314899436,2.509482713783456
0.4316104,0.5667362314899436,2.505704620323482
0.43161053,0.5667362314884647,2.501926526863139
0.43161066,0.5592087680111917,2.505704620322987
0.43161079,0.5667362314899265,2.505704620322987
0.43161092,0.5629724997505832,2.505704620322987
0.43161105,0.5629724997502015,2.505704620322987
0.43161118,0.5667362314894661,2.509482713783097
0.43161131,0.5629724997503042,2.505704620322987
0.43161144,0.5667362314896731,2.505704620322987
0.43161157,0.5667362314899436,2.505704620322987
0.4316117,0.5629724997496127,2.505704620323578
0.43161183,0.5592087680106731,2.509482713783576
0.43161196,0.5629724997500423,2.509482713783576
0.43161209,0.5667362314894095,2.505704620323523
0.43161222,0.5704999632296857,2.509482713783576
0.43161235,0.5704999632296857,2.509482713783248
0.43161248,0.5704999632296857,2.505704620323035
0.43161261,0.5667362314903646,2.505704620322987
0.43161274,0.5667362314899436,2.505704620322987
0.43161287,0.5667362314895054,2.501926526862397
0.431613,0.5629724997501382,2.501926526862461
0.43161313,0.5592087680107689,2.505704620322676
0.43161326,0.5629724997495169,2.505704620322987
0.43161339,0.5629724997491027,2.501926526862397
0.43161352,0.5554450362708916,2.501926526862397
0.43161365,0.5592087680102606,2.501926526862397
0.43161378,0.5592087680104592,2.501926526862397
0.43161391,0.5554450362693958,2.501926526862397
0.43161404,0.5479175727906576,2.501926526862686
0.43161417,0.540390109311923,2.5057046203229
0.4316143,0.5366263775724666,2.505704620322987
0.43161443,0.5366263775727781,2.498148433402583
0.43161456,0.5403901093113497,2.501926526862797
0.43161469,0.5366263775720062,2.505704620322963
0.43161482,0.5366263775720062,2.501926526862748
0.43161495,0.5366263775720062,2.501926526862397
0.43161508,0.5366263775720062,2.49814843340232
0.43161521,0.5366263775720062,2.501926526862397
0.43161534,0.5366263775720062,2.501926526862397
0.43161547,0.5366263775720062,2.505704620322372
0.4316156,0.5366263775713849,2.505704620323611
0.43161573,0.5328626458325105,2.509482713783576
0.43161586,0.5366263775718795,2.509482713783576
0.43161599,0.5366263775720062,2.505704620323489
0.43161612,0.5366263775720062,2.505704620322987
0.43161625,0.5366263775716468,2.505704620322987
0.43161638,0.5328626458322795,2.505704620322987
0.43161651,0.5328626458322641,2.505704620322987
0.43161664,0.5366263775712428,2.50948271378281
0.43161677,0.529098914092522,2.505704620322987
0.4316169,0.529098914092522,2.505704620323084
0.43161703,0.529098914092522,2.509482713783298
0.43161716,0.536626377570702,2.505704620323642
0.43161729,0.5366263775720062,2.501926526862981
0.43161742,0.5366263775717991,2.50570462032278
0.43161755,0.53286264583243,2.501926526862564
0.43161768,0.5366263775714653,2.505704620322444
0.43161781,0.5366263775713129,2.505704620322987
0.43161794,0.5328626458322641,2.505704620322987
0.43161807,0.5328626458322641,2.505704620322987
0.4316182,0.5366263775715783,2.505704620322987
0.4316183300000001,0.5328626458314596,2.50570462032218
0.43161846,0.529098914092522,2.501926526861964
0.43161859,0.529098914092522,2.498148433401808
0.43161872,0.529098914092522,2.498148433401808
0.43161885,0.5328626458315726,2.501926526861703
0.43161898,0.529098914092522,2.501926526862397
0.43161911,0.5290989140923542,2.501926526862566
0.43161924,0.525335182352985,2.505704620322781
0.43161937,0.5290989140919418,2.498148433402973
0.4316195,0.529098914092522,2.501926526863054
0.43161963,0.529098914092522,2.505704620322707
0.43161976,0.529098914092522,2.501926526862492
0.43161989,0.5328626458317968,2.505704620322518
0.43162002,0.529098914092522,2.501926526862397
0.43162015,0.5290989140929139,2.501926526862791
0.43162028,0.5328626458322641,2.505704620322987
0.43162041,0.5328626458322641,2.505704620322987
0.43162054,0.5290989140932528,2.505704620322987
0.43162067,0.5290989140930251,2.501926526862902
0.4316208,0.5328626458322641,2.505704620323116
0.43162093,0.5328626458322641,2.509482713783331
0.43162106,0.5328626458322641,2.509482713783576
0.43162119,0.5290989140937509,2.509482713783576
0.43162132,0.5366263775715269,2.509482713783336
0.43162145,0.529098914092789,2.505704620323121
0.43162158,0.5403901093102235,2.505704620322987
0.43162171,0.5366263775712805,2.501926526863854
0.43162184,0.5328626458329692,2.509482713783223
0.43162197,0.5403901093117039,2.50570462032301
0.4316221,0.547917572790442,2.509482713783179
0.43162223,0.5554450362691766,2.509482713783576
0.43162236,0.5516813045319027,2.509482713784042
0.43162249,0.5592087680105482,2.513260807243898
0.43162262,0.5629724997499174,2.501926526863253
0.43162275,0.5629724997502015,2.49814843340247
0.43162288,0.5667362314905187,2.501926526862397
0.43162301,0.5704999632300861,2.501926526862397
0.43162314,0.5780274267088243,2.501926526862397
0.43162327,0.5817911584483645,2.501926526862397
0.4316234,0.5855548901900272,2.505704620322987
0.43162353,0.5930823536681387,2.505704620322675
0.43162366,0.5930823536681387,2.501926526862459
0.43162379,0.604373548886061,2.505704620322551
0.43162392,0.6119010123676472,2.505704620322987
0.43162405,0.615664744108714,2.50570462032384
0.43162418,0.6344834028054515,2.513260807244117
0.43162431,0.6457745980235586,2.509482713783901
0.43162444,0.6570657932416607,2.505704620323688
0.43162457,0.6721207202037957,2.505704620322987
0.4316247,0.6796481836828522,2.505704620322826
0.43162483,0.6947031106403283,2.501926526862611
0.43162496,0.7022305741194874,2.505704620322398
0.43162509,0.7135217693437699,2.505704620323637
0.43162522,0.7361041597791576,2.509482713783576
0.43162535,0.7473953549972646,2.509482713783576
0.43162548,0.769977745433176,2.501926526863349
0.43162561,0.7850326723980221,2.505704620322987
0.43162574,0.8000875993554982,2.505704620322601
0.43162587,0.8151425263129984,2.501926526862397
0.431626,0.8414886484885817,2.501926526862397
0.43162613,0.8603073071861442,2.498148433402549
0.43162626,0.8791259658905287,2.494370339941717
0.43162639,0.8941808928483628,2.498148433401686
0.43162652,0.9205270150239461,2.494370339941471
0.43162665,0.9431094054604017,2.494370339941218
0.43162678,0.9581643324261668,2.498148433401199
0.43162691,0.9769829911232364,2.494370339941452
0.43162704,0.9995653815594506,2.498148433401667
0.43162717,1.022147771995655,2.494370339941735
0.4316273,1.04096643070177,2.498148433401808
0.43162743,1.063548821137984,2.498148433402155
0.43162756,1.086131211574188,2.501926526862368
0.43162769,1.097422406792382,2.494370339942026
0.43162782,1.123768528966345,2.494370339941218
0.43162795,1.142587187673694,2.49814843340135
0.43162808,1.168933309849019,2.494370339941218
0.43162821,1.183988236806495,2.494370339941218
0.43162834,1.210334358981193,2.49814843340114
0.43162847,1.236680481165754,2.494370339940077
0.4316286,1.247971676384436,2.486814153020233
0.43162873,1.270554066820651,2.490592246480449
0.43162886,1.293136457256854,2.490592246480629
0.43162899,1.308191384223227,2.490592246479265
0.43162912,1.330773774658822,2.483036059559449
0.43162925,1.345828701616298,2.483036059559449
0.43162938,1.368411092052376,2.479257966099303
0.43162951,1.394757214237965,2.483036059559449
0.43162964,1.417339604673761,2.48303605955903
0.43162977,1.436158263370726,2.479257966098817
0.4316299,1.466268117285679,2.475479872638602
0.43163003,1.481323044244469,2.479257966098152
0.43163016,1.507669166427072,2.47547987263827
0.43163029,1.518960361645944,2.47547987263827
0.43163042,1.549070215560896,2.47547987263827
0.43163055,1.560361410780094,2.47547987263827
0.43163068,1.579180069484427,2.467923685717091
0.43163081,1.601762459920631,2.467923685717623
0.43163094,1.624344850356845,2.475479872638054
0.43163107,1.646927240793049,2.471701779178165
0.4316312,1.669509631238906,2.475479872636762
0.43163133,1.692092021675121,2.467923685717471
0.43163146,1.714674412111318,2.471701779177674
0.43163159,1.729729339068794,2.464145592257244
0.43163172,1.752311729504259,2.467923685716344
0.43163185,1.771130388209884,2.471701779177681
0.43163198,1.789949046906721,2.471701779177566
0.43163211,1.808767705603566,2.46792368571735
0.43163224,1.831350096039512,2.464145592257137
0.43163237,1.846405023005885,2.464145592255899
0.4316325,1.868987413441637,2.460367498795912
0.43163263,1.884042340399113,2.460367498795912
0.43163276,1.910388462574243,2.464145592255978
0.43163289,1.929207121280168,2.460367498795912
0.43163302,1.948025779977679,2.460367498795573
0.43163315,1.974371902153262,2.456589405335359
0.43163328,1.996954292589513,2.460367498795501
0.43163341,2.015772951286758,2.45658940533611
0.43163354,2.038355341731381,2.460367498795912
0.43163367,2.057174000428218,2.460367498795836
0.4316338,2.075992659125063,2.456589405335622
0.43163393,2.098575049560969,2.456589405335323
0.43163406,2.124921171745446,2.456589405335323
0.43163419,2.139976098703475,2.456589405335323
0.43163432,2.166322220879058,2.456589405335323
0.43163445,2.188904611315449,2.452811311875296
0.43163458,2.207723270020891,2.452811311874058
0.43163471,2.226541928718026,2.449033218414143
0.43163484,2.24912431915424,2.449033218414143
0.43163497,2.267942977851152,2.452811311874281
0.4316351,2.279234173078116,2.452811311874733
0.43163523,2.3055802952537,2.452811311875145
0.43163536,2.331926417429163,2.456589405335251
0.43163549,2.34698134438664,2.44903321841482
0.43163562,2.373327466561199,2.445255124954268
0.43163575,2.392146125268548,2.449033218414143
0.43163588,2.418492247443678,2.449033218414143
0.43163601,2.433547174401154,2.449033218414143
0.43163614,2.456129564836906,2.449033218414143
0.43163627,2.474948223543021,2.445255124953554
0.4316364,2.497530613978709,2.445255124953554
0.43163653,2.512585540936185,2.445255124953554
0.43163666,2.538931663111412,2.445255124953554
0.43163679,2.56151405355627,2.449033218412648
0.43163692,2.576568980514489,2.441477031493709
0.43163705,2.599151370950693,2.449033218414136
0.43163718,2.621733761386907,2.452811311874355
0.43163731,2.64055242008412,2.456589405334569
0.43163744,2.659371078789484,2.452811311874733
0.43163757,2.68195346922558,2.452811311874841
0.4316377,2.700772127922425,2.456589405335056
0.43163783,2.723354518358364,2.456589405335323
0.43163796,2.749700640542776,2.460367498794719
0.43163809,2.764755567500683,2.452811311874733
0.43163822,2.787337957936897,2.452811311874733
0.43163835,2.813684080112315,2.449033218414673
0.43163848,2.828739007078511,2.445255124954262
0.43163861,2.847557665775678,2.449033218414143
0.43163874,2.870140056211893,2.449033218414143
0.43163887,2.892722446648107,2.445255124953971
0.431639,2.919068568823262,2.452811311873145
