Module4/data/1203/basic trigger op-amp/1kHz_OP97F_custom_1V_Offset2.1.csv

#Digilent WaveForms Oscilloscope Acquisition
#Device Name: Discovery2
#Serial Number: SN:210321AC1D4D
#Date Time: 2020-12-03 16:42:11.709
#Sample rate: 1.5873e+06Hz
#Samples: 8192
#Trigger: Source: Channel 1 Type: Edge Condition: Rising Level: 0 V Hyst.: Auto HoldOff: 0 s
#Channel 1: Range: 2 V/div Offset: 0 V Attenuation: 1 X
#Channel 2: Range: 2 V/div Offset: 0 V Attenuation: 1 X
#Wavegen Channel 1: Running
#Mode: Simple
#Type: Custom1
#Frequency: 1 kHz
#Period: 1 ms
#Amplitude: 1 V
#Offset: 2.1 V
#Phase: 0 ¡Æ
#Power Supplies: ON
#Positive Supply: ON
#Voltage: 5 V
#Negative Supply: ON
#Voltage: -5 V

Time (s),Channel 1 (V),Channel 2 (V)
0.44132571,0.5855548901886785,2.811730190630624
0.44132634,0.589318621928364,2.792839723327471
0.44132697,0.5855548901887366,2.755058788721942
0.4413276,0.5930823536681883,2.758836882182441
0.44132823,0.5968460854078228,2.755058788721901
0.44132886,0.5930823536680702,2.755058788721901
0.44132949,0.5893186219284736,2.755058788721978
0.44133012,0.5930823536680531,2.758836882182491
0.44133075,0.5893186219284907,2.758836882182397
0.4413313800000001,0.5930823536681387,2.755058788722004
0.4413320100000001,0.5930823536681387,2.75883688218238
0.4413326400000001,0.5930823536680189,2.755058788721781
0.4413332700000001,0.5893186219285249,2.75128069526144
0.4413339000000001,0.5930823536680018,2.755058788722039
0.4413345300000001,0.589318621928691,2.758836882182639
0.4413351600000001,0.5968460854077252,2.76261497564308
0.4413357900000001,0.593082353668303,2.762614975642091
0.44133642,0.5968460854077218,2.739946414880502
0.44133705,0.5930823536682893,2.687053106433405
0.44133768,0.5968460854077389,2.690831199891735
0.44133831,0.6006098171474896,2.690831199891877
0.44133894,0.5968460854080059,2.690831199891877
0.44133957,0.5930823536682533,2.690831199891877
0.4413402,0.5968460854077748,2.690831199891877
0.44134083,0.6006098171475255,2.687053106431387
0.44134146,0.5930823536683166,2.687053106431288
0.44134209,0.5930823536681387,2.687053106431288
0.44134272,0.5968460854078091,2.68327501297077
0.44134335,0.5930823536682019,2.683275012970698
0.44134398,0.5968460854078262,2.683275012970698
0.44134461,0.6006098171475769,2.687053106431242
0.44134524,0.6006098171476231,2.687053106431288
0.44134587,0.6006098171476231,2.687053106431288
0.4413465,0.6043735488873463,2.683275012970717
0.44134713,0.6006098171476333,2.687053106431278
0.44134776,0.608137280627104,2.687053106431288
0.44134839,0.6081372806271075,2.687053106431288
0.44134902,0.608137280627092,2.687053106431288
0.44134965,0.6043735488873172,2.687053106431288
0.44135028,0.596846085407881,2.687053106431288
0.44135091,0.5968460854079631,2.68705310643133
0.44135154,0.6043735488873139,2.690831199891826
0.44135217,0.6006098171476231,2.687053106431348
0.4413528,0.6006098171475546,2.690831199891809
0.44135343,0.596846085407881,2.687053106431134
0.44135406,0.5968460854079666,2.679496919510281
0.44135469,0.6006098171476231,2.687053106431383
0.4413553200000001,0.6006098171477258,2.690831199891774
0.4413559500000001,0.6043735488874764,2.687053106432182
0.4413565800000001,0.6081372806271075,2.717277854117448
0.4413572100000001,0.6081372806269774,2.762614975643211
0.4413578400000001,0.6043735488873652,2.76639306910367
0.4413584700000001,0.6043735488873652,2.766393069103818
0.4413591000000001,0.6043735488873652,2.770171162564416
0.4413597300000001,0.6043735488873652,2.773949256024685
0.44136036,0.6043735488873652,2.770171162564419
0.44136099,0.6006098171477737,2.766393069103821
0.44136162,0.6043735488872248,2.76639306910367
0.44136225,0.6043735488873652,2.762614975643213
0.44136288,0.6006098171477463,2.76261497564308
0.44136351,0.5968460854079957,2.766393069103555
0.44136414,0.6006098171475169,2.762614975643187
0.44136477,0.6081372806269124,2.76261497564308
0.4413654,0.6081372806271075,2.76261497564308
0.44136603,0.6043735488874457,2.76261497564308
0.44136666,0.6119010123667058,2.845733031774464
0.44136729,0.6194284758462073,2.879735872920786
0.44136792,0.6119010123669557,2.879735872921358
0.44136855,0.608137280627152,2.879735872921358
0.44136918,0.6043735488874011,2.875957779460804
0.44136981,0.6006098171476505,2.872179686000206
0.44137044,0.6006098171476231,2.875957779460749
0.44137107,0.6043735488873549,2.879735872921348
0.4413717,0.6081372806271058,2.87595777946077
0.44137233,0.5968460854078879,2.875957779460762
0.44137296,0.6006098171476231,2.87217968600021
0.44137359,0.6006098171476231,2.879735872921358
0.44137422,0.6006098171476573,2.879735872921358
0.44137485,0.6043735488873652,2.879735872921315
0.44137548,0.6043735488874165,2.875957779460768
0.44137611,0.6081372806270475,2.87595777946143
0.44137674,0.6043735488875021,2.917516807527598
0.44137737,0.6119010123667725,2.936407274830279
0.441378,0.6081372806270219,2.940185368290877
0.44137863,0.6043735488873652,2.943963461751381
0.4413792600000001,0.6043735488873652,2.943963461751175
0.4413798900000001,0.6043735488873652,2.936407274830315
0.4413805200000001,0.6043735488872436,2.940185368290791
0.4413811500000001,0.6006098171477532,2.940185368290791
0.4413817800000001,0.6043735488872265,2.940185368290791
0.4413824100000001,0.6006098171476231,2.940185368290643
0.4413830400000001,0.6006098171479346,2.936407274830202
0.44138367,0.608137280626772,2.936407274830202
0.4413843,0.600609817147938,2.93262918136977
0.44138493,0.6006098171476231,2.936407274830052
0.44138556,0.6006098171476231,2.94018536829065
0.44138619,0.6006098171476231,2.943963461751249
0.44138682,0.6043735488872419,2.91751680752812
0.44138745,0.6006098171477378,2.91373871406678
0.44138808,0.604373548887259,2.913738714066665
0.44138871,0.6043735488873652,2.909960620606173
0.44138934,0.6081372806270184,2.917516807527075
0.44138997,0.6043735488874439,2.917516807527254
0.4413906,0.6043735488873652,2.909960620606216
0.44139123,0.6043735488873652,2.906182527145547
0.44139186,0.6081372806270544,2.913738714066558
0.44139249,0.6081372806271075,2.917516807527209
0.44139312,0.6081372806271075,2.917516807527254
0.44139375,0.6081372806271075,2.913738714066692
0.44139438,0.6119010123668307,2.913738714066665
0.44139501,0.6081372806271177,2.913738714066665
0.44139564,0.6081372806271075,2.913738714066665
0.44139627,0.611901012366841,2.913738714066493
0.4413969,0.6081372806270904,2.838176844854872
0.44139753,0.6043735488873652,2.838176844854872
0.44139816,0.6043735488873994,2.838176844854872
0.44139879,0.6081372806271502,2.838176844854829
0.44139942,0.6119010123667983,2.834398751394335
0.44140005,0.6081372806271075,2.838176844854812
0.44140068,0.608137280627039,2.834398751394283
0.44140131,0.6043735488872881,2.834398751394438
0.44140194,0.6006098171475358,2.841954938315375
0.44140257,0.5968460854080727,2.838176844854776
0.4414032000000001,0.604373548887574,2.834398751394388
0.4414038300000001,0.6119010123668496,2.838176844854985
0.4414044600000001,0.611901012366728,2.84195493831534
0.4414050900000001,0.6081372806272376,2.838176844855003
0.4414057200000001,0.6119010123667109,2.841954938315184
0.4414063500000001,0.608137280626813,2.834398751392953
0.4414069800000001,0.6006098171477788,2.800395910249289
0.4414076100000001,0.6043735488875295,2.807952097170156
0.44140824,0.60813728062695,2.807952097170156
0.44140887,0.6081372806271075,2.804174003709715
0.4414095,0.6081372806271075,2.804174003709566
0.44141013,0.6081372806271075,2.804174003709566
0.44141076,0.6043735488874884,2.804174003709566
0.44141139,0.6119010123666202,2.804174003709566
0.44141202,0.6081372806272136,2.807952097170049
0.44141265,0.6081372806271075,2.804174003709662
0.44141328,0.6043735488874524,2.800395910249064
0.44141391,0.6081372806270288,2.804174003709487
0.44141454,0.6119010123667794,2.800395910249047
0.44141517,0.6119010123668496,2.796617816788448
0.4414158,0.6194284758462278,2.800395910248923
0.44141643,0.6156647441066362,2.807952097170066
0.44141706,0.6156647441065917,2.849511125236244
0.44141769,0.611901012366877,2.845733031776079
0.44141832,0.6119010123668496,2.849511125236624
0.44141895,0.6119010123668496,2.849511125236641
0.44141958,0.6081372806271075,2.845733031776051
0.44142021,0.6081372806271075,2.845733031776043
0.44142084,0.6081372806271246,2.841954938315479
0.44142147,0.6119010123668239,2.845733031776077
0.4414221,0.6081372806271417,2.849511125236641
0.44142273,0.6119010123668496,2.849511125236641
0.44142336,0.6119010123667983,2.84951112523659
0.44142399,0.6081372806271075,2.845733031776111
0.44142462,0.6081372806271776,2.849511125236571
0.44142525,0.6119010123668496,2.845733031776051
0.44142588,0.6119010123669368,2.84573303177719
0.44142651,0.6156647441067834,2.89484824676516
0.4414271400000001,0.6231922075857629,2.951519648672665
0.4414277700000001,0.6119010123667367,2.95529774213315
0.4414284000000001,0.6081372806269859,2.95529774213315
0.4414290300000001,0.6043735488876253,2.95529774213315
0.4414296600000001,0.6119010123668496,2.95529774213315
0.4414302900000001,0.6119010123668496,2.955297742133001
0.4414309200000001,0.6119010123668496,2.95151964867256
0.44143155,0.6119010123668496,2.95151964867256
0.44143218,0.6081372806272649,2.95151964867256
0.44143281,0.6081372806271075,2.95151964867256
0.44143344,0.6081372806271075,2.95529774213301
0.44143407,0.6081372806271075,2.959075835593607
0.4414347,0.6081372806271075,2.955297742133274
0.44143533,0.6043735488874781,2.95529774213315
0.44143596,0.6081372806270031,2.95529774213315
0.44143659,0.6081372806271075,2.989300583277591
0.44143722,0.6194284758460721,3.045971985185986
0.44143785,0.6156647441066704,3.0459719851873
0.44143848,0.6119010123669197,3.0459719851873
0.44143911,0.6081372806271691,3.0459719851873
0.44143974,0.6119010123667965,3.049750078647837
0.44144037,0.6119010123668496,3.045971985187345
0.441441,0.6119010123668496,3.049750078647856
0.44144163,0.6081372806271331,3.045971985187326
0.44144226,0.6156647441065575,3.0459719851873
0.44144289,0.6119010123668581,3.04219389172672
0.44144352,0.6043735488873652,3.04975007864789
0.44144415,0.6043735488873823,3.04975007864789
0.44144478,0.6119010123668667,3.04975007864789
0.44144541,0.6156647441065917,3.049750078647916
0.44144604,0.6156647441065917,3.053528172108548
0.44144667,0.6156647441064633,3.061084359029702
0.4414473,0.6043735488874182,3.064862452490195
0.44144793,0.6081372806271075,3.061084359029597
0.44144856,0.6081372806271075,3.057306265569069
0.44144919,0.6081372806271075,3.057306265569149
0.44144982,0.6081372806271075,3.061084359029746
0.44145045,0.6081372806271075,3.064862452490249
0.4414510800000001,0.6081372806270031,3.064862452490353
0.4414517100000001,0.6043735488874781,3.068640545950498
0.4414523400000001,0.6081372806271075,3.057306265569192
0.4414529700000001,0.6081372806269757,3.061084359029659
0.4414536000000001,0.6043735488875055,3.061084359029518
0.4414542300000001,0.6081372806269586,3.057306265569219
0.4414548600000001,0.6043735488873652,3.0610843590295
0.4414554900000001,0.6043735488875311,3.057306265568903
0.44145612,0.60813728062695,3.053528172108638
0.44145675,0.604373548887514,3.019525330964518
0.44145738,0.6043735488873652,3.004412957121371
0.44145801,0.6081372806269774,3.000634863660355
0.44145864,0.6081372806271075,3.000634863660225
0.44145927,0.6081372806271075,3.000634863660225
0.4414599,0.6043735488874695,3.000634863660225
0.44146053,0.6081372806270117,3.004412957120719
0.44146116,0.6119010123667623,3.000634863660312
0.44146179,0.6081372806271862,3.000634863660225
0.44146242,0.6081372806271075,2.996856770199706
0.44146305,0.6006098171477463,3.000634863660163
0.44146368,0.6006098171476231,3.000634863660225
0.44146431,0.6006098171476231,2.996856770199679
0.44146494,0.6006098171476231,3.000634863660191
0.44146557,0.6043735488873395,2.996856770199662
0.4414662,0.6081372806270904,2.441477031495489
0.44146683,0.5893186219284393,1.149369067974257
0.44146746,0.5592087680104592,1.138034787589551
0.44146809,0.5629724997502015,1.134256694128961
0.44146872,0.5629724997502015,1.134256694128995
0.44146935,0.5629724997502015,1.141812881050113
0.44146998,0.5629724997502374,1.138034787589551
0.44147061,0.5667362314899436,1.138034787589551
0.44147124,0.5667362314898905,1.138034787589497
0.44147187,0.5629724997502631,1.134256694128961
0.4414725,0.5667362314900137,1.134256694128961
0.44147313,0.5704999632302368,1.13425669412904
0.44147376,0.5968460854087538,1.138034787589463
0.44147439,0.6344834028065486,1.134256694129057
0.4414750200000001,0.68341191542383,1.138034787589551
0.4414756500000001,0.7511590867399471,1.138034787589781
0.4414762800000001,0.8377249167545836,1.145590974511348
0.4414769100000001,0.9355819419884976,1.16448144181381
0.4414775400000001,1.044730162441128,1.168259535274127
0.4414781700000001,1.150114651154,1.164481441813528
0.4414788000000001,1.251735408127269,1.160703348353404
0.44147943,1.353356165091574,1.168259535273934
0.44148006,1.45497692206489,1.168259535274268
0.44148069,1.560361410777754,1.168259535274268
0.44148132,1.661982167751171,1.164481441813817
0.44148195,1.759839192984828,1.164481441813678
0.44148258,1.861459949957968,1.168259535274146
0.44148321,1.966844438670866,1.164481441813791
0.44148384,2.068465195644249,1.168259535274163
0.44148447,2.173849684357165,1.160703348353281
0.4414851,2.267942977851221,1.16448144181359
0.44148573,2.369563734824362,1.16825953527419
0.44148636,2.471184491797632,1.141812881050621
0.44148699,2.576568980510583,1.111588133365905
0.44148762,2.674426005744222,1.111588133365423
0.44148825,2.776046762717439,1.111588133365423
0.44148888,2.877667519690709,1.111588133365423
0.44148951,2.979288276663979,1.111588133365423
0.44149014,3.080909033637248,1.115366226825996
0.44149077,3.178766058870784,1.119144320286594
0.4414914,3.272859352364561,1.122922413747192
0.44149203,3.378243841077619,1.115366226826003
0.44149266,3.479864598050908,1.11158813336548
0.44149329,3.5852490867639,1.122922413747192
0.44149392,3.686869843737134,1.122922413747192
0.44149455,3.784726868970697,1.122922413747103
0.44149518,3.886347625943913,1.115366226826173
0.44149581,3.984204651177618,1.126700507207225
0.44149644,4.093352871630177,1.092697666061771
0.44149707,4.191209896863539,1.0549167314565
0.4414977,4.28153945861742,1.05113863799599
0.44149833,4.364341556891155,1.05113863799599
0.4414989600000001,4.41703380124724,1.051138637996096
0.4414995900000001,4.454671118643945,1.054916731456579
0.4415002200000001,4.465962313863074,1.054916731456579
0.4415008500000001,4.473489777342047,1.054916731456579
0.4415014800000001,4.465962313862406,1.054916731456579
0.4415021100000001,4.45467111864375,1.054916731456729
0.4415027400000001,4.458434850383186,1.058694824917169
0.4415033700000001,4.454671118643601,1.058694824917169
0.441504,4.454671118643601,1.058694824917169
0.44150463,4.450907386904006,1.058694824917169
0.44150526,4.454671118643462,1.058694824917169
0.44150589,4.458434850383213,1.058694824917169
0.44150652,4.462198582122963,1.047360544535766
0.44150715,4.458434850383456,1.0473605445354
0.44150778,4.450907386904067,1.0473605445354
0.44150841,4.450907386903858,1.051138637995895
0.44150904,4.454671118643516,1.05113863799599
0.44150967,4.454671118643601,1.047360544535477
0.4415103,4.450907386903927,1.0473605445354
0.44151093,4.454671118643541,1.05113863799593
0.44151156,4.454671118643601,1.047360544535452
0.44151219,4.454671118643601,1.043582451074853
0.44151282,4.450907386903893,1.04358245107481
0.44151345,4.454671118643575,1.04358245107481
0.44151408,4.458434850383326,1.047360544535383
0.44151471,4.458434850383343,1.0473605445354
0.44151534,4.454671118643599,1.047360544535402
0.44151597,4.450907386903848,1.051138637996134
0.4415166,4.447143655164135,1.104031946444358
0.44151723,4.450907386903831,1.126700507207754
0.44151786,4.447143655164081,1.122922413747228
0.44151849,4.443379923424419,1.126700507207826
0.44151912,4.447143655164116,1.130478600668318
0.44151975,4.447143655163993,1.126700507207844
0.44152038,4.439616191684632,1.130478600668371
0.44152101,4.439616191684632,1.130478600668371
0.44152164,4.439616191684721,1.130478600668193
0.44152227,4.443379923424277,1.122922413747192
0.4415229000000001,4.439616191684632,1.122922413747299
0.4415235300000001,4.439616191684517,1.126700507207897
0.4415241600000001,4.43585245994489,1.130478600668248
0.4415247900000001,4.435852459944758,1.126700507207782
0.4415254200000001,4.432088728205148,1.126700507207923
0.4415260500000001,4.432088728205449,1.130478600671093
0.4415266800000001,4.439616191684632,1.198484282960582
0.44152731,4.439616191684632,1.236265217563231
0.44152794,4.435852459945045,1.23626521756488
0.44152857,4.43585245994489,1.23626521756488
0.4415292,4.428324996465682,1.240043311025331
0.44152983,4.432088728205018,1.24004331102547
0.44153046,4.432088728205148,1.24004331102547
0.44153109,4.435852459944779,1.24004331102547
0.44153172,4.432088728205251,1.24004331102547
0.44153235,4.428324996465499,1.24004331102547
0.44153298,4.428324996465405,1.236265217564966
0.44153361,4.428324996465405,1.240043311025393
0.44153424,4.428324996465405,1.243821404485991
0.44153487,4.424561264725723,1.232487124104471
0.4415355,4.428324996465354,1.232487124104291
0.44153613,4.428324996465405,1.236265217564837
0.44153676,4.428324996465405,1.304270899854906
0.44153739,4.428324996465405,1.308048993316059
0.44153802,4.428324996465405,1.311827086776657
0.44153865,4.428324996465405,1.315605180237255
0.44153928,4.428324996465405,1.308048993316083
0.44153991,4.428324996465416,1.308048993316093
0.44154054,4.432088728205129,1.311827086776672
0.44154117,4.428324996465378,1.311827086776672
0.4415418,4.424561264725663,1.311827086776636
0.44154243,4.424561264725663,1.308048993316127
0.44154306,4.424561264725663,1.311827086776727
0.44154369,4.4245612647256,1.315605180237198
0.44154432,4.420797532985921,1.311827086776745
0.44154495,4.420797532985921,1.315605180237262
0.44154558,4.420797532985921,1.315605180237173
0.4415462100000001,4.420797532985824,1.311827086776281
0.4415468400000001,4.417033801246073,1.296714712934207
0.4415474700000001,4.413270069506437,1.292936619473839
0.4415481000000001,4.413270069506683,1.29671471293419
0.4415487300000001,4.420797532985921,1.29293661947359
0.4415493600000001,4.420797532986064,1.289158526013277
0.4415499900000001,4.424561264725362,1.292936619473724
0.4415506200000001,4.41703380124602,1.292936619473884
0.44155125,4.413270069506601,1.296714712934149
0.44155188,4.413270069506437,1.296714712934314
0.44155251,4.413270069506437,1.296714712934314
0.44155314,4.413270069506437,1.292936619473862
0.44155377,4.409506337766824,1.292936619473724
0.4415544,4.413270069506317,1.296714712934194
0.44155503,4.417033801246068,1.296714712934314
0.44155566,4.41327006950654,1.296714712934314
0.44155629,4.413270069506437,1.281602339092333
0.44155692,4.413270069506437,1.221152843723896
0.44155755,4.417033801246101,1.224930937183034
0.44155818,4.413270069506505,1.224930937183111
0.44155881,4.413270069506437,1.224930937183111
0.44155944,4.409506337766745,1.224930937183111
0.44156007,4.409506337766695,1.221152843722563
0.4415607,4.405742606026985,1.224930937183079
0.44156133,4.405742606026952,1.228709030643677
0.44156196,4.40950633776668,1.224930937183127
0.44156259,4.409506337766695,1.221152843722529
0.44156322,4.409506337766697,1.217374750261934
0.44156385,4.413270069506437,1.221152843722522
0.44156448,4.413270069506437,1.221152843722503
0.44156511,4.413270069506408,1.217374750261962
0.44156574,4.409506337766695,1.221152843722446
0.44156637,4.409506337766741,1.213596656800972
0.441567,4.413270069506382,1.183371909116626
0.44156763,4.409506337766695,1.183371909116562
0.44156826,4.409506337766695,1.179593815656036
0.44156889,4.409506337766695,1.179593815656198
0.44156952,4.409506337766606,1.187150002577215
0.4415701500000001,4.405742606026855,1.187150002577118
0.4415707800000001,4.401978874287316,1.183371909116626
0.4415714100000001,4.405742606026952,1.183371909116509
0.4415720400000001,4.405742606026827,1.179593815656036
0.4415726700000001,4.401978874287077,1.179593815656304
0.4415733000000001,4.398215142547611,1.187150002577073
0.4415739300000001,4.401978874287361,1.183371909116324
