Module4/data/1203/basic trigger op-amp/1kHz_OP97F_triag_1V_Offset2.5_hysteresis.csv

#Digilent WaveForms Oscilloscope Acquisition
#Device Name: Discovery2
#Serial Number: SN:210321AC1D4D
#Date Time: 2020-12-03 16:50:45.712
#Sample rate: 1.5873e+06Hz
#Samples: 8192
#Trigger: Source: Channel 1 Type: Edge Condition: Rising Level: 0 V Hyst.: Auto HoldOff: 0 s
#Channel 1: Range: 2 V/div Offset: 0 V Attenuation: 1 X
#Channel 2: Range: 2 V/div Offset: 0 V Attenuation: 1 X
#Wavegen Channel 1: Running
#Mode: Simple
#Type: Triangle
#Frequency: 1 kHz
#Period: 1 ms
#Amplitude: 1 V
#Offset: 2.5 V
#Symmetry: 50 %
#Phase: 0 ¡Æ
#Power Supplies: ON
#Positive Supply: ON
#Voltage: 5 V
#Negative Supply: ON
#Voltage: -5 V

Time (s),Channel 1 (V),Channel 2 (V)
0.4416192900000001,0.6307196710655605,3.310438527428525
0.4416199200000001,0.6307196710656255,3.302882340507328
0.4416205500000001,0.6382471345450036,3.295326153586214
0.4416211800000001,0.6344834028052529,3.295326153586164
0.4416218100000001,0.6307196710655605,3.291548060125625
0.4416224400000001,0.6307196710655605,3.291548060125556
0.4416230700000001,0.6307196710654834,3.287769966664958
0.4416237000000001,0.6269559393258182,3.283991873204274
0.4416243300000001,0.6269559393260065,3.276435686283456
0.4416249600000001,0.6344834028051999,3.283991873204549
0.4416255900000001,0.6307196710656717,3.287769966664812
0.4416262200000001,0.6344834028053026,3.280213779743976
0.4416268500000001,0.6344834028053026,3.283991873204317
0.4416274800000001,0.6344834028051657,3.280213779743581
0.4416281100000001,0.6307196710657077,3.272657592822529
0.4416287400000001,0.6344834028053026,3.268879499361774
0.4416293700000001,0.6344834028054669,3.261323312440908
0.44163,0.6382471345448855,3.261323312440908
0.44163063,0.6382471345450447,3.261323312440908
0.44163126,0.6382471345450447,3.257545218980461
0.44163189,0.6307196710658275,3.249989032059408
0.44163252,0.6307196710655605,3.24998903205914
0.44163315,0.6307196710655605,3.246210938598665
0.44163378,0.6269559393259243,3.24621093859855
0.44163441,0.6269559393258182,3.24621093859855
0.44163504,0.6307196710654714,3.238654751677549
0.44163567,0.6307196710655605,3.23865475167737
0.4416363,0.6307196710655605,3.234876658216852
0.44163693,0.6344834028052393,3.231098564756255
0.44163756,0.6344834028053026,3.231098564756191
0.44163819,0.6307196710656067,3.231098564756191
0.44163882,0.6307196710655605,3.227320471295637
0.44163945,0.6269559393258456,3.22354237783504
0.44164008,0.6307196710655416,3.219764284374441
0.44164071,0.6307196710655605,3.219764284374422
0.44164134,0.6307196710655605,3.219764284374422
0.4416419700000001,0.6307196710655741,3.219764284374416
0.4416426000000001,0.6382471345450447,3.215986190913802
0.4416432300000001,0.6382471345450447,3.208430003992629
0.4416438600000001,0.6382471345450447,3.204651910532031
0.4416444900000001,0.6382471345450447,3.200873817071433
0.4416451200000001,0.638247134544942,3.197095723610885
0.4416457500000001,0.6307196710655605,3.197095723610825
0.4416463800000001,0.6307196710655605,3.193317630150157
0.4416470100000001,0.6307196710655605,3.185761443229116
0.4416476400000001,0.6307196710655605,3.185761443229202
0.4416482700000001,0.6307196710657488,3.189539536689611
0.4416489000000001,0.6382471345451474,3.185761443229116
0.4416495300000001,0.6420108662846757,3.185761443229004
0.4416501600000001,0.6382471345449249,3.181983349768526
0.4416507900000001,0.6344834028051725,3.181983349768395
0.4416514200000001,0.6307196710658377,3.178205256307798
0.4416520500000001,0.6382471345446031,3.174427162847347
0.4416526800000001,0.6269559393258182,3.174427162847347
0.4416533100000001,0.6269559393261468,3.174427162847182
0.44165394,0.6344834028049843,3.170649069386918
0.44165457,0.6269559393261194,3.166870975926319
0.4416552,0.6307196710654202,3.15931478900527
0.44165583,0.62695593932595,3.159314789004989
0.44165646,0.6269559393258182,3.155536695544523
0.44165709,0.6307196710654458,3.151758602083925
0.44165772,0.6307196710655605,3.15175860208381
0.44165835,0.6307196710655605,3.15175860208381
0.44165898,0.6307196710655605,3.144202415162809
0.44165961,0.6269559393258987,3.140424321702121
0.44166024,0.6307196710654887,3.14042432170204
0.44166087,0.6344834028052393,3.136646228241515
0.4416615,0.6307196710656136,3.132868134780915
0.44166213,0.6269559393258627,3.132868134780861
0.44166276,0.6269559393258182,3.132868134780861
0.44166339,0.6307196710655331,3.1290900413203
0.44166402,0.6307196710655605,3.125311947859701
0.44166465,0.6231922075860966,3.117755760938524
0.44166528,0.6231922075860761,3.12153385439909
0.4416659100000001,0.6231922075860761,3.117755760938489
0.4416665400000001,0.6231922075860915,3.110199574017324
0.4416671700000001,0.6269559393257925,3.110199574017324
0.4416678000000001,0.6231922075860761,3.110199574017324
0.4416684300000001,0.6231922075860761,3.110199574017238
0.4416690600000001,0.6231922075859734,3.102643387096145
0.4416696900000001,0.6156647441065917,3.102643387096085
0.4416703200000001,0.6156647441064548,3.098865293635555
0.4416709500000001,0.6081372806271075,3.098865293635555
0.4416715800000001,0.6081372806271075,3.098865293635469
0.4416722100000001,0.6081372806270133,3.095087200174871
0.4416728400000001,0.6043735488874679,3.091309106714273
0.4416734700000001,0.6081372806271075,3.087531013253786
0.4416741000000001,0.6081372806271075,3.087531013253786
0.4416747300000001,0.6081372806269774,3.087531013253786
0.4416753600000001,0.6043735488872265,3.087531013253647
0.4416759900000001,0.6006098171479175,3.083752919792901
0.4416766200000001,0.6081372806271075,3.076196732872018
0.44167725,0.6081372806271075,3.076196732872018
0.44167788,0.6081372806271075,3.076196732872018
0.44167851,0.6119010123667007,3.072418639411577
0.44167914,0.6119010123668496,3.068640545950979
0.44167977,0.6119010123668496,3.064862452490381
0.4416804,0.6081372806272307,3.064862452490249
0.44168103,0.6081372806271075,3.061084359029774
0.44168166,0.6119010123667434,3.061084359029659
0.44168229,0.6119010123668496,3.057306265569168
0.44168292,0.6119010123668496,3.057306265569069
0.44168355,0.6043735488875226,3.053528172108559
0.44168418,0.6043735488873652,3.045971985187441
0.44168481,0.6081372806270459,3.042193891726773
0.44168544,0.6043735488874182,3.038415798266175
0.44168607,0.608137280627063,3.042193891726666
0.4416867,0.6043735488874011,3.042193891726711
0.44168733,0.6043735488873652,3.038415798266149
0.44168796,0.6043735488873652,3.034637704805551
0.44168859,0.611901012366829,3.030859611344952
0.44168922,0.6119010123668496,3.027081517884354
0.4416898500000001,0.6081372806271075,3.023303424423755
0.4416904800000001,0.6081372806270904,3.019525330963173
0.4416911100000001,0.6043735488873652,3.019525330963147
0.4416917400000001,0.6043735488873994,3.01574723750255
0.4416923700000001,0.6081372806271502,3.011969144041994
0.4416930000000001,0.6119010123667983,3.011969144041994
0.4416936300000001,0.6081372806271075,3.011969144041994
0.4416942600000001,0.6081372806271075,3.011969144041994
0.4416948900000001,0.6081372806271075,3.011969144041917
0.4416955200000001,0.6081372806270202,3.008191050581142
0.4416961500000001,0.6043735488873652,2.996856770199539
0.4416967800000001,0.604373548887574,2.993078676738941
0.4416974100000001,0.6119010123668496,2.989300583278457
0.4416980400000001,0.6119010123666065,2.989300583278335
0.4416986700000001,0.6043735488873652,2.985522489817997
0.4416993000000001,0.6043735488875038,2.989300583278318
0.4416999300000001,0.6081372806271075,2.985522489817719
0.4417005600000001,0.6081372806271075,2.981744396356965
0.4417011900000001,0.6081372806272718,2.974188209435934
0.44170182,0.6119010123666921,2.970410115975667
0.44170245,0.6081372806272564,2.970410115975509
0.44170308,0.6081372806271075,2.966632022515059
0.44170371,0.6081372806271075,2.966632022514919
0.44170434,0.6081372806271075,2.962853929054453
0.44170497,0.6081372806271075,2.962853929054329
0.4417056,0.6081372806271075,2.966632022514812
0.44170623,0.6081372806271075,2.962853929054426
0.44170686,0.6043735488874524,2.955297742133326
0.44170749,0.6043735488873652,2.95529774213315
0.44170812,0.6119010123667092,2.951519648672631
0.44170875,0.6081372806271691,2.95151964867256
0.44170938,0.6081372806271075,2.947741555212025
0.44171001,0.6043735488874097,2.943963461751426
0.44171064,0.6081372806270715,2.943963461751381
0.44171127,0.6081372806271075,2.943963461751381
0.4417119,0.6119010123668325,2.940185368290809
0.44171253,0.6119010123668496,2.936407274830211
0.44171316,0.6119010123668496,2.936407274830202
0.4417137900000001,0.6119010123668496,2.936407274830194
0.4417144200000001,0.6119010123668325,2.932629181369578
0.4417150500000001,0.6081372806271075,2.925072994448433
0.4417156800000001,0.6081372806271417,2.925072994448364
0.4417163100000001,0.6119010123668923,2.917516807527211
0.4417169400000001,0.615664744106489,2.913738714066665
0.4417175700000001,0.6081372806270475,2.913738714066605
0.4417182000000001,0.6043735488874353,2.909960620606004
0.4417188300000001,0.6081372806271075,2.906182527145485
0.4417194600000001,0.6081372806271075,2.906182527145485
0.4417200900000001,0.6081372806271075,2.906182527145485
0.4417207200000001,0.6081372806271075,2.906182527145485
0.4417213500000001,0.6081372806271075,2.906182527145372
0.4417219800000001,0.608137280627229,2.902404433684774
0.4417226100000001,0.6119010123671097,2.898626340224306
0.4417232400000001,0.6194284758461953,2.898626340224027
0.4417238700000001,0.6156647441065917,2.891070153303127
0.4417245000000001,0.6156647441065917,2.89107015330281
0.44172513,0.6156647441065917,2.883513966382281
0.44172576,0.611901012367007,2.883513966381948
0.44172639,0.6081372806272564,2.875957779461067
0.44172702,0.6081372806271075,2.872179686000319
0.44172765,0.6119010123667178,2.875957779460636
0.44172828,0.6119010123668496,2.872179686000302
0.44172891,0.6119010123668496,2.868401592539703
0.44172954,0.6119010123668496,2.868401592539589
0.44173017,0.6156647441064959,2.868401592539589
0.4417308,0.6156647441065917,2.860845405618586
0.44173143,0.6156647441065917,2.86084540561841
0.44173206,0.6156647441065917,2.857067312157891
0.44173269,0.6119010123669112,2.853289218697293
0.44173332,0.6119010123668496,2.845733031776158
0.44173395,0.6119010123668496,2.845733031776051
0.44173458,0.6081372806271417,2.841954938315496
0.44173521,0.6081372806271075,2.841954938315462
0.44173584,0.6081372806271075,2.841954938315462
0.44173647,0.6081372806271075,2.841954938315462
0.4417371,0.6043735488873652,2.838176844854872
0.4417377300000001,0.6081372806271075,2.830620657933693
0.4417383600000001,0.6081372806271075,2.830620657933693
0.4417389900000001,0.6081372806271075,2.830620657933693
0.4417396200000001,0.6081372806270733,2.830620657933659
0.4417402500000001,0.6043735488873652,2.826842564473018
0.4417408800000001,0.6043735488873652,2.819286377551872
0.4417415100000001,0.6043735488873652,2.815508284091211
0.4417421400000001,0.6043735488874353,2.807952097170156
0.4417427700000001,0.6081372806271075,2.807952097170235
0.4417434000000001,0.6081372806271947,2.811730190630745
0.4417440300000001,0.6119010123668496,2.811730190630648
0.4417446600000001,0.6119010123668496,2.807952097170051
0.4417452900000001,0.6119010123668496,2.804174003709452
0.4417459200000001,0.611901012366728,2.800395910248854
0.4417465500000001,0.6081372806269757,2.796617816788387
0.4417471800000001,0.6043735488873652,2.796617816788246
0.4417478100000001,0.6043735488873652,2.792839723327499
0.4417484400000001,0.6043735488872077,2.785283536406934
0.4417490700000001,0.6006098171479551,2.792839723327798
0.4417497,0.6081372806267925,2.792839723327798
0.44175033,0.6119010123667007,2.789061629867357
0.44175096,0.6081372806272461,2.777727349485856
0.44175159,0.6081372806271075,2.777727349485438
0.44175222,0.611901012366728,2.773949256024971
0.44175285,0.6119010123668496,2.770171162564373
0.44175348,0.6156647441064873,2.766393069103775
0.44175411,0.6119010123669454,2.76639306910367
0.44175474,0.6043735488875397,2.762614975643168
0.44175537,0.6043735488873652,2.76261497564308
0.441756,0.6081372806270373,2.758836882182562
0.44175663,0.6081372806271075,2.758836882182491
0.44175726,0.6119010123667983,2.755058788721953
0.44175789,0.6119010123668496,2.755058788721901
0.44175852,0.6119010123668496,2.747502601800791
0.44175915,0.6119010123668496,2.743724508340158
0.44175978,0.6043735488873994,2.73994641487956
0.44176041,0.6043735488873652,2.739946414879543
0.44176104,0.6119010123668496,2.732390227958364
0.4417616700000001,0.6081372806271075,2.732390227958372
0.4417623000000001,0.6081372806271075,2.736168321418953
0.4417629300000001,0.6081372806271349,2.736168321418925
0.4417635600000001,0.6119010123668496,2.732390227958328
0.4417641900000001,0.6119010123668496,2.728612134497774
0.4417648200000001,0.6119010123667965,2.728612134497827
0.4417654500000001,0.6081372806271075,2.732390227958302
0.4417660800000001,0.6081372806271075,2.728612134497633
0.4417667100000001,0.6081372806271075,2.721055947576595
0.4417673400000001,0.6081372806270202,2.721055947576419
0.4417679700000001,0.6043735488873652,2.713499760655319
0.4417686000000001,0.6043735488873652,2.709721667194721
0.4417692300000001,0.6043735488875945,2.705943573734122
0.4417698600000001,0.6119010123668496,2.702165480273647
0.4417704900000001,0.6119010123667178,2.702165480273647
0.4417711200000001,0.6081372806269671,2.702165480273787
0.4417717500000001,0.6043735488873652,2.705943573733788
0.4417723800000001,0.6043735488876801,2.694609293352626
0.44177301,0.6119010123665175,2.698387386812891
0.44177364,0.6043735488876767,2.698387386813057
0.44177427,0.6043735488873652,2.694609293352615
0.4417749,0.6081372806269688,2.690831199892016
0.44177553,0.6081372806271075,2.683275012970959
0.44177616,0.6043735488874867,2.679496919510231
0.44177679,0.6081372806269946,2.675718826049633
0.44177742,0.6156647441063828,2.671940732589035
0.44177805,0.6081372806272992,2.67194073258893
0.44177868,0.6081372806271075,2.664384545667926
0.44177931,0.6081372806271075,2.66438454566775
0.44177994,0.6081372806271075,2.66438454566775
0.44178057,0.6081372806271075,2.660606452207221
0.4417812,0.6119010123667983,2.660606452207161
0.44178183,0.6119010123668496,2.656828358746614
0.44178246,0.6156647441065575,2.653050265286016
0.44178309,0.6119010123668752,2.653050265285982
0.44178372,0.6081372806271246,2.649272171825409
0.44178435,0.611901012366841,2.645494078364811
0.44178498,0.6119010123668496,2.641715984904213
0.4417856100000001,0.6156647441065917,2.641715984904213
0.4417862400000001,0.6156647441065728,2.641715984904194
0.4417868700000001,0.611901012366877,2.637937891443596
0.4417875000000001,0.6156647441065557,2.634159797983034
0.4417881300000001,0.6119010123668496,2.634159797982989
0.4417887600000001,0.6119010123667965,2.630381704522497
0.4417893900000001,0.6081372806271075,2.63415979798291
0.4417900200000001,0.6081372806271075,2.626603611061784
0.4417906500000001,0.6081372806271075,2.622825517601265
0.4417912800000001,0.6081372806270184,2.622825517601175
0.4417919100000001,0.6043735488873652,2.619047424140676
0.4417925400000001,0.6043735488875774,2.619047424140462
0.4417931700000001,0.6119010123667349,2.611491237219381
0.4417938000000001,0.6081372806269842,2.607713143758907
0.4417944300000001,0.6043735488876287,2.607713143758774
0.4417950600000001,0.6119010123667092,2.603935050298457
0.4417956900000001,0.6081372806269586,2.607713143758608
0.4417963200000001,0.6043735488875226,2.600156956837411
0.4417969500000001,0.6081372806271075,2.592600769916548
0.44179758,0.6081372806271075,2.592600769916548
0.44179821,0.6043735488875124,2.592600769916548
0.44179884,0.6043735488873652,2.592600769916548
0.44179947,0.6043735488873652,2.588822676456089
0.4418001,0.6081372806269859,2.581266489535023
0.44180073,0.6043735488874781,2.585044582995256
0.44180136,0.6043735488873652,2.581266489534884
0.44180199,0.6043735488873652,2.577488396074285
0.44180262,0.6043735488873652,2.573710302613686
0.44180325,0.6043735488873652,2.569932209153087
0.44180388,0.6043735488873652,2.573710302613531
0.44180451,0.600609817147683,2.5737103026136
0.44180514,0.6006098171476231,2.569932209153062
0.44180577,0.6043735488873224,2.562376022231917
0.4418064,0.6006098171476573,2.562376022231831
0.44180703,0.6043735488873395,2.558597928771268
0.44180766,0.6006098171476402,2.558597928771242
0.44180829,0.5968460854078879,2.554819835310659
0.44180892,0.5930823536681403,2.551041741850063
0.4418095500000001,0.596846085407881,2.551041741850053
0.4418101800000001,0.5968460854078999,2.547263648389454
0.4418108100000001,0.6006098171475956,2.543485554928828
0.4418114400000001,0.596846085407845,2.535929368007704
0.4418120700000001,0.5930823536681387,2.535929368007704
0.4418127000000001,0.5930823536681917,2.53592936800765
0.4418133300000001,0.5968460854077577,2.532151274546991
0.4418139600000001,0.5893186219283966,2.524595087625936
0.4418145900000001,0.5893186219284771,2.524595087625855
0.4418152200000001,0.5930823536680496,2.520816994165256
0.4418158500000001,0.589318621928299,2.517038900704756
0.4418164800000001,0.5855548901886545,2.517038900704756
0.4418171100000001,0.5855548901887692,2.517038900704526
0.4418177400000001,0.5893186219283966,2.509482713783329
0.4418183700000001,0.5893186219283966,2.501926526862397
0.4418190000000001,0.5893186219283966,2.501926526862538
0.4418196300000001,0.5893186219283966,2.505704620322987
0.4418202600000001,0.5893186219282374,2.505704620322987
0.44182089,0.5855548901888188,2.505704620322987
0.44182152,0.5893186219282408,2.505704620322987
0.44182215,0.5893186219283966,2.498148433402104
0.44182278,0.5855548901887931,2.498148433401808
0.44182341,0.5893186219282665,2.494370339941349
0.44182404,0.5930823536680171,2.490592246480751
0.44182467,0.5930823536681387,2.483036059559673
0.4418253,0.5893186219284993,2.483036059559449
0.44182593,0.5817911584491005,2.479257966098955
0.44182656,0.5780274267092557,2.47925796609886
0.44182719,0.5704999632298396,2.483036059559372
0.44182782,0.5780274267090332,2.475479872638408
0.44182845,0.5780274267091701,2.471701779177741
0.44182908,0.5742636949694793,2.471701779177681
0.44182971,0.5704999632297284,2.464145592256588
0.44183034,0.5742636949693954,2.464145592256502
0.44183097,0.5780274267091461,2.467923685717067
0.4418316,0.5780274267091701,2.464145592256517
0.44183223,0.5742636949694349,2.456589405335337
0.44183286,0.5742636949694296,2.456589405335325
0.4418334900000001,0.5780274267091906,2.460367498795881
0.4418341200000001,0.5855548901887297,2.449033218414105
0.4418347500000001,0.60060981714776,2.441477031492909
0.4418353800000001,0.6194284758465856,2.433920844571785
0.4418360100000001,0.6457745980248851,2.433920844571829
0.4418366400000001,0.6758844519429592,2.43769893803243
0.4418372700000001,0.709758037600969,2.4414770314929
0.4418379000000001,0.7586865502178723,2.437698938032375
0.4418385300000001,0.8151425263142137,2.437698938032213
0.4418391600000001,0.8753622341504033,2.430142751111106
0.4418397900000001,0.9431094054658187,2.426364657650605
0.4418404200000001,1.007092845041687,2.426364657650392
0.4418410500000001,1.0748400163572,2.418808470729311
0.4418416800000001,1.142587187672713,2.415030377268836
0.4418423100000001,1.21033435898799,2.415030377268702
0.4418429400000001,1.270554066824144,2.411252283808247
0.4418435700000001,1.334537506400358,2.411252283807945
0.4418442000000001,1.409812141194736,2.403696096886908
0.44184483,1.470031849025434,2.399918003426643
0.44184546,1.537779020340619,2.399918003426478
0.44184609,1.605526191656132,2.392361816505594
0.44184672,1.677037094711281,2.392361816505299
0.44184735,1.741020534287317,2.392361816505299
0.44184798,1.805003973863079,2.396139909965769
0.44184861,1.872751145178473,2.396139909965889
0.44184924,1.940498316493986,2.388583723044915
0.44184987,2.008245487809499,2.384805629584215
0.4418505,2.079756390864669,2.381027536123616
0.44185113,2.147503562180267,2.377249442663018
0.44185176,2.219014465235454,2.377249442662941
0.44185239,2.282997904811353,2.373471349202411
0.44185302,2.350745076126837,2.373471349202351
0.44185365,2.422255979182051,2.369693255741803
0.44185428,2.493766882237315,2.362137068820648
