Module4/data/1203/basic trigger op-amp/1kHz_OP97F_sine_1V_Offset2.5V.csv

#Digilent WaveForms Oscilloscope Acquisition
#Device Name: Discovery2
#Serial Number: SN:210321AC1D4D
#Date Time: 2020-12-03 16:29:57.227
#Sample rate: 800000Hz
#Samples: 8192
#Trigger: Source: Channel 1 Type: Edge Condition: Rising Level: 0 V Hyst.: Auto HoldOff: 0 s
#Channel 1: Range: 2 V/div Offset: 0 V Attenuation: 1 X
#Channel 2: Range: 2 V/div Offset: 0 V Attenuation: 1 X
#Wavegen Channel 1: Running
#Mode: Simple
#Type: Sine
#Frequency: 1 kHz
#Period: 1 ms
#Amplitude: 1 V
#Offset: 2.5 V
#Symmetry: 50 %
#Phase: 0 ¡Æ
#Power Supplies: ON
#Positive Supply: ON
#Voltage: 5 V
#Negative Supply: ON
#Voltage: -5 V

Time (s),Channel 1 (V),Channel 2 (V)
0.42735625,0.6307196710655605,2.517038900704798
0.4273575,0.6307196710655605,2.513260807244182
0.42735875,0.6269559393258267,2.509482713783585
0.42736,0.6307196710655605,2.513260807244166
0.42736125,0.6307196710655605,2.513260807244166
0.4273625,0.6307196710655605,2.513260807244166
0.42736375,0.6269559393258781,2.517038900704696
0.427365,0.6269559393258182,2.517038900704756
0.42736625,0.6269559393258182,2.513260807244177
0.4273675,0.6269559393258182,2.513260807244166
0.42736875,0.6269559393258576,2.513260807244127
0.42737,0.6307196710654972,2.50948271378364
0.42737125,0.6269559393258969,2.513260807244087
0.4273725,0.6269559393258182,2.513260807244166
0.42737375,0.6307196710655314,2.520816994165287
0.427375,0.6269559393258233,2.520816994165346
0.42737625,0.6307196710656016,2.520816994165346
0.4273775,0.6382471345450447,2.520816994165346
0.42737875,0.6382471345449762,2.520816994165277
0.42738,0.6344834028053762,2.51703890070483
0.42738125,0.6344834028053026,2.517038900704756
0.4273825,0.6307196710655845,2.520816994165322
0.42738375,0.6269559393258182,2.524595087625936
0.427385,0.6307196710655605,2.520816994165371
0.42738625,0.6307196710655605,2.524595087625836
0.4273875,0.6307196710655605,2.517038900704756
0.42738875,0.6307196710655605,2.517038900704756
0.42739,0.6307196710655605,2.520816994165302
0.42739125,0.6307196710655605,2.517038900704776
0.4273925,0.6307196710655605,2.524595087625936
0.42739375,0.6307196710655297,2.524595087625936
0.427395,0.6269559393258182,2.524595087625936
0.42739625,0.6269559393258182,2.524595087625936
0.4273975,0.6269559393258182,2.524595087625936
0.42739875,0.6307196710655228,2.528373181086487
0.4274,0.6231922075861035,2.520816994165373
0.42740125,0.6231922075860881,2.524595087625936
0.4274025,0.62695593932589,2.524595087626007
0.42740375,0.6344834028051793,2.532151274547115
0.427405,0.6269559393259825,2.532151274547115
0.42740625,0.6269559393258182,2.528373181086581
0.4274075,0.6231922075861086,2.524595087625968
0.42740875,0.6269559393258113,2.524595087625936
0.42741,0.6344834028053026,2.528373181086525
0.42741125,0.6344834028052615,2.528373181086525
0.4274125,0.6307196710656272,2.528373181086525
0.42741375,0.6344834028052255,2.528373181086525
0.427415,0.6307196710656118,2.528373181086525
0.42741625,0.6269559393258456,2.524595087625963
0.4274175,0.6307196710655588,2.524595087625936
0.42741875,0.6307196710655605,2.528373181086502
0.42742,0.6307196710655605,2.524595087625936
0.42742125,0.6307196710654887,2.524595087625864
0.4274225,0.6269559393258883,2.520816994165416
0.42742375,0.6344834028052102,2.528373181086432
0.427425,0.6344834028053026,2.528373181086525
0.42742625,0.630719671065557,2.528373181086521
0.4274275,0.6269559393258456,2.524595087625963
0.42742875,0.6307196710655605,2.528373181086471
0.42743,0.6307196710656375,2.524595087625936
0.42743125,0.6344834028052375,2.524595087625936
0.4274325,0.6344834028053026,2.528373181086483
0.42743375,0.6269559393258489,2.528373181086525
0.427435,0.6307196710655605,2.528373181086516
0.42743625,0.6307196710655605,2.524595087625968
0.4274375,0.6307196710656187,2.528373181086525
0.42743875,0.6344834028052188,2.528373181086525
0.42744,0.6344834028053026,2.520816994165466
0.42744125,0.6307196710655965,2.5245950876259
0.4274425,0.6307196710655605,2.528373181086514
0.42744375,0.6269559393258318,2.524595087625963
0.427445,0.6307196710655605,2.532151274547115
0.42744625,0.6307196710655605,2.532151274547115
0.4274475,0.6307196710655605,2.532151274547115
0.42744875,0.6307196710655605,2.532151274547115
0.42745,0.6231922075861343,2.528373181086554
0.42745125,0.6269559393258131,2.528373181086525
0.4274525,0.6344834028052837,2.528373181086525
0.42745375,0.630719671065516,2.52837318108648
0.427455,0.6269559393258867,2.524595087626004
0.42745625,0.6307196710654869,2.528373181086451
0.4274575,0.6307196710655605,2.528373181086525
0.42745875,0.6269559393258421,2.520816994165394
0.42746,0.6307196710655605,2.528373181086525
0.42746125,0.6307196710655861,2.532151274547089
0.4274625,0.6344834028052529,2.528373181086574
0.42746375,0.6307196710655605,2.532151274547115
0.427465,0.6307196710655605,2.532151274547115
0.42746625,0.6307196710655605,2.535929368007661
0.4274675,0.6307196710655605,2.532151274547134
0.42746875,0.6344834028052924,2.524595087625946
0.42747,0.6269559393258182,2.532151274547115
0.42747125,0.6269559393258729,2.53215127454717
0.4274725,0.630719671065641,2.535929368007542
0.42747375,0.6344834028052393,2.528373181086652
0.427475,0.6344834028053026,2.524595087625973
0.42747625,0.6307196710655741,2.528373181086511
0.4274775,0.6344834028052906,2.532151274547103
0.42747875,0.6307196710655245,2.528373181086489
0.42748,0.626955939325938,2.524595087625936
0.42748125,0.6344834028051383,2.524595087625936
0.4274825,0.6344834028053026,2.528373181086468
0.42748375,0.6344834028053026,2.528373181086525
0.427485,0.630719671065569,2.524595087625944
0.42748625,0.6307196710655776,2.528373181086507
0.4274875,0.6344834028052615,2.524595087625936
0.42748875,0.6307196710656272,2.524595087626003
0.42749,0.6344834028052255,2.528373181086447
0.42749125,0.6307196710656118,2.535929368007601
0.4274925,0.6307196710655605,2.52837318108658
0.42749375,0.6269559393258198,2.524595087625937
0.427495,0.6307196710655827,2.524595087625958
0.42749625,0.6344834028052564,2.528373181086525
0.4274975,0.6307196710655605,2.528373181086453
0.42749875,0.6307196710655605,2.524595087626006
0.4275,0.6269559393258644,2.524595087625936
0.42750125,0.6344834028052581,2.524595087625936
0.4275025,0.6269559393258147,2.520816994165349
0.42750375,0.6231922075861308,2.524595087625991
0.427505,0.6307196710656136,2.532151274547008
0.42750625,0.6344834028053026,2.524595087626013
0.4275075,0.6344834028053026,2.528373181086459
0.42750875,0.6344834028053026,2.528373181086525
0.42751,0.6344834028053026,2.528373181086525
0.42751125,0.6344834028053111,2.520816994165354
0.4275125,0.6382471345449796,2.524595087625968
0.42751375,0.6307196710655605,2.528373181086466
0.427515,0.6307196710655605,2.524595087626021
0.42751625,0.6307196710655605,2.528373181086465
0.4275175,0.6269559393258541,2.528373181086525
0.42751875,0.6307196710655503,2.528373181086525
0.42752,0.6307196710655605,2.528373181086511
0.42752125,0.6307196710655211,2.524595087625936
0.4275225,0.6269559393258815,2.524595087625872
0.42752375,0.6307196710654818,2.520816994165425
0.427525,0.6307196710655605,2.52459508762588
0.42752625,0.6307196710655605,2.524595087625936
0.4275275,0.6307196710655605,2.520816994165351
0.42752875,0.6269559393258182,2.517038900704756
0.42753,0.6269559393258627,2.517038900704756
0.42753125,0.630719671065629,2.517038900704825
0.4275325,0.634483402805229,2.520816994165272
0.42753375,0.6344834028053026,2.517038900704806
0.427535,0.6307196710655845,2.524595087625888
0.42753625,0.6307196710655605,2.524595087625936
0.4275375,0.6307196710655605,2.520816994165298
0.42753875,0.6307196710655605,2.513260807244216
0.42754,0.6307196710655605,2.517038900704756
0.42754125,0.6307196710655605,2.517038900704756
0.4275425,0.6307196710655605,2.517038900704756
0.42754375,0.6307196710655605,2.517038900704756
0.427545,0.6269559393258284,2.52081699416534
0.42754625,0.6344834028052718,2.517038900704756
0.4275475,0.6307196710655605,2.517038900704812
0.42754875,0.6307196710656392,2.520816994165267
0.42755,0.6344834028052393,2.51703890070482
0.42755125,0.6307196710655981,2.513260807244204
0.4275525,0.6344834028052889,2.517038900704743
0.42755375,0.6269559393258284,2.520816994165325
0.427555,0.6307196710656323,2.513260807244202
0.42755625,0.6382471345449847,2.517038900704756
0.4275575,0.6344834028053847,2.517038900704756
0.42755875,0.6307196710656187,2.520816994165287
0.42756,0.6269559393258507,2.517038900704789
0.42756125,0.6344834028052855,2.513260807244175
0.4275625,0.6344834028053026,2.517038900704739
0.42756375,0.6344834028052204,2.513260807244125
0.427565,0.6269559393258832,2.509482713783576
0.42756625,0.6307196710654834,2.509482713783576
0.4275675,0.6231922075861788,2.509482713783576
0.42756875,0.6307196710655057,2.513260807244139
0.42757,0.6269559393258216,2.513260807244166
0.42757125,0.6307196710655605,2.513260807244122
0.4275725,0.6307196710656067,2.505704620323034
0.42757375,0.6344834028053026,2.509482713783648
0.427575,0.6344834028053026,2.513260807244095
0.42757625,0.6307196710656067,2.513260807244166
0.4275775,0.6269559393258404,2.513260807244166
0.42757875,0.630719671065557,2.517038900704756
0.42758,0.6269559393258182,2.517038900704729
0.42758125,0.6269559393258695,2.513260807244166
0.4275825,0.6307196710656375,2.513260807244089
0.42758375,0.6344834028052375,2.509482713783642
0.427585,0.6344834028053026,2.509482713783576
0.42758625,0.6307196710655776,2.505704620323005
0.4275875,0.6307196710655519,2.509482713783576
0.42758875,0.6269559393258182,2.509482713783544
0.42759,0.6269559393258182,2.505704620322987
0.42759125,0.626955939325736,2.50570462032307
0.4275925,0.623192207586136,2.509482713783517
0.42759375,0.6231922075860761,2.505704620323023
0.427595,0.6231922075860761,2.505704620322987
0.42759625,0.6307196710655468,2.50948271378359
0.4275975,0.6269559393258182,2.513260807244091
0.42759875,0.6269559393257549,2.505704620323051
0.4276,0.6231922075861548,2.509482713783497
0.42760125,0.6231922075860761,2.505704620323042
0.4276025,0.6307196710654989,2.509482713783545
0.42760375,0.6231922075860863,2.505704620322993
0.427605,0.6231922075860761,2.513260807244147
0.42760625,0.6231922075859426,2.509482713783621
0.4276075,0.6119010123667127,2.513260807244098
0.42760875,0.6043735488875124,2.50948271378365
0.42761,0.6043735488873652,2.509482713783576
0.42761125,0.6043735488873652,2.509482713783576
0.4276125,0.6006098171476231,2.509482713783576
0.42761375,0.6006098171476471,2.501926526862421
0.427615,0.6043735488874148,2.505704620323037
0.42761625,0.6081372806270339,2.509482713783429
0.4276175,0.6043735488874337,2.501926526862535
0.42761875,0.6006098171476676,2.505704620322942
0.42762,0.6043735488873463,2.509482713783557
0.42762125,0.6043735488873601,2.509482713783566
0.4276225,0.6006098171476847,2.501926526862428
0.42762375,0.6081372806270527,2.505704620322987
0.427625,0.6043735488875226,2.505704620322987
0.42762625,0.6119010123667229,2.505704620322987
0.4276275,0.6081372806271451,2.505704620322987
0.42762875,0.6119010123668359,2.505704620322987
0.42763,0.6081372806271075,2.501926526862408
0.42763125,0.6081372806271075,2.505704620322987
0.4276325,0.6081372806271075,2.505704620323047
0.42763375,0.6081372806270219,2.509482713783491
0.427635,0.6043735488874233,2.505704620323046
0.42763625,0.6119010123667845,2.509482713783544
0.4276375,0.608137280627116,2.505704620322996
0.42763875,0.6043735488873481,2.501926526862415
0.42764,0.6006098171476641,2.505704620323029
0.42764125,0.6043735488873652,2.509482713783576
0.4276425,0.6043735488873652,2.509482713783576
0.42764375,0.6119010123667469,2.505704620323039
0.427645,0.6043735488874199,2.505704620322987
0.42764625,0.608137280627104,2.505704620322987
0.4276475,0.6081372806271075,2.50570462032301
0.42764875,0.6081372806270151,2.50948271378353
0.42765,0.6006098171476949,2.505704620322987
0.42765125,0.6043735488872933,2.505704620322987
0.4276525,0.6081372806270613,2.505704620322987
0.42765375,0.6081372806271075,2.505704620322987
0.427655,0.6119010123668427,2.501926526862401
0.42765625,0.6043735488873377,2.505704620322987
0.4276575,0.6006098171476744,2.505704620323039
0.42765875,0.6043735488873652,2.509482713783499
0.42766,0.6043735488873652,2.505704620323054
0.42766125,0.6043735488873652,2.505704620322987
0.4276625,0.6081372806270904,2.505704620322987
0.42766375,0.5968460854078895,2.509482713783568
0.427665,0.6006098171476881,2.50570462032302
0.42766625,0.6081372806271075,2.509482713783518
0.4276675,0.6081372806270253,2.50570462032307
0.42766875,0.6043735488874251,2.509482713783517
0.42767,0.600609817147659,2.505704620323023
0.42767125,0.6043735488873532,2.505704620322987
0.4276725,0.6043735488873926,2.501926526862397
0.42767375,0.6119010123668119,2.501926526862435
0.427675,0.6081372806271075,2.505704620323051
0.42767625,0.6081372806271075,2.509482713783496
0.4276775,0.6043735488874199,2.509482713783576
0.42767875,0.6043735488873652,2.505704620323018
0.42768,0.6081372806271024,2.509482713783571
0.42768125,0.6081372806271264,2.505704620322987
0.4276825,0.6119010123668068,2.505704620322987
0.42768375,0.6081372806271075,2.505704620323056
0.427685,0.6081372806271075,2.509482713783503
0.42768625,0.6081372806271075,2.509482713783576
0.4276875,0.6081372806271075,2.505704620323013
0.42768875,0.6006098171476231,2.505704620322987
0.42769,0.596846085407905,2.505704620322987
0.42769125,0.6006098171476231,2.505704620322987
0.4276925,0.6006098171477703,2.505704620322987
0.42769375,0.6081372806269706,2.505704620322987
0.427695,0.6081372806271075,2.517038900704622
0.42769625,0.6006098171476607,2.505704620323044
0.4276975,0.6043735488873703,2.505704620322993
0.42769875,0.6081372806270493,2.509482713783576
0.4277,0.6006098171476231,2.509482713783576
0.42770125,0.6006098171476231,2.509482713783576
0.4277025,0.6006098171476231,2.509482713783576
0.42770375,0.5930823536682174,2.505704620323027
0.427705,0.5893186219284102,2.505704620322987
0.42770625,0.5855548901886545,2.509482713783576
0.4277075,0.5855548901886185,2.509482713783576
0.42770875,0.5817911584489721,2.509482713783576
0.42771,0.5855548901884867,2.509482713783408
0.42771125,0.5780274267092864,2.501926526862514
0.4277125,0.5742636949694605,2.505704620322954
0.42771375,0.574263694969428,2.505704620322987
0.427715,0.5742636949694125,2.505704620322987
0.42771625,0.5704999632296446,2.505704620322987
0.4277175,0.5667362314899436,2.505704620323053
0.42771875,0.5667362314899436,2.509482713783499
0.42772,0.5667362314899436,2.509482713783576
0.42772125,0.5704999632296582,2.505704620323015
0.4277225,0.596846085407857,2.501926526862401
0.42772375,0.6495383297647161,2.509482713783554
0.427725,0.7248129645605934,2.505704620323034
0.42772625,0.8452523802333198,2.509482713783506
0.4277275,0.9769829911193237,2.505704620323059
0.42772875,1.112477333750894,2.498148433401901
0.42773,1.251735408122195,2.501926526862375
0.42773125,1.387229750753797,2.505704620322987
0.4277325,1.522724093385385,2.505704620322987
0.42773375,1.650690972537587,2.505704620322936
0.427735,1.78994904690892,2.501926526862397
0.42773625,1.925443389534463,2.501926526862397
0.4277375,2.064701463905806,2.505704620322946
0.42773875,2.203959538277152,2.505704620322987
0.42774,2.331926417429353,2.505704620322979
0.42774125,2.478711955280167,2.50192652686243
0.4277425,2.617970029651401,2.505704620322987
0.42774375,2.749700640543276,2.505704620322987
0.427745,2.881431251429279,2.505704620322987
0.42774625,3.0169255940608,2.50948271378354
0.4277475,3.152419936692381,2.505704620322999
0.42774875,3.28791427932405,2.509482713783576
0.42775,3.43093608543505,2.509482713783576
0.42775125,3.562666696326988,2.509482713783513
0.4277525,3.69816103895253,2.505704620323068
0.42775375,3.83741911332386,2.509482713783521
0.427755,3.972913455955495,2.509482713783576
0.42775625,4.108407798587137,2.505704620322993
0.4277575,4.240138409478862,2.509482713783539
0.42775875,4.353050361671375,2.501926526862397
0.42776,4.42456126472628,2.501926526862466
0.42776125,4.458434850382665,2.505704620322912
0.4277625,4.465962313862728,2.509482713783527
0.42776375,4.458434850383394,2.509482713783576
0.427765,4.454671118643601,2.505704620322987
0.42776625,4.450907386903834,2.505704620322987
0.4277675,4.447143655164216,2.505704620322938
0.42776875,4.454671118643601,2.501926526862471
0.42777,4.454671118643601,2.505704620322919
0.42777125,4.450907386903903,2.509482713783532
0.4277725,4.450907386903858,2.509482713783576
0.42777375,4.443379923424374,2.509482713783576
0.427775,4.443379923424374,2.509482713783576
0.42777625,4.44337992342443,2.509482713783521
0.4277775,4.447143655163959,2.505704620322908
0.42777875,4.439616191684759,2.501926526862461
0.42778,4.439616191684632,2.501926526862397
0.42778125,4.435852459944903,2.505704620322974
0.4277825,4.439616191684632,2.505704620322987
0.42778375,4.439616191684597,2.505704620322953
0.427785,4.43585245994483,2.501926526862518
0.42778625,4.432088728205064,2.509482713783576
0.4277875,4.428324996465464,2.509482713783576
0.42778875,4.424561264725698,2.509482713783576
0.42779,4.424561264725663,2.509482713783576
0.42779125,4.424561264725663,2.509482713783561
0.4277925,4.424561264725663,2.505704620323029
0.42779375,4.424561264725728,2.509482713783576
0.427795,4.428324996465328,2.509482713783576
0.42779625,4.428324996465405,2.505704620323041
0.4277975,4.428324996465405,2.509482713783549
0.42779875,4.428324996465405,2.513260807244163
0.4278,4.424561264725643,2.505704620323008
0.42780125,4.420797532985875,2.509482713783576
0.4278025,4.417033801246179,2.509482713783576
0.42780375,4.417033801246179,2.509482713783576
0.427805,4.420797532985874,2.505704620323035
0.42780625,4.420797532985921,2.509482713783554
0.4278075,4.417033801246177,2.505704620322989
0.42780875,4.413270069506464,2.509482713783549
0.42781,4.417033801246127,2.505704620322987
0.42781125,4.413270069506437,2.505704620323063
0.4278125,4.413270069506437,2.509482713783509
0.42781375,4.413270069506437,2.509482713783576
0.427815,4.413270069506437,2.505704620323005
0.42781625,4.405742606026959,2.505704620322994
0.4278175,4.409506337766728,2.509482713783544
0.42781875,4.413270069506324,2.505704620322987
0.42782,4.405742606027034,2.505704620322905
0.42782125,4.409506337766634,2.501926526862459
0.4278225,4.417033801246107,2.505704620322951
0.42782375,4.409506337766719,2.509482713783564
0.427825,4.405742606026966,2.505704620322987
0.42782625,4.409506337766658,2.50570462032295
0.4278275,4.405742606027014,2.501926526862459
0.42782875,4.409506337766614,2.505704620322907
0.42783,4.409506337766695,2.509482713783521
0.42783125,4.405742606026983,2.501926526862459
0.4278325,4.405742606026952,2.498148433401815
0.42783375,4.409506337766695,2.501926526862416
0.427835,4.40950633776661,2.505704620322987
0.42783625,4.401978874287279,2.505704620322919
0.4278375,4.405742606026877,2.501926526862473
0.42783875,4.40197887428726,2.501926526862397
0.42784,4.398215142547494,2.501926526862397
0.42784125,4.40197887428721,2.501926526862397
0.4278425,4.398215142547445,2.501926526862373
0.42784375,4.394451410807774,2.498148433401808
0.427845,4.398215142547616,2.498148433401808
0.42784625,4.405742606026815,2.498148433401808
0.4278475,4.398215142547557,2.494370339941263
0.42784875,4.40197887428719,2.498148433401788
0.42785,4.405742606026947,2.498148433401808
0.42785125,4.40197887428721,2.49814843340175
0.4278525,4.40197887428721,2.490592246480629
0.42785375,4.401978874287131,2.49059224648055
0.427855,4.398215142547532,2.486814153020103
0.42785625,4.398215142547468,2.49059224648059
0.4278575,4.398215142547468,2.490592246480629
0.42785875,4.4019788742872,2.490592246480619
0.42786,4.398215142547503,2.486814153020039
0.42786125,4.40197887428721,2.486814153020039
0.4278625,4.401978874287042,2.486814153020039
0.42786375,4.394451410807842,2.486814153020039
0.427865,4.394451410807726,2.486814153020039
0.42786625,4.394451410807726,2.483036059559458
0.4278675,4.394451410807726,2.483036059559434
0.42786875,4.394451410807726,2.47925796609886
0.42787,4.394451410807791,2.47925796609886
0.42787125,4.398215142547391,2.47925796609886
0.4278725,4.398215142547468,2.483036059559396
